(lp0
I7
aI16
aI30
aI50
aI61
aI77
aI86
aI99
aI106
aI121
aI135
aI162
aI178
aI188
aI196
aI206
aI227
aI233
aI259
aI276
aI295
aI311
aI323
aI334
aI355
aI366
aI373
aI386
aI393
aI410
aI422
aI433
aI439
aI450
aI459
aI470
aI480
aI499
aI510
aI520
aI530
aI539
aI546
aI557
aI574
aI605
aI611
aI623
aI630
aI643
aI652
aI658
aI672
aI683
aI696
aI711
aI719
aI730
aI743
aI750
aI760
aI777
aI784
aI792
aI811
aI820
aI828
aI835
aI851
aI859
aI868
aI878
aI890
aI898
aI911
aI920
aI927
aI937
aI945
aI955
aI968
aI976
aI983
aI990
aI1006
aI1015
aI1034
aI1044
aI1061
aI1072
aI1081
aI1088
aI1094
aI1114
aI1120
aI1127
aI1139
aI1148
aI1157
aI1168
aI1177
aI1186
aI1209
aI1215
aI1222
aI1234
aI1239
aI1248
aI1258
aI1276
aI1291
aI1297
aI1311
aI1320
aI1329
aI1342
aI1352
aI1364
aI1374
aI1401
aI1412
aI1439
aI1449
aI1456
aI1470
aI1485
a.