(lp0
I6
aI13
aI22
aI30
aI39
aI51
aI64
aI72
aI99
aI123
aI140
aI152
aI160
aI178
aI185
aI199
aI230
aI237
aI245
aI260
aI266
aI282
aI293
aI305
aI320
aI331
aI341
aI373
aI382
aI390
aI397
aI417
aI426
aI435
aI463
aI471
aI483
aI519
aI529
aI548
aI557
aI572
aI579
aI596
aI606
aI612
aI625
aI633
aI644
aI654
aI671
aI677
aI687
aI694
aI706
aI716
aI723
aI746
aI754
aI766
aI774
aI783
aI791
aI802
aI812
aI818
aI827
aI834
aI842
aI851
aI862
aI873
aI887
aI899
aI910
aI917
aI932
aI937
aI951
aI960
aI968
aI989
aI995
aI1017
aI1028
aI1033
aI1044
aI1064
aI1084
aI1092
aI1101
aI1119
aI1127
aI1138
aI1147
aI1154
aI1164
aI1173
aI1188
aI1198
aI1221
aI1234
aI1243
aI1262
aI1269
aI1284
aI1296
aI1305
aI1316
aI1328
aI1338
aI1349
aI1378
aI1383
aI1395
aI1402
aI1411
aI1422
aI1433
aI1442
aI1461
aI1480
a.