Date,Open,High,Low,Close,Volume,Adj Close
2014-09-12,48.92,49.11,48.50,48.79,882700,48.79
2014-09-11,49.14,49.43,48.90,48.99,1604300,48.99
2014-09-10,49.00,49.33,48.80,49.21,862000,49.21
2014-09-09,49.42,49.46,48.75,48.90,709200,48.90
2014-09-08,49.43,49.84,48.98,49.24,978500,49.24
2014-09-05,49.26,49.48,48.96,49.03,725200,49.03
2014-09-04,49.49,49.94,49.25,49.27,521800,49.27
2014-09-03,49.50,49.86,49.29,49.51,842100,49.51
2014-09-02,49.18,49.47,48.80,49.41,570100,49.41
2014-08-29,49.05,49.28,48.80,49.23,476100,49.23
2014-08-28,48.74,49.22,48.74,49.06,545700,49.06
2014-08-27,48.66,49.31,48.56,48.89,724900,48.89
2014-08-26,49.06,49.06,48.49,48.59,544200,48.59
2014-08-25,49.41,49.41,48.72,48.88,501800,48.88
2014-08-22,49.35,49.58,48.94,49.06,460800,49.06
2014-08-21,49.20,49.37,49.03,49.33,647600,49.33
2014-08-20,48.76,49.30,48.67,49.19,494000,49.19
2014-08-19,49.00,49.25,48.70,48.84,748000,48.84
2014-08-18,49.15,49.36,48.98,49.11,649000,49.11
2014-08-15,48.86,49.13,48.49,49.07,1244100,49.07
2014-08-14,47.45,48.62,47.20,48.54,2090300,48.54
2014-08-13,46.51,46.83,46.33,46.75,827900,46.75
2014-08-12,46.39,46.69,46.25,46.51,363300,46.51
2014-08-11,46.73,46.73,46.41,46.64,493900,46.64
2014-08-08,46.04,46.57,45.92,46.50,840400,46.50
2014-08-07,46.35,46.55,45.92,46.12,732100,46.12
2014-08-06,46.31,46.55,46.10,46.33,924000,46.33
2014-08-05,46.70,46.90,46.22,46.46,1245100,46.46
2014-08-04,46.52,46.95,46.45,46.70,1551900,46.70
2014-08-01,46.94,47.24,46.35,46.68,1079800,46.68
2014-07-31,48.18,48.35,46.79,47.05,1192900,47.05
2014-07-30,48.30,48.48,47.90,48.39,746900,48.39
2014-07-29,48.26,48.91,48.16,48.21,1150700,48.21
2014-07-28,48.37,48.56,47.95,47.98,667600,47.98
2014-07-25,48.97,49.00,48.07,48.26,1769200,48.26
2014-07-24,49.40,49.79,48.63,48.94,3097100,48.94
2014-07-23,140.48,141.69,139.72,141.31,2931500,141.31
2014-07-22,141.35,142.24,140.53,140.81,2066200,140.81
2014-07-21,140.45,141.49,139.92,141.13,2424900,141.13
2014-07-18,140.50,142.77,139.24,141.14,4168600,141.14
2014-07-17,140.00,141.07,139.76,140.74,3753700,140.74
2014-07-16,139.35,141.01,138.98,140.10,4707500,140.10
2014-07-15,136.92,138.33,136.02,138.20,835800,138.20
2014-07-14,137.85,138.00,136.16,137.33,812300,137.33
2014-07-11,138.04,138.04,135.86,137.16,763800,137.16
2014-07-10,135.70,138.06,135.17,138.04,631500,138.04
2014-07-09,135.98,137.29,135.69,137.16,418400,137.16
2014-07-08,137.63,138.44,133.93,135.24,704800,135.24
2014-07-07,139.53,139.80,137.28,137.70,515800,137.70
2014-07-03,139.73,140.40,138.33,139.25,350400,139.25
2014-07-02,137.51,140.99,137.51,138.97,843900,138.97
2014-07-01,136.48,137.25,136.00,136.14,550500,136.14
2014-06-30,134.53,136.79,134.50,136.68,998300,136.68
2014-06-27,134.03,135.27,133.39,134.88,789800,134.88
2014-06-26,133.77,134.23,132.66,133.97,461500,133.97
2014-06-25,133.16,134.18,132.50,133.66,546500,133.66
2014-06-24,133.07,134.20,132.95,132.99,785200,132.99
2014-06-23,132.44,134.11,132.26,133.70,555700,133.70
2014-06-20,133.89,134.08,132.12,132.73,778000,132.73
2014-06-19,133.59,134.03,133.00,133.52,526200,133.52
2014-06-18,131.00,133.91,131.00,133.69,807200,133.69
2014-06-17,130.60,131.88,129.99,131.35,719200,131.35
2014-06-16,130.06,131.35,129.79,130.88,801900,130.88
2014-06-13,131.31,131.88,130.21,130.63,457300,130.63
2014-06-12,132.83,132.83,130.66,131.24,634900,131.24
2014-06-11,130.69,132.25,130.67,131.70,677000,131.70
2014-06-10,131.85,132.04,130.69,131.28,1512700,131.28
2014-06-09,131.20,132.82,130.94,132.25,595400,132.25
2014-06-06,131.85,131.90,130.93,131.46,703200,131.46
2014-06-05,131.27,132.20,130.01,131.50,777700,131.50
2014-06-04,129.24,131.57,128.76,131.24,1190100,131.24
2014-06-03,128.35,129.97,127.73,129.74,1451500,129.74
2014-06-02,127.13,128.88,127.02,128.50,821800,128.50
2014-05-30,128.65,128.65,126.72,127.13,1427600,127.13
2014-05-29,127.38,128.37,126.59,128.06,1659300,128.06
2014-05-28,127.64,128.39,126.94,127.31,1043800,127.31
2014-05-27,127.86,127.90,126.81,127.35,627500,127.35
2014-05-23,126.72,127.14,124.91,126.73,1172600,126.73
2014-05-22,124.97,127.50,124.15,125.89,998600,125.89
2014-05-21,125.79,126.82,124.34,125.39,975000,125.39
2014-05-20,124.91,125.88,124.01,125.04,727800,125.04
2014-05-19,123.18,125.00,123.17,124.84,912700,124.84
2014-05-16,124.00,124.63,122.72,124.38,794100,124.38
2014-05-15,126.02,126.63,123.11,124.30,956800,124.30
2014-05-14,128.71,128.71,125.47,125.81,1131400,125.81
2014-05-13,130.28,131.10,128.54,128.81,930700,128.81
2014-05-12,130.22,130.42,128.90,129.50,589400,129.50
2014-05-09,129.00,130.93,128.59,129.37,520600,129.37
2014-05-08,130.01,132.67,128.93,129.89,646200,129.89
2014-05-07,130.70,130.70,129.00,130.46,541400,130.46
2014-05-06,131.52,131.55,129.61,130.63,395600,130.63
2014-05-05,130.35,131.79,129.19,131.56,192100,131.56
2014-05-02,132.10,132.38,129.84,131.05,461300,131.05
2014-05-01,129.22,131.54,128.86,130.71,358500,130.71
2014-04-30,127.11,129.73,126.42,129.71,496500,129.71
2014-04-29,128.64,129.61,127.38,127.79,471400,127.79
2014-04-28,127.92,130.14,127.02,128.30,1092300,128.30
2014-04-25,127.99,128.50,126.48,126.80,549400,126.80
2014-04-24,128.71,130.00,126.86,128.98,446900,128.98
2014-04-23,128.55,129.36,127.87,128.40,605200,128.40
2014-04-22,126.73,129.30,125.51,128.77,882700,128.77
2014-04-21,124.53,126.99,124.53,126.17,458200,126.17
2014-04-17,126.21,126.87,124.67,124.76,639200,124.76
2014-04-16,124.99,126.72,124.21,126.71,446300,126.71
2014-04-15,125.46,125.60,122.75,124.43,775200,124.43
2014-04-14,126.74,127.41,123.89,124.99,695700,124.99
2014-04-11,123.52,126.33,123.52,125.49,876800,125.49
2014-04-10,125.22,126.30,123.67,124.41,1235300,124.41
2014-04-09,124.15,126.31,123.52,125.86,597300,125.86
2014-04-08,123.98,124.68,122.56,123.58,630800,123.58
2014-04-07,127.63,128.80,123.24,124.29,818300,124.29
2014-04-04,130.85,131.20,126.89,127.83,728800,127.83
2014-04-03,133.82,134.48,130.04,130.40,632700,130.40
2014-04-02,131.89,134.17,131.37,133.27,2616600,133.27
2014-04-01,130.01,132.35,130.00,131.75,568800,131.75
2014-03-31,130.38,132.19,129.00,130.73,964800,130.73
2014-03-28,128.40,131.41,128.01,129.47,617500,129.47
2014-03-27,129.43,130.31,128.12,128.52,1031800,128.52
2014-03-26,131.00,132.40,129.36,129.50,757300,129.50
2014-03-25,134.20,135.22,129.63,130.58,1102500,130.58
2014-03-24,137.57,137.70,132.65,133.34,2258900,133.34
2014-03-21,137.14,138.79,136.62,137.09,1141200,137.09
2014-03-20,136.60,137.97,136.36,136.73,631100,136.73
2014-03-19,135.78,138.22,135.40,138.01,872300,138.01
2014-03-18,135.39,136.18,134.24,135.73,624300,135.73
2014-03-17,135.42,136.68,134.65,134.85,664100,134.85
2014-03-14,135.07,137.96,134.01,135.25,4452500,135.25
2014-03-13,128.58,129.83,125.69,126.14,683500,126.14
2014-03-12,128.24,130.17,126.72,128.21,761900,128.21
2014-03-11,132.01,133.07,129.18,129.50,702600,129.50
2014-03-10,133.15,134.53,130.93,131.87,490200,131.87
2014-03-07,135.60,136.57,132.92,133.38,336300,133.38
2014-03-06,134.79,135.57,133.82,134.56,638300,134.56
2014-03-05,135.29,136.61,134.94,134.98,808900,134.98
2014-03-04,136.23,137.67,135.19,135.29,1074900,135.29
2014-03-03,135.45,136.96,134.04,135.18,543500,135.18
2014-02-28,138.95,138.95,135.75,137.16,799700,137.16
2014-02-27,134.39,136.22,133.80,136.10,510100,136.10
2014-02-26,135.50,135.71,133.43,134.31,495300,134.31
2014-02-25,136.26,136.29,134.63,135.00,443400,135.00
2014-02-24,135.90,136.58,135.50,135.69,599000,135.69
2014-02-21,136.52,137.89,135.20,135.87,866900,135.87
2014-02-20,135.44,137.25,135.01,136.48,826500,136.48
2014-02-19,135.67,136.70,134.49,135.21,833900,135.21
2014-02-18,136.26,136.76,134.79,135.71,543500,135.71
2014-02-14,132.63,135.48,132.51,135.25,827000,135.25
2014-02-13,128.11,133.48,128.11,133.39,2215900,133.39
2014-02-12,131.77,133.64,131.07,133.00,715900,133.00
2014-02-11,129.22,133.13,129.00,131.85,926500,131.85
2014-02-10,130.00,130.66,128.90,129.39,643000,129.39
2014-02-07,129.62,130.85,127.80,129.60,1168400,129.60
2014-02-06,127.59,129.12,126.98,128.96,1116500,128.96
2014-02-05,129.12,129.14,126.32,127.16,1866400,127.16
2014-02-04,130.47,130.70,127.91,129.86,993900,129.86
2014-02-03,131.54,132.60,127.62,129.56,893900,129.56
2014-01-31,130.23,132.93,129.75,131.63,815800,131.63
2014-01-30,134.29,134.51,131.94,132.15,1094700,132.15
2014-01-29,133.65,135.56,131.61,133.02,1562000,133.02
2014-01-28,134.44,135.38,133.05,134.50,1174400,134.50
2014-01-27,134.15,135.35,131.80,134.47,1165600,134.47
2014-01-24,136.94,136.94,133.43,133.80,1220200,133.80
2014-01-23,136.74,137.58,135.50,137.52,816300,137.52
2014-01-22,137.31,138.37,136.18,138.31,805000,138.31
2014-01-21,137.90,138.49,136.38,137.13,670800,137.13
2014-01-17,136.38,137.80,135.96,137.32,983800,137.32
2014-01-16,136.23,137.54,135.82,136.82,600300,136.82
2014-01-15,136.58,137.95,135.28,136.76,929500,136.76
2014-01-14,134.61,137.35,134.01,136.70,978300,136.70
2014-01-13,137.38,139.13,134.63,135.20,984900,135.20
2014-01-10,140.59,141.03,137.55,138.20,1385200,138.20
2014-01-09,140.92,140.92,138.73,140.06,759500,140.06
2014-01-08,142.92,144.55,139.29,139.54,1441000,139.54
2014-01-07,142.80,143.45,140.28,142.71,1851400,142.71
2014-01-06,144.22,145.50,140.90,142.09,3674100,142.09
2014-01-03,144.67,146.35,144.04,145.33,493900,145.33
2014-01-02,146.00,146.00,142.67,144.44,584000,144.44
2013-12-31,145.96,147.52,145.69,146.29,316600,146.29
2013-12-30,147.35,147.91,146.08,146.23,283600,146.23
2013-12-27,145.77,146.97,144.82,146.90,270200,146.90
2013-12-26,145.12,145.78,144.11,145.16,229000,145.16
2013-12-24,145.26,145.46,144.20,145.37,235700,145.37
2013-12-23,145.67,146.88,144.12,145.26,333600,145.26
2013-12-20,143.20,146.13,142.92,144.95,1544000,144.95
2013-12-19,144.78,145.99,142.32,143.27,976400,143.27
2013-12-18,144.93,146.48,139.34,145.55,1232300,145.55
2013-12-17,146.33,146.77,144.88,145.06,504800,145.06
2013-12-16,147.62,148.57,146.00,146.65,426100,146.65
2013-12-13,148.49,148.95,146.53,147.02,499600,147.02
2013-12-12,147.05,149.24,146.15,147.43,785000,147.43
2013-12-11,150.15,150.98,147.25,147.81,812900,147.81
2013-12-10,148.50,150.96,147.99,150.08,526100,150.08
2013-12-09,148.75,150.80,147.96,149.30,487500,149.30
2013-12-06,149.04,149.89,146.71,149.03,767400,149.03
2013-12-05,148.70,149.63,146.10,147.49,572700,147.49
2013-12-04,151.02,151.91,148.00,149.29,721200,149.29
2013-12-03,152.73,154.69,151.25,151.85,741000,151.85
2013-12-02,153.23,153.40,151.04,153.25,512100,153.25
2013-11-29,154.54,154.88,152.66,153.46,279600,153.46
2013-11-27,154.18,155.90,153.71,154.26,507900,154.26
2013-11-26,151.52,154.76,151.06,154.41,830300,154.41
2013-11-25,150.95,152.95,150.01,151.46,559300,151.46
2013-11-22,145.73,151.26,145.01,149.93,1171100,149.93
2013-11-21,144.36,146.98,143.00,144.81,585000,144.81
2013-11-20,144.78,144.96,143.66,143.97,663000,143.97
2013-11-19,146.33,147.51,144.08,144.44,446400,144.44
2013-11-18,150.63,152.03,147.49,147.50,527100,147.50
2013-11-15,149.53,151.11,147.65,150.65,586200,150.65
2013-11-14,150.61,150.89,148.73,149.70,453000,149.70
2013-11-13,147.50,150.82,146.43,150.18,962600,150.18
2013-11-12,148.06,148.71,146.78,148.03,1440200,148.03
2013-11-11,149.71,151.04,148.41,148.50,276600,148.50
2013-11-08,147.79,149.98,147.79,149.44,309800,149.44
2013-11-07,149.97,150.74,146.84,147.50,688800,147.50
2013-11-06,152.46,154.20,149.07,150.10,500900,150.10
2013-11-05,153.89,153.95,150.89,152.09,525200,152.09
2013-11-04,156.38,156.38,153.08,154.03,654000,154.03
2013-11-01,154.03,157.14,152.64,156.57,646300,156.57
2013-10-31,150.72,153.29,149.43,152.91,625700,152.91
2013-10-30,151.34,152.38,149.88,151.11,395800,151.11
2013-10-29,150.84,151.69,149.56,150.53,847900,150.53
2013-10-28,151.25,151.28,149.98,150.15,1009100,150.15
2013-10-25,156.48,156.77,149.26,151.38,1278500,151.38
2013-10-24,152.84,156.20,150.10,154.11,721100,154.11
2013-10-23,158.10,159.11,155.98,156.35,494800,156.35
2013-10-22,157.42,159.33,155.56,157.73,962300,157.73
2013-10-21,154.96,157.38,154.84,157.00,371900,157.00
2013-10-18,155.47,156.53,154.43,154.96,371300,154.96
2013-10-17,152.55,155.65,152.04,154.98,939500,154.98
2013-10-16,149.75,153.34,148.75,152.72,1113000,152.72
2013-10-15,149.89,150.02,146.94,148.28,696100,148.28
2013-10-14,149.12,149.85,147.37,149.66,885400,149.66
2013-10-11,146.11,153.51,145.72,149.23,2772900,149.23
2013-10-10,145.00,148.89,145.00,146.08,873300,146.08
2013-10-09,145.50,145.99,143.01,143.31,562000,143.31
2013-10-08,147.57,148.54,144.08,145.27,630200,145.27
2013-10-07,145.84,148.13,143.19,147.72,457800,147.72
2013-10-04,146.91,148.34,146.51,147.20,632900,147.20
2013-10-03,149.27,149.66,145.44,147.06,377100,147.06
2013-10-02,148.28,149.29,146.64,149.04,182500,149.04
2013-10-01,147.56,149.89,147.56,148.57,351400,148.57
2013-09-30,146.66,148.56,146.16,147.15,508100,147.15
2013-09-27,146.74,149.41,145.95,149.02,505800,149.02
2013-09-26,146.37,148.54,144.78,148.01,691600,148.01
2013-09-25,145.35,145.80,143.23,145.33,509700,145.33
2013-09-24,146.14,148.09,144.72,145.01,388600,145.01
2013-09-23,147.91,148.10,145.06,146.16,543900,146.16
2013-09-20,149.00,150.80,147.85,148.30,1010500,148.30
2013-09-19,148.37,150.06,147.24,149.15,695000,149.15
2013-09-18,147.66,149.46,145.72,147.99,605200,147.99
2013-09-17,145.73,148.17,145.25,147.63,593900,147.63
2013-09-16,147.69,148.29,144.50,145.25,446700,145.25
2013-09-13,144.57,147.00,144.33,145.16,390500,145.16
2013-09-12,145.58,146.04,142.78,143.25,364400,143.25
2013-09-11,145.65,146.26,144.58,145.70,617700,145.70
2013-09-10,145.37,145.91,143.85,145.07,328900,145.07
2013-09-09,144.68,145.35,143.26,144.24,443800,144.24
2013-09-06,144.17,144.91,141.81,143.87,815000,143.87
2013-09-05,142.03,144.27,140.71,143.88,726700,143.88
2013-09-04,140.09,141.99,138.92,141.31,545800,141.31
2013-09-03,138.37,140.68,138.01,140.36,487300,140.36
2013-08-30,137.99,139.79,135.82,136.48,239100,136.48
2013-08-29,136.90,138.59,136.27,137.65,346000,137.65
2013-08-28,136.69,138.56,136.26,137.42,311500,137.42
2013-08-27,139.09,139.98,136.20,136.64,357900,136.64
2013-08-26,139.03,141.76,139.03,140.19,423000,140.19
2013-08-23,139.79,141.02,137.71,138.87,302300,138.87
2013-08-22,138.43,141.39,137.40,139.34,216300,139.34
2013-08-21,139.37,140.20,137.90,138.25,388600,138.25
2013-08-20,138.73,140.39,137.64,139.42,591200,139.42
2013-08-19,140.50,142.15,137.99,138.30,500800,138.30
2013-08-16,139.96,142.09,139.00,140.57,639600,140.57
2013-08-15,141.03,142.99,138.55,140.03,382500,140.03
2013-08-14,143.20,144.09,142.11,142.44,359300,142.44
2013-08-13,144.99,145.22,143.13,143.88,338000,143.88
2013-08-12,143.39,145.00,141.71,143.96,458900,143.96
2013-08-09,144.14,145.47,141.65,143.90,409500,143.90
2013-08-08,144.04,146.99,140.43,144.55,273700,144.55
2013-08-07,143.94,144.77,141.56,142.66,373100,142.66
2013-08-06,145.49,149.02,142.47,143.95,729800,143.95
2013-08-05,148.18,148.18,144.12,145.31,527600,145.31
2013-08-02,144.50,148.15,143.09,147.84,1105500,147.84
2013-08-01,144.49,145.88,143.58,144.04,534400,144.04
2013-07-31,144.02,145.00,142.73,143.73,705300,143.73
2013-07-30,144.75,145.27,141.96,142.55,506500,142.55
2013-07-29,144.07,145.45,143.33,144.60,554000,144.60
2013-07-26,142.58,144.51,141.48,144.46,535100,144.46
2013-07-25,140.24,142.98,139.95,142.77,625400,142.77
2013-07-24,142.16,143.67,139.42,139.89,838600,139.89
2013-07-23,141.91,143.35,140.36,141.89,582200,141.89
2013-07-22,143.06,143.07,140.84,141.79,650000,141.79
2013-07-19,141.72,142.77,139.84,140.64,676700,140.64
2013-07-18,137.81,140.92,137.81,140.83,947200,140.83
2013-07-17,140.73,140.73,137.31,138.12,710200,138.12
2013-07-16,138.71,140.00,136.58,138.70,778000,138.70
2013-07-15,137.85,139.31,137.75,139.19,697700,139.19
2013-07-12,136.73,138.47,136.17,137.96,847100,137.96
2013-07-11,136.15,140.99,135.24,136.18,693100,136.18
2013-07-10,134.42,136.71,132.60,135.06,791900,135.06
2013-07-09,132.80,135.03,132.40,134.14,1184900,134.14
2013-07-08,130.82,132.44,130.09,131.91,759500,131.91
2013-07-05,130.50,130.64,128.40,129.56,356200,129.56
2013-07-03,128.58,130.41,127.51,129.21,312800,129.21
2013-07-02,128.37,130.20,128.27,129.40,724300,129.40
2013-07-01,127.35,128.55,126.37,127.67,615900,127.67
2013-06-28,126.05,129.20,126.05,126.76,1342900,126.76
2013-06-27,125.59,127.79,125.27,127.13,782700,127.13
2013-06-26,124.33,125.03,122.89,124.36,502600,124.36
2013-06-25,123.74,124.38,122.11,122.74,555200,122.74
2013-06-24,122.90,123.00,120.39,122.33,1022300,122.33
2013-06-21,125.17,126.31,122.37,123.29,1298500,123.29
2013-06-20,127.79,127.95,123.80,125.00,921300,125.00
2013-06-19,130.21,130.91,127.83,128.12,454600,128.12
2013-06-18,127.38,130.64,127.03,130.01,683900,130.01
2013-06-17,125.48,127.39,124.78,126.75,629300,126.75
2013-06-14,123.78,126.70,122.95,125.00,963200,125.00
2013-06-13,120.46,124.53,119.86,123.86,754100,123.86
2013-06-12,124.41,125.16,120.13,120.85,548700,120.85
2013-06-11,124.76,125.66,123.71,124.03,415200,124.03
2013-06-10,128.32,128.32,125.18,125.77,518000,125.77
2013-06-07,125.06,128.65,124.05,127.68,858400,127.68
2013-06-06,121.06,124.78,120.14,124.73,661700,124.73
2013-06-05,124.91,125.54,121.28,121.63,971200,121.63
2013-06-04,124.81,126.14,123.68,124.91,4428300,124.91
2013-06-03,125.13,125.96,122.96,125.11,964400,125.11
2013-05-31,124.95,125.79,123.55,124.86,1428600,124.86
2013-05-30,123.97,126.04,123.59,125.04,948400,125.04
2013-05-29,124.16,125.36,122.25,123.29,1971100,123.29
2013-05-28,126.84,127.74,124.57,125.39,726700,125.39
2013-05-24,122.64,125.73,122.44,125.55,423000,125.55
2013-05-23,124.06,124.08,121.81,123.25,784800,123.25
2013-05-22,124.42,126.05,123.47,124.12,738300,124.12
2013-05-21,125.14,126.21,124.55,124.86,663500,124.86
2013-05-20,127.00,127.20,125.12,125.31,505000,125.31
2013-05-17,125.62,128.46,124.71,126.20,494300,126.20
2013-05-16,128.55,130.15,125.17,125.45,536800,125.45
2013-05-15,124.97,129.69,124.50,126.95,670700,126.95
2013-05-14,122.46,124.92,121.82,124.76,697300,124.76
2013-05-13,122.30,124.57,121.84,122.57,398400,122.57
2013-05-10,120.68,122.70,120.68,122.46,238300,122.46
2013-05-09,121.32,123.07,119.94,121.01,337800,121.01
2013-05-08,122.42,122.42,119.14,121.32,492700,121.32
2013-05-07,119.64,120.55,118.84,120.15,826700,120.15
2013-05-06,118.76,119.66,118.22,118.92,435900,118.92
2013-05-03,117.85,118.80,117.46,118.38,221400,118.38
2013-05-02,118.52,119.91,116.55,117.13,230100,117.13
2013-05-01,114.84,119.99,114.35,118.25,621400,118.25
2013-04-30,110.46,115.48,110.28,114.88,618900,114.88
2013-04-29,111.90,112.30,110.92,111.23,246900,111.23
2013-04-26,110.96,112.04,109.94,111.75,230100,111.75
2013-04-25,111.00,111.98,110.51,110.89,214700,110.89
2013-04-24,110.15,111.60,109.60,110.55,247100,110.55
2013-04-23,109.99,111.14,109.24,110.47,166600,110.47
2013-04-22,108.21,110.19,108.11,109.72,218400,109.72
2013-04-19,109.66,110.35,108.31,108.75,194200,108.75
2013-04-18,109.74,110.34,107.57,108.89,297900,108.89
2013-04-17,109.56,110.79,107.60,109.39,529500,109.39
2013-04-16,109.88,110.50,108.31,109.83,326700,109.83
2013-04-15,111.97,113.68,108.19,109.47,537800,109.47
2013-04-12,113.78,114.26,111.86,112.05,640400,112.05
2013-04-11,111.75,113.89,110.79,113.55,1109700,113.55
2013-04-10,108.95,111.41,108.95,111.34,155900,111.34
2013-04-09,109.55,110.32,108.41,109.66,155100,109.66
2013-04-08,108.70,109.27,107.07,108.94,213700,108.94
2013-04-05,108.18,109.04,107.29,109.01,232600,109.01
2013-04-04,110.76,110.92,108.14,108.90,241700,108.90
2013-04-03,110.69,111.29,108.81,110.59,346500,110.59
2013-04-02,110.00,112.09,110.00,110.63,271200,110.63
2013-04-01,109.75,111.79,109.57,110.77,322400,110.77
2013-03-28,110.41,111.63,110.10,111.63,667700,111.63
2013-03-27,109.82,111.97,109.42,110.56,248700,110.56
2013-03-26,110.47,110.77,109.10,110.02,210000,110.02
2013-03-25,110.21,111.55,109.26,109.78,162000,109.78
2013-03-22,110.60,111.56,109.55,110.04,257200,110.04
2013-03-21,110.03,111.23,109.42,110.93,671600,110.93
2013-03-20,110.26,111.72,109.80,110.36,585400,110.36
2013-03-19,111.56,112.49,110.20,110.34,603400,110.34
2013-03-18,109.99,111.13,108.46,110.66,566900,110.66
2013-03-15,110.55,111.64,109.02,110.37,479000,110.37
2013-03-14,109.65,111.40,108.58,110.90,278100,110.90
2013-03-13,110.96,111.17,109.29,109.92,377100,109.92
2013-03-12,109.87,110.83,109.65,110.70,341700,110.70
2013-03-11,109.69,110.10,108.90,110.05,504600,110.05
2013-03-08,111.62,111.80,109.99,110.24,297900,110.24
2013-03-07,110.69,111.43,110.11,110.74,512000,110.74
2013-03-06,111.31,111.66,110.23,110.84,466400,110.84
2013-03-05,109.66,111.69,109.50,110.81,245200,110.81
2013-03-04,108.41,109.64,107.68,109.50,399600,109.50
2013-03-01,106.56,109.43,106.56,108.05,592100,108.05
2013-02-28,108.01,109.98,106.35,108.00,1182800,108.00
2013-02-27,106.96,108.21,106.05,107.55,739900,107.55
2013-02-26,106.94,107.49,105.01,106.99,457000,106.99
2013-02-25,105.75,108.25,105.75,106.42,322700,106.42
2013-02-22,107.82,108.45,106.76,107.14,488500,107.14
2013-02-21,110.28,110.28,106.26,107.50,573000,107.50
2013-02-20,110.67,111.83,109.25,109.87,212600,109.87
2013-02-19,111.89,111.89,110.60,110.72,224900,110.72
2013-02-15,110.33,112.26,110.28,111.08,285900,111.08
2013-02-14,110.54,111.49,110.03,110.73,234200,110.73
2013-02-13,111.48,112.50,110.23,110.82,450700,110.82
2013-02-12,111.57,111.57,109.76,110.97,597600,110.97
2013-02-11,110.01,111.23,109.76,110.99,193200,110.99
2013-02-08,110.05,111.47,109.72,110.05,442800,110.05
2013-02-07,112.14,112.82,109.81,110.37,311000,110.37
2013-02-06,112.23,113.21,111.45,111.62,517600,111.62
2013-02-05,111.36,113.34,110.13,113.06,1016200,113.06
2013-02-04,111.13,112.64,110.16,110.88,394400,110.88
2013-02-01,111.96,113.56,111.19,112.47,1182500,112.47
2013-01-31,109.91,111.60,109.75,111.51,798000,111.51
2013-01-30,110.93,111.74,109.90,110.57,513800,110.57
2013-01-29,110.70,111.61,110.02,110.65,589800,110.65
2013-01-28,110.87,111.04,109.52,110.84,635800,110.84
2013-01-25,111.05,111.05,109.10,110.75,439900,110.75
2013-01-24,110.15,110.81,109.02,110.09,867700,110.09
2013-01-23,110.67,110.93,109.85,110.05,900800,110.05
2013-01-22,110.25,112.12,108.25,110.74,850900,110.74
2013-01-18,110.50,111.91,110.07,110.55,534300,110.55
2013-01-17,110.19,113.09,109.21,110.54,922200,110.54
2013-01-16,109.30,110.35,109.10,109.30,771000,109.30
2013-01-15,108.98,113.25,108.98,109.90,771900,109.90
2013-01-14,108.51,110.40,107.66,109.60,2321400,109.60
2013-01-11,108.00,112.56,108.00,109.83,10132000,109.83
2013-01-10,101.00,110.00,101.00,108.71,5803400,108.71
