Date,Open,High,Low,Close,Volume,Adj Close
2014-09-12,214.88,215.75,212.75,214.04,2177700,214.04
2014-09-11,216.70,216.75,214.45,214.95,2215300,214.95
2014-09-10,214.07,218.65,214.04,216.88,3161700,216.88
2014-09-09,215.29,215.47,214.00,214.28,1832200,214.28
2014-09-08,214.01,216.22,213.50,215.77,2566600,215.77
2014-09-05,214.36,214.37,213.10,214.21,2050700,214.21
2014-09-04,215.44,216.12,214.00,214.26,2373100,214.26
2014-09-03,215.07,216.16,214.31,214.90,1947100,214.90
2014-09-02,213.41,214.97,212.71,214.73,2016600,214.73
2014-08-29,214.56,215.00,212.10,212.52,3661500,212.52
2014-08-28,215.00,215.74,213.77,214.60,2747200,214.60
2014-08-27,217.12,217.53,215.29,217.13,1990200,217.13
2014-08-26,216.49,218.00,216.18,216.73,1724500,216.73
2014-08-25,217.20,217.32,215.85,216.02,1240600,216.02
2014-08-22,216.20,216.95,215.30,216.09,1786400,216.09
2014-08-21,216.50,216.97,215.71,215.75,1386000,215.75
2014-08-20,214.58,216.44,214.43,216.20,1824200,216.20
2014-08-19,214.75,215.69,214.13,215.00,2053100,215.00
2014-08-18,211.49,214.43,211.27,214.32,2088100,214.32
2014-08-15,212.89,213.32,209.93,210.19,2249900,210.19
2014-08-14,212.09,212.59,211.31,212.52,1784200,212.52
2014-08-13,210.95,212.10,210.46,211.43,1614500,211.43
2014-08-12,210.09,211.20,209.45,210.30,1610500,209.90
2014-08-11,211.04,211.22,210.03,210.58,2254600,210.18
2014-08-08,208.88,210.55,208.21,210.46,2314200,210.06
2014-08-07,211.18,211.45,208.60,209.04,2392000,208.64
2014-08-06,209.98,211.38,209.81,210.69,1882100,210.29
2014-08-05,211.50,212.39,209.17,210.54,2787800,210.14
2014-08-04,212.85,213.17,211.52,212.16,2019900,211.76
2014-08-01,209.87,213.06,209.78,211.81,3525000,211.41
2014-07-31,213.27,213.36,211.01,211.01,3468500,210.61
2014-07-30,213.49,214.79,213.45,214.06,2605700,213.65
2014-07-29,214.40,215.71,213.33,213.50,2644300,213.09
2014-07-28,214.42,214.96,213.12,214.22,2600400,213.81
2014-07-25,214.10,216.70,211.34,214.77,6882600,214.36
2014-07-24,223.39,223.85,221.83,222.74,2986900,222.32
2014-07-23,221.49,222.54,220.68,221.20,2047300,220.78
2014-07-22,220.92,222.59,220.61,221.26,1924800,220.84
2014-07-21,219.53,220.13,218.51,219.22,1542100,218.80
2014-07-18,219.18,221.89,218.92,220.20,2767000,219.78
2014-07-17,221.94,222.00,217.83,217.88,2451500,217.47
2014-07-16,222.94,223.16,221.08,222.67,2213300,222.25
2014-07-15,221.67,224.75,220.90,221.78,2725200,221.36
2014-07-14,218.75,222.36,217.65,221.03,3429100,220.61
2014-07-11,215.95,217.04,214.37,217.00,1424200,216.59
2014-07-10,213.80,216.89,212.68,215.54,2134200,215.13
2014-07-09,215.50,216.28,214.51,216.16,1294300,215.75
2014-07-08,216.77,216.89,213.15,215.26,3037300,214.85
2014-07-07,216.43,217.55,215.64,216.74,1653100,216.33
2014-07-03,215.31,217.00,215.10,216.51,1392900,216.10
2014-07-02,214.88,215.49,214.25,214.84,1442200,214.43
2014-07-01,211.95,215.35,211.83,214.25,2748400,213.84
2014-06-30,208.66,211.74,208.50,210.71,2490400,210.31
2014-06-27,208.10,209.90,207.86,209.28,3240300,208.88
2014-06-26,209.83,209.86,207.56,208.96,2145100,208.56
2014-06-25,207.31,210.49,207.31,209.06,2061200,208.66
2014-06-24,209.27,210.59,207.38,207.79,3272400,207.39
2014-06-23,209.00,209.81,208.18,209.47,3691300,209.07
2014-06-20,211.52,212.12,209.10,209.49,4589700,209.09
2014-06-19,211.47,212.16,208.02,210.32,3832800,209.92
2014-06-18,210.45,211.25,209.03,211.25,2581500,210.85
2014-06-17,210.14,211.92,209.90,210.81,1430600,210.41
2014-06-16,210.88,210.99,209.97,210.24,1974800,209.84
2014-06-13,211.87,212.07,210.85,211.29,1771300,210.89
2014-06-12,212.39,213.17,211.23,211.77,1554500,211.37
2014-06-11,212.99,213.91,212.12,212.68,1689500,212.28
2014-06-10,213.00,214.78,212.75,214.25,1708900,213.84
2014-06-09,213.49,213.99,211.63,212.58,1379100,212.18
2014-06-06,212.53,213.40,211.61,213.00,2500600,212.59
2014-06-05,212.12,212.50,210.62,212.22,1649400,211.82
2014-06-04,211.16,211.43,209.45,211.43,3147400,211.03
2014-06-03,213.03,213.23,210.80,211.32,2252900,210.92
2014-06-02,215.37,215.69,212.84,213.52,1591000,213.11
2014-05-30,215.88,215.95,213.33,214.83,1534100,214.42
2014-05-29,214.00,214.69,213.50,214.67,1315100,214.26
2014-05-28,214.50,214.50,213.01,213.80,1805800,213.39
2014-05-27,212.99,214.52,212.82,214.50,2419200,214.09
2014-05-23,209.99,212.27,209.71,212.07,2779400,211.67
2014-05-22,210.13,210.28,208.70,209.37,4217500,208.97
2014-05-21,208.85,210.67,208.59,210.10,2274100,209.70
2014-05-20,210.32,210.32,207.40,207.92,2185000,207.52
2014-05-19,209.38,210.98,208.85,210.36,1759900,209.96
2014-05-16,207.59,210.09,207.59,209.81,3069900,209.41
2014-05-15,209.00,209.69,206.42,207.45,3171300,207.06
2014-05-14,211.20,211.88,209.86,209.86,1709500,209.46
2014-05-13,211.99,212.69,211.40,212.06,1784400,211.26
2014-05-12,211.08,212.48,211.03,211.70,2183200,210.90
2014-05-09,210.18,210.87,208.15,210.81,2948900,210.01
2014-05-08,208.93,212.10,208.61,210.90,3653400,210.10
2014-05-07,207.01,209.00,204.44,208.70,3683000,207.91
2014-05-06,206.70,207.02,205.20,205.36,2718300,204.58
2014-05-05,203.75,207.88,203.00,207.13,3448200,206.35
2014-05-02,205.74,207.10,204.00,204.42,2727200,203.65
2014-05-01,204.10,207.31,203.36,206.09,3568300,205.31
2014-04-30,202.26,203.64,201.90,202.61,3036400,201.84
2014-04-29,201.89,204.05,201.79,202.67,3190000,201.90
2014-04-28,199.50,201.93,199.01,201.42,6065800,200.66
2014-04-25,200.00,203.80,198.56,198.93,9559800,198.18
2014-04-24,209.80,210.50,207.59,209.40,3386800,208.61
2014-04-23,210.30,210.30,208.00,208.82,2204900,208.03
2014-04-22,209.34,210.58,208.53,209.97,2460000,209.18
2014-04-21,208.98,209.50,208.39,209.13,2503100,208.34
2014-04-17,210.34,211.54,207.95,207.95,3341000,207.16
2014-04-16,207.00,209.56,205.48,209.36,3958200,208.57
2014-04-15,203.84,204.94,199.17,204.05,4803500,203.28
2014-04-14,199.80,201.95,198.01,201.01,5231400,200.25
2014-04-11,199.23,200.00,194.84,196.63,7484900,195.89
2014-04-10,208.26,209.07,200.15,201.55,5100900,200.79
2014-04-09,204.58,207.78,202.62,207.54,4785700,206.75
2014-04-08,202.82,205.92,202.00,202.59,5436400,201.82
2014-04-07,206.78,207.44,201.02,203.41,10031000,202.64
2014-04-04,215.57,215.71,205.75,207.70,6112300,206.91
2014-04-03,215.79,216.28,213.38,215.01,3552600,214.20
2014-04-02,214.78,216.50,213.37,214.66,2336200,213.85
2014-04-01,217.08,218.16,214.55,214.70,2272600,213.89
2014-03-31,212.79,215.86,211.67,215.86,2909800,215.04
2014-03-28,214.48,216.34,210.52,212.09,3737500,211.29
2014-03-27,214.89,216.17,213.05,215.77,2622400,214.95
2014-03-26,219.95,220.19,215.68,215.68,2664300,214.86
2014-03-25,222.19,223.04,218.40,218.40,2918800,217.57
2014-03-24,225.39,226.23,219.10,220.75,4557100,219.91
2014-03-21,222.97,232.67,219.70,223.37,9523100,222.52
2014-03-20,224.12,224.12,220.91,221.82,2972500,220.98
2014-03-19,226.61,227.09,222.00,223.82,1972200,222.97
2014-03-18,224.60,226.77,223.25,226.41,2076200,225.55
2014-03-17,221.99,223.88,221.38,223.78,2200000,222.93
2014-03-14,220.62,221.92,218.56,220.77,3423000,219.93
2014-03-13,226.66,227.49,220.43,220.78,2999100,219.94
2014-03-12,226.12,227.68,225.29,226.10,2348700,225.24
2014-03-11,225.95,228.39,224.63,227.18,2765700,226.32
2014-03-10,225.51,226.37,224.72,225.50,1837600,224.65
2014-03-07,224.95,225.73,223.54,225.56,2242800,224.71
2014-03-06,223.76,226.07,223.32,223.86,2280100,223.01
2014-03-05,225.62,225.80,222.30,222.81,2832100,221.97
2014-03-04,225.15,225.97,222.58,225.50,3721200,224.65
2014-03-03,223.24,224.04,219.59,221.44,4105700,220.60
2014-02-28,226.47,227.99,220.70,225.94,3501000,225.08
2014-02-27,226.19,227.80,225.60,226.28,2024400,225.42
2014-02-26,227.23,227.90,225.26,226.11,2603400,225.25
2014-02-25,226.19,228.43,225.49,227.11,2834900,226.25
2014-02-24,223.73,227.43,223.47,226.19,2704300,225.33
2014-02-21,223.73,224.67,222.98,223.36,2284000,222.51
2014-02-20,224.16,224.97,222.59,223.46,2202500,222.61
2014-02-19,225.87,227.79,223.68,223.88,2330500,223.03
2014-02-18,226.48,228.48,225.62,226.06,3356800,225.20
2014-02-14,224.27,226.24,223.51,226.00,3170500,225.14
2014-02-13,222.85,224.75,222.46,224.05,3289700,223.20
2014-02-12,223.44,224.90,222.89,224.17,3662700,223.32
2014-02-11,221.13,222.89,220.05,222.33,2452400,221.09
2014-02-10,221.89,222.13,219.99,220.55,2579200,219.32
2014-02-07,220.19,222.00,218.46,221.78,3134300,220.54
2014-02-06,216.08,219.01,215.78,219.01,3180400,217.79
2014-02-05,213.24,216.74,213.12,215.61,3380200,214.41
2014-02-04,214.16,215.88,211.38,214.54,3728400,213.34
2014-02-03,216.51,217.84,212.07,213.47,5415600,212.28
2014-01-31,216.13,218.90,215.11,215.43,6114300,214.23
2014-01-30,225.75,226.00,216.31,220.88,5010100,219.65
2014-01-29,219.10,220.74,216.50,217.12,4200000,215.91
2014-01-28,217.62,222.36,217.40,220.96,4463100,219.73
2014-01-27,222.07,222.07,215.12,216.22,4867700,215.01
2014-01-24,226.40,226.96,221.25,221.25,4010800,220.02
2014-01-23,231.66,232.33,227.66,228.25,3415600,226.98
2014-01-22,232.40,233.82,231.68,232.99,1813600,231.69
2014-01-21,234.39,235.50,230.82,231.93,4938100,230.64
2014-01-17,222.05,232.26,222.04,232.18,9586100,230.89
2014-01-16,223.19,223.76,221.29,221.77,3378500,220.53
2014-01-15,222.85,224.90,221.83,223.76,2822000,222.51
2014-01-14,218.74,222.65,218.33,222.65,2712900,221.41
2014-01-13,222.02,224.19,218.61,218.90,3388600,217.68
2014-01-10,221.84,222.74,220.01,221.13,1607400,219.90
2014-01-09,223.55,224.52,221.66,221.91,2096600,220.67
2014-01-08,221.42,223.00,220.64,222.22,2121800,220.98
2014-01-07,220.75,222.11,220.46,221.51,2044500,220.27
2014-01-06,221.18,222.31,219.59,219.83,2144400,218.60
2014-01-03,221.75,222.49,220.23,221.16,1952400,219.93
2014-01-02,221.54,222.03,219.50,221.01,2663500,219.78
2013-12-31,221.52,222.72,221.03,222.68,1612100,221.44
2013-12-30,220.59,221.62,219.70,220.91,1485000,219.68
2013-12-27,221.00,221.40,219.15,219.67,1310500,218.44
2013-12-26,218.99,220.25,218.99,220.20,1224700,218.97
2013-12-24,218.47,219.59,217.02,218.73,1301900,217.51
2013-12-23,216.99,218.83,216.55,218.03,1998700,216.81
2013-12-20,216.72,218.20,215.90,215.97,5815900,214.77
2013-12-19,214.93,217.87,214.54,216.08,3348700,214.87
2013-12-18,213.10,215.48,210.00,215.35,4035500,214.15
2013-12-17,208.62,213.81,207.84,213.25,5161800,212.06
2013-12-16,208.04,210.57,207.29,207.75,3694900,206.59
2013-12-13,204.51,208.00,203.92,207.36,4418600,206.20
2013-12-12,204.97,205.65,202.50,203.44,2867300,202.31
2013-12-11,201.00,207.91,201.00,205.66,10082000,204.51
2013-12-10,200.91,201.69,199.43,199.43,3911800,198.32
2013-12-09,201.78,202.70,201.36,201.59,3166800,200.47
2013-12-06,203.70,203.84,201.00,201.87,2276700,200.74
2013-12-05,202.19,202.94,201.52,201.71,3315000,200.59
2013-12-04,201.78,203.33,201.08,202.74,2934800,201.61
2013-12-03,199.93,202.60,199.93,201.75,4258200,200.62
2013-12-02,204.10,206.49,204.10,205.13,2190500,203.99
2013-11-29,204.51,205.07,203.46,203.46,1034800,202.33
2013-11-27,203.50,204.83,203.03,203.99,1484900,202.85
2013-11-26,202.66,203.60,201.62,203.52,2811500,202.38
2013-11-25,202.52,202.65,201.31,201.93,1685500,200.80
2013-11-22,201.70,202.34,199.84,202.12,2037700,200.99
2013-11-21,199.28,202.00,197.45,201.61,3194100,200.49
2013-11-20,197.78,200.20,197.67,198.12,2549300,197.02
2013-11-19,200.35,200.40,196.82,197.39,3615700,196.29
2013-11-18,202.00,202.71,199.27,199.90,4095200,198.79
2013-11-15,199.76,202.54,199.74,202.00,3097900,200.87
2013-11-14,199.93,200.23,198.77,200.15,2727400,199.03
2013-11-13,196.65,199.78,196.50,199.78,2045400,198.67
2013-11-12,198.81,199.18,196.85,198.27,2254100,196.77
2013-11-11,198.64,199.70,198.22,199.27,2096300,197.76
2013-11-08,195.77,198.46,195.77,198.29,2865600,196.79
2013-11-07,199.97,200.36,196.10,196.10,2708100,194.61
2013-11-06,198.74,200.19,197.39,199.02,2219700,197.51
2013-11-05,195.38,197.97,195.00,197.37,2764500,195.87
2013-11-04,199.68,200.00,196.19,196.42,2772300,194.93
2013-11-01,198.95,200.97,198.52,199.16,3308400,197.65
2013-10-31,197.05,198.90,194.26,196.67,6008800,195.18
2013-10-30,204.86,204.90,201.64,203.82,2986600,202.27
2013-10-29,203.48,205.25,203.48,204.24,2149900,202.69
2013-10-28,203.57,204.50,202.45,203.08,1713600,201.54
2013-10-25,203.74,203.90,201.52,203.06,2753600,201.52
2013-10-24,199.87,203.38,199.61,202.91,2221400,201.37
2013-10-23,198.68,199.11,197.18,198.89,1869100,197.38
2013-10-22,200.05,202.68,199.51,199.98,3050700,198.46
2013-10-21,201.05,201.68,199.26,200.04,2881500,198.52
2013-10-18,198.72,200.99,196.95,200.45,3596800,198.93
2013-10-17,195.67,198.75,195.47,198.28,3151300,196.78
2013-10-16,192.42,195.81,191.84,195.63,2595700,194.15
2013-10-15,193.03,194.42,191.37,191.37,2641900,189.92
2013-10-14,190.37,193.79,190.02,193.44,2230600,191.97
2013-10-11,188.80,192.20,187.50,192.20,2978800,190.74
2013-10-10,185.94,189.12,185.55,189.03,2716400,187.60
2013-10-09,183.40,184.70,180.11,183.85,3362000,182.46
2013-10-08,186.24,188.38,182.51,182.53,4009900,181.15
2013-10-07,187.95,187.95,186.32,186.33,2946300,184.92
2013-10-04,188.64,191.15,188.01,190.48,2341400,189.04
2013-10-03,191.99,192.11,187.74,188.65,4911500,187.22
2013-10-02,191.90,193.00,191.00,191.82,2178100,190.37
2013-10-01,191.29,193.61,190.07,193.22,2346200,191.75
2013-09-30,190.80,191.96,190.25,191.10,2390400,189.65
2013-09-27,191.99,193.71,191.81,193.05,1814600,191.59
2013-09-26,192.45,194.50,191.66,193.56,2331600,192.09
2013-09-25,193.27,194.00,190.68,191.56,2648700,190.11
2013-09-24,196.24,196.80,192.62,193.34,3824100,191.87
2013-09-23,197.96,200.86,196.00,196.24,4887900,194.75
2013-09-20,195.30,198.83,193.87,198.83,14426800,197.32
2013-09-19,194.53,198.00,194.01,194.71,3741600,193.23
2013-09-18,190.42,194.00,190.17,193.65,2618700,192.18
2013-09-17,189.32,191.90,188.56,191.60,2600200,190.15
2013-09-16,190.96,191.08,188.88,189.38,2845200,187.94
2013-09-13,185.49,189.30,185.20,189.00,4100900,187.57
2013-09-12,186.43,187.81,185.06,185.06,3553000,183.66
2013-09-11,185.00,186.53,182.91,186.31,2751500,184.90
2013-09-10,182.41,184.65,181.33,184.59,4876800,183.19
2013-09-09,177.28,178.65,177.28,178.55,2700400,177.20
2013-09-06,176.32,177.89,175.05,176.67,1674300,175.33
2013-09-05,176.13,176.70,175.23,176.21,1851700,174.87
2013-09-04,176.90,177.88,175.25,176.19,2438300,174.85
2013-09-03,176.03,178.40,175.25,177.02,3137600,175.68
2013-08-30,175.41,175.50,173.81,174.42,2471600,173.10
2013-08-29,175.11,177.28,174.79,175.37,2351200,174.04
2013-08-28,173.37,175.79,173.37,175.21,3918000,173.88
2013-08-27,172.98,175.08,172.57,174.17,3190600,172.85
2013-08-26,179.46,179.46,174.97,175.00,3447300,173.67
2013-08-23,180.40,180.59,177.62,179.10,2451800,177.74
2013-08-22,179.64,181.43,177.02,178.92,2646600,177.56
2013-08-21,173.26,181.50,172.52,178.39,7732700,177.04
2013-08-20,174.61,175.27,172.90,173.22,3533800,171.91
2013-08-19,172.33,176.89,172.21,174.98,2995500,173.65
2013-08-16,173.72,174.73,172.36,173.13,3153100,171.82
2013-08-15,177.45,177.49,173.45,173.93,4322100,172.61
2013-08-14,179.51,181.49,178.35,178.35,3834700,177.00
2013-08-13,180.50,180.64,178.68,179.23,2851800,177.54
2013-08-12,179.40,179.98,178.40,179.76,3405600,178.07
2013-08-09,180.80,181.35,179.56,179.81,2507100,178.12
2013-08-08,182.41,182.56,179.93,180.78,2406700,179.08
2013-08-07,181.41,182.00,179.90,181.39,3889100,179.68
2013-08-06,184.21,184.31,180.85,182.89,4996700,181.17
2013-08-05,184.00,185.14,182.80,184.54,2869900,182.80
2013-08-02,181.62,184.09,180.84,184.00,5424600,182.27
2013-08-01,181.76,181.76,173.28,179.17,18571800,177.48
2013-07-31,193.75,194.90,170.99,177.01,22518400,175.34
2013-07-30,192.70,193.20,191.15,191.44,3477800,189.64
2013-07-29,192.86,193.49,191.25,191.97,1444100,190.16
2013-07-26,194.00,194.60,191.83,193.20,2177300,191.38
2013-07-25,191.00,196.00,191.00,194.61,5480800,192.78
2013-07-24,189.79,189.85,185.66,186.75,3498400,184.99
2013-07-23,190.73,191.47,188.54,188.58,2927700,186.81
2013-07-22,190.21,191.31,189.25,191.22,1982600,189.42
2013-07-19,191.08,191.99,189.40,189.92,2262100,188.13
2013-07-18,190.21,191.40,189.95,191.01,1484600,189.21
2013-07-17,188.44,189.95,188.14,189.64,2779500,187.86
2013-07-16,190.19,190.73,188.70,189.38,1878800,187.60
2013-07-15,191.50,191.83,189.80,190.25,3632300,188.46
2013-07-12,189.90,190.73,189.15,190.72,1945700,188.93
2013-07-11,189.34,190.06,187.52,189.96,3558800,188.17
2013-07-10,187.35,187.81,185.81,186.70,3880800,184.94
2013-07-09,188.95,189.53,186.60,187.20,5832600,185.44
2013-07-08,191.60,192.77,188.06,188.10,4897000,186.33
2013-07-05,188.87,190.86,187.50,190.79,2123900,188.99
2013-07-03,184.18,187.44,183.93,187.04,1133300,185.28
2013-07-02,185.08,187.04,184.26,185.24,2187300,183.50
2013-07-01,183.90,187.46,183.63,185.22,2904000,183.48
2013-06-28,184.26,184.72,182.22,182.75,3164100,181.03
2013-06-27,183.44,185.00,182.50,184.26,2775600,182.53
2013-06-26,181.89,183.14,180.48,182.65,2598200,180.93
2013-06-25,179.80,181.38,178.50,180.47,3180400,178.77
2013-06-24,178.11,179.48,175.68,178.27,3881900,176.59
2013-06-21,180.00,181.50,178.80,179.50,4480800,177.81
2013-06-20,181.53,182.48,178.46,178.46,3883500,176.78
2013-06-19,184.25,185.13,182.53,182.63,3055200,180.91
2013-06-18,181.72,185.23,181.72,184.01,1894800,182.28
2013-06-17,182.32,183.72,181.50,182.35,3694800,180.63
2013-06-14,182.05,182.48,180.11,180.93,1856800,179.23
2013-06-13,179.15,182.76,178.71,182.25,2440100,180.53
2013-06-12,180.64,180.64,178.71,179.15,2498700,177.46
2013-06-11,180.55,181.95,179.56,179.66,1964100,177.97
2013-06-10,180.54,183.14,179.63,182.33,3444800,180.61
2013-06-07,180.65,181.00,179.55,179.94,3474800,178.25
2013-06-06,176.69,179.42,176.40,179.35,3666200,177.66
2013-06-05,179.87,180.19,176.86,177.22,3044200,175.55
2013-06-04,179.40,181.75,178.70,180.20,3382100,178.50
2013-06-03,178.75,180.68,177.51,180.19,3808100,178.49
2013-05-31,180.57,181.40,178.10,178.14,3128600,176.46
2013-05-30,178.34,181.99,178.34,181.03,2407000,179.33
2013-05-29,179.22,180.20,178.07,178.14,1872600,176.46
2013-05-28,182.44,182.54,179.67,180.03,2484300,178.34
2013-05-24,177.88,181.10,176.90,180.45,3076600,178.75
2013-05-23,178.38,179.51,177.11,178.10,4226500,176.42
2013-05-22,182.08,184.42,180.10,180.14,4890800,178.44
2013-05-21,181.54,182.69,180.39,181.55,3355700,179.84
2013-05-20,183.91,184.90,180.80,181.61,5298000,179.90
2013-05-17,180.88,184.58,180.52,184.57,3312200,182.83
2013-05-16,181.74,181.74,179.78,179.80,2478400,178.11
2013-05-15,180.00,181.79,179.68,181.76,3406100,180.05
2013-05-14,178.98,181.49,178.64,180.32,4018700,178.30
2013-05-13,178.58,180.44,178.13,178.93,3120000,176.92
2013-05-10,178.68,179.02,177.55,178.75,3459400,176.74
2013-05-09,179.23,179.88,178.23,178.58,2875300,176.58
2013-05-08,179.46,179.50,177.70,179.26,3612300,177.25
2013-05-07,179.49,179.86,177.22,179.79,2969100,177.77
2013-05-06,179.34,180.77,178.13,178.89,3271000,176.88
2013-05-03,176.96,180.84,176.43,179.54,3756600,177.52
2013-05-02,170.00,179.66,170.00,175.40,7669300,173.43
2013-05-01,166.99,168.26,163.60,166.02,3063100,164.16
2013-04-30,168.59,169.90,168.04,168.46,3040400,166.57
2013-04-29,167.73,168.50,167.16,167.90,2673600,166.02
2013-04-26,168.76,169.60,167.14,167.23,1531800,165.35
2013-04-25,167.91,170.48,167.44,168.76,2330700,166.87
2013-04-24,165.66,167.57,165.60,167.06,1861800,165.19
2013-04-23,164.27,165.68,163.53,165.66,1581000,163.80
2013-04-22,163.57,164.35,162.49,163.53,1350900,161.69
2013-04-19,162.08,164.11,161.75,163.96,1905100,162.12
2013-04-18,162.59,163.39,161.27,161.41,5252700,159.60
2013-04-17,163.74,164.03,161.94,162.23,2385900,160.41
2013-04-16,162.65,164.80,162.50,164.71,2523000,162.86
2013-04-15,164.62,164.88,161.29,161.29,2693500,159.48
2013-04-12,165.91,166.83,165.10,165.75,1769200,163.89
2013-04-11,167.00,167.90,166.22,167.62,1647500,165.74
2013-04-10,164.97,167.30,164.97,166.99,2249100,165.12
2013-04-09,166.83,166.88,164.01,164.75,1501100,162.90
2013-04-08,165.64,166.37,164.48,166.29,1531400,164.42
2013-04-05,164.21,165.42,163.59,165.16,1990600,163.31
2013-04-04,165.42,166.53,165.01,166.48,2225900,164.61
2013-04-03,168.42,168.53,164.28,164.75,4156200,162.90
2013-04-02,168.42,168.90,167.31,167.95,2395500,166.07
2013-04-01,169.75,170.99,166.90,167.35,3308800,165.47
2013-03-28,168.75,170.96,168.13,169.84,3114100,167.93
2013-03-27,166.61,169.23,165.51,168.66,3342800,166.77
2013-03-26,164.90,167.78,164.54,167.46,4316200,165.58
2013-03-25,160.75,164.28,160.50,164.00,4834200,162.16
2013-03-22,158.21,160.16,157.72,160.09,4697600,158.29
2013-03-21,158.45,159.73,157.80,157.80,3720800,156.03
2013-03-20,157.00,159.97,156.72,159.33,4017600,157.54
2013-03-19,158.00,159.35,155.68,156.00,4413100,154.25
2013-03-18,157.28,159.18,156.40,158.07,3790700,156.30
2013-03-15,160.03,160.64,158.53,158.55,4399900,156.77
2013-03-14,159.40,161.07,159.30,160.66,3713400,158.86
2013-03-13,159.50,160.40,158.85,159.37,2755400,157.58
2013-03-12,160.68,160.97,159.03,159.80,2085200,158.01
2013-03-11,161.37,161.60,160.41,161.18,1685500,159.37
2013-03-08,161.34,161.40,159.89,160.67,2392900,158.87
2013-03-07,160.87,161.78,159.65,160.51,2171800,158.71
2013-03-06,160.86,161.70,160.20,161.06,1879000,159.25
2013-03-05,160.09,161.78,159.86,160.29,2566900,158.49
2013-03-04,157.76,159.54,157.55,159.50,1642500,157.71
2013-03-01,157.93,158.86,156.65,158.08,3303000,156.31
2013-02-28,160.34,160.34,158.31,158.64,2807000,156.86
2013-02-27,157.45,160.10,157.30,159.87,2079500,158.08
2013-02-26,156.01,158.59,156.01,157.83,2838500,156.06
2013-02-25,159.20,160.35,155.89,155.89,2795800,154.14
2013-02-22,158.30,159.58,156.69,159.43,2934500,157.64
2013-02-21,155.12,158.29,154.79,157.44,3555200,155.67
2013-02-20,157.12,157.61,155.19,155.42,3922200,153.68
2013-02-19,158.01,158.79,156.66,157.61,3302500,155.84
2013-02-15,156.35,158.08,155.74,157.99,4471100,156.22
2013-02-14,154.60,156.65,154.30,155.98,3190000,154.23
2013-02-13,156.45,157.39,154.14,154.77,3479400,153.03
2013-02-12,156.84,157.70,156.42,156.80,2451400,154.71
2013-02-11,157.58,158.17,155.94,156.33,2758100,154.25
2013-02-08,157.40,158.94,157.10,157.80,3228500,155.70
2013-02-07,158.98,159.79,156.96,157.06,5045700,154.97
2013-02-06,159.22,160.88,158.62,160.82,3764200,158.68
2013-02-05,157.62,159.60,156.80,159.53,2776300,157.41
2013-02-04,157.77,158.40,156.56,156.65,2633000,154.57
2013-02-01,159.00,159.48,157.35,158.56,3184600,156.45
2013-01-31,159.00,159.50,156.35,157.91,4171400,155.81
2013-01-30,156.99,159.09,154.75,155.01,4677000,152.95
2013-01-29,155.74,157.09,155.12,156.66,2916000,154.58
2013-01-28,160.28,160.58,156.30,156.35,3383000,154.27
2013-01-25,159.92,160.14,159.03,159.84,1675400,157.71
2013-01-24,159.30,160.17,158.90,159.56,1698500,157.44
2013-01-23,158.29,159.96,158.08,159.05,1777200,156.93
2013-01-22,158.68,159.68,157.78,159.05,1729500,156.93
2013-01-18,158.52,158.53,156.50,158.27,3453100,156.16
2013-01-17,161.00,161.09,159.61,159.88,1958400,157.75
2013-01-16,160.11,160.78,159.31,160.20,1366100,158.07
2013-01-15,159.82,160.65,159.09,160.45,1674000,158.32
2013-01-14,161.28,161.81,159.55,160.65,2219400,158.51
2013-01-11,159.78,161.25,159.50,161.16,2394500,159.02
2013-01-10,162.03,162.77,159.27,160.51,4078400,158.37
2013-01-09,161.40,162.55,159.71,161.79,4388200,159.64
2013-01-08,157.65,159.36,157.01,159.36,2950100,157.24
2013-01-07,156.94,158.77,156.80,157.89,2560600,155.79
2013-01-04,155.60,157.19,154.78,156.77,2594000,154.68
2013-01-03,157.11,158.08,154.82,155.50,3734300,153.43
2013-01-02,154.16,155.94,153.93,155.38,3956600,153.31
2012-12-31,148.35,151.61,148.35,151.58,3217000,149.56
2012-12-28,148.46,149.93,148.25,148.65,1743400,146.67
2012-12-27,149.69,150.65,147.90,149.40,2994200,147.41
2012-12-26,151.28,151.29,149.20,149.76,1903600,147.77
2012-12-24,150.23,151.62,150.23,151.18,818000,149.17
2012-12-21,150.97,151.98,149.96,150.77,3482600,148.76
2012-12-20,149.88,152.51,149.32,152.46,2715800,150.43
2012-12-19,150.80,150.84,149.15,149.16,2160100,147.18
2012-12-18,149.01,151.55,148.70,150.72,2967400,148.71
2012-12-17,146.97,149.13,146.90,149.13,3475800,147.15
2012-12-14,146.88,147.69,146.25,146.82,2394800,144.87
2012-12-13,148.11,149.10,146.89,147.20,3260700,145.24
2012-12-12,149.69,149.80,147.83,147.88,4579900,145.91
2012-12-11,148.40,150.33,148.40,148.90,3623200,146.92
2012-12-10,148.75,149.27,148.27,148.66,2322200,146.68
2012-12-07,149.12,149.28,147.79,148.55,1889300,146.57
2012-12-06,148.45,148.90,147.06,148.47,2281000,146.49
2012-12-05,148.51,148.51,146.10,148.06,2992800,146.09
2012-12-04,148.98,149.25,147.20,147.59,2275200,145.63
2012-12-03,150.00,150.72,148.44,148.64,2934200,146.66
2012-11-30,148.32,149.93,148.01,149.71,3512000,147.72
2012-11-29,147.93,148.33,147.24,148.18,3143200,146.21
2012-11-28,146.03,147.35,145.89,147.29,2589600,145.33
2012-11-27,147.12,147.84,146.33,146.78,2495400,144.83
2012-11-26,147.61,147.61,146.42,147.25,2155900,145.29
2012-11-23,147.30,148.12,146.40,148.12,1113600,146.15
2012-11-21,146.22,146.90,145.74,146.66,1641300,144.71
2012-11-20,145.54,147.38,145.16,146.34,2391600,144.39
2012-11-19,144.00,145.66,143.66,145.65,3780100,143.71
2012-11-16,140.02,143.55,140.02,142.71,4158100,140.81
2012-11-15,140.00,140.48,138.53,140.00,3429400,138.14
2012-11-14,142.60,143.23,139.65,139.95,3402000,138.09
2012-11-13,142.60,144.79,142.45,142.45,2537300,140.23
2012-11-12,142.02,143.78,142.02,143.24,2235900,141.01
2012-11-09,140.92,143.81,140.28,142.93,2949900,140.70
2012-11-08,142.15,143.25,141.88,142.06,2533300,139.85
2012-11-07,142.54,143.59,141.53,142.56,2607900,140.34
2012-11-06,142.48,144.84,141.90,143.86,2272300,141.62
2012-11-05,142.75,143.89,141.22,141.50,3466000,139.29
2012-11-02,144.06,146.41,143.40,143.40,4624500,141.16
2012-11-01,140.82,144.36,140.30,143.88,5327500,141.64
2012-10-31,137.60,139.97,137.40,138.76,3567800,136.60
2012-10-26,137.83,138.89,136.87,138.31,3037200,136.15
2012-10-25,137.83,138.70,136.52,137.55,3968900,135.41
2012-10-24,137.50,138.37,136.44,136.49,2869500,134.36
2012-10-23,137.95,137.98,135.93,136.64,2980800,134.51
2012-10-22,139.81,140.05,138.03,139.00,2445700,136.83
2012-10-19,142.31,142.36,139.76,139.97,2533600,137.79
2012-10-18,142.36,143.10,141.13,141.88,2810400,139.67
2012-10-17,141.16,142.77,140.80,142.56,2531500,140.34
2012-10-16,140.20,141.77,140.02,141.16,2081100,138.96
2012-10-15,139.36,140.24,138.60,139.89,2423600,137.71
2012-10-12,139.37,139.99,138.43,139.12,2029000,136.95
2012-10-11,138.20,139.83,138.19,139.05,3514400,136.88
2012-10-10,136.63,137.98,136.32,137.42,2012600,135.28
2012-10-09,139.17,139.38,136.72,136.74,2494500,134.61
2012-10-08,139.00,139.50,138.56,138.71,1700900,136.55
2012-10-05,140.74,141.59,139.50,140.26,2820200,138.07
2012-10-04,138.80,139.82,138.20,139.67,2118900,137.49
2012-10-03,136.65,138.60,135.99,138.52,2929400,136.36
2012-10-02,136.59,137.10,135.48,136.00,2510400,133.88
2012-10-01,134.87,137.90,134.87,136.73,3675200,134.60
2012-09-28,133.98,134.62,133.24,134.28,2357900,132.19
2012-09-27,132.71,134.24,132.52,133.91,2108200,131.82
2012-09-26,134.14,134.56,132.38,132.52,2659300,130.45
2012-09-25,133.84,135.40,133.62,134.56,3849600,132.46
2012-09-24,134.11,134.97,133.51,133.74,2632500,131.65
2012-09-21,135.30,135.95,134.90,135.00,7306400,132.90
2012-09-20,134.29,134.84,133.47,134.61,3194900,132.51
2012-09-19,133.87,135.52,133.73,134.79,2994200,132.69
2012-09-18,133.09,133.85,132.53,133.66,3298100,131.58
2012-09-17,134.46,134.85,133.62,133.87,2662300,131.78
2012-09-14,135.25,135.30,133.75,134.25,3322400,132.16
2012-09-13,132.95,136.65,132.58,134.98,3936300,132.88
2012-09-12,131.65,133.48,131.58,133.46,3664000,131.38
2012-09-11,128.88,132.44,128.81,131.49,3972600,129.44
2012-09-10,128.42,129.88,128.42,128.68,2908400,126.67
2012-09-07,129.51,129.96,128.67,129.71,2697300,127.69
2012-09-06,128.18,129.50,127.80,129.50,3924600,127.48
2012-09-05,128.86,129.00,126.95,127.61,3174700,125.62
2012-09-04,128.36,129.15,127.62,128.52,2550200,126.52
2012-08-31,127.51,128.37,126.26,128.25,3446000,126.25
2012-08-30,127.10,127.10,126.18,126.70,2143400,124.72
2012-08-29,127.55,128.05,126.72,128.02,2145900,126.02
2012-08-28,127.86,128.24,127.22,127.40,1965700,125.41
2012-08-27,127.29,128.14,127.04,127.66,2205100,125.67
2012-08-24,126.59,127.02,125.81,126.66,2662700,124.69
2012-08-23,127.93,128.50,126.75,127.15,1750000,125.17
2012-08-22,126.87,128.50,126.52,128.10,2216500,126.10
2012-08-21,128.71,129.25,127.00,127.52,1901300,125.53
2012-08-20,128.61,128.72,128.00,128.16,2168600,126.16
2012-08-17,129.99,130.04,128.29,128.69,2395600,126.68
2012-08-16,128.70,129.95,128.70,129.68,2280300,127.66
2012-08-15,129.18,130.30,128.59,129.06,1933900,127.05
2012-08-14,129.12,130.18,128.54,129.89,2183100,127.65
2012-08-13,128.64,129.00,127.40,128.32,1613500,126.11
2012-08-10,128.19,129.29,128.00,129.09,1496200,126.86
2012-08-09,130.88,130.97,127.75,128.51,3550900,126.29
2012-08-08,130.78,131.52,130.40,131.15,1990700,128.89
2012-08-07,130.83,131.43,129.34,130.40,3294800,128.15
2012-08-06,131.00,132.58,130.62,131.03,2306900,128.77
2012-08-03,130.36,131.54,128.86,130.98,3233600,128.72
2012-08-02,126.80,129.29,126.19,129.27,2778100,127.04
2012-08-01,128.50,129.41,127.00,127.46,2903000,125.26
2012-07-31,130.43,130.68,128.50,129.07,2240400,126.84
2012-07-30,128.85,132.35,128.71,130.84,3163200,128.58
2012-07-27,126.93,129.50,125.70,129.14,3484400,126.91
2012-07-26,124.97,128.19,124.20,126.77,5259000,124.58
2012-07-25,123.38,124.09,121.54,122.20,3826300,120.09
2012-07-24,124.50,124.76,121.28,122.65,3376000,120.53
2012-07-23,124.05,125.06,123.25,124.47,2847800,122.32
2012-07-20,124.61,126.18,123.65,125.75,2954200,123.58
2012-07-19,128.30,128.63,125.33,125.39,3458100,123.23
2012-07-18,127.50,128.80,127.40,127.82,2975900,125.61
2012-07-17,128.13,128.24,126.04,128.23,2691700,126.02
2012-07-16,128.20,131.00,125.87,127.15,7651900,124.96
2012-07-13,122.50,124.64,122.15,124.09,3028200,121.95
2012-07-12,119.11,123.43,119.10,122.64,3766900,120.52
2012-07-11,121.91,122.25,119.58,120.74,2911000,118.66
2012-07-10,124.33,124.75,121.81,122.28,4551000,120.17
2012-07-09,123.15,124.05,121.04,123.65,4421000,121.52
2012-07-06,126.08,126.73,124.78,125.28,2407800,123.12
2012-07-05,125.74,127.47,125.67,127.01,2824500,124.82
2012-07-03,126.49,127.00,125.66,126.34,1591100,124.16
2012-07-02,124.26,126.80,124.00,126.62,4260600,124.43
2012-06-29,123.26,124.04,121.53,123.63,3982800,121.50
2012-06-28,123.00,123.41,119.57,121.52,2878700,119.42
2012-06-27,123.36,124.12,122.53,123.44,3442100,121.31
2012-06-26,121.76,123.92,121.67,123.16,3282200,121.03
2012-06-25,122.86,123.29,121.15,121.27,4041000,119.18
2012-06-22,120.25,124.95,119.33,124.95,9304000,122.79
2012-06-21,122.58,122.87,119.31,119.48,3265300,117.42
2012-06-20,121.10,122.59,121.03,122.59,3175700,120.47
2012-06-19,120.86,121.60,120.50,121.35,2567600,119.26
2012-06-18,118.01,120.48,117.46,120.10,2732900,118.03
2012-06-15,117.37,118.50,116.93,118.40,3137900,116.36
2012-06-14,115.26,117.01,114.26,116.49,3288200,114.48
2012-06-13,115.80,116.97,114.65,114.90,3722800,112.92
2012-06-12,116.41,117.16,115.72,117.16,2599700,115.14
2012-06-11,117.27,117.93,116.22,116.35,2735700,114.34
2012-06-08,116.39,116.60,115.45,116.58,2594200,114.57
2012-06-07,117.83,118.00,116.55,116.81,2289500,114.79
2012-06-06,114.97,116.50,114.83,116.34,3096000,114.33
2012-06-05,113.76,114.53,113.14,113.81,2843700,111.85
2012-06-04,112.03,114.44,112.02,114.16,4161600,112.19
2012-06-01,113.64,114.89,111.94,112.25,4662600,110.31
2012-05-31,117.75,118.36,114.72,115.20,5251000,113.21
2012-05-30,118.71,119.74,117.46,117.49,4586600,115.46
2012-05-29,120.15,120.95,119.00,120.28,4501600,118.20
2012-05-25,119.39,120.40,118.95,119.37,2945000,117.31
2012-05-24,119.72,121.00,118.77,119.77,3187400,117.70
2012-05-23,117.62,119.46,117.39,119.17,4139500,117.11
2012-05-22,116.41,119.25,116.41,118.39,4648600,116.35
2012-05-21,113.27,116.32,112.66,116.22,3318000,114.21
2012-05-18,114.85,115.25,112.50,112.64,6483700,110.70
2012-05-17,117.00,118.26,115.01,115.01,4453700,113.03
2012-05-16,116.80,118.20,116.30,117.53,4334900,115.50
2012-05-15,116.45,117.90,116.45,116.61,3147300,114.38
2012-05-14,116.83,118.36,115.83,116.72,4061600,114.49
2012-05-11,117.36,118.97,117.26,117.92,2034900,115.67
2012-05-10,118.30,119.49,117.64,118.17,3367000,115.91
2012-05-09,117.31,118.98,116.57,117.42,4418200,115.18
2012-05-08,118.10,119.08,116.15,118.14,3649200,115.88
2012-05-07,116.96,119.09,116.96,118.51,3369200,116.25
2012-05-04,116.22,118.89,115.31,117.79,5850900,115.54
2012-05-03,122.01,122.51,115.38,116.41,11959500,114.19
2012-05-02,121.61,123.19,120.67,122.19,6341700,119.85
2012-05-01,123.47,125.35,123.04,123.09,4294500,120.74
2012-04-30,124.11,124.15,122.31,122.98,2343800,120.63
2012-04-27,123.74,124.21,122.86,123.52,2446800,121.16
2012-04-26,121.89,123.50,121.51,123.19,2776900,120.84
2012-04-25,119.74,122.40,119.56,121.79,3037700,119.46
2012-04-24,118.35,119.24,117.49,118.93,2357700,116.66
2012-04-23,120.25,120.81,116.48,118.10,4336800,115.84
2012-04-20,121.82,122.15,120.58,121.01,1960300,118.70
2012-04-19,121.27,122.26,120.51,121.19,2130600,118.87
2012-04-18,121.61,122.48,121.32,121.78,2120000,119.45
2012-04-17,121.63,122.50,121.25,122.08,2582200,119.75
2012-04-16,123.04,123.05,120.04,120.83,4577100,118.52
2012-04-13,120.40,123.68,120.31,123.16,5374300,120.81
2012-04-12,117.47,121.16,117.19,121.02,4291000,118.71
2012-04-11,118.02,118.95,116.97,117.38,3542800,115.14
2012-04-10,119.48,119.77,116.59,116.74,2669800,114.51
2012-04-09,119.66,120.35,118.71,119.50,3323900,117.22
2012-04-05,118.32,121.15,118.07,121.01,3348900,118.70
2012-04-04,119.49,119.68,118.20,118.98,2577200,116.71
2012-04-03,118.84,120.59,118.37,120.36,3922900,118.06
2012-04-02,118.00,119.90,117.10,118.98,2944400,116.71
2012-03-30,119.09,119.20,117.60,118.00,3000500,115.74
2012-03-29,118.54,119.18,117.55,119.00,2172800,116.73
2012-03-28,119.68,120.30,118.51,119.35,2248000,117.07
2012-03-27,119.98,120.28,119.55,119.81,2665500,117.52
2012-03-26,119.36,120.70,117.25,120.06,4090900,117.77
2012-03-23,117.51,119.00,116.90,118.78,2537800,116.51
2012-03-22,116.15,117.50,116.00,117.28,2342000,115.04
2012-03-21,117.09,117.65,116.58,116.75,2106800,114.52
2012-03-20,118.15,118.60,116.00,116.52,2647000,114.29
2012-03-19,116.44,119.72,116.15,118.84,3979600,116.57
2012-03-16,117.43,117.50,116.27,116.68,4001600,114.45
2012-03-15,116.62,117.47,116.30,117.00,3323300,114.76
2012-03-14,117.31,117.89,116.47,116.75,3749000,114.52
2012-03-13,116.91,117.41,115.68,117.27,3196400,115.03
2012-03-12,117.02,117.55,116.07,116.53,1927300,114.30
2012-03-09,118.07,118.39,117.01,117.17,2114400,114.93
2012-03-08,116.68,118.18,116.04,117.97,2380100,115.72
2012-03-07,115.72,116.10,114.96,115.64,2673500,113.43
2012-03-06,115.22,115.50,113.54,114.84,3325500,112.65
2012-03-05,116.16,116.83,115.90,116.24,2538400,114.02
2012-03-02,116.51,116.97,115.60,116.16,3053400,113.94
2012-03-01,117.45,117.99,116.55,117.18,2793500,114.94
2012-02-29,119.02,119.36,116.01,116.37,3804400,114.15
2012-02-28,117.16,118.97,117.05,118.95,2984300,116.68
2012-02-27,117.07,117.30,116.30,116.86,3953200,114.63
2012-02-24,116.49,117.77,115.90,117.54,2773500,115.29
2012-02-23,116.36,116.80,115.66,116.48,2722700,114.25
2012-02-22,113.79,116.75,113.30,116.36,3595300,114.14
2012-02-21,115.26,116.00,113.85,114.20,2704900,112.02
2012-02-17,114.41,115.25,113.80,115.01,3878200,112.81
2012-02-16,115.46,115.73,113.60,113.80,3992900,111.63
2012-02-15,116.22,117.15,114.64,115.10,5425300,112.90
2012-02-14,112.11,115.25,112.09,115.24,4490200,112.82
2012-02-13,114.25,115.17,112.36,112.71,5519600,110.34
2012-02-10,111.79,114.00,111.40,113.90,5472200,111.51
2012-02-09,113.06,114.90,112.05,112.42,9900300,110.06
2012-02-08,107.77,108.64,107.02,108.35,5685500,106.08
2012-02-07,107.46,107.55,106.06,106.98,3261400,104.74
2012-02-06,106.94,108.27,106.80,107.36,3337400,105.11
2012-02-03,106.79,107.82,106.59,107.03,4133300,104.78
2012-02-02,103.78,107.12,103.59,106.06,8435100,103.83
2012-02-01,101.18,102.70,100.60,102.51,3844200,100.36
2012-01-31,100.49,100.78,99.83,100.64,3310100,98.53
2012-01-30,100.14,100.52,99.50,99.88,3119000,97.78
2012-01-27,100.41,101.53,99.90,101.05,2840700,98.93
2012-01-26,100.72,102.15,99.98,100.86,3484800,98.74
2012-01-25,100.61,100.97,99.80,100.56,3772100,98.45
2012-01-24,99.05,101.27,98.99,101.01,3035200,98.89
2012-01-23,100.75,100.89,98.80,99.60,4041600,97.51
2012-01-20,102.39,102.52,99.80,100.58,5008200,98.47
2012-01-19,104.16,104.20,102.25,102.37,3641900,100.22
2012-01-18,102.16,103.88,102.11,103.78,2938100,101.60
2012-01-17,101.30,102.94,101.19,102.53,4254700,100.38
2012-01-13,100.72,101.79,100.28,100.74,4155800,98.63
2012-01-12,99.38,101.68,99.38,101.34,4177200,99.21
2012-01-11,98.98,99.50,98.33,99.11,4754000,97.03
2012-01-10,100.87,100.95,99.45,99.80,4677900,97.71
2012-01-09,101.01,101.18,98.78,99.90,4500600,97.80
2012-01-06,101.96,102.22,100.22,100.71,3272300,98.60
2012-01-05,100.71,102.21,99.66,101.91,3024100,99.77
2012-01-04,101.69,102.46,100.00,101.15,4130500,99.03
2012-01-03,103.40,103.40,101.85,102.99,4207300,100.83
2011-12-30,103.17,103.20,101.49,101.53,2146700,99.40
2011-12-29,101.00,103.25,100.82,103.15,2159400,100.99
2011-12-28,101.69,102.00,100.60,100.72,2492400,98.61
2011-12-27,102.49,103.45,101.91,101.91,2179800,99.77
2011-12-23,100.93,102.50,100.51,102.48,1950800,100.33
2011-12-22,100.61,101.97,100.10,100.54,3359800,98.43
2011-12-21,101.11,101.26,99.50,100.72,3811000,98.61
2011-12-20,99.53,101.50,99.36,101.35,6863600,99.22
2011-12-19,97.51,99.37,97.51,98.58,5885300,96.51
2011-12-16,96.67,97.75,96.41,97.44,4389200,95.40
2011-12-15,97.32,97.32,95.57,95.82,5255000,93.81
2011-12-14,95.71,96.74,95.05,96.36,4787700,94.34
2011-12-13,97.44,97.54,95.53,95.91,3391000,93.90
2011-12-12,96.64,97.40,95.83,96.92,3411100,94.89
2011-12-09,96.63,97.46,95.51,97.19,2993500,95.15
2011-12-08,96.94,97.87,95.59,95.80,3559500,93.79
2011-12-07,95.27,97.45,95.05,97.07,4013800,95.03
2011-12-06,96.04,96.28,95.08,95.37,3533800,93.37
2011-12-05,98.28,98.29,95.20,96.06,4182900,94.04
2011-12-02,98.39,98.60,96.80,97.20,3232000,95.16
2011-12-01,95.92,98.26,95.75,97.76,4760600,95.71
2011-11-30,94.85,97.03,94.64,96.97,5376000,94.94
2011-11-29,93.47,93.50,92.54,92.90,3628400,90.95
2011-11-28,91.67,93.75,91.13,93.47,3698100,91.51
2011-11-25,89.04,90.39,88.78,89.02,1733400,87.15
2011-11-23,90.36,91.76,89.20,89.29,5266100,87.42
2011-11-22,90.95,92.19,90.63,90.84,3367400,88.93
2011-11-21,89.66,91.87,89.10,91.21,3961100,89.30
2011-11-18,91.52,91.65,90.43,90.81,3226500,88.90
2011-11-17,93.69,94.01,90.86,91.40,4306800,89.48
2011-11-16,94.55,95.00,93.17,93.40,3249900,91.44
2011-11-15,94.02,95.82,93.85,95.63,3538300,93.41
2011-11-14,94.61,95.72,93.57,93.82,2608000,91.64
2011-11-11,93.79,95.65,93.71,95.16,3412100,92.95
2011-11-10,94.35,94.35,92.59,93.04,2812200,90.88
2011-11-09,92.29,94.10,92.29,93.13,4898700,90.97
2011-11-08,93.43,94.66,93.40,94.54,4900500,92.34
2011-11-07,92.80,93.33,91.52,92.96,2411800,90.80
2011-11-04,92.33,93.63,91.65,92.64,3402100,90.49
2011-11-03,92.06,93.80,90.28,93.18,4602700,91.01
2011-11-02,93.04,93.99,91.12,91.50,6141300,89.37
2011-11-01,91.16,92.46,90.00,90.03,7632100,87.94
2011-10-31,94.28,95.87,93.24,93.26,4456500,91.09
2011-10-28,93.25,95.75,93.25,95.10,5824900,92.89
2011-10-27,91.00,94.49,90.60,94.40,10392000,92.21
2011-10-26,92.14,92.73,89.60,92.02,6686600,89.88
2011-10-25,93.50,93.63,90.55,90.68,4206000,88.57
2011-10-24,93.29,94.41,93.19,94.21,3034600,92.02
2011-10-21,92.49,93.43,91.90,93.43,3532200,91.26
2011-10-20,90.80,91.97,90.27,91.35,4411600,89.23
2011-10-19,94.21,94.48,89.88,90.08,5415600,87.99
2011-10-18,91.11,94.50,90.59,93.91,3600000,91.73
2011-10-17,93.13,93.92,91.03,91.19,3460700,89.07
2011-10-14,93.42,94.65,93.17,93.92,3950100,91.74
2011-10-13,90.50,92.93,90.46,92.60,3298400,90.45
2011-10-12,90.98,92.33,90.71,91.17,4766300,89.05
2011-10-11,88.71,90.86,88.45,90.51,4406700,88.41
2011-10-10,87.79,89.29,87.40,89.25,3330600,87.18
2011-10-07,87.43,88.00,85.77,86.25,4388300,84.25
2011-10-06,84.88,87.28,84.42,87.13,4871500,85.11
2011-10-05,84.60,85.45,83.22,84.99,6278500,83.02
2011-10-04,83.04,85.09,81.71,84.78,7900000,82.81
2011-10-03,84.97,86.64,84.22,84.26,6555900,82.30
2011-09-30,86.22,87.62,85.25,85.72,4488100,83.73
2011-09-29,88.97,88.97,86.00,87.69,3888000,85.65
2011-09-28,89.80,89.85,87.46,87.63,4272600,85.59
2011-09-27,91.13,91.70,89.12,89.48,5016700,87.40
2011-09-26,90.99,91.52,88.17,90.28,4773900,88.18
2011-09-23,87.96,90.93,87.96,90.08,5381500,87.99
2011-09-22,88.74,90.00,86.19,88.30,8922300,86.25
2011-09-21,92.64,94.13,91.40,91.42,7017600,89.30
2011-09-20,90.40,94.75,90.26,92.84,9016000,90.68
2011-09-19,89.47,90.67,88.67,90.03,5522000,87.94
2011-09-16,90.62,91.52,89.63,90.85,12568800,88.74
2011-09-15,90.01,90.60,88.35,90.50,5369600,88.40
2011-09-14,88.23,90.20,87.56,89.58,6536800,87.50
2011-09-13,87.66,87.91,86.66,87.77,4367400,85.73
2011-09-12,85.72,87.48,85.49,87.45,4902100,85.42
2011-09-09,86.88,88.41,85.96,86.35,6623100,84.34
2011-09-08,87.76,89.10,87.44,87.46,4596600,85.43
2011-09-07,86.82,88.53,86.70,88.48,4138200,86.42
2011-09-06,83.25,86.25,83.25,85.86,3952300,83.86
2011-09-02,85.72,87.12,85.10,85.55,3951800,83.56
2011-09-01,87.72,88.96,87.03,87.73,5200200,85.69
2011-08-31,88.50,88.85,86.75,87.88,6023200,85.84
2011-08-30,86.62,88.33,86.30,87.93,4155700,85.89
2011-08-29,86.98,87.93,86.07,86.58,4642200,84.57
2011-08-26,83.51,85.95,82.67,85.85,5374700,83.86
2011-08-25,86.47,86.93,83.94,84.11,6068300,82.16
2011-08-24,83.60,86.58,83.11,86.38,7287700,84.37
2011-08-23,80.22,83.79,79.78,83.77,5019000,81.82
2011-08-22,81.23,81.50,79.25,79.79,4835300,77.94
2011-08-19,79.33,81.68,79.33,79.60,7792500,77.75
2011-08-18,81.51,82.75,79.95,80.29,8249900,78.42
2011-08-17,85.86,86.14,83.33,83.99,4772500,82.04
2011-08-16,85.00,86.37,84.61,85.83,5090000,83.69
2011-08-15,85.11,86.23,84.51,85.87,4582200,83.73
2011-08-12,85.11,85.79,83.43,83.83,4149700,81.74
2011-08-11,80.15,85.69,79.70,84.52,9339900,82.41
2011-08-10,81.29,81.64,79.02,79.28,9607400,77.30
2011-08-09,80.35,82.87,76.11,82.76,14675500,80.70
2011-08-08,80.18,81.81,78.08,79.24,14632300,77.26
2011-08-05,85.34,85.67,80.88,83.41,8406700,81.33
2011-08-04,86.77,86.81,84.88,84.99,9706800,82.87
2011-08-03,84.53,87.75,83.81,87.48,8827200,85.30
2011-08-02,85.00,86.39,83.56,83.56,4331800,81.48
2011-08-01,87.00,87.33,85.06,85.68,3378200,83.54
2011-07-29,85.84,86.24,83.60,85.54,4177100,83.41
2011-07-28,88.13,88.97,86.66,86.92,4806200,84.75
2011-07-27,88.32,89.00,87.25,87.75,6023700,85.56
2011-07-26,89.02,89.99,88.70,89.20,2676000,86.98
2011-07-25,88.64,90.23,88.37,89.08,3339300,86.86
2011-07-22,88.10,89.78,88.10,89.52,2258800,87.29
2011-07-21,89.05,90.38,88.04,88.05,5265100,85.85
2011-07-20,89.49,89.49,88.22,88.64,2368600,86.43
2011-07-19,88.49,89.27,88.20,89.21,5398700,86.98
2011-07-18,88.32,88.90,87.71,88.07,3378800,85.87
2011-07-15,88.69,88.88,87.71,88.75,3999500,86.54
2011-07-14,88.25,89.39,87.78,87.94,4302900,85.75
2011-07-13,88.14,89.96,88.02,88.74,4713900,86.53
2011-07-12,88.02,88.80,87.59,87.70,4605300,85.51
2011-07-11,88.61,89.24,87.68,87.90,6433400,85.71
2011-07-08,88.97,90.15,88.40,89.73,5204700,87.49
2011-07-07,88.20,90.83,88.00,90.15,12131000,87.90
2011-07-06,87.84,89.23,86.85,88.20,8403800,86.00
2011-07-05,86.96,88.80,86.34,88.32,8272400,86.12
2011-07-01,84.10,88.93,83.76,87.97,15435600,85.78
2011-06-30,86.13,87.36,83.93,84.26,29970100,82.16
2011-06-29,75.92,87.32,74.79,86.57,33027300,84.41
2011-06-28,74.28,75.45,74.21,75.28,5824400,73.40
2011-06-27,73.79,74.05,73.11,73.89,5220000,72.05
2011-06-24,75.31,75.35,73.33,73.37,9925200,71.54
2011-06-23,74.19,75.40,74.00,75.31,5101400,73.43
2011-06-22,74.94,75.97,74.57,74.66,4430500,72.80
2011-06-21,74.56,75.19,74.15,74.99,6323800,73.12
2011-06-20,74.28,74.34,73.64,74.05,5636700,72.20
2011-06-17,75.41,75.49,74.20,74.43,6464800,72.57
2011-06-16,74.80,75.38,74.38,74.88,5260400,73.01
2011-06-15,75.54,76.03,74.81,74.84,5693900,72.97
2011-06-14,75.11,76.27,74.83,75.93,7508400,74.04
2011-06-13,74.85,75.14,74.30,74.86,5205000,72.99
2011-06-10,76.21,76.31,74.55,74.69,7364200,72.83
2011-06-09,76.28,76.73,75.88,76.43,8018500,74.52
2011-06-08,78.69,78.69,74.37,76.71,20196300,74.80
2011-06-07,78.80,80.13,78.52,79.82,6941200,77.83
2011-06-06,79.00,79.57,78.15,78.20,4407000,76.25
2011-06-03,79.81,80.36,78.96,79.13,4738600,77.16
2011-06-02,79.19,80.82,79.15,80.70,4866600,78.69
2011-06-01,80.76,80.76,79.18,79.18,4433200,77.20
2011-05-31,80.02,81.11,80.01,81.06,3818600,79.04
2011-05-27,78.66,79.84,78.37,79.80,3836200,77.81
2011-05-26,78.57,79.36,77.64,79.29,5277700,77.31
2011-05-25,76.96,79.08,76.61,78.75,4500700,76.79
2011-05-24,77.01,77.78,76.66,77.60,3707100,75.66
2011-05-23,77.09,77.74,76.60,76.92,4564600,75.00
2011-05-20,79.34,79.84,78.23,78.23,4304000,76.28
2011-05-19,80.13,80.14,79.41,79.64,3735300,77.65
2011-05-18,80.43,80.43,79.48,80.01,5031800,78.01
2011-05-17,79.80,80.80,79.75,80.60,5528000,78.44
2011-05-16,79.15,81.30,79.12,79.94,4690800,77.80
2011-05-13,80.00,80.18,79.70,79.91,5368500,77.77
2011-05-12,79.09,80.05,79.08,79.93,6269600,77.79
2011-05-11,80.22,80.25,78.95,79.34,4416900,77.22
2011-05-10,79.97,80.70,79.72,80.35,4926600,78.20
2011-05-09,79.13,79.98,79.04,79.86,4773300,77.72
2011-05-06,78.50,79.86,78.27,79.41,7438600,77.29
2011-05-05,79.10,79.37,78.20,78.70,5247900,76.59
2011-05-04,79.85,80.15,79.05,79.77,4333600,77.64
2011-05-03,79.63,80.17,79.30,80.00,4736200,77.86
2011-05-02,78.46,79.67,78.46,79.14,3375900,77.02
2011-04-29,77.70,78.45,77.56,78.12,2719400,76.03
2011-04-28,78.84,78.84,77.55,77.66,2854000,75.58
2011-04-27,78.80,78.97,77.89,78.89,2245600,76.78
2011-04-26,77.80,79.00,77.40,78.77,3800000,76.66
2011-04-25,77.77,77.87,77.30,77.76,1781600,75.68
2011-04-21,77.36,77.98,77.05,77.77,2747400,75.69
2011-04-20,76.61,77.91,76.41,77.37,3709600,75.30
2011-04-19,75.49,75.98,75.16,75.92,3565300,73.89
2011-04-18,75.58,76.30,75.45,75.68,3833000,73.65
2011-04-15,76.47,77.00,76.06,76.47,5064000,74.42
2011-04-14,77.14,77.26,76.16,76.31,4652300,74.27
2011-04-13,77.36,77.99,77.20,77.50,4564600,75.43
2011-04-12,76.92,77.58,76.77,77.03,5128000,74.97
2011-04-11,76.80,77.76,76.70,77.71,4751100,75.63
2011-04-08,76.82,77.72,76.32,76.72,5994300,74.67
2011-04-07,76.11,76.55,75.72,76.41,5519800,74.37
2011-04-06,75.71,76.00,75.53,76.00,4533000,73.97
2011-04-05,75.18,75.92,74.80,75.62,4519700,73.60
2011-04-04,74.19,75.25,74.04,75.24,3882300,73.23
2011-04-01,73.99,74.47,73.26,74.22,4317500,72.23
2011-03-31,74.51,74.92,73.60,73.62,4638800,71.65
2011-03-30,73.94,75.34,73.67,74.23,14918300,72.24
2011-03-29,72.36,72.47,71.75,72.20,5889600,70.27
2011-03-28,72.39,73.10,71.96,72.75,5793700,70.80
2011-03-25,72.48,72.91,72.05,72.09,7366700,70.16
2011-03-24,72.22,72.85,71.54,72.66,5139700,70.72
2011-03-23,71.35,72.37,71.35,71.99,4395000,70.06
2011-03-22,71.80,71.96,71.20,71.60,3838600,69.68
2011-03-21,71.84,72.32,71.63,71.96,3701900,70.03
2011-03-18,72.12,72.14,70.92,71.42,6317100,69.51
2011-03-17,71.59,72.00,71.13,71.43,3447600,69.52
2011-03-16,71.42,71.95,70.68,70.96,6014200,69.06
2011-03-15,70.90,71.80,70.45,71.20,6045100,69.29
2011-03-14,71.90,72.73,71.63,71.86,3492900,69.94
2011-03-11,71.38,72.78,71.22,72.51,4333900,70.57
2011-03-10,73.32,73.32,71.23,71.40,7139400,69.49
2011-03-09,74.40,74.66,73.30,73.71,4465400,71.74
2011-03-08,74.45,74.91,73.31,74.17,8374400,72.19
2011-03-07,74.60,75.22,74.00,74.15,4659300,72.17
2011-03-04,75.86,75.94,74.02,74.69,4880000,72.69
2011-03-03,74.70,75.90,74.56,75.83,5097000,73.80
2011-03-02,72.58,74.22,72.51,73.97,5386000,71.99
2011-03-01,73.87,74.88,72.51,72.70,6748400,70.75
2011-02-28,74.86,75.27,73.03,73.05,6214300,71.10
2011-02-25,74.18,75.40,74.18,74.68,6217400,72.68
2011-02-24,72.66,74.24,72.63,73.91,4903300,71.93
2011-02-23,73.64,74.55,72.78,72.88,7178700,70.93
2011-02-22,74.34,75.10,73.11,73.74,7897200,71.77
2011-02-18,76.58,77.08,75.57,75.83,6502400,73.80
2011-02-17,75.75,76.72,75.45,76.14,5868900,74.10
2011-02-16,75.74,76.21,75.46,75.96,5036800,73.93
2011-02-15,75.71,75.91,75.09,75.61,3963800,73.59
2011-02-14,74.99,76.94,74.50,75.74,7242700,73.71
2011-02-11,74.60,75.13,74.28,74.93,4320100,72.93
2011-02-10,72.90,75.15,72.90,74.74,6188100,72.74
2011-02-09,73.78,74.72,73.10,73.28,4668600,71.32
2011-02-08,73.97,74.58,73.82,74.57,3844000,72.43
2011-02-07,72.98,74.14,72.92,73.93,5560100,71.81
2011-02-04,71.98,73.00,71.60,72.90,7208400,70.81
2011-02-03,71.73,72.48,71.00,71.63,8365700,69.57
2011-02-02,71.07,72.09,70.75,72.09,6790600,70.02
2011-02-01,70.21,71.73,70.21,70.70,6362200,68.67
2011-01-31,69.90,70.36,69.35,69.85,6150700,67.84
2011-01-28,70.80,70.93,69.42,69.46,6262100,67.47
2011-01-27,71.06,71.22,70.51,70.60,4854300,68.57
2011-01-26,71.90,72.14,70.95,71.00,4459900,68.96
2011-01-25,71.17,72.38,70.31,71.58,7569900,69.52
2011-01-24,70.23,71.83,70.18,71.79,5730500,69.73
2011-01-21,70.51,71.00,69.91,70.15,6195900,68.14
2011-01-20,68.69,71.54,67.51,70.69,20341300,68.66
2011-01-19,70.96,71.04,68.45,69.12,10713200,67.14
2011-01-18,71.27,71.35,70.74,71.21,4835400,69.17
2011-01-14,71.27,71.55,70.74,71.12,6291400,69.08
2011-01-13,73.13,73.28,70.92,71.14,7027400,69.10
2011-01-12,72.00,72.63,71.99,72.61,4636300,70.52
2011-01-11,72.05,72.52,71.55,71.88,5148400,69.82
2011-01-10,72.70,73.24,71.78,71.81,4550600,69.75
2011-01-07,73.44,73.55,72.50,72.96,7062100,70.86
2011-01-06,72.73,73.55,72.51,73.17,7089700,71.07
2011-01-05,70.84,72.33,70.68,72.09,9628200,70.02
2011-01-04,70.93,70.95,70.26,70.60,4534500,68.57
2011-01-03,70.40,70.92,70.19,70.52,6427500,68.49
2010-12-31,70.28,70.47,69.95,70.38,2775500,68.36
2010-12-30,70.72,70.75,70.12,70.29,2754800,68.27
2010-12-29,70.91,71.18,70.33,70.60,3249500,68.57
2010-12-28,71.36,71.80,70.50,70.73,4782400,68.70
2010-12-27,68.68,71.17,68.65,70.81,7759400,68.78
2010-12-23,68.33,68.93,68.26,68.73,4150200,66.76
2010-12-22,68.27,68.77,68.06,68.55,5821700,66.58
2010-12-21,68.68,68.85,67.88,68.05,10867100,66.10
2010-12-20,67.50,68.22,67.00,67.99,16047700,66.04
2010-12-17,68.30,68.58,66.50,66.90,41972700,64.98
2010-12-16,77.18,79.50,66.59,67.19,50557700,65.26
2010-12-15,80.19,80.38,76.75,76.94,11450500,74.73
2010-12-14,80.77,81.19,80.15,80.64,6196900,78.32
2010-12-13,80.30,81.75,79.50,80.89,10247100,78.57
2010-12-10,79.03,80.24,79.03,80.20,5933700,77.90
2010-12-09,78.15,79.19,77.30,79.12,3714600,76.85
2010-12-08,77.00,78.15,77.00,77.94,3577200,75.70
2010-12-07,78.99,79.77,76.81,76.88,6343700,74.67
2010-12-06,77.30,78.35,77.15,78.31,4587800,76.06
2010-12-03,76.73,77.54,76.22,77.35,5169600,75.13
2010-12-02,75.57,77.07,75.51,77.00,6689700,74.79
2010-12-01,74.94,75.48,74.45,75.22,5585800,73.06
2010-11-30,73.54,74.28,73.25,73.85,4635500,71.73
2010-11-29,75.23,75.23,72.92,74.19,5394100,72.06
2010-11-26,75.30,75.79,75.23,75.48,1087400,73.31
2010-11-24,75.51,76.00,75.15,75.82,4338700,73.64
2010-11-23,75.00,75.15,74.51,74.65,3656400,72.51
2010-11-22,76.67,76.98,75.28,75.46,4988900,73.29
2010-11-19,76.80,77.56,76.76,77.05,2578000,74.84
2010-11-18,76.27,77.10,76.17,76.94,4300200,74.73
2010-11-17,74.90,76.35,74.86,75.73,3720000,73.56
2010-11-16,75.56,76.30,74.26,74.99,5089800,72.69
2010-11-15,77.52,77.86,76.32,76.36,3327500,74.02
2010-11-12,78.57,78.81,76.91,76.94,3329000,74.58
2010-11-11,78.91,79.49,78.04,79.22,2301300,76.79
2010-11-10,78.50,79.31,78.01,79.29,2977700,76.86
2010-11-09,78.99,79.50,78.04,78.32,2701600,75.92
2010-11-08,79.40,79.83,78.60,78.71,3056200,76.30
2010-11-05,80.27,80.47,79.15,79.80,5941600,77.35
2010-11-04,79.71,80.10,79.06,79.99,5050500,77.54
2010-11-03,78.57,79.22,78.00,79.00,3531100,76.58
2010-11-02,78.16,78.67,77.48,78.42,3845400,76.02
2010-11-01,78.58,78.78,76.70,77.32,3419300,74.95
2010-10-29,76.40,78.43,76.34,78.16,5716300,75.76
2010-10-28,79.34,79.50,75.32,76.45,11115200,74.11
2010-10-27,80.29,80.60,79.16,79.92,5166400,77.47
2010-10-26,80.18,80.33,79.38,80.03,3907600,77.58
2010-10-25,80.01,80.71,79.65,80.63,4128900,78.16
2010-10-22,79.15,79.87,78.71,79.29,3703900,76.86
2010-10-21,79.45,80.88,78.58,79.20,4876600,76.77
2010-10-20,77.76,79.93,77.26,79.52,4956000,77.08
2010-10-19,77.61,79.56,77.24,77.55,7242600,75.17
2010-10-18,77.51,78.37,76.75,78.36,5042200,75.96
2010-10-15,77.76,77.90,76.62,77.60,3587000,75.22
2010-10-14,76.66,77.73,76.29,77.17,5325800,74.80
2010-10-13,74.71,77.00,74.30,76.94,7462000,74.58
2010-10-12,74.12,74.53,73.56,74.25,3474800,71.97
2010-10-11,73.85,74.79,73.83,74.29,2599800,72.01
2010-10-08,73.69,74.05,73.17,74.00,2345400,71.73
2010-10-07,74.28,74.79,73.54,73.61,2493800,71.35
2010-10-06,75.06,75.50,73.80,74.23,3780200,71.95
2010-10-05,74.12,74.99,73.66,74.99,5164500,72.69
2010-10-04,73.26,74.36,72.58,73.24,5788000,70.99
2010-10-01,74.74,74.77,73.17,73.32,4530400,71.07
2010-09-30,74.74,74.97,73.81,74.26,5786000,71.98
2010-09-29,73.01,74.50,72.88,74.41,6970500,72.13
2010-09-28,72.93,73.60,72.55,73.27,7303200,71.02
2010-09-27,72.77,73.49,71.90,73.00,5024600,70.76
2010-09-24,71.75,72.37,71.36,72.37,5257200,70.15
2010-09-23,70.05,71.46,69.90,70.98,6746000,68.80
2010-09-22,70.08,70.87,69.95,70.62,6456600,68.45
2010-09-21,70.45,71.11,69.52,69.94,6325000,67.80
2010-09-20,68.50,70.32,68.07,70.31,7346700,68.15
2010-09-17,68.77,69.00,68.19,68.49,10490400,66.39
2010-09-16,68.81,69.21,68.06,68.38,7450100,66.28
2010-09-15,67.72,69.50,67.60,68.93,10769100,66.82
2010-09-14,65.63,67.95,65.55,67.12,9904000,65.06
2010-09-13,68.00,68.00,64.90,65.48,15137300,63.47
2010-09-10,66.84,68.48,66.68,68.09,7848000,66.00
2010-09-09,68.78,68.97,66.07,66.78,13266000,64.73
2010-09-08,70.35,70.67,68.30,68.55,11253000,66.45
2010-09-07,71.87,72.98,71.34,71.50,3604800,69.31
2010-09-03,73.00,73.14,72.08,72.50,3518000,70.28
2010-09-02,70.98,72.25,70.66,71.98,4194200,69.77
2010-09-01,69.83,70.74,69.07,70.53,4322600,68.37
2010-08-31,69.54,70.10,68.01,68.98,5804300,66.87
2010-08-30,70.97,71.40,69.54,69.54,3500000,67.41
2010-08-27,70.39,71.13,69.60,71.11,3913500,68.93
2010-08-26,71.21,71.40,69.88,69.91,3524800,67.77
2010-08-25,70.31,72.14,70.27,70.86,5599700,68.69
2010-08-24,69.51,70.97,69.00,70.66,6686900,68.49
2010-08-23,70.55,71.30,69.60,70.12,4597400,67.97
2010-08-20,71.29,71.59,69.58,70.10,7884600,67.95
2010-08-19,72.42,72.73,71.50,71.63,4610600,69.43
2010-08-18,73.08,73.38,72.52,72.88,3058000,70.65
2010-08-17,73.45,73.77,72.44,73.36,3333500,71.11
2010-08-16,72.08,73.24,71.80,72.83,2675200,70.60
2010-08-13,72.94,73.12,72.15,72.22,3641700,70.01
2010-08-12,72.78,74.19,72.53,72.98,6169300,70.74
2010-08-11,74.00,74.35,73.00,73.51,5778400,71.26
2010-08-10,74.06,75.73,74.06,75.27,7767100,72.84
2010-08-09,73.12,74.87,72.81,74.74,7153100,72.33
2010-08-06,71.15,72.20,70.86,72.14,4840700,69.81
2010-08-05,72.13,72.40,71.32,71.50,7696900,69.19
2010-08-04,73.21,73.40,72.38,72.45,5124800,70.11
2010-08-03,71.63,73.52,71.43,73.00,8541200,70.64
2010-08-02,70.98,72.39,70.97,72.23,13461700,69.90
2010-07-30,71.59,73.63,71.37,73.35,7696200,70.98
2010-07-29,74.76,74.88,71.35,71.98,14716700,69.66
2010-07-28,76.15,76.84,75.10,75.18,6301300,72.75
2010-07-27,77.00,77.27,75.87,76.61,4338100,74.14
2010-07-26,75.69,76.50,75.35,76.08,3948200,73.63
2010-07-23,74.47,75.97,74.05,75.59,3165200,73.15
2010-07-22,73.15,74.55,73.02,74.46,4873300,72.06
2010-07-21,73.99,74.01,71.93,72.36,3976900,70.03
2010-07-20,70.71,73.66,70.50,73.60,4776600,71.23
2010-07-19,72.21,72.25,70.87,71.22,5004800,68.92
2010-07-16,73.60,73.75,71.27,71.45,9765000,69.14
2010-07-15,76.39,76.64,74.26,75.28,4122300,72.85
2010-07-14,76.57,77.00,75.65,76.28,3203700,73.82
2010-07-13,77.80,77.80,75.47,76.59,4982900,74.12
2010-07-12,75.99,77.37,75.88,76.51,3958200,74.04
2010-07-09,76.24,77.60,75.62,77.38,5619900,74.88
2010-07-08,75.50,75.80,74.04,75.08,4057900,72.66
2010-07-07,72.68,74.92,72.15,74.82,5218400,72.41
2010-07-06,73.83,74.32,71.79,72.27,5931500,69.94
2010-07-02,73.24,73.79,72.58,73.18,4700300,70.82
2010-07-01,71.00,73.01,70.11,72.86,7590000,70.51
2010-06-30,71.66,72.10,70.71,70.75,6179100,68.47
2010-06-29,74.28,74.47,71.10,71.45,9962900,69.14
2010-06-28,76.99,77.29,75.15,75.22,5130900,72.79
2010-06-25,77.03,77.41,75.65,76.66,6032600,74.19
2010-06-24,77.13,77.96,75.76,76.48,6569400,74.01
2010-06-23,78.96,78.96,76.81,77.76,6983400,75.25
2010-06-22,81.00,81.00,78.63,78.76,11717700,76.22
2010-06-21,77.96,83.79,75.42,80.90,28965700,78.29
2010-06-18,78.51,79.25,76.26,77.04,7433200,74.55
2010-06-17,77.81,79.13,77.26,78.24,7283300,75.72
2010-06-16,76.18,77.25,75.61,77.17,7035500,74.68
2010-06-15,74.47,76.96,73.90,76.93,7806600,74.45
2010-06-14,76.95,76.99,73.70,73.78,9364200,71.40
2010-06-11,76.51,76.89,75.35,76.08,7544300,73.63
2010-06-10,75.63,77.49,75.00,77.45,9095000,74.95
2010-06-09,74.12,75.48,73.18,73.80,8896700,71.42
2010-06-08,72.11,73.49,71.09,73.35,7625700,70.98
2010-06-07,72.00,73.78,71.55,71.89,7653800,69.57
2010-06-04,71.05,73.40,71.05,72.13,10534600,69.80
2010-06-03,71.93,73.21,71.66,72.84,9781400,70.49
2010-06-02,71.46,71.87,70.02,71.25,9402200,68.95
2010-06-01,72.49,73.60,71.36,71.49,6270500,69.18
2010-05-28,73.37,73.50,72.00,72.46,6645300,70.12
2010-05-27,75.00,75.19,72.91,73.69,9773700,71.31
2010-05-26,74.14,75.19,73.36,73.40,11101500,71.03
2010-05-25,73.06,73.85,71.77,72.97,11362000,70.62
2010-05-24,75.44,76.20,73.75,74.55,10287000,72.14
2010-05-21,72.01,76.00,72.01,74.20,19900300,71.81
2010-05-20,72.00,75.42,71.11,72.82,25403200,70.47
2010-05-19,70.71,74.20,70.71,72.97,32907800,70.62
2010-05-18,75.08,76.01,68.29,70.09,47332800,67.83
2010-05-17,78.77,79.24,73.67,74.71,22638000,72.30
2010-05-14,78.67,79.89,75.92,77.26,42457300,74.77
2010-05-13,85.88,87.98,84.52,85.73,7958900,82.96
2010-05-12,85.04,87.55,84.75,85.68,9282900,82.92
2010-05-11,85.13,85.25,83.14,84.16,11811000,81.32
2010-05-10,86.25,87.20,85.93,85.99,8776700,83.09
2010-05-07,83.06,84.17,80.75,82.29,11379800,79.52
2010-05-06,85.85,86.56,75.91,82.92,15984500,80.13
2010-05-05,86.76,87.95,84.00,86.43,9293600,83.52
2010-05-04,89.34,90.95,88.12,88.37,7655700,85.39
2010-05-03,90.55,91.27,88.42,89.27,7755000,86.26
2010-04-30,93.28,93.37,90.02,90.23,6264900,87.19
2010-04-29,93.77,94.60,92.10,92.82,7352000,89.69
2010-04-28,93.72,94.06,92.30,93.61,5098800,90.45
2010-04-27,95.95,96.23,92.89,92.95,4467100,89.82
2010-04-26,97.03,97.19,95.54,96.00,4568700,92.76
2010-04-23,96.20,96.82,95.23,96.59,3124700,93.33
2010-04-22,92.82,95.20,92.46,95.14,3664600,91.93
2010-04-21,94.35,94.38,92.86,93.13,2841400,89.99
2010-04-20,93.65,94.09,92.50,94.05,2272600,90.88
2010-04-19,93.20,94.18,92.08,93.12,3146600,89.98
2010-04-16,94.08,94.91,92.80,93.85,4691600,90.69
2010-04-15,94.36,95.26,93.93,94.45,5159800,91.27
2010-04-14,93.16,94.44,92.86,94.26,4332300,91.08
2010-04-13,93.41,93.79,92.16,92.79,2859000,89.66
2010-04-12,93.05,93.49,92.50,93.19,2330800,90.05
2010-04-09,91.94,92.61,91.65,92.52,2391800,89.40
2010-04-08,90.66,92.08,90.50,91.49,2692500,88.41
2010-04-07,92.50,92.50,90.63,90.71,3687600,87.65
2010-04-06,92.03,93.33,91.81,92.40,3453400,89.29
2010-04-05,93.05,93.20,92.10,92.47,3840800,89.35
2010-04-01,91.68,92.58,91.31,92.55,4366100,89.43
2010-03-31,90.70,92.20,90.52,91.03,3126100,87.96
2010-03-30,90.47,91.84,90.34,91.00,4082700,87.93
2010-03-29,90.57,91.16,90.14,90.24,2783600,87.20
2010-03-26,90.73,91.25,89.65,90.25,3384000,87.21
2010-03-25,89.68,91.78,89.49,90.41,5088400,87.36
2010-03-24,89.60,89.94,88.59,88.75,3902900,85.76
2010-03-23,89.50,90.30,89.25,89.98,3379100,86.95
2010-03-22,88.39,89.75,88.18,89.24,4168600,86.23
2010-03-19,88.84,90.75,88.69,88.84,6056000,85.85
2010-03-18,91.50,91.82,90.08,90.13,4691500,87.09
2010-03-17,92.12,92.41,91.24,91.51,3696300,88.43
2010-03-16,92.68,92.91,91.35,91.65,4767000,88.56
2010-03-15,92.87,93.15,91.12,92.41,5183500,89.30
2010-03-12,93.17,93.63,92.65,93.25,7160300,90.11
2010-03-11,90.97,93.28,90.80,92.74,13781300,89.61
2010-03-10,89.74,91.81,89.55,91.52,7109700,88.44
2010-03-09,90.25,91.67,89.86,90.15,9172700,87.11
2010-03-08,88.45,90.93,88.09,90.63,7814600,87.58
2010-03-05,87.40,88.56,87.10,88.51,4875900,85.53
2010-03-04,87.00,87.45,86.13,87.04,3644200,84.11
2010-03-03,86.60,87.21,86.24,86.80,3414500,83.87
2010-03-02,86.82,86.98,86.25,86.45,3225300,83.54
2010-03-01,85.50,86.94,85.28,86.82,3373800,83.89
2010-02-26,85.58,85.72,85.02,85.28,3119100,82.41
2010-02-25,84.75,85.44,83.74,85.23,3535200,82.36
2010-02-24,86.22,86.61,84.75,85.63,4052500,82.74
2010-02-23,87.02,87.59,86.06,86.12,4782300,83.22
2010-02-22,87.05,87.76,86.81,86.91,2893200,83.98
2010-02-19,86.00,86.98,85.49,86.81,3418000,83.88
2010-02-18,86.00,87.45,86.00,86.96,3822300,84.03
2010-02-17,86.01,86.54,85.76,86.42,3744200,83.51
2010-02-16,85.23,85.94,85.20,85.88,4016400,82.99
2010-02-12,84.50,84.94,83.65,84.78,5528700,81.92
2010-02-11,83.79,85.21,83.25,85.14,4511200,82.27
2010-02-10,83.49,83.91,82.89,83.64,3643200,80.82
2010-02-09,83.69,84.13,82.70,83.27,4492000,80.34
2010-02-08,82.90,84.38,82.56,83.05,5991700,80.13
2010-02-05,83.32,83.86,80.54,82.56,9671800,79.66
2010-02-04,85.25,86.18,82.80,83.05,16621700,80.13
2010-02-03,84.24,84.49,82.10,83.52,8049400,80.58
2010-02-02,84.26,84.47,83.50,84.01,3610400,81.06
2010-02-01,82.29,84.75,82.20,83.66,4024500,80.72
2010-01-29,82.60,84.98,81.87,82.03,5070400,79.15
2010-01-28,84.36,84.48,81.41,82.65,3267700,79.74
2010-01-27,80.88,84.13,80.61,83.91,4833800,80.96
2010-01-26,81.35,82.54,80.99,81.15,3109400,78.30
2010-01-25,83.40,83.81,81.41,82.03,4036800,79.15
2010-01-22,84.03,84.39,81.64,82.73,7444100,79.82
2010-01-21,87.45,87.90,84.12,84.45,7035200,81.48
2010-01-20,87.68,87.74,86.31,87.42,3192800,84.35
2010-01-19,86.17,88.41,85.70,87.85,3809900,84.76
2010-01-15,87.48,87.54,85.92,86.14,5323800,83.11
2010-01-14,86.97,87.53,86.50,87.44,4594900,84.37
2010-01-13,86.46,87.20,85.95,87.14,3357200,84.08
2010-01-12,86.58,87.05,85.85,86.34,3210500,83.30
2010-01-11,87.51,87.94,86.17,86.75,3228000,83.70
2010-01-08,86.82,87.39,86.23,87.00,2976800,83.94
2010-01-07,85.97,87.00,85.55,86.76,6960300,83.71
2010-01-06,87.01,87.08,85.90,85.96,4063500,82.94
2010-01-05,87.30,87.53,86.00,87.13,6458400,84.07
2010-01-04,88.00,88.77,87.46,88.14,5045000,85.04
2009-12-31,87.98,88.18,87.17,87.46,3160900,84.39
2009-12-30,87.47,88.28,87.47,88.14,3087700,85.04
2009-12-29,86.65,88.28,86.65,88.02,4685800,84.93
2009-12-28,86.43,87.00,86.09,86.76,3359900,83.71
2009-12-24,86.59,86.80,85.80,86.29,1728100,83.26
2009-12-23,86.46,87.00,85.65,86.15,5777900,83.12
2009-12-22,87.66,87.97,85.86,86.30,7204200,83.27
2009-12-21,88.96,89.07,86.63,87.51,11140200,84.43
2009-12-18,87.40,89.69,87.39,88.97,84383400,85.84
2009-12-17,86.49,87.40,85.50,87.03,9560000,83.97
2009-12-16,86.24,87.48,85.86,87.03,8444700,83.97
2009-12-15,84.23,86.20,83.90,86.14,9510000,83.11
2009-12-14,84.96,85.91,83.49,84.77,17624700,81.79
2009-12-11,82.29,82.40,81.14,81.34,2879700,78.48
2009-12-10,81.88,82.76,81.38,82.32,3636700,79.43
2009-12-09,79.62,81.93,79.50,81.75,4185900,78.88
2009-12-08,79.62,80.41,79.55,79.99,2604700,77.18
2009-12-07,80.26,80.64,79.84,79.93,2415200,77.12
2009-12-04,81.09,81.59,78.71,80.27,5466400,77.45
2009-12-03,82.35,82.63,79.93,80.03,4780700,77.22
2009-12-02,83.05,83.40,82.08,82.22,3213200,79.33
2009-12-01,81.44,83.40,81.00,82.97,6102500,80.05
2009-11-30,80.33,81.38,80.20,81.00,3926200,78.15
2009-11-27,80.08,80.84,79.60,80.33,2323800,77.51
2009-11-25,80.80,81.90,80.37,81.79,2873700,78.91
2009-11-24,80.35,80.64,79.60,80.62,3038300,77.79
2009-11-23,80.78,80.80,79.91,80.44,4365900,77.61
2009-11-20,79.72,80.44,79.63,80.00,3134600,77.19
2009-11-19,79.97,81.55,78.23,80.18,9133400,77.36
2009-11-18,80.19,80.87,79.66,80.39,2867700,77.56
2009-11-17,79.56,80.68,79.29,80.55,3933500,77.72
2009-11-16,80.10,80.39,79.22,79.55,5757600,76.75
2009-11-13,79.93,80.19,78.75,80.00,3424400,77.19
2009-11-12,80.68,81.09,79.33,79.92,3242300,77.11
2009-11-11,81.62,81.97,80.38,80.82,3665700,77.86
2009-11-10,80.90,81.49,80.56,81.10,4915000,78.13
2009-11-09,79.86,81.64,79.70,81.16,6579700,78.19
2009-11-06,79.00,79.90,78.65,79.67,3940900,76.75
2009-11-05,78.52,79.75,78.27,79.59,4087600,76.67
2009-11-04,78.30,79.50,78.12,78.31,6091000,75.44
2009-11-03,76.77,77.67,75.80,77.65,6522700,74.80
2009-11-02,76.09,78.17,75.83,77.29,6330700,74.46
2009-10-30,76.96,77.50,75.16,75.76,6827200,72.98
2009-10-29,77.01,78.20,75.83,77.28,10374600,74.45
2009-10-28,74.94,78.02,74.76,76.57,19482600,73.76
2009-10-27,73.61,74.45,72.51,73.90,10047400,71.19
2009-10-26,74.97,75.83,72.46,72.78,8709100,70.11
2009-10-23,75.93,76.09,73.63,74.12,6374800,71.40
2009-10-22,75.60,75.88,74.26,75.69,5439400,72.92
2009-10-21,74.82,76.99,74.82,75.19,4068900,72.43
2009-10-20,75.45,75.90,74.46,75.05,4125700,72.30
2009-10-19,74.27,75.00,73.19,74.95,3645700,72.20
2009-10-16,74.73,75.08,74.00,74.29,3735500,71.57
2009-10-15,74.19,75.84,74.02,75.08,5568100,72.33
2009-10-14,74.83,75.25,73.79,74.80,6783200,72.06
2009-10-13,73.74,74.98,73.23,74.67,5901500,71.93
2009-10-12,74.33,74.94,73.35,73.70,4820600,71.00
2009-10-09,71.55,73.29,71.34,72.94,5184200,70.27
2009-10-08,71.10,72.03,70.67,71.73,6026300,69.10
2009-10-07,69.15,71.34,68.91,70.86,12264200,68.26
2009-10-06,68.69,68.70,67.40,68.26,9107800,65.76
2009-10-05,67.87,69.00,67.68,68.16,4975600,65.66
2009-10-02,68.44,69.10,66.54,67.79,8854100,65.31
2009-10-01,68.77,70.16,68.77,69.12,7054300,66.59
2009-09-30,69.75,70.00,68.61,69.11,7616800,66.58
2009-09-29,71.19,72.14,69.21,69.57,10473100,67.02
2009-09-28,71.10,71.85,70.51,71.14,4592400,68.53
2009-09-25,73.17,73.25,69.23,70.66,12043800,68.07
2009-09-24,73.39,73.91,72.25,73.53,4012600,70.84
2009-09-23,74.41,74.99,73.76,73.92,3744100,71.21
2009-09-22,73.60,74.73,73.32,74.41,3812100,71.68
2009-09-21,73.07,74.30,73.01,73.39,3235100,70.70
2009-09-18,73.92,74.27,73.16,73.79,3802500,71.09
2009-09-17,73.95,74.86,73.30,73.82,3559100,71.11
2009-09-16,73.25,74.60,72.66,74.09,4150400,71.37
2009-09-15,73.00,73.45,72.38,73.20,3837800,70.52
2009-09-14,71.51,73.00,71.50,72.87,3274800,70.20
2009-09-11,72.50,72.50,71.75,72.29,3848500,69.64
2009-09-10,70.38,72.49,70.27,72.31,4250400,69.66
2009-09-09,71.26,71.30,70.18,70.48,4097000,67.90
2009-09-08,70.70,71.25,70.16,70.95,3055100,68.35
2009-09-04,70.65,70.95,70.05,70.36,2473600,67.78
2009-09-03,70.41,71.05,69.80,70.91,4266600,68.31
2009-09-02,69.77,70.86,69.43,70.10,3333800,67.53
2009-09-01,70.78,72.00,70.14,70.18,5572100,67.61
2009-08-31,69.70,71.32,69.60,71.10,5380300,68.49
2009-08-28,70.05,70.50,69.28,70.50,3505400,67.92
2009-08-27,69.68,70.25,69.28,69.71,5151000,67.16
2009-08-26,68.60,70.43,68.45,70.20,4741100,67.63
2009-08-25,68.15,69.00,67.90,68.98,4393600,66.45
2009-08-24,69.25,69.50,67.76,67.95,4994600,65.46
2009-08-21,68.34,69.05,67.85,69.00,6862700,66.47
2009-08-20,67.09,67.99,66.75,67.81,3037300,65.32
2009-08-19,66.33,67.24,66.15,67.20,3862900,64.74
2009-08-18,66.65,67.34,66.55,67.01,4269200,64.55
2009-08-17,66.84,66.98,66.04,66.43,4942800,64.00
2009-08-14,68.30,68.68,67.50,67.80,3051900,65.32
2009-08-13,68.50,68.88,67.94,68.68,3742100,66.16
2009-08-12,68.29,69.05,67.88,68.45,3607600,65.94
2009-08-11,68.54,69.25,68.53,68.61,3634400,65.99
2009-08-10,69.04,69.49,68.60,68.88,2509700,66.25
2009-08-07,69.24,69.65,68.73,69.17,3845100,66.53
2009-08-06,68.52,69.69,67.95,68.65,5223200,66.03
2009-08-05,69.19,69.19,67.86,68.38,4968600,65.77
2009-08-04,68.33,69.11,67.90,69.10,4671600,66.47
2009-08-03,66.19,69.11,65.90,69.11,7583600,66.48
2009-07-31,66.94,67.17,65.35,65.46,8261700,62.96
2009-07-30,67.69,69.68,66.83,67.21,14444000,64.65
2009-07-29,66.60,66.89,65.72,66.78,5508100,64.23
2009-07-28,67.71,68.30,66.13,66.30,5661200,63.77
2009-07-27,67.25,68.31,67.11,68.19,3561300,65.59
2009-07-24,66.27,67.65,66.25,67.29,3298700,64.72
2009-07-23,67.20,67.84,66.62,67.19,4849000,64.63
2009-07-22,66.62,67.56,66.32,66.85,6332100,64.30
2009-07-21,67.12,67.20,65.79,67.15,4435700,64.59
2009-07-20,64.36,67.28,64.30,67.12,8055100,64.56
2009-07-17,64.25,65.00,64.00,64.10,4518900,61.66
2009-07-16,62.45,64.72,62.20,64.41,12521500,61.95
2009-07-15,61.00,62.75,60.67,62.65,9123100,60.26
2009-07-14,60.50,60.51,59.64,60.29,3322800,57.99
2009-07-13,60.11,60.42,59.10,60.35,7660000,58.05
2009-07-10,59.87,60.33,59.41,59.86,4163700,57.58
2009-07-09,60.14,60.65,59.75,60.44,6654100,58.14
2009-07-08,59.72,60.32,58.00,59.49,16020100,57.22
2009-07-07,61.33,61.33,59.40,59.71,7590400,57.43
2009-07-06,60.07,61.10,59.90,60.67,5845600,58.36
2009-07-02,60.80,61.70,60.08,60.08,5378700,57.79
2009-07-01,62.28,62.57,60.78,60.80,6541900,58.48
2009-06-30,62.75,63.93,62.02,62.26,12313400,59.89
2009-06-29,63.89,63.89,62.50,62.98,5670200,60.58
2009-06-26,61.82,63.82,61.56,63.82,4937900,61.39
2009-06-25,60.89,62.28,60.27,61.95,5220700,59.59
2009-06-24,63.00,63.15,60.90,61.09,5699700,58.76
2009-06-23,61.33,62.87,61.32,62.67,4997400,60.28
2009-06-22,60.74,62.96,60.70,61.24,7542000,58.91
2009-06-19,61.70,62.10,60.86,61.37,6367300,59.03
2009-06-18,61.46,62.11,60.63,61.41,8042100,59.07
2009-06-17,62.46,63.10,60.80,61.35,8015900,59.01
2009-06-16,65.10,65.10,62.12,62.46,7447100,60.08
2009-06-15,63.98,65.88,63.07,64.43,6391100,61.97
2009-06-12,66.89,67.20,64.31,64.36,20240800,61.91
2009-06-11,69.35,69.60,66.66,66.72,10987200,64.18
2009-06-10,69.03,69.92,67.96,69.27,8449300,66.63
2009-06-09,70.07,70.37,68.47,68.63,5443300,66.01
2009-06-08,68.66,70.60,68.55,69.80,5159000,67.14
2009-06-05,70.01,70.84,68.80,69.28,18565200,66.64
2009-06-04,68.45,71.24,68.32,69.52,14055300,66.87
2009-06-03,66.69,68.76,65.87,68.23,8840700,65.63
2009-06-02,66.40,67.00,65.50,66.81,7760900,64.26
2009-06-01,68.50,68.95,65.82,66.66,10907000,64.12
2009-05-29,66.63,67.90,65.80,67.71,8049600,65.13
2009-05-28,66.29,66.99,65.75,66.50,5046000,63.96
2009-05-27,66.33,68.14,65.25,65.92,6789200,63.41
2009-05-26,65.79,66.89,65.28,66.77,5139200,64.22
2009-05-22,66.91,67.50,65.23,65.75,5433800,63.24
2009-05-21,64.51,66.32,64.47,66.28,13930900,63.75
2009-05-20,65.26,66.96,64.61,64.96,8464500,62.48
2009-05-19,66.03,66.31,64.29,64.80,11446100,62.33
2009-05-18,65.32,66.55,64.26,66.41,14826100,63.88
2009-05-15,64.45,65.50,64.02,65.07,6170500,62.59
2009-05-14,63.98,65.10,63.51,64.52,8215400,62.06
2009-05-13,64.32,65.47,63.51,64.47,11888900,62.01
2009-05-12,66.84,67.25,64.71,65.22,9093400,62.63
2009-05-11,66.80,67.95,65.93,65.93,6495000,63.31
2009-05-08,65.97,68.47,65.50,68.43,9458700,65.72
2009-05-07,66.63,67.00,65.35,65.53,8682800,62.93
2009-05-06,68.07,68.22,65.75,66.19,10457600,63.56
2009-05-05,67.82,68.50,66.97,67.39,14196500,64.72
2009-05-04,66.08,68.56,64.72,68.20,19733800,65.49
2009-05-01,64.15,66.30,62.64,65.01,15154200,62.43
2009-04-30,64.14,68.00,63.92,64.96,25438400,62.38
2009-04-29,61.89,63.74,61.51,63.51,14810100,60.99
2009-04-28,58.15,62.04,58.10,60.71,10571900,58.30
2009-04-27,58.78,59.72,58.63,58.87,7374200,56.53
2009-04-24,59.31,60.75,58.04,60.38,9921500,57.98
2009-04-23,58.25,58.97,57.10,58.23,8972700,55.92
2009-04-22,57.80,59.94,57.21,57.51,8670000,55.23
2009-04-21,54.84,58.70,54.25,58.63,9436500,56.30
2009-04-20,57.00,57.68,54.96,55.00,10644300,52.82
2009-04-17,58.18,59.13,57.26,58.00,9453600,55.70
2009-04-16,58.10,59.37,57.50,58.07,9028500,55.77
2009-04-15,58.03,59.28,57.25,59.11,7421900,56.77
2009-04-14,60.11,60.92,58.13,58.33,8928000,56.02
2009-04-13,58.16,61.40,58.00,61.11,9531100,58.69
2009-04-09,58.85,59.53,57.63,58.79,11446400,56.46
2009-04-08,57.80,57.87,56.41,57.82,5953900,55.53
2009-04-07,58.38,58.76,57.07,57.15,6780600,54.88
2009-04-06,58.70,60.04,57.75,59.13,11231900,56.78
2009-04-03,55.27,60.16,55.27,60.08,14423700,57.70
2009-04-02,55.46,57.11,55.12,55.59,11849200,53.38
2009-04-01,54.75,56.00,53.63,54.29,11036100,52.14
2009-03-31,54.40,56.23,53.84,55.60,11861600,53.39
2009-03-30,53.30,54.85,53.01,53.50,9649100,51.38
2009-03-27,54.28,56.31,54.21,54.25,8171800,52.10
2009-03-26,53.38,55.79,52.52,55.50,14866600,53.30
2009-03-25,53.95,54.75,51.28,52.75,14656200,50.66
2009-03-24,54.28,54.79,53.27,53.60,10888900,51.47
2009-03-23,53.87,55.58,52.90,55.54,11164200,53.34
2009-03-20,53.20,54.36,52.50,52.53,8369000,50.45
2009-03-19,56.38,56.70,52.43,52.69,10435900,50.60
2009-03-18,54.45,56.50,53.46,56.31,11324100,54.08
2009-03-17,52.00,55.38,51.33,55.29,6432600,53.10
2009-03-16,52.98,53.73,51.86,52.17,8368600,50.10
2009-03-13,54.26,55.35,51.70,52.05,12391100,49.99
2009-03-12,51.30,54.09,50.27,54.09,10819000,51.94
2009-03-11,53.66,53.66,50.52,51.37,9031100,49.33
2009-03-10,50.99,52.87,50.59,52.87,9661100,50.77
2009-03-09,49.67,51.08,48.74,49.80,8388600,47.82
2009-03-06,53.76,54.15,49.21,50.19,15175400,48.20
2009-03-05,54.55,55.49,52.68,53.42,11036200,51.30
2009-03-04,55.00,55.87,53.90,55.29,8943800,53.10
2009-03-03,54.73,55.63,53.21,54.36,10548900,52.20
2009-03-02,55.93,56.97,53.87,54.16,9765000,52.01
2009-02-27,55.00,57.90,55.00,56.71,11809300,54.46
2009-02-26,56.25,56.66,54.79,56.06,8975600,53.84
2009-02-25,56.11,56.55,55.14,55.42,8598700,53.22
2009-02-24,54.34,56.98,53.61,56.35,10897700,54.11
2009-02-23,56.04,56.84,53.99,54.25,7991800,52.10
2009-02-20,54.65,56.09,54.50,55.66,10727000,53.45
2009-02-19,56.95,57.90,55.49,55.63,8775600,53.42
2009-02-18,54.57,56.89,54.25,56.15,9082300,53.92
2009-02-17,54.69,55.20,53.67,54.25,8895400,52.10
2009-02-13,56.93,57.95,55.26,55.95,10197000,53.73
2009-02-12,54.28,56.60,53.10,56.40,8706900,54.16
2009-02-11,54.10,55.23,53.50,54.96,5917000,52.78
2009-02-10,55.13,56.00,53.61,53.85,9517900,51.61
2009-02-09,55.52,56.35,54.60,55.32,7968600,53.02
2009-02-06,53.95,56.00,53.68,55.41,11476900,53.11
2009-02-05,52.24,55.10,51.50,53.74,24182100,51.51
2009-02-04,48.86,50.24,48.56,49.13,8291600,47.09
2009-02-03,50.21,50.95,48.19,48.39,7238400,46.38
2009-02-02,48.26,49.99,47.54,49.97,7136000,47.89
2009-01-30,47.05,49.35,46.86,49.35,7578800,47.30
2009-01-29,45.94,48.11,45.25,46.27,6524400,44.35
2009-01-28,45.91,47.48,45.25,47.22,8022400,45.26
2009-01-27,43.49,44.19,42.64,44.15,6609000,42.32
2009-01-26,44.30,45.24,42.52,42.59,6002300,40.82
2009-01-23,42.69,44.45,41.78,44.32,5654300,42.48
2009-01-22,43.78,45.68,43.23,44.18,7981900,42.34
2009-01-21,43.20,45.15,42.70,44.18,12625800,42.34
2009-01-20,46.05,46.41,42.06,42.42,14941500,40.66
2009-01-16,49.03,49.45,45.21,47.41,17301200,45.44
2009-01-15,50.38,50.85,47.50,49.38,11861600,47.33
2009-01-14,52.01,52.61,50.22,50.97,6311700,48.85
2009-01-13,52.75,53.34,51.51,53.14,5783300,50.93
2009-01-12,55.29,56.15,52.56,52.96,7880100,50.76
2009-01-09,56.02,56.31,54.78,55.62,4175600,53.31
2009-01-08,56.01,56.30,53.27,55.76,8670900,53.44
2009-01-07,56.69,57.95,55.99,56.36,7110400,54.02
2009-01-06,54.50,57.98,54.50,57.61,8126600,55.22
2009-01-05,53.00,55.30,53.00,53.82,4150000,51.58
2009-01-02,52.92,53.71,52.24,53.44,3299800,51.22
2008-12-31,50.61,52.77,50.60,52.45,4092900,50.27
2008-12-30,52.20,52.20,50.27,50.99,4273800,48.87
2008-12-29,53.05,53.59,51.93,52.17,3450400,50.00
2008-12-26,52.78,53.46,51.93,53.25,1619100,51.04
2008-12-24,53.44,53.75,52.65,52.89,1632400,50.69
2008-12-23,53.52,54.40,53.12,53.65,2667600,51.42
2008-12-22,54.86,55.24,52.98,53.75,3520900,51.52
2008-12-19,54.51,56.23,53.78,54.97,8896300,52.69
2008-12-18,55.37,56.19,54.07,54.70,7593700,52.43
2008-12-17,54.29,56.00,54.06,55.36,6171900,53.06
2008-12-16,53.30,54.78,52.74,54.77,7678600,52.49
2008-12-15,52.81,53.77,51.77,52.75,5464700,50.56
2008-12-12,50.51,53.91,50.50,52.95,6275000,50.75
2008-12-11,52.40,54.59,51.72,52.09,7482100,49.93
2008-12-10,53.15,53.85,50.95,53.16,7546700,50.95
2008-12-09,55.50,56.44,53.10,53.53,8031800,51.31
2008-12-08,54.40,57.67,53.97,56.16,13273400,53.83
2008-12-05,49.75,53.47,48.50,53.18,10247900,50.97
2008-12-04,51.93,52.75,50.22,50.81,7621100,48.70
2008-12-03,48.12,52.75,48.11,52.44,9099900,50.26
2008-12-02,48.69,49.76,47.53,49.68,6643300,47.62
2008-12-01,51.00,51.14,47.67,48.05,7737900,46.05
2008-11-28,51.71,52.74,51.17,52.56,2652500,50.38
2008-11-26,48.81,52.00,48.20,52.00,6917500,49.84
2008-11-25,50.36,50.97,49.00,49.53,11239900,47.47
2008-11-24,47.61,50.00,45.78,49.72,11213400,47.65
2008-11-21,49.60,49.60,43.54,46.38,21192800,44.45
2008-11-20,50.21,51.30,48.00,48.14,12747500,46.14
2008-11-19,54.00,55.84,51.24,51.58,8737000,49.44
2008-11-18,52.79,55.08,52.61,54.64,7870700,52.37
2008-11-17,53.11,54.23,51.66,52.76,7325800,50.57
2008-11-14,53.11,57.00,52.45,54.24,9352600,51.99
2008-11-13,51.88,54.58,49.89,54.44,9683400,52.18
2008-11-12,52.45,55.65,51.18,51.75,10686500,49.60
2008-11-11,50.99,54.99,50.36,53.79,8098200,51.45
2008-11-10,55.30,55.30,51.20,51.99,6629200,49.73
2008-11-07,52.45,54.80,51.31,53.50,7726600,51.18
2008-11-06,55.04,56.00,50.74,51.53,13023200,49.29
2008-11-05,58.29,59.20,56.43,56.47,11248000,54.02
2008-11-04,54.38,60.45,53.88,59.81,18400900,57.21
2008-11-03,55.92,56.10,51.91,52.49,7106300,50.21
2008-10-31,53.89,56.08,53.00,55.35,10093200,52.95
2008-10-30,50.59,56.16,50.58,54.25,18728300,51.89
2008-10-29,50.40,53.51,49.51,50.69,13998600,48.49
2008-10-28,47.90,51.58,47.05,49.97,14609000,47.80
2008-10-27,47.01,49.20,46.44,46.59,10475400,44.57
2008-10-24,43.80,48.50,43.74,47.98,10199700,45.90
2008-10-23,48.76,49.55,45.74,48.32,11992500,46.22
2008-10-22,49.97,52.00,48.00,48.51,10060900,46.40
2008-10-21,51.35,53.07,50.29,50.70,7248900,48.50
2008-10-20,53.31,53.82,51.12,52.01,8991400,49.75
2008-10-17,51.50,55.07,51.50,52.22,8774600,49.95
2008-10-16,50.15,53.33,48.04,53.07,14015700,50.77
2008-10-15,55.52,56.00,48.53,49.75,19174800,47.59
2008-10-14,62.00,62.11,55.25,57.61,13285600,55.11
2008-10-13,54.99,59.00,53.59,58.87,12358300,56.31
2008-10-10,47.00,53.95,47.00,52.00,18135400,49.74
2008-10-09,53.79,55.94,49.41,49.85,10634400,47.69
2008-10-08,49.01,54.43,47.75,52.63,18802600,50.35
2008-10-07,56.00,56.44,50.62,51.15,18961400,48.93
2008-10-06,53.42,56.02,50.25,55.38,21840200,52.98
2008-10-03,59.07,60.17,56.31,56.84,14588900,54.37
2008-10-02,61.49,61.49,57.31,57.59,8804000,55.09
2008-10-01,60.75,62.10,59.21,61.31,6763500,58.65
2008-09-30,56.38,61.43,56.38,61.39,9680100,58.72
2008-09-29,60.30,60.48,55.89,57.80,19609800,55.29
2008-09-26,62.73,63.40,60.80,62.04,12792800,59.35
2008-09-25,65.75,66.47,64.54,64.60,5973800,61.80
2008-09-24,67.05,67.72,65.50,65.68,6133100,62.83
2008-09-23,65.85,67.47,64.11,66.90,10950900,64.00
2008-09-22,68.92,68.99,64.90,65.18,11566600,62.35
2008-09-19,71.01,71.16,67.04,69.57,17235400,66.55
2008-09-18,64.20,67.24,58.38,66.90,21047300,64.00
2008-09-17,65.81,67.95,64.01,64.09,16884200,61.31
2008-09-16,66.62,68.96,65.00,66.35,20899100,63.47
2008-09-15,68.66,70.98,68.26,69.38,9683600,66.37
2008-09-12,69.93,71.66,69.25,71.65,7060100,68.54
2008-09-11,67.41,71.36,67.05,70.95,11783000,67.87
2008-09-10,67.27,69.90,66.63,69.04,10984200,66.04
2008-09-09,70.35,70.35,67.18,67.49,12470500,64.56
2008-09-08,73.51,74.29,68.68,70.10,14167400,67.06
2008-09-05,69.97,71.98,69.25,71.76,10154200,68.64
2008-09-04,72.52,72.63,69.75,70.50,9417500,67.44
2008-09-03,74.56,75.34,72.07,73.05,8850200,69.88
2008-09-02,76.83,77.50,74.39,74.99,7474600,71.73
2008-08-29,74.96,76.00,74.70,75.90,4831600,72.60
2008-08-28,74.75,75.81,74.17,75.65,6685300,72.37
2008-08-27,73.03,74.50,72.85,74.45,4785400,71.22
2008-08-26,73.67,74.30,72.87,73.34,4666800,70.16
2008-08-25,73.52,74.89,73.13,73.32,4509900,70.14
2008-08-22,75.36,75.79,73.84,74.09,5238900,70.87
2008-08-21,73.96,74.64,73.19,74.38,3886200,71.15
2008-08-20,74.10,74.71,73.66,74.57,4529700,71.33
2008-08-19,74.45,75.24,73.61,73.74,5276200,70.54
2008-08-18,75.62,76.25,74.14,74.94,6462600,71.69
2008-08-15,75.99,76.53,74.83,75.79,6500800,72.50
2008-08-14,73.87,75.79,73.60,75.78,6459800,72.49
2008-08-13,72.75,74.17,72.48,73.93,7481200,70.72
2008-08-12,74.20,74.80,72.60,72.80,8433600,69.54
2008-08-11,72.44,76.50,71.95,74.79,13822300,71.44
2008-08-08,69.77,72.85,69.11,72.60,9088600,69.35
2008-08-07,70.78,71.25,69.34,69.50,10961800,66.39
2008-08-06,72.80,72.81,71.07,71.48,10231000,68.28
2008-08-05,73.20,74.23,72.32,73.60,8588700,70.30
2008-08-04,71.76,73.60,71.50,72.50,10671500,69.25
2008-08-01,73.30,74.10,70.35,71.73,15428900,68.52
2008-07-31,76.22,78.15,71.49,73.06,37222200,69.79
2008-07-30,77.25,78.90,74.27,78.45,19022300,74.94
2008-07-29,71.03,75.97,71.01,75.97,12260100,72.57
2008-07-28,72.41,73.60,70.25,70.55,8924800,67.39
2008-07-25,70.54,72.35,69.07,71.96,9672700,68.74
2008-07-24,72.92,73.73,69.96,70.08,9156400,66.94
2008-07-23,73.50,75.00,72.60,73.25,12485700,69.97
2008-07-22,69.60,74.23,67.90,74.05,16352000,70.73
2008-07-21,73.91,74.94,71.57,71.90,13234300,68.68
2008-07-18,74.24,74.49,72.12,73.40,11658000,70.11
2008-07-17,73.70,75.06,71.35,75.06,16817200,71.70
2008-07-16,68.33,72.56,66.51,72.23,23112200,68.99
2008-07-15,71.26,71.31,67.29,68.42,21067200,65.36
2008-07-14,76.09,76.18,72.50,72.58,10669900,69.33
2008-07-11,75.60,77.45,74.00,74.55,13661300,71.21
2008-07-10,75.76,77.62,73.89,77.25,13203000,73.79
2008-07-09,79.00,79.10,75.40,75.87,13830500,72.47
2008-07-08,74.89,79.50,72.25,79.06,23949100,75.52
2008-07-07,78.50,79.94,74.00,75.62,19986100,72.23
2008-07-03,79.36,79.81,77.25,78.07,7184700,74.57
2008-07-02,81.90,82.40,79.30,79.42,8451000,75.86
2008-07-01,79.64,81.41,79.20,81.41,11230400,77.76
2008-06-30,82.01,82.84,80.30,81.31,12325300,77.67
2008-06-27,78.80,82.87,78.55,82.60,44005700,78.90
2008-06-26,80.60,80.74,78.02,79.10,19140700,75.56
2008-06-25,83.36,84.42,81.86,82.06,12677900,78.38
2008-06-24,80.06,82.94,78.51,82.66,12472800,78.96
2008-06-23,83.85,84.35,81.02,81.06,7535300,77.43
2008-06-20,82.97,84.50,82.75,83.57,10636700,79.83
2008-06-19,83.48,84.40,81.62,84.27,9231300,80.50
2008-06-18,83.72,84.70,83.44,83.86,8431000,80.10
2008-06-17,84.10,84.98,83.68,84.67,8319400,80.88
2008-06-16,81.48,83.50,81.10,83.27,8596000,79.54
2008-06-13,80.26,81.81,80.15,81.53,7672300,77.88
2008-06-12,78.95,80.77,78.55,79.56,11151400,76.00
2008-06-11,81.00,81.00,77.60,77.74,14249100,74.26
2008-06-10,80.30,82.87,79.61,80.31,9012100,76.71
2008-06-09,84.00,84.95,80.56,82.14,11310000,78.46
2008-06-06,85.90,85.99,83.55,83.65,10437000,79.90
2008-06-05,86.46,87.24,85.59,87.24,6764900,83.33
2008-06-04,87.08,88.10,85.28,85.48,10171100,81.65
2008-06-03,87.01,87.95,86.03,87.56,12102900,83.64
2008-06-02,86.21,86.95,84.60,86.07,9214000,82.21
2008-05-30,86.02,87.56,85.81,86.36,18004000,82.49
2008-05-29,83.43,86.95,83.01,85.25,25153300,81.43
2008-05-28,80.29,81.95,79.55,81.92,13249000,78.25
2008-05-27,76.92,78.94,74.36,78.74,15694100,75.21
2008-05-23,75.84,77.31,75.12,76.35,10549100,72.93
2008-05-22,80.57,80.60,76.16,77.31,21320900,73.85
2008-05-21,82.68,83.43,80.52,80.85,10457900,77.23
2008-05-20,82.88,83.84,81.91,82.74,10175500,79.03
2008-05-19,82.27,84.74,82.15,83.32,11368300,79.59
2008-05-16,82.71,82.85,81.26,82.37,8516700,78.68
2008-05-15,82.53,82.93,81.11,82.25,9172200,78.57
2008-05-14,83.30,84.35,81.45,82.23,12850100,78.55
2008-05-13,81.83,83.50,80.79,82.38,13312400,78.69
2008-05-12,83.65,84.48,78.10,81.90,36867900,78.23
2008-05-09,85.81,86.67,82.52,82.86,23578000,79.15
2008-05-08,89.50,89.75,85.94,87.30,23209100,83.39
2008-05-07,88.83,89.84,87.66,88.50,25116200,84.54
2008-05-06,85.47,88.15,84.75,87.53,18978300,83.61
2008-05-05,82.85,85.50,80.82,85.06,17594300,81.25
2008-05-02,87.29,87.50,81.00,82.75,34162200,79.04
2008-05-01,84.39,87.64,83.90,85.40,29098900,81.57
2008-04-30,81.40,84.81,81.07,83.45,36885900,79.71
2008-04-29,74.15,80.88,71.00,80.88,49327100,77.26
2008-04-28,76.50,77.29,74.90,75.63,33129300,72.24
2008-04-25,76.00,76.08,73.91,75.10,25365000,71.74
2008-04-24,71.20,72.99,70.04,72.30,9521700,69.06
2008-04-23,70.95,71.70,69.69,70.08,9329900,66.94
2008-04-22,71.92,72.40,70.00,70.28,11839400,67.13
2008-04-21,69.48,72.50,68.85,70.97,14712000,67.79
2008-04-18,68.01,70.45,67.20,69.00,26024900,65.91
2008-04-17,66.26,67.75,66.01,67.04,5614900,64.04
2008-04-16,64.56,66.95,64.56,66.14,6284200,63.18
2008-04-15,66.29,66.55,64.00,64.35,5972000,61.47
2008-04-14,66.70,67.24,65.53,65.68,7110900,62.74
2008-04-11,65.25,66.77,65.25,66.11,6605400,63.15
2008-04-10,66.16,66.73,65.11,66.11,5593000,63.15
2008-04-09,68.44,68.72,65.61,65.79,12081100,62.84
2008-04-08,64.90,68.24,64.81,68.09,13481400,65.04
2008-04-07,65.10,65.80,64.02,65.04,7075400,62.13
2008-04-04,64.90,65.32,63.75,64.48,9098600,61.59
2008-04-03,61.95,66.29,61.82,65.50,25217000,62.57
2008-04-02,61.72,62.32,60.50,62.32,10959100,59.53
2008-04-01,63.06,63.68,60.31,61.61,15102700,58.85
2008-03-31,62.60,63.48,62.05,62.36,5539300,59.57
2008-03-28,63.37,63.44,62.16,62.76,6168800,59.95
2008-03-27,64.05,64.74,62.65,62.91,9957400,60.09
2008-03-26,62.73,64.48,61.57,63.96,10777900,61.09
2008-03-25,60.58,64.25,59.82,63.25,21773000,60.42
2008-03-24,67.24,67.70,59.00,59.73,37391600,57.05
2008-03-20,58.40,65.00,57.50,64.35,49746300,61.47
2008-03-19,59.50,69.00,55.00,56.50,177121500,53.97
