(lp0
I6
aI14
aI21
aI34
aI48
aI68
aI82
aI88
aI98
aI107
aI121
aI129
aI152
aI161
aI168
aI178
aI186
aI194
aI206
aI212
aI226
aI233
aI245
aI252
aI260
aI273
aI280
aI289
aI297
aI305
aI319
aI332
aI342
aI349
aI359
aI381
aI388
aI397
aI407
aI425
aI432
aI440
aI448
aI456
aI464
aI474
aI481
aI499
aI506
aI513
aI523
aI538
aI544
aI552
aI564
aI572
aI578
aI592
aI599
aI606
aI614
aI622
aI629
aI643
aI654
aI666
aI676
aI682
aI692
aI701
aI706
aI715
aI735
aI743
aI762
aI768
aI775
aI786
aI800
aI812
aI819
aI828
aI835
aI846
aI860
aI872
aI881
aI888
aI899
aI908
aI916
aI922
aI933
aI944
aI951
aI971
aI981
aI991
aI1002
aI1011
aI1019
aI1033
aI1039
aI1053
aI1059
aI1069
aI1075
aI1083
aI1094
aI1108
aI1114
aI1122
aI1130
aI1138
aI1149
aI1158
aI1167
aI1174
aI1184
aI1192
aI1203
aI1219
aI1227
aI1235
aI1243
aI1252
aI1271
aI1285
aI1298
aI1305
aI1317
aI1338
aI1349
aI1359
aI1366
aI1376
aI1385
aI1395
aI1408
aI1415
aI1423
aI1440
aI1448
aI1461
aI1469
aI1480
a.