(lp0
I9
aI17
aI26
aI33
aI50
aI61
aI67
aI76
aI89
aI97
aI107
aI115
aI123
aI132
aI143
aI161
aI168
aI178
aI186
aI196
aI204
aI216
aI226
aI234
aI245
aI260
aI272
aI276
aI284
aI302
aI311
aI320
aI335
aI341
aI356
aI367
aI380
aI388
aI400
aI407
aI415
aI428
aI447
aI463
aI494
aI501
aI531
aI539
aI548
aI568
aI581
aI590
aI597
aI606
aI613
aI622
aI629
aI645
aI667
aI673
aI682
aI691
aI701
aI730
aI760
aI767
aI775
aI784
aI800
aI812
aI819
aI831
aI842
aI849
aI862
aI873
aI881
aI899
aI911
aI921
aI938
aI950
aI957
aI966
aI983
aI991
aI1003
aI1013
aI1020
aI1036
aI1064
aI1074
aI1090
aI1098
aI1111
aI1119
aI1127
aI1138
aI1145
aI1154
aI1164
aI1177
aI1198
aI1225
aI1235
aI1243
aI1252
aI1264
aI1274
aI1284
aI1298
aI1307
aI1317
aI1329
aI1337
aI1345
aI1355
aI1365
aI1378
aI1388
aI1395
aI1409
aI1423
aI1432
aI1438
aI1446
aI1465
aI1477
aI1486
a.