(lp0
I8
aI16
aI23
aI31
aI71
aI89
aI98
aI106
aI112
aI120
aI136
aI144
aI155
aI161
aI167
aI178
aI185
aI203
aI212
aI224
aI231
aI238
aI246
aI260
aI266
aI278
aI287
aI300
aI308
aI340
aI350
aI361
aI380
aI391
aI399
aI408
aI421
aI431
aI439
aI456
aI465
aI470
aI478
aI487
aI494
aI502
aI531
aI541
aI554
aI564
aI572
aI582
aI596
aI603
aI613
aI619
aI628
aI635
aI645
aI651
aI663
aI669
aI692
aI706
aI718
aI727
aI734
aI743
aI752
aI768
aI775
aI784
aI794
aI799
aI812
aI819
aI828
aI834
aI843
aI851
aI858
aI868
aI887
aI899
aI907
aI913
aI925
aI939
aI951
aI957
aI966
aI980
aI999
aI1013
aI1024
aI1033
aI1039
aI1050
aI1059
aI1072
aI1088
aI1096
aI1106
aI1114
aI1122
aI1140
aI1147
aI1158
aI1164
aI1174
aI1184
aI1196
aI1214
aI1231
aI1246
aI1252
aI1259
aI1274
aI1284
aI1296
aI1304
aI1317
aI1324
aI1337
aI1349
aI1360
aI1376
aI1383
aI1397
aI1408
aI1418
aI1432
aI1446
aI1454
aI1466
aI1476
aI1485
a.