(lp0
I10
aI18
aI37
aI48
aI54
aI72
aI99
aI118
aI133
aI141
aI150
aI159
aI168
aI178
aI188
aI198
aI213
aI226
aI231
aI255
aI267
aI307
aI320
aI351
aI368
aI377
aI396
aI407
aI418
aI428
aI448
aI457
aI467
aI473
aI499
aI515
aI529
aI551
aI560
aI578
aI589
aI605
aI616
aI640
aI671
aI679
aI699
aI712
aI762
aI775
aI786
aI791
aI819
aI828
aI849
aI862
aI880
aI888
aI950
aI964
aI975
aI984
aI996
aI1008
aI1041
aI1059
aI1087
aI1102
aI1118
aI1128
aI1150
aI1160
aI1169
aI1204
aI1232
aI1246
aI1263
aI1305
aI1324
aI1336
aI1351
aI1361
aI1399
aI1413
aI1422
aI1442
aI1459
aI1466
aI1476
aI1483
a.