(lp0
I6
aI18
aI30
aI35
aI51
aI56
aI66
aI76
aI89
aI99
aI106
aI117
aI124
aI133
aI150
aI168
aI173
aI182
aI190
aI206
aI214
aI225
aI231
aI246
aI257
aI263
aI273
aI285
aI291
aI305
aI312
aI325
aI342
aI354
aI362
aI372
aI380
aI388
aI396
aI408
aI447
aI454
aI466
aI484
aI495
aI520
aI530
aI545
aI574
aI587
aI603
aI609
aI620
aI644
aI654
aI666
aI672
aI685
aI758
aI767
aI774
aI784
aI797
aI812
aI822
aI833
aI841
aI851
aI856
aI866
aI873
aI882
aI908
aI917
aI925
aI939
aI947
aI973
aI992
aI997
aI1011
aI1022
aI1033
aI1079
aI1088
aI1096
aI1110
aI1119
aI1128
aI1141
aI1149
aI1158
aI1167
aI1176
aI1191
aI1230
aI1243
aI1250
aI1260
aI1269
aI1279
aI1295
aI1305
aI1316
aI1325
aI1337
aI1349
aI1359
aI1366
aI1377
aI1384
aI1405
aI1413
aI1421
aI1434
aI1442
aI1458
aI1467
aI1480
aI1488
a.