(lp0
I6
aI18
aI34
aI42
aI48
aI57
aI71
aI78
aI86
aI101
aI109
aI119
aI128
aI137
aI146
aI155
aI163
aI170
aI178
aI188
aI196
aI205
aI213
aI220
aI228
aI236
aI249
aI253
aI269
aI278
aI289
aI305
aI311
aI322
aI335
aI342
aI357
aI364
aI380
aI388
aI396
aI405
aI417
aI426
aI435
aI441
aI457
aI462
aI472
aI483
aI491
aI501
aI514
aI530
aI537
aI549
aI558
aI564
aI595
aI606
aI612
aI623
aI629
aI637
aI645
aI659
aI668
aI678
aI691
aI700
aI708
aI721
aI729
aI738
aI746
aI770
aI775
aI784
aI795
aI803
aI812
aI819
aI828
aI841
aI851
aI858
aI868
aI887
aI895
aI906
aI912
aI928
aI937
aI950
aI972
aI982
aI987
aI995
aI1008
aI1015
aI1025
aI1033
aI1044
aI1059
aI1065
aI1088
aI1096
aI1103
aI1112
aI1122
aI1131
aI1140
aI1146
aI1158
aI1164
aI1178
aI1191
aI1198
aI1231
aI1238
aI1256
aI1263
aI1274
aI1282
aI1293
aI1303
aI1315
aI1337
aI1349
aI1364
aI1378
aI1384
aI1399
aI1413
aI1423
aI1435
aI1447
aI1461
aI1480
aI1489
a.