(lp0
I6
aI14
aI21
aI48
aI54
aI67
aI73
aI89
aI98
aI108
aI118
aI136
aI155
aI162
aI168
aI177
aI186
aI192
aI206
aI224
aI234
aI242
aI251
aI266
aI276
aI294
aI306
aI316
aI328
aI337
aI348
aI358
aI365
aI374
aI381
aI391
aI401
aI411
aI429
aI457
aI469
aI481
aI493
aI501
aI518
aI525
aI537
aI544
aI553
aI561
aI568
aI591
aI597
aI608
aI617
aI623
aI632
aI640
aI659
aI674
aI681
aI692
aI699
aI709
aI719
aI736
aI746
aI774
aI783
aI791
aI812
aI819
aI834
aI841
aI849
aI860
aI868
aI899
aI921
aI928
aI945
aI976
aI984
aI998
aI1028
aI1043
aI1053
aI1064
aI1074
aI1087
aI1099
aI1108
aI1119
aI1130
aI1141
aI1145
aI1154
aI1164
aI1178
aI1192
aI1214
aI1222
aI1229
aI1240
aI1248
aI1256
aI1277
aI1294
aI1315
aI1322
aI1337
aI1349
aI1364
aI1375
aI1383
aI1391
aI1408
aI1419
aI1428
aI1438
aI1446
aI1456
aI1463
aI1481
aI1492
a.