Date,Open Price,High,Low,Close Price,Volume,
24/12/2014 00:00:00,46.2500,46.2900,46.2900,46.2900,0
23/12/2014 00:00:00,45.7950,46.2900,45.8550,46.2900,1532
22/12/2014 00:00:00,45.0000,45.7050,45.7050,45.7050,3156
19/12/2014 00:00:00,45.0000,45.1350,44.7031,44.8900,2553
18/12/2014 00:00:00,44.0400,44.7400,44.5613,44.6350,7301
17/12/2014 00:00:00,43.4750,43.6200,42.8842,43.4550,57247
16/12/2014 00:00:00,43.0000,43.2350,42.4592,43.1757,105922
15/12/2014 00:00:00,44.2900,44.4750,42.8025,42.8843,41804
12/12/2014 00:00:00,44.9050,45.0455,44.2700,44.3700,26388
11/12/2014 00:00:00,43.8800,45.4425,45.2025,45.2250,3064
10/12/2014 00:00:00,43.5000,44.4456,43.8044,44.4456,8397
09/12/2014 00:00:00,43.8800,43.7919,43.2550,43.3350,7660
08/12/2014 00:00:00,44.3950,44.6025,44.3478,44.3478,11456
05/12/2014 00:00:00,44.2500,44.9500,44.6850,44.7150,29031
04/12/2014 00:00:00,44.6000,44.4494,43.7988,44.0800,1531
03/12/2014 00:00:00,44.6900,44.4450,44.4450,44.4450,1160
02/12/2014 00:00:00,44.8100,44.9875,44.4600,44.6000,7684
01/12/2014 00:00:00,44.9350,45.3000,44.7975,45.2550,989
28/11/2014 00:00:00,45.3650,45.1700,44.9600,45.1250,5553
27/11/2014 00:00:00,45.0350,45.2342,44.9982,45.2342,8715
26/11/2014 00:00:00,45.1550,45.0206,45.0206,45.0206,66
25/11/2014 00:00:00,44.9750,45.1850,45.1450,45.1850,2459
24/11/2014 00:00:00,44.9050,44.9832,44.9832,44.9832,3000
21/11/2014 00:00:00,44.3050,44.8700,44.6961,44.8700,26772
20/11/2014 00:00:00,44.4700,44.3100,44.3100,44.3100,5141
19/11/2014 00:00:00,44.6850,44.6238,44.2556,44.5850,2142
18/11/2014 00:00:00,43.6500,44.7800,44.3255,44.7650,1036
17/11/2014 00:00:00,43.0100,44.0900,43.9850,44.0900,404
14/11/2014 00:00:00,44.9850,43.9000,43.3098,43.3650,1035
13/11/2014 00:00:00,43.9550,43.6182,43.4775,43.5000,47264
12/11/2014 00:00:00,44.4100,43.7300,43.5156,43.7300,30000
11/11/2014 00:00:00,43.7600,44.4000,43.3450,43.3450,100460
10/11/2014 00:00:00,41.8000,43.8300,42.7600,43.8300,2556
07/11/2014 00:00:00,42.0850,41.7260,41.5200,41.7260,3460
06/11/2014 00:00:00,42.2400,42.0850,41.6550,42.0850,3573
05/11/2014 00:00:00,42.8200,42.3238,42.1600,42.2975,936
04/11/2014 00:00:00,42.4000,42.3231,41.8750,41.8750,1519
03/11/2014 00:00:00,42.5150,42.4150,42.3850,42.3850,432
31/10/2014 00:00:00,42.0650,42.6181,42.4850,42.5275,902
30/10/2014 00:00:00,42.1050,41.8800,41.8800,41.8800,184
29/10/2014 00:00:00,42.3550,42.4850,41.9900,41.9900,167
28/10/2014 00:00:00,42.1800,42.6450,42.6450,42.6450,746
27/10/2014 00:00:00,42.4500,42.1800,41.9200,42.0800,688
24/10/2014 00:00:00,42.3050,41.7875,41.6100,41.7700,462
23/10/2014 00:00:00,42.1700,42.1850,42.1850,42.1850,275
22/10/2014 00:00:00,40.6250,42.4950,41.2706,41.2966,32396
21/10/2014 00:00:00,40.2500,40.8800,40.0671,40.8700,7538
20/10/2014 00:00:00,39.1200,40.5000,39.8000,39.9950,1060
17/10/2014 00:00:00,38.0750,38.2600,38.2600,38.2600,0
16/10/2014 00:00:00,37.8900,38.2600,37.6875,38.2600,2710
15/10/2014 00:00:00,39.2400,38.5118,37.7200,37.9409,46347
14/10/2014 00:00:00,39.1050,39.7600,38.9550,39.2567,4446
13/10/2014 00:00:00,39.3450,39.9900,39.7071,39.8717,30884
10/10/2014 00:00:00,40.2000,39.9050,39.7050,39.7375,6834
09/10/2014 00:00:00,41.4100,41.3959,40.8138,40.8800,7193
08/10/2014 00:00:00,41.7350,41.2894,41.0500,41.2000,4223
07/10/2014 00:00:00,42.4400,42.1075,41.8625,41.9100,2862
06/10/2014 00:00:00,43.2550,42.7625,42.5250,42.5250,2203
03/10/2014 00:00:00,42.4400,43.1200,43.0250,43.0450,633
02/10/2014 00:00:00,44.2800,43.1587,42.5108,42.5108,11148
01/10/2014 00:00:00,44.5550,44.8200,44.4150,44.4500,942
30/09/2014 00:00:00,45.4500,44.8602,44.5650,44.5650,2697
29/09/2014 00:00:00,45.4350,44.7750,44.6300,44.7500,2570
26/09/2014 00:00:00,44.9050,44.8150,44.6350,44.7795,5465
25/09/2014 00:00:00,45.9850,45.3863,44.9450,45.1460,5918
24/09/2014 00:00:00,45.9650,44.9900,44.9019,44.9450,3450
23/09/2014 00:00:00,46.0200,46.1150,45.6100,45.6100,634
22/09/2014 00:00:00,46.0300,46.3375,46.1475,46.2350,4324
19/09/2014 00:00:00,46.6900,46.5625,46.2950,46.4066,11865
18/09/2014 00:00:00,46.0800,46.4300,46.1611,46.2000,90871
17/09/2014 00:00:00,46.3150,46.2500,46.1350,46.1581,30183
16/09/2014 00:00:00,46.2400,46.3194,46.1000,46.1357,4239
15/09/2014 00:00:00,46.3150,46.2650,46.1050,46.2254,46203
12/09/2014 00:00:00,46.0100,46.1600,45.9750,46.1050,28899
11/09/2014 00:00:00,46.9150,46.4150,45.8675,46.0200,39181
10/09/2014 00:00:00,46.4000,46.3900,46.3900,46.3900,0
09/09/2014 00:00:00,46.3050,46.3900,46.3900,46.3900,4
08/09/2014 00:00:00,45.8000,46.4650,46.2800,46.4650,770
05/09/2014 00:00:00,45.8300,46.2050,45.9300,46.2050,780
04/09/2014 00:00:00,45.0200,46.1900,45.0288,46.1900,399
03/09/2014 00:00:00,44.5750,45.0100,45.0100,45.0100,2
02/09/2014 00:00:00,43.7350,44.5800,44.4650,44.5800,33274
01/09/2014 00:00:00,43.6000,43.7950,43.7950,43.7950,0
29/08/2014 00:00:00,43.0800,43.7950,43.3300,43.7950,5128
28/08/2014 00:00:00,42.7850,43.3950,42.9859,43.3000,1866
27/08/2014 00:00:00,43.3750,43.4300,43.2500,43.4300,333
26/08/2014 00:00:00,42.7250,43.0300,42.7900,43.0300,7524
25/08/2014 00:00:00,,41.9900,41.9900,41.9900,0
22/08/2014 00:00:00,41.6300,42.2500,41.8500,41.9900,10216
21/08/2014 00:00:00,41.5050,41.4300,41.4300,41.4300,0
20/08/2014 00:00:00,41.7900,41.4300,41.4300,41.4300,494
19/08/2014 00:00:00,41.9250,41.4950,41.4400,41.4950,373
18/08/2014 00:00:00,40.9750,40.9650,40.9650,40.9650,0
15/08/2014 00:00:00,41.8150,41.4225,40.9650,40.9650,6092
14/08/2014 00:00:00,39.5650,42.1856,41.5450,41.8663,17671
13/08/2014 00:00:00,38.7050,38.8175,38.3650,38.3900,2858
12/08/2014 00:00:00,38.4250,38.6300,38.4050,38.6300,2521
11/08/2014 00:00:00,37.8300,39.0600,38.3262,39.0600,17702
08/08/2014 00:00:00,38.9900,38.9939,37.0225,37.4612,25086
07/08/2014 00:00:00,38.6700,38.9775,38.2000,38.2950,422
06/08/2014 00:00:00,38.5050,38.7350,38.5900,38.6400,3288
05/08/2014 00:00:00,39.3150,39.4000,38.7200,38.8050,1511
04/08/2014 00:00:00,39.9650,39.0600,39.0600,39.0600,1205
01/08/2014 00:00:00,39.8150,39.2300,39.2300,39.2300,93
31/07/2014 00:00:00,41.3450,39.9575,39.9000,39.9400,2477
30/07/2014 00:00:00,41.2350,40.6650,40.3050,40.3625,1585
29/07/2014 00:00:00,40.8800,40.9050,40.8000,40.8050,419
28/07/2014 00:00:00,40.7850,40.7250,40.7159,40.7250,30366
25/07/2014 00:00:00,41.6500,41.1350,40.9850,40.9850,370
24/07/2014 00:00:00,41.5150,41.7644,41.0075,41.4178,11804
23/07/2014 00:00:00,40.6400,40.9300,40.9100,40.9175,20
22/07/2014 00:00:00,41.5150,40.7400,40.7400,40.7400,232
21/07/2014 00:00:00,41.5150,40.6550,40.5900,40.6550,1975
18/07/2014 00:00:00,41.2950,40.8300,40.8300,40.8300,0
17/07/2014 00:00:00,40.1900,41.0000,40.8300,40.8300,4351
16/07/2014 00:00:00,39.7550,40.1750,40.1750,40.1750,0
15/07/2014 00:00:00,39.6300,40.1900,40.0875,40.1750,1141
14/07/2014 00:00:00,39.4450,39.9600,39.9600,39.9600,494
11/07/2014 00:00:00,39.3450,39.5500,39.4150,39.4850,2230
10/07/2014 00:00:00,40.5800,39.3439,39.3439,39.3439,9490
09/07/2014 00:00:00,39.9250,39.9900,39.7850,39.8450,1236
08/07/2014 00:00:00,41.1500,40.6741,39.9600,39.9625,15172
07/07/2014 00:00:00,41.3500,41.1000,41.1000,41.1000,291
04/07/2014 00:00:00,41.8100,41.7400,41.6850,41.7400,361
03/07/2014 00:00:00,41.4200,41.7382,41.4100,41.7382,3364
02/07/2014 00:00:00,41.1500,41.4700,41.3200,41.3609,691
01/07/2014 00:00:00,41.6000,41.4850,41.0375,41.4850,187
30/06/2014 00:00:00,42.0000,41.8429,41.8429,41.8429,377
27/06/2014 00:00:00,42.3350,41.9250,41.8000,41.8025,255
26/06/2014 00:00:00,42.2000,42.2400,42.0900,42.1722,2434
25/06/2014 00:00:00,42.3150,42.2850,41.9100,42.2375,1365
24/06/2014 00:00:00,42.8500,42.7050,42.4679,42.4679,2094
23/06/2014 00:00:00,42.6500,42.6069,42.5807,42.6069,11762
20/06/2014 00:00:00,41.9900,42.5800,42.5175,42.5175,249
19/06/2014 00:00:00,41.9550,42.5378,42.5378,42.5378,0
18/06/2014 00:00:00,42.8300,42.6607,42.5300,42.5378,4785
17/06/2014 00:00:00,41.7350,42.4850,42.4850,42.4850,0
16/06/2014 00:00:00,41.8700,42.5075,42.4100,42.4850,118
13/06/2014 00:00:00,41.8800,42.9200,42.9200,42.9200,4
12/06/2014 00:00:00,41.2000,42.8975,42.3950,42.8900,3678
11/06/2014 00:00:00,41.8650,42.3958,42.3958,42.3958,3269
10/06/2014 00:00:00,41.7950,42.5700,42.5200,42.5700,24
09/06/2014 00:00:00,42.5150,42.5500,42.5125,42.5325,340
06/06/2014 00:00:00,41.7250,42.5650,42.2800,42.5600,10905
05/06/2014 00:00:00,41.9850,42.1292,42.0942,42.0942,5310
04/06/2014 00:00:00,41.6500,42.1473,41.9192,41.9192,1847
03/06/2014 00:00:00,41.6750,42.2050,42.0200,42.0275,221
02/06/2014 00:00:00,41.9450,42.2075,41.9283,42.2021,20559
30/05/2014 00:00:00,41.2900,41.8850,41.4659,41.7821,36875
29/05/2014 00:00:00,41.2200,41.3134,41.3134,41.3134,10663
28/05/2014 00:00:00,40.6500,41.3671,40.7509,41.3671,21775
27/05/2014 00:00:00,39.8450,40.5770,40.5184,40.5770,22822
26/05/2014 00:00:00,40.3860,40.3860,40.3670,40.3670,26920
23/05/2014 00:00:00,39.6050,40.0835,40.0170,40.0170,26138
22/05/2014 00:00:00,39.3300,39.9270,39.5035,39.9270,26432
21/05/2014 00:00:00,39.4450,39.3486,39.3370,39.3370,25262
20/05/2014 00:00:00,39.3700,39.6600,39.5235,39.6570,25419
19/05/2014 00:00:00,39.4000,39.7100,39.3870,39.3870,23953
16/05/2014 00:00:00,39.0400,39.5220,39.2461,39.5220,42579
15/05/2014 00:00:00,40.3050,39.2536,38.9550,39.0620,22985
14/05/2014 00:00:00,40.4800,39.9540,39.9540,39.9540,48817
13/05/2014 00:00:00,41.9550,42.4675,40.8950,40.9456,17802
12/05/2014 00:00:00,41.6950,42.5069,42.2800,42.3858,27126
09/05/2014 00:00:00,41.5900,42.1258,42.1258,42.1258,14000
08/05/2014 00:00:00,41.4650,41.8542,41.7500,41.8542,31164
07/05/2014 00:00:00,41.2900,41.7725,41.4775,41.5142,1143
06/05/2014 00:00:00,41.5850,41.6758,41.3350,41.4350,6266
05/05/2014 00:00:00,41.0459,41.4300,41.0459,41.4300,1033
02/05/2014 00:00:00,40.1850,41.3450,41.2250,41.2359,8649
01/05/2014 00:00:00,40.8800,40.8091,40.8091,40.8091,0
30/04/2014 00:00:00,40.7050,40.8091,40.6800,40.8091,2411
29/04/2014 00:00:00,39.9200,40.8200,40.3890,40.8200,81708
28/04/2014 00:00:00,40.4300,40.6191,40.5809,40.5809,38671
25/04/2014 00:00:00,39.9950,40.7809,40.4100,40.5659,13197
24/04/2014 00:00:00,40.1000,40.6839,40.6839,40.6839,0
23/04/2014 00:00:00,40.1000,40.7750,40.6839,40.6839,888
22/04/2014 00:00:00,39.7100,40.7009,40.6250,40.7009,6901
21/04/2014 00:00:00,,40.0140,40.0140,40.0140,0
17/04/2014 00:00:00,39.8000,40.0140,40.0140,40.0140,1415
16/04/2014 00:00:00,39.5650,40.1860,40.0950,40.1860,5430
15/04/2014 00:00:00,39.5400,40.0910,39.7760,39.7760,18730
14/04/2014 00:00:00,39.9750,39.4461,39.0489,39.4461,16951
11/04/2014 00:00:00,40.0800,40.0200,39.7740,40.0200,15601
10/04/2014 00:00:00,39.7900,40.4100,40.2573,40.2573,1457
09/04/2014 00:00:00,39.6950,40.1513,40.1513,40.1513,218
08/04/2014 00:00:00,40.7750,40.7359,40.7359,40.7359,0
07/04/2014 00:00:00,40.2000,40.8500,40.7359,40.7359,5794
04/04/2014 00:00:00,39.7850,40.3760,40.3760,40.3760,10298
03/04/2014 00:00:00,39.9350,40.0150,39.9000,39.9400,826
02/04/2014 00:00:00,39.7550,39.8100,39.7450,39.7450,65
01/04/2014 00:00:00,39.7100,40.2000,39.7200,39.8340,3923
31/03/2014 00:00:00,39.9050,39.9900,39.9450,39.9450,1356
28/03/2014 00:00:00,39.2000,39.7310,39.6800,39.6800,6074
27/03/2014 00:00:00,39.0000,38.9500,38.9500,38.9500,0
26/03/2014 00:00:00,38.3550,39.1700,38.9375,38.9500,12392
25/03/2014 00:00:00,38.4000,38.8350,38.6650,38.7200,2600
24/03/2014 00:00:00,37.9050,38.4800,37.9550,38.4150,9052
21/03/2014 00:00:00,38.4000,38.4038,37.9800,37.9800,5817
20/03/2014 00:00:00,38.6100,38.5000,38.3762,38.3762,13579
19/03/2014 00:00:00,38.3950,38.7350,38.7100,38.7100,566
18/03/2014 00:00:00,38.0700,38.7811,38.7011,38.7011,7820
17/03/2014 00:00:00,37.4600,37.8650,37.8650,37.8650,291
14/03/2014 00:00:00,37.5650,37.4613,36.7425,37.4613,2952
13/03/2014 00:00:00,37.5050,37.5000,37.3500,37.5000,100595
12/03/2014 00:00:00,36.4750,36.5504,36.5504,36.5504,0
11/03/2014 00:00:00,36.9050,36.5504,36.3900,36.5504,967
10/03/2014 00:00:00,36.3000,36.2441,36.2441,36.2441,860
07/03/2014 00:00:00,36.4450,36.7133,36.3464,36.3464,5797
06/03/2014 00:00:00,36.4850,36.7187,36.7187,36.7187,3553
05/03/2014 00:00:00,36.6200,36.2884,36.2486,36.2486,11692
04/03/2014 00:00:00,36.4250,36.4850,36.2336,36.4850,6660
03/03/2014 00:00:00,35.3650,35.7914,35.2950,35.3925,8165
28/02/2014 00:00:00,36.2700,36.2500,35.8836,36.2500,1056
27/02/2014 00:00:00,35.7500,36.1150,35.8164,36.1150,36121
26/02/2014 00:00:00,36.5750,36.2300,36.2300,36.2300,0
25/02/2014 00:00:00,36.2300,36.2300,36.2300,36.2300,469
24/02/2014 00:00:00,35.1900,36.1950,36.1175,36.1250,749
21/02/2014 00:00:00,34.8000,35.2875,35.2300,35.2875,551
20/02/2014 00:00:00,34.8100,34.7050,34.7050,34.7050,0
19/02/2014 00:00:00,34.5050,34.7600,34.7050,34.7050,8
18/02/2014 00:00:00,35.2000,34.7200,34.1875,34.6825,1273
17/02/2014 00:00:00,34.3050,34.4300,34.3450,34.3450,1940
14/02/2014 00:00:00,34.0100,34.1816,33.8466,34.1816,89404
13/02/2014 00:00:00,34.6000,35.2173,34.3700,35.2173,25352
12/02/2014 00:00:00,35.2000,35.4225,35.4000,35.4225,736
11/02/2014 00:00:00,35.0800,35.2000,35.2000,35.2000,0
10/02/2014 00:00:00,36.3400,35.2000,35.2000,35.2000,70
07/02/2014 00:00:00,36.5600,36.3150,36.1900,36.2336,2644
06/02/2014 00:00:00,35.6300,36.4586,36.1900,36.4586,15142
05/02/2014 00:00:00,35.9250,35.4000,35.4000,35.4000,0
04/02/2014 00:00:00,35.7500,35.4000,35.4000,35.4000,100
03/02/2014 00:00:00,36.0200,35.5325,35.2800,35.3315,2410
31/01/2014 00:00:00,35.9450,35.6950,35.5200,35.5200,1898
30/01/2014 00:00:00,35.5650,36.0525,35.9164,36.0050,3294
29/01/2014 00:00:00,36.2000,35.9136,35.9136,35.9136,4106
28/01/2014 00:00:00,35.8150,35.3850,35.3850,35.3850,0
27/01/2014 00:00:00,36.0000,35.3850,35.3850,35.3850,289
24/01/2014 00:00:00,36.0100,35.5300,35.5114,35.5114,17881
23/01/2014 00:00:00,36.1500,37.0000,37.0000,37.0000,0
22/01/2014 00:00:00,36.4650,37.0000,37.0000,37.0000,0
21/01/2014 00:00:00,36.9150,37.0000,37.0000,37.0000,0
20/01/2014 00:00:00,37.0700,37.0000,37.0000,37.0000,50000
17/01/2014 00:00:00,37.8200,37.4013,37.3413,37.3413,3881
16/01/2014 00:00:00,37.6900,37.4700,37.4700,37.4700,50000
15/01/2014 00:00:00,37.8100,37.4963,37.4963,37.4963,0
14/01/2014 00:00:00,37.5250,37.4963,37.4100,37.4963,51880
13/01/2014 00:00:00,38.0000,38.0000,37.8800,37.8800,100000
10/01/2014 00:00:00,37.8200,38.0000,38.0000,38.0000,0
09/01/2014 00:00:00,38.1850,38.0000,38.0000,38.0000,0
08/01/2014 00:00:00,38.1800,38.0000,38.0000,38.0000,0
07/01/2014 00:00:00,38.3100,38.0000,38.0000,38.0000,60
06/01/2014 00:00:00,38.1550,38.3038,38.3038,38.3038,11924
03/01/2014 00:00:00,38.0000,38.2400,38.2400,38.2400,0
02/01/2014 00:00:00,38.5050,38.2400,38.2400,38.2400,4890
31/12/2013 00:00:00,38.3350,38.2725,38.2725,38.2725,0
30/12/2013 00:00:00,38.2600,38.2725,38.2725,38.2725,5388
27/12/2013 00:00:00,37.8800,38.2900,38.1388,38.2638,23582
26/12/2013 00:00:00,,37.2213,37.2213,37.2213,0
24/12/2013 00:00:00,36.9200,37.2213,37.2213,37.2213,0
23/12/2013 00:00:00,36.8900,37.2213,37.2213,37.2213,1010
20/12/2013 00:00:00,36.6600,36.9113,36.9113,36.9113,6125
19/12/2013 00:00:00,36.9050,36.9900,36.9113,36.9900,10216
18/12/2013 00:00:00,36.5250,36.5737,36.5737,36.5737,1287
17/12/2013 00:00:00,36.6000,36.4364,36.4338,36.4338,6756
16/12/2013 00:00:00,36.0100,36.6037,36.6037,36.6037,4112
13/12/2013 00:00:00,36.2700,36.1636,36.1136,36.1636,6818
12/12/2013 00:00:00,36.5650,36.4385,36.3500,36.3500,15847
11/12/2013 00:00:00,37.1150,37.3200,37.3200,37.3200,0
10/12/2013 00:00:00,36.7200,37.3350,37.3200,37.3200,1324
09/12/2013 00:00:00,36.4900,36.8437,36.8437,36.8437,1587
06/12/2013 00:00:00,35.6700,36.2250,35.9150,36.2250,529
05/12/2013 00:00:00,36.1450,36.3300,35.7846,35.7846,153076
04/12/2013 00:00:00,36.3550,36.2650,36.0500,36.1073,1296
03/12/2013 00:00:00,36.5800,36.2800,36.1464,36.2531,11251
02/12/2013 00:00:00,36.9750,36.7200,36.5150,36.6750,550
29/11/2013 00:00:00,37.0600,37.0163,36.7013,36.7013,7694
28/11/2013 00:00:00,37.3850,37.0725,37.0725,37.0725,11
27/11/2013 00:00:00,35.9450,36.4664,36.4664,36.4664,528
26/11/2013 00:00:00,36.4700,36.1564,35.7863,35.9264,6306
25/11/2013 00:00:00,36.5050,36.3786,36.3786,36.3786,0
22/11/2013 00:00:00,36.2800,36.3786,36.3786,36.3786,909
21/11/2013 00:00:00,36.6700,36.4414,36.4414,36.4414,2631
20/11/2013 00:00:00,35.7250,36.9000,35.7700,36.9000,200359
19/11/2013 00:00:00,35.4000,35.5436,35.4365,35.4365,16064
18/11/2013 00:00:00,35.5250,35.6986,35.3315,35.6986,5644
15/11/2013 00:00:00,35.1500,36.1436,35.1765,35.1765,17354
14/11/2013 00:00:00,34.4600,34.7200,34.5615,34.7200,12041
13/11/2013 00:00:00,35.3050,34.4547,34.4547,34.4547,815
12/11/2013 00:00:00,35.4800,34.9800,34.9665,34.9800,27600
11/11/2013 00:00:00,34.5050,34.9850,34.9850,34.9850,0
08/11/2013 00:00:00,35.0100,35.2435,34.7685,34.9850,40389
07/11/2013 00:00:00,35.7050,35.9164,35.5064,35.5064,6847
06/11/2013 00:00:00,35.8700,35.6500,35.5200,35.6500,10416
05/11/2013 00:00:00,35.2800,35.7550,35.6000,35.7514,27319
04/11/2013 00:00:00,35.5350,35.9114,35.9114,35.9114,1394
01/11/2013 00:00:00,35.6000,35.5550,35.3981,35.5278,15710
31/10/2013 00:00:00,34.8050,35.5350,35.5350,35.5350,318
30/10/2013 00:00:00,34.7550,35.1000,34.8515,35.1000,4744
29/10/2013 00:00:00,34.7750,34.7435,34.6885,34.6885,2139
28/10/2013 00:00:00,34.8000,34.8315,34.7500,34.8315,631
25/10/2013 00:00:00,34.4000,34.7174,34.4866,34.7000,12763
24/10/2013 00:00:00,34.3750,34.3766,34.3766,34.3766,2413
23/10/2013 00:00:00,34.6000,34.3466,34.3466,34.3466,1350
22/10/2013 00:00:00,34.3150,34.6615,34.3400,34.6615,11458
21/10/2013 00:00:00,33.8500,34.2971,34.2971,34.2971,2307
18/10/2013 00:00:00,33.8700,33.7584,33.7584,33.7584,0
17/10/2013 00:00:00,33.8100,33.7584,33.7584,33.7584,1372
16/10/2013 00:00:00,33.8500,34.0116,33.7384,34.0116,2858
15/10/2013 00:00:00,33.4000,33.9216,33.5700,33.9216,11423
14/10/2013 00:00:00,33.6500,34.0050,33.7200,33.9400,1960
11/10/2013 00:00:00,33.6350,33.9116,33.9116,33.9116,0
10/10/2013 00:00:00,33.3050,33.9116,33.9116,33.9116,1161
09/10/2013 00:00:00,33.2050,33.4467,33.4467,33.4467,7323
08/10/2013 00:00:00,33.4800,33.3317,33.3317,33.3317,0
07/10/2013 00:00:00,33.2000,33.3317,33.3317,33.3317,2453
04/10/2013 00:00:00,33.0000,33.3317,33.3317,33.3317,1705
03/10/2013 00:00:00,33.0400,33.0983,33.0983,33.0983,4503
02/10/2013 00:00:00,32.5400,33.0767,33.0767,33.0767,1350
01/10/2013 00:00:00,32.3300,33.0767,33.0767,33.0767,2678
30/09/2013 00:00:00,32.1950,32.6283,32.6283,32.6283,9290
27/09/2013 00:00:00,32.8200,32.3532,32.3532,32.3532,75
26/09/2013 00:00:00,32.5050,32.3532,32.3532,32.3532,0
25/09/2013 00:00:00,32.4000,32.3532,32.3532,32.3532,0
24/09/2013 00:00:00,32.5050,32.3532,32.3532,32.3532,0
23/09/2013 00:00:00,32.6600,32.3532,32.3532,32.3532,0
20/09/2013 00:00:00,32.3050,32.3532,32.3532,32.3532,0
19/09/2013 00:00:00,32.2400,32.3532,32.3532,32.3532,623
18/09/2013 00:00:00,31.9250,32.1318,32.1318,32.1318,1100
17/09/2013 00:00:00,32.0700,32.1318,32.1318,32.1318,0
16/09/2013 00:00:00,32.1850,32.1318,32.1318,32.1318,5390
13/09/2013 00:00:00,31.8500,31.7732,31.6868,31.7732,6934
12/09/2013 00:00:00,31.3450,31.8318,31.8318,31.8318,2387
11/09/2013 00:00:00,30.9500,31.7268,31.7268,31.7268,7381
10/09/2013 00:00:00,31.0000,31.0369,31.0369,31.0369,5227
09/09/2013 00:00:00,31.0000,30.3120,30.3120,30.3120,350
06/09/2013 00:00:00,30.4500,30.3120,30.3120,30.3120,770
05/09/2013 00:00:00,30.3450,30.3120,30.3120,30.3120,2880
04/09/2013 00:00:00,30.4000,30.3120,30.3120,30.3120,3685
03/09/2013 00:00:00,30.5050,30.3120,30.3120,30.3120,1574
02/09/2013 00:00:00,30.0500,30.3120,30.3120,30.3120,9765
30/08/2013 00:00:00,29.8000,29.9180,29.9180,29.9180,0
29/08/2013 00:00:00,29.8500,29.9180,29.9180,29.9180,100000
28/08/2013 00:00:00,29.8100,29.9180,29.9180,29.9180,0
27/08/2013 00:00:00,30.5000,30.0280,29.9180,29.9180,11289
26/08/2013 00:00:00,,30.4220,30.4220,30.4220,0
23/08/2013 00:00:00,30.6500,30.4220,30.4220,30.4220,892
22/08/2013 00:00:00,30.5850,30.4220,30.4220,30.4220,1127
21/08/2013 00:00:00,30.9650,30.4220,30.4220,30.4220,59874
20/08/2013 00:00:00,31.0000,30.4220,30.4220,30.4220,1540
19/08/2013 00:00:00,31.5050,30.4220,30.4220,30.4220,5932
16/08/2013 00:00:00,30.4200,30.4220,30.4220,30.4220,49035
15/08/2013 00:00:00,30.4150,30.4220,30.4220,30.4220,16877
14/08/2013 00:00:00,29.9250,28.2478,28.2478,28.2478,4795
13/08/2013 00:00:00,29.5050,28.2478,28.2478,28.2478,0
12/08/2013 00:00:00,29.5050,28.2478,28.2478,28.2478,0
09/08/2013 00:00:00,28.9850,28.2478,28.2478,28.2478,0
08/08/2013 00:00:00,28.6800,28.2478,28.2478,28.2478,0
07/08/2013 00:00:00,28.5050,28.2478,28.2478,28.2478,0
06/08/2013 00:00:00,28.5550,28.2478,28.2478,28.2478,0
05/08/2013 00:00:00,28.3450,28.2478,28.2478,28.2478,41776
02/08/2013 00:00:00,28.4500,28.2478,28.2478,28.2478,25000
01/08/2013 00:00:00,28.2500,28.2478,28.2478,28.2478,0
31/07/2013 00:00:00,28.9350,28.3040,28.2478,28.2478,6765
30/07/2013 00:00:00,29.1350,28.9521,28.9521,28.9521,1866
29/07/2013 00:00:00,29.1050,28.9521,28.9521,28.9521,0
26/07/2013 00:00:00,29.3450,28.9521,28.9521,28.9521,15123
25/07/2013 00:00:00,29.2650,28.6629,28.6629,28.6629,0
24/07/2013 00:00:00,29.3500,28.6629,28.6629,28.6629,19657
23/07/2013 00:00:00,29.3650,28.6629,28.6629,28.6629,0
22/07/2013 00:00:00,29.4750,28.6629,28.6629,28.6629,0
19/07/2013 00:00:00,29.2800,28.6629,28.6629,28.6629,7298
18/07/2013 00:00:00,29.1550,28.6629,28.6629,28.6629,7088
17/07/2013 00:00:00,28.9800,28.6629,28.6629,28.6629,6014
16/07/2013 00:00:00,29.1650,28.6629,28.6579,28.6629,5980
15/07/2013 00:00:00,29.1050,28.9129,28.9129,28.9129,3952
12/07/2013 00:00:00,29.2800,29.1471,29.1471,29.1471,0
11/07/2013 00:00:00,29.4500,29.1471,29.1471,29.1471,8460
10/07/2013 00:00:00,29.0000,28.2778,28.2778,28.2778,0
09/07/2013 00:00:00,28.4000,28.2778,28.2778,28.2778,0
08/07/2013 00:00:00,28.3050,28.2778,28.2778,28.2778,35
05/07/2013 00:00:00,28.3050,28.2778,28.2778,28.2778,0
04/07/2013 00:00:00,28.0600,28.2778,27.9259,28.2778,2545
03/07/2013 00:00:00,28.0700,27.7812,27.7812,27.7812,0
02/07/2013 00:00:00,28.1200,27.7812,27.7812,27.7812,30
01/07/2013 00:00:00,28.5050,27.7812,27.7812,27.7812,0
28/06/2013 00:00:00,28.1750,27.7812,27.7812,27.7812,0
27/06/2013 00:00:00,28.0000,27.7812,27.6012,27.7812,8730
26/06/2013 00:00:00,27.9050,28.3200,27.9000,27.9000,6092
25/06/2013 00:00:00,26.5350,27.7078,27.4919,27.7078,753
24/06/2013 00:00:00,27.5150,27.1777,27.1777,27.1777,3423
21/06/2013 00:00:00,28.4300,27.7919,27.7919,27.7919,14
20/06/2013 00:00:00,28.5350,28.5904,28.0628,28.0628,1952
19/06/2013 00:00:00,29.1050,29.3533,29.1700,29.2879,16471
18/06/2013 00:00:00,29.7350,29.8600,29.5780,29.7584,8735
17/06/2013 00:00:00,29.0900,29.8627,29.7998,29.7998,9837
14/06/2013 00:00:00,29.1050,29.4050,29.3750,29.3825,1348
13/06/2013 00:00:00,29.3250,29.1821,29.1821,29.1821,0
12/06/2013 00:00:00,29.6200,29.1821,29.1821,29.1821,5088
11/06/2013 00:00:00,30.0900,30.0259,29.3729,29.3729,66030
10/06/2013 00:00:00,29.8900,30.1875,30.0000,30.0000,25596
07/06/2013 00:00:00,29.7750,30.1800,30.1800,30.1800,0
06/06/2013 00:00:00,31.1550,30.1800,30.1800,30.1800,0
05/06/2013 00:00:00,31.1550,30.3850,30.1800,30.1800,3795
04/06/2013 00:00:00,30.6700,30.5939,30.5939,30.5939,0
03/06/2013 00:00:00,31.1550,30.5939,30.5939,30.5939,0
31/05/2013 00:00:00,31.5150,30.6531,30.5761,30.5939,14648
30/05/2013 00:00:00,31.1550,31.1881,31.1881,31.1881,0
29/05/2013 00:00:00,31.1550,31.1881,31.1881,31.1881,2199
28/05/2013 00:00:00,31.1550,31.7550,31.7225,31.7550,2506
27/05/2013 00:00:00,,31.4000,31.4000,31.4000,0
24/05/2013 00:00:00,31.1550,31.4000,31.4000,31.4000,25000
23/05/2013 00:00:00,32.5000,31.3731,31.3731,31.3731,8905
22/05/2013 00:00:00,32.2800,32.2950,32.2950,32.2950,19000
21/05/2013 00:00:00,32.5000,32.0732,32.0732,32.0732,0
20/05/2013 00:00:00,32.5000,32.0732,32.0300,32.0732,30130
17/05/2013 00:00:00,32.3300,31.8200,31.7666,31.7666,9997
16/05/2013 00:00:00,32.5000,31.9732,31.9732,31.9732,0
15/05/2013 00:00:00,32.4050,31.9732,31.9732,31.9732,18209
14/05/2013 00:00:00,32.5000,31.8725,31.8725,31.8725,2831
13/05/2013 00:00:00,31.9250,31.8225,31.8225,31.8225,0
10/05/2013 00:00:00,32.5000,31.8625,31.8200,31.8225,800
09/05/2013 00:00:00,32.5000,32.6950,32.6650,32.6950,457
08/05/2013 00:00:00,32.5000,32.0550,32.0550,32.0550,0
07/05/2013 00:00:00,32.2600,32.0550,32.0550,32.0550,0
06/05/2013 00:00:00,32.0650,32.0800,32.0550,32.0550,552
03/05/2013 00:00:00,31.3750,31.9968,31.4550,31.9968,43750
02/05/2013 00:00:00,31.6800,31.4331,31.4331,31.4331,6567
01/05/2013 00:00:00,,31.6582,31.6582,31.6582,0
30/04/2013 00:00:00,32.5000,31.8025,31.6100,31.6582,16425
29/04/2013 00:00:00,32.0900,32.3600,31.7325,31.8200,21424
26/04/2013 00:00:00,32.4300,32.1618,32.1618,32.1618,0
25/04/2013 00:00:00,31.3200,32.3100,31.9450,32.1618,13613
24/04/2013 00:00:00,30.8900,31.7600,31.7600,31.7600,0
23/04/2013 00:00:00,31.2100,31.7600,31.7600,31.7600,40
22/04/2013 00:00:00,31.1200,31.3431,31.3000,31.3431,7283
19/04/2013 00:00:00,30.9450,31.0000,31.0000,31.0000,3600
18/04/2013 00:00:00,32.4100,31.4631,31.4631,31.4631,0
17/04/2013 00:00:00,32.2350,31.4631,31.4631,31.4631,12062
16/04/2013 00:00:00,32.4100,32.0985,31.7565,32.0032,5739
15/04/2013 00:00:00,32.4300,32.3182,32.3182,32.3182,0
12/04/2013 00:00:00,32.0700,32.5817,32.3182,32.3182,4481
11/04/2013 00:00:00,31.5750,32.5500,32.4075,32.5050,2295
10/04/2013 00:00:00,31.6750,31.7850,31.7850,31.7850,26183
09/04/2013 00:00:00,31.5750,31.6900,31.4969,31.6186,18976
08/04/2013 00:00:00,31.5750,31.5400,31.3300,31.3300,688
05/04/2013 00:00:00,32.2100,31.5464,31.5464,31.5464,590
04/04/2013 00:00:00,32.0200,32.2048,32.2048,32.2048,3000
03/04/2013 00:00:00,31.2700,31.0819,31.0819,31.0819,0
02/04/2013 00:00:00,31.0000,31.0819,31.0819,31.0819,0
28/03/2013 00:00:00,31.0000,31.0819,31.0819,31.0819,4803
27/03/2013 00:00:00,31.9450,31.7000,30.6000,30.7025,33721
26/03/2013 00:00:00,32.6600,32.3788,32.3788,32.3788,0
25/03/2013 00:00:00,33.0000,32.3788,32.3788,32.3788,0
22/03/2013 00:00:00,32.8750,32.3788,32.3400,32.3788,140
21/03/2013 00:00:00,33.0000,32.7600,32.4600,32.5100,7547
20/03/2013 00:00:00,32.5250,32.6700,32.6100,32.6350,1943
19/03/2013 00:00:00,32.8300,32.8900,32.4000,32.4000,5070
18/03/2013 00:00:00,33.0000,32.1931,32.0006,32.0006,518
15/03/2013 00:00:00,33.0000,32.7325,31.9900,32.3224,83761
14/03/2013 00:00:00,34.0500,33.3000,32.3832,32.3832,22121
13/03/2013 00:00:00,33.2600,33.5375,33.5375,33.5375,0
12/03/2013 00:00:00,33.2700,33.5400,33.5375,33.5375,24133
11/03/2013 00:00:00,33.0000,33.1783,33.1783,33.1783,5011
08/03/2013 00:00:00,33.1200,33.5123,33.5123,33.5123,3131
07/03/2013 00:00:00,33.1750,33.2550,33.2550,33.2550,0
06/03/2013 00:00:00,33.0000,33.2550,33.2550,33.2550,0
05/03/2013 00:00:00,32.7250,33.2550,33.2550,33.2550,1800
04/03/2013 00:00:00,32.9850,32.8305,32.8305,32.8305,0
01/03/2013 00:00:00,33.0600,32.8305,32.8305,32.8305,0
28/02/2013 00:00:00,33.0000,32.8305,32.8095,32.8305,2429
27/02/2013 00:00:00,33.4200,33.1217,33.1217,33.1217,5366
26/02/2013 00:00:00,33.0400,32.6000,32.6000,32.6000,0
25/02/2013 00:00:00,33.0000,32.6000,32.6000,32.6000,0
22/02/2013 00:00:00,33.0000,32.6000,32.6000,32.6000,0
21/02/2013 00:00:00,33.0000,32.6000,32.4700,32.6000,100000
20/02/2013 00:00:00,32.8600,33.1283,33.1283,33.1283,500
19/02/2013 00:00:00,32.7050,32.8400,32.8400,32.8400,66
18/02/2013 00:00:00,33.0000,32.5000,32.5000,32.5000,0
15/02/2013 00:00:00,32.8200,32.5000,32.5000,32.5000,10900
14/02/2013 00:00:00,32.8600,32.7083,32.7083,32.7083,0
13/02/2013 00:00:00,32.9350,32.7083,32.7083,32.7083,0
12/02/2013 00:00:00,32.7650,32.7083,32.7083,32.7083,0
11/02/2013 00:00:00,32.9000,32.7083,32.7083,32.7083,1483
08/02/2013 00:00:00,33.0000,32.6833,32.6833,32.6833,0
07/02/2013 00:00:00,32.9900,32.6833,32.6833,32.6833,3062
06/02/2013 00:00:00,33.0000,33.0733,33.0733,33.0733,2037
05/02/2013 00:00:00,33.0900,33.2933,33.2933,33.2933,0
04/02/2013 00:00:00,34.6500,33.2933,33.2933,33.2933,3056
01/02/2013 00:00:00,33.7350,34.1105,34.0374,34.1105,33824
31/01/2013 00:00:00,34.1350,33.7784,33.6712,33.7784,3394
30/01/2013 00:00:00,34.6500,34.2616,34.2616,34.2616,2775
29/01/2013 00:00:00,34.6500,34.2650,34.2650,34.2650,4000
28/01/2013 00:00:00,34.6500,33.8067,33.8067,33.8067,0
25/01/2013 00:00:00,34.0900,33.8067,33.8067,33.8067,0
24/01/2013 00:00:00,34.6500,33.8067,33.8067,33.8067,256
23/01/2013 00:00:00,34.6500,33.5884,33.5884,33.5884,958
22/01/2013 00:00:00,34.0200,33.9334,33.9334,33.9334,0
21/01/2013 00:00:00,34.6500,33.9334,33.9334,33.9334,1256
18/01/2013 00:00:00,34.6500,34.2000,34.0000,34.2000,14600
17/01/2013 00:00:00,34.6500,34.4116,34.4116,34.4116,6108
16/01/2013 00:00:00,34.6500,34.1850,34.1375,34.1600,1304
15/01/2013 00:00:00,34.6500,34.1534,34.1534,34.1534,0
14/01/2013 00:00:00,34.6500,34.1534,34.1534,34.1534,8240
11/01/2013 00:00:00,34.6500,34.3260,34.3260,34.3260,0
10/01/2013 00:00:00,34.6500,34.3260,34.3260,34.3260,0
09/01/2013 00:00:00,34.6500,34.3260,34.3260,34.3260,0
08/01/2013 00:00:00,34.6500,34.3260,34.3260,34.3260,0
07/01/2013 00:00:00,34.6500,34.3270,34.3260,34.3260,14000
04/01/2013 00:00:00,34.6500,34.7465,34.7465,34.7465,0
03/01/2013 00:00:00,34.6500,34.7465,34.7465,34.7465,0
02/01/2013 00:00:00,33.0750,34.7465,34.7465,34.7465,1647
01/01/2013 00:00:00,33.0750,33.9066,33.9066,33.9066,197
31/12/2012 00:00:00,33.0750,33.9066,33.9066,33.9066,197
28/12/2012 00:00:00,33.0750,34.1800,33.8134,33.8134,1281
27/12/2012 00:00:00,33.0750,34.1466,34.1466,34.1466,2010
26/12/2012 00:00:00,34.0600,34.0000,34.0000,34.0000,0
25/12/2012 00:00:00,34.0600,34.0000,34.0000,34.0000,0
24/12/2012 00:00:00,34.0600,34.0000,34.0000,34.0000,0
21/12/2012 00:00:00,33.0750,34.0000,33.7216,34.0000,1137
20/12/2012 00:00:00,33.0750,34.0000,34.0000,34.0000,9970
19/12/2012 00:00:00,33.0750,34.1266,34.1266,34.1266,6101
18/12/2012 00:00:00,33.0750,33.4712,33.4483,33.4483,1827
17/12/2012 00:00:00,33.0750,33.1247,33.1247,33.1247,29627
14/12/2012 00:00:00,33.0750,32.9865,32.9865,32.9865,0
13/12/2012 00:00:00,33.0750,32.9865,32.9550,32.9865,262
12/12/2012 00:00:00,33.0750,33.2812,33.2812,33.2812,0
11/12/2012 00:00:00,33.0750,33.2812,33.2812,33.2812,0
10/12/2012 00:00:00,33.0750,33.2812,33.2812,33.2812,0
07/12/2012 00:00:00,33.0750,33.2812,33.2812,33.2812,0
06/12/2012 00:00:00,33.0750,33.2812,33.2812,33.2812,300
05/12/2012 00:00:00,33.0750,32.4968,32.4968,32.4968,0
04/12/2012 00:00:00,33.0750,32.4968,32.4968,32.4968,0
03/12/2012 00:00:00,33.0750,32.4968,32.4968,32.4968,43778
30/11/2012 00:00:00,31.5000,32.7500,32.5385,32.7500,20213
29/11/2012 00:00:00,31.5000,31.0500,31.0500,31.0500,0
28/11/2012 00:00:00,31.5000,31.0500,31.0500,31.0500,0
27/11/2012 00:00:00,30.1500,31.0500,31.0500,31.0500,0
26/11/2012 00:00:00,30.1500,31.0500,31.0500,31.0500,18416
23/11/2012 00:00:00,30.1500,31.1200,31.1200,31.1200,79
22/11/2012 00:00:00,30.1500,30.2498,30.2498,30.2498,0
21/11/2012 00:00:00,30.1500,30.2498,30.2498,30.2498,0
20/11/2012 00:00:00,30.2200,30.3469,30.2007,30.2498,3190
19/11/2012 00:00:00,30.1500,29.8520,29.8520,29.8520,25626
16/11/2012 00:00:00,28.8500,30.5400,28.3250,30.0100,23442
15/11/2012 00:00:00,28.8500,28.4000,28.4000,28.4000,50000
14/11/2012 00:00:00,28.7850,28.6629,28.6629,28.6629,12789
13/11/2012 00:00:00,28.8500,28.8929,28.8929,28.8929,0
12/11/2012 00:00:00,28.8500,28.8929,28.8929,28.8929,0
09/11/2012 00:00:00,28.8500,28.8929,28.8929,28.8929,0
08/11/2012 00:00:00,28.8500,29.2621,28.8929,28.8929,4614
07/11/2012 00:00:00,28.8500,29.1729,29.1700,29.1729,32940
06/11/2012 00:00:00,28.8500,29.4300,29.4300,29.4300,0
05/11/2012 00:00:00,28.8500,29.4300,29.4300,29.4300,0
02/11/2012 00:00:00,29.6900,29.4300,29.4300,29.4300,0
01/11/2012 00:00:00,29.4500,29.4300,29.4300,29.4300,0
31/10/2012 00:00:00,28.8500,29.4300,29.4300,29.4300,0
30/10/2012 00:00:00,28.8500,29.4300,29.4300,29.4300,1000
29/10/2012 00:00:00,28.8500,29.6075,29.6075,29.6075,0
26/10/2012 00:00:00,28.8500,29.6075,29.6075,29.6075,0
25/10/2012 00:00:00,28.8500,29.6075,29.6075,29.6075,0
24/10/2012 00:00:00,28.8100,29.6075,29.6075,29.6075,0
23/10/2012 00:00:00,29.9250,29.6075,29.6075,29.6075,0
22/10/2012 00:00:00,29.9250,29.6075,29.6075,29.6075,0
19/10/2012 00:00:00,29.9250,29.6900,29.5950,29.6075,95
18/10/2012 00:00:00,28.6750,29.7250,29.7250,29.7250,0
17/10/2012 00:00:00,28.6750,29.7250,29.5112,29.7250,754
16/10/2012 00:00:00,28.6750,28.7467,28.7467,28.7467,177
15/10/2012 00:00:00,28.6750,28.2850,28.2850,28.2850,0
12/10/2012 00:00:00,28.6750,28.2850,28.2850,28.2850,0
11/10/2012 00:00:00,28.7500,28.2850,28.2850,28.2850,0
10/10/2012 00:00:00,28.7500,28.3325,28.2000,28.2850,845
09/10/2012 00:00:00,28.7500,28.5550,28.4050,28.4050,1745
08/10/2012 00:00:00,28.7500,28.5562,28.5562,28.5562,0
05/10/2012 00:00:00,28.7500,28.5562,28.5562,28.5562,342
04/10/2012 00:00:00,28.3750,28.5750,28.5750,28.5750,0
03/10/2012 00:00:00,28.1650,28.5750,28.5750,28.5750,0
02/10/2012 00:00:00,28.3650,28.5750,28.5750,28.5750,1000
01/10/2012 00:00:00,27.9850,28.4652,28.4652,28.4652,0
28/09/2012 00:00:00,28.6600,28.4652,28.4652,28.4652,0
27/09/2012 00:00:00,28.6300,28.4652,28.4652,28.4652,0
26/09/2012 00:00:00,28.6800,28.4652,28.4652,28.4652,6213
25/09/2012 00:00:00,28.8200,28.6733,28.6733,28.6733,5583
24/09/2012 00:00:00,28.9050,28.8300,28.6000,28.6000,4822
21/09/2012 00:00:00,29.1650,29.0000,29.0000,29.0000,4100
20/09/2012 00:00:00,28.9750,29.2452,29.2452,29.2452,0
19/09/2012 00:00:00,29.3450,29.2452,29.2452,29.2452,0
18/09/2012 00:00:00,29.2200,29.2452,29.2251,29.2452,47814
17/09/2012 00:00:00,29.4400,29.4000,29.3849,29.3849,36868
14/09/2012 00:00:00,29.2300,29.3380,29.3380,29.3380,400
13/09/2012 00:00:00,28.9150,28.7350,28.7350,28.7350,21326
12/09/2012 00:00:00,28.7150,29.1550,28.7800,28.7825,17840
11/09/2012 00:00:00,28.2700,28.3428,28.3428,28.3428,0
10/09/2012 00:00:00,28.2600,28.3428,28.3428,28.3428,0
07/09/2012 00:00:00,27.8500,28.3428,28.0528,28.3428,99
06/09/2012 00:00:00,27.1050,27.4050,27.4050,27.4050,9500
05/09/2012 00:00:00,26.9850,26.8593,26.8593,26.8593,0
04/09/2012 00:00:00,27.0400,26.8593,26.8593,26.8593,0
03/09/2012 00:00:00,26.9050,26.8593,26.8593,26.8593,0
31/08/2012 00:00:00,26.2800,26.9477,26.8593,26.8593,831
30/08/2012 00:00:00,26.2900,26.9223,26.9223,26.9223,0
29/08/2012 00:00:00,26.6600,26.9223,26.9223,26.9223,0
28/08/2012 00:00:00,26.9150,26.9223,26.9223,26.9223,0
27/08/2012 00:00:00,,26.9223,26.9223,26.9223,0
24/08/2012 00:00:00,27.0000,26.9223,26.9223,26.9223,0
23/08/2012 00:00:00,27.3750,26.9223,26.9223,26.9223,0
22/08/2012 00:00:00,27.7550,26.9223,26.9223,26.9223,0
21/08/2012 00:00:00,27.5150,26.9223,26.9223,26.9223,0
20/08/2012 00:00:00,27.9250,26.9223,26.9223,26.9223,0
17/08/2012 00:00:00,27.7350,26.9223,26.9223,26.9223,0
16/08/2012 00:00:00,27.2500,26.9223,26.9223,26.9223,0
15/08/2012 00:00:00,26.8600,26.9223,26.9223,26.9223,0
14/08/2012 00:00:00,26.7550,26.9223,26.9223,26.9223,306
13/08/2012 00:00:00,27.0300,26.9750,26.9750,26.9750,0
10/08/2012 00:00:00,26.7550,26.9750,26.9750,26.9750,2955
09/08/2012 00:00:00,26.9550,26.6863,26.6863,26.6863,0
08/08/2012 00:00:00,26.8600,26.6863,26.6863,26.6863,13552
07/08/2012 00:00:00,26.5550,26.7350,26.7350,26.7350,2800
06/08/2012 00:00:00,26.3550,26.6573,26.6573,26.6573,2462
03/08/2012 00:00:00,25.6500,25.6750,25.6750,25.6750,0
02/08/2012 00:00:00,26.6700,25.6750,25.6750,25.6750,916
01/08/2012 00:00:00,26.5550,25.6630,25.6630,25.6630,0
31/07/2012 00:00:00,26.7750,25.6630,25.6630,25.6630,0
30/07/2012 00:00:00,26.4500,25.6630,25.6630,25.6630,0
27/07/2012 00:00:00,26.3650,25.6630,25.6630,25.6630,0
26/07/2012 00:00:00,25.3850,25.6630,25.6630,25.6630,17406
25/07/2012 00:00:00,25.3550,26.1000,26.1000,26.1000,0
24/07/2012 00:00:00,25.5550,26.1000,26.1000,26.1000,0
23/07/2012 00:00:00,26.0800,26.1000,26.1000,26.1000,0
20/07/2012 00:00:00,26.7050,26.1000,26.1000,26.1000,0
19/07/2012 00:00:00,26.6900,26.1000,26.1000,26.1000,0
18/07/2012 00:00:00,26.2700,26.1000,26.1000,26.1000,0
17/07/2012 00:00:00,26.3150,26.1000,26.1000,26.1000,0
16/07/2012 00:00:00,26.3450,26.1000,26.1000,26.1000,0
13/07/2012 00:00:00,26.1050,26.1000,26.1000,26.1000,0
12/07/2012 00:00:00,26.2600,26.1000,26.1000,26.1000,0
11/07/2012 00:00:00,26.1250,26.1000,26.1000,26.1000,0
10/07/2012 00:00:00,26.3050,26.1000,26.1000,26.1000,0
09/07/2012 00:00:00,26.1450,26.1000,26.1000,26.1000,0
06/07/2012 00:00:00,26.3550,26.1500,26.1000,26.1000,235
05/07/2012 00:00:00,26.5550,26.5900,26.5900,26.5900,0
04/07/2012 00:00:00,26.5250,26.6550,26.5900,26.5900,429
03/07/2012 00:00:00,26.4300,26.5000,26.4400,26.5000,769
02/07/2012 00:00:00,25.9350,24.5900,24.5900,24.5900,0
29/06/2012 00:00:00,25.7450,24.5900,24.5900,24.5900,0
28/06/2012 00:00:00,24.8400,24.5900,24.5900,24.5900,0
27/06/2012 00:00:00,24.6200,24.5900,24.5900,24.5900,0
26/06/2012 00:00:00,25.0500,24.8050,24.5900,24.5900,14703
25/06/2012 00:00:00,25.3050,24.9575,24.9575,24.9575,0
22/06/2012 00:00:00,25.3650,24.9575,24.9575,24.9575,0
21/06/2012 00:00:00,25.6400,24.9575,24.9575,24.9575,0
20/06/2012 00:00:00,25.6900,24.9575,24.9575,24.9575,0
19/06/2012 00:00:00,24.8600,24.9575,24.9575,24.9575,0
18/06/2012 00:00:00,25.3250,24.9575,24.9575,24.9575,6
15/06/2012 00:00:00,24.6600,24.9475,24.5000,24.5000,21894
14/06/2012 00:00:00,24.5450,25.7974,25.7974,25.7974,0
13/06/2012 00:00:00,25.2800,25.7974,25.7974,25.7974,0
12/06/2012 00:00:00,25.5750,25.7974,25.7974,25.7974,0
11/06/2012 00:00:00,26.1150,25.7974,25.7974,25.7974,0
08/06/2012 00:00:00,25.4700,25.7974,25.7974,25.7974,0
07/06/2012 00:00:00,26.0200,25.7974,25.7974,25.7974,612
06/06/2012 00:00:00,24.9650,23.7958,23.7958,23.7958,0
05/06/2012 00:00:00,24.1750,23.8000,23.7500,23.7958,8138
04/06/2012 00:00:00,24.1750,23.8000,23.7500,23.7958,8138
01/06/2012 00:00:00,24.1750,23.8000,23.7500,23.7958,8138
31/05/2012 00:00:00,24.4400,24.2448,24.1272,24.1272,4322
30/05/2012 00:00:00,24.6000,24.4470,24.4470,24.4470,4200
29/05/2012 00:00:00,24.4500,24.0807,24.0807,24.0807,0
28/05/2012 00:00:00,24.5050,24.0807,24.0807,24.0807,0
25/05/2012 00:00:00,24.0900,24.0807,24.0807,24.0807,0
24/05/2012 00:00:00,24.2400,,,24.0807,
23/05/2012 00:00:00,24.5350,24.0807,24.0807,24.0807,612
22/05/2012 00:00:00,24.3650,,,27.1200,
21/05/2012 00:00:00,23.7150,,,27.1200,
18/05/2012 00:00:00,23.5050,,,27.1200,
17/05/2012 00:00:00,24.4100,,,27.1200,
16/05/2012 00:00:00,24.6600,,,27.1200,
15/05/2012 00:00:00,25.6900,,,27.1200,
14/05/2012 00:00:00,26.4300,,,27.1200,
11/05/2012 00:00:00,27.8900,,,27.1200,
10/05/2012 00:00:00,27.0400,27.2600,27.1200,27.1200,1051
09/05/2012 00:00:00,27.4500,,,28.0875,
08/05/2012 00:00:00,27.9050,28.1650,27.9175,28.0875,1468
07/05/2012 00:00:00,27.9175,28.1650,27.9175,28.0875,1468
04/05/2012 00:00:00,27.5450,,,28.0500,
03/05/2012 00:00:00,27.5850,,,28.0500,
02/05/2012 00:00:00,28.0300,28.0500,28.0500,28.0500,1000
01/05/2012 00:00:00,,,,27.3775,
30/04/2012 00:00:00,28.0300,,,27.3775,
27/04/2012 00:00:00,27.1750,,,27.3775,
26/04/2012 00:00:00,27.5550,,,27.3775,
25/04/2012 00:00:00,27.2300,,,27.3775,
24/04/2012 00:00:00,26.0500,,,27.3775,
23/04/2012 00:00:00,27.0900,,,27.3775,
20/04/2012 00:00:00,27.1350,,,27.3775,
19/04/2012 00:00:00,27.2000,,,27.3775,
18/04/2012 00:00:00,28.2300,27.3775,27.3775,27.3775,15309
17/04/2012 00:00:00,27.0000,28.3950,27.0200,28.3300,1829
16/04/2012 00:00:00,26.6500,,,26.8900,
13/04/2012 00:00:00,27.5350,26.8900,26.8900,26.8900,2743
12/04/2012 00:00:00,27.1850,,,26.8658,
11/04/2012 00:00:00,26.3050,,,26.8658,
10/04/2012 00:00:00,26.7050,,,26.8658,
05/04/2012 00:00:00,26.8000,26.8658,26.8658,26.8658,213
04/04/2012 00:00:00,27.7550,,,28.2950,
03/04/2012 00:00:00,28.3550,,,28.2950,
02/04/2012 00:00:00,27.8700,28.2950,28.2950,28.2950,374
30/03/2012 00:00:00,28.2100,,,29.5700,
29/03/2012 00:00:00,28.1550,,,29.5700,
27/03/2012 00:00:00,28.9750,,,29.5700,
26/03/2012 00:00:00,28.6700,,,29.5700,
23/03/2012 00:00:00,28.6200,,,29.5700,
22/03/2012 00:00:00,29.0700,,,29.5700,
21/03/2012 00:00:00,29.4600,,,29.5700,
20/03/2012 00:00:00,29.8600,29.5700,29.5700,29.5700,5000
19/03/2012 00:00:00,29.5650,29.9190,29.5100,29.9190,11316
16/03/2012 00:00:00,29.3850,,,28.6469,
15/03/2012 00:00:00,29.6100,,,28.6469,
14/03/2012 00:00:00,29.1150,28.6468,28.5081,28.6468,1442
13/03/2012 00:00:00,29.6900,29.6360,29.6360,29.6360,5000
12/03/2012 00:00:00,29.5050,,,28.7000,
09/03/2012 00:00:00,29.5250,,,28.7000,
08/03/2012 00:00:00,29.3350,,,28.7000,
07/03/2012 00:00:00,28.3850,28.7000,28.7000,28.7000,4841
06/03/2012 00:00:00,29.5850,,,29.6124,
05/03/2012 00:00:00,29.8900,29.6123,29.6123,29.6123,6045
02/03/2012 00:00:00,29.2100,,,28.7397,
01/03/2012 00:00:00,28.7550,,,28.7397,
29/02/2012 00:00:00,28.4300,28.7500,28.2850,28.7397,92722
28/02/2012 00:00:00,28.1750,,,28.2300,
27/02/2012 00:00:00,27.9050,,,28.2300,
24/02/2012 00:00:00,28.1850,,,28.2300,
23/02/2012 00:00:00,28.0300,,,28.2300,
22/02/2012 00:00:00,28.2600,28.2300,28.2300,28.2300,12
21/02/2012 00:00:00,28.4800,,,28.4500,
20/02/2012 00:00:00,28.5550,28.4500,28.4500,28.4500,10665
17/02/2012 00:00:00,28.4700,,,27.8500,
16/02/2012 00:00:00,28.1450,27.8500,27.8500,27.8500,25000
15/02/2012 00:00:00,28.2800,,,28.1130,
14/02/2012 00:00:00,28.4300,28.1130,28.1130,28.1130,17000
13/02/2012 00:00:00,30.4800,,,30.3850,
10/02/2012 00:00:00,30.7650,30.4025,30.3850,30.3850,15079
09/02/2012 00:00:00,31.0400,,,30.8900,
08/02/2012 00:00:00,31.1750,,,30.8900,
07/02/2012 00:00:00,31.0200,30.8900,30.8900,30.8900,1362
06/02/2012 00:00:00,31.1350,,,30.9908,
03/02/2012 00:00:00,30.6300,31.2100,30.9908,30.9908,2963
02/02/2012 00:00:00,30.8000,,,29.6200,
01/02/2012 00:00:00,29.8000,,,29.6200,
31/01/2012 00:00:00,29.5550,29.7000,29.6200,29.6200,5545
30/01/2012 00:00:00,29.7850,,,30.1650,
27/01/2012 00:00:00,29.9150,,,30.1650,
26/01/2012 00:00:00,30.0800,30.1750,30.1650,30.1650,7635
25/01/2012 00:00:00,30.1850,,,30.6710,
24/01/2012 00:00:00,30.8600,30.6710,30.6710,30.6710,171
23/01/2012 00:00:00,30.9650,,,29.8525,
20/01/2012 00:00:00,31.3450,,,29.8525,
19/01/2012 00:00:00,30.5450,,,29.8525,
18/01/2012 00:00:00,30.0300,,,29.8525,
17/01/2012 00:00:00,29.7850,30.1650,29.8525,29.8525,1202
16/01/2012 00:00:00,29.1450,29.5277,29.5277,29.5277,2244
13/01/2012 00:00:00,29.1450,,,28.7150,
12/01/2012 00:00:00,29.0400,,,28.7150,
11/01/2012 00:00:00,28.5850,,,28.7150,
10/01/2012 00:00:00,28.5450,28.7150,28.7150,28.7150,35000
09/01/2012 00:00:00,28.5750,28.6662,28.6662,28.6662,220
06/01/2012 00:00:00,28.7450,28.6053,28.6053,28.6053,22865
05/01/2012 00:00:00,28.6500,28.8570,28.6642,28.8565,56593
04/01/2012 00:00:00,28.7350,28.8100,28.6150,28.6344,806
03/01/2012 00:00:00,29.0600,28.8000,28.8000,28.8000,2228
30/12/2011 00:00:00,27.7150,,,26.6246,
29/12/2011 00:00:00,27.0900,,,26.6246,
28/12/2011 00:00:00,27.0800,,,26.6246,
27/12/2011 00:00:00,,,,26.6246,
26/12/2011 00:00:00,,,,26.6246,
23/12/2011 00:00:00,26.8200,,,26.6246,
22/12/2011 00:00:00,26.5050,26.6246,26.6246,26.6246,6350
21/12/2011 00:00:00,26.8900,,,26.3000,
20/12/2011 00:00:00,25.6900,,,26.3000,
19/12/2011 00:00:00,25.0700,,,26.3000,
16/12/2011 00:00:00,24.9050,24.9800,,26.3000,
15/12/2011 00:00:00,24.2600,24.8850,,26.3000,
14/12/2011 00:00:00,25.3550,,,26.3000,
13/12/2011 00:00:00,25.3650,25.6750,,26.3000,
12/12/2011 00:00:00,26.1050,,,26.3000,
09/12/2011 00:00:00,25.0200,26.2460,,26.3000,
08/12/2011 00:00:00,26.3750,26.3000,26.3000,26.3000,20425
07/12/2011 00:00:00,26.3650,26.1100,25.7710,25.7710,21378
06/12/2011 00:00:00,25.6000,26.1263,25.6625,26.0925,7906
05/12/2011 00:00:00,25.7650,25.9830,,23.5825,
02/12/2011 00:00:00,25.0400,,,23.5825,
01/12/2011 00:00:00,24.9250,,,23.5825,
30/11/2011 00:00:00,23.9450,,,23.5825,
29/11/2011 00:00:00,23.4200,23.5825,23.5410,23.5825,2763
28/11/2011 00:00:00,23.2400,,,23.9805,
25/11/2011 00:00:00,22.6000,,,23.9805,
24/11/2011 00:00:00,22.4600,,,23.9805,
23/11/2011 00:00:00,22.0800,,22.1210,23.9805,
22/11/2011 00:00:00,22.5950,,22.2050,23.9805,
21/11/2011 00:00:00,23.6000,,22.6200,23.9805,
18/11/2011 00:00:00,24.2300,24.3142,23.9810,23.9805,22604
17/11/2011 00:00:00,24.6300,,24.4750,24.8381,
16/11/2011 00:00:00,24.5150,24.8380,24.8245,24.8381,2781
15/11/2011 00:00:00,25.1450,24.7687,24.7690,24.7687,242
14/11/2011 00:00:00,26.0200,,25.3300,26.0048,
11/11/2011 00:00:00,24.9350,25.7350,,26.0048,
10/11/2011 00:00:00,24.6100,,24.7950,26.0048,
09/11/2011 00:00:00,25.8900,26.0050,26.0048,26.0048,5615
08/11/2011 00:00:00,25.8100,26.1550,,25.9650,
07/11/2011 00:00:00,25.5550,,25.7310,25.9650,
04/11/2011 00:00:00,26.1050,25.9650,25.5750,25.9650,55
03/11/2011 00:00:00,24.5150,25.8360,,25.5856,
02/11/2011 00:00:00,24.7650,,,25.5856,
01/11/2011 00:00:00,24.4300,,,25.5856,
31/10/2011 00:00:00,26.2100,,,25.5856,
28/10/2011 00:00:00,27.1450,,26.3450,25.5856,
27/10/2011 00:00:00,26.2100,,,25.5856,
26/10/2011 00:00:00,25.5350,25.5856,25.5860,25.5856,600
25/10/2011 00:00:00,25.7350,,25.7850,25.4072,
24/10/2011 00:00:00,25.8600,,,25.4072,
21/10/2011 00:00:00,24.9150,25.4070,25.4072,25.4072,1400
20/10/2011 00:00:00,24.7050,,,25.1800,
19/10/2011 00:00:00,25.3350,25.3860,25.1800,25.1800,924
18/10/2011 00:00:00,24.6300,24.9323,24.9320,24.9323,700
17/10/2011 00:00:00,25.9050,,,25.9875,
14/10/2011 00:00:00,25.5650,,,25.9875,
13/10/2011 00:00:00,25.8000,25.9880,25.5800,25.9875,12287
12/10/2011 00:00:00,24.8500,25.6460,,24.6820,
11/10/2011 00:00:00,24.7150,24.6820,24.6820,24.6820,28329
10/10/2011 00:00:00,23.9750,24.7110,24.4982,24.4982,3719
07/10/2011 00:00:00,23.9050,23.8700,23.8700,23.8700,416
06/10/2011 00:00:00,22.8400,23.2510,0.0000,22.8298,0
05/10/2011 00:00:00,22.5650,0.0000,0.0000,22.8298,0
04/10/2011 00:00:00,22.5950,0.0000,21.9710,22.8298,0
03/10/2011 00:00:00,22.6600,22.8298,22.6740,22.8298,3855
30/09/2011 00:00:00,23.4600,23.1685,22.7910,23.1685,600
29/09/2011 00:00:00,23.1050,23.5150,23.5150,23.5150,1200
28/09/2011 00:00:00,23.2100,0.0000,0.0000,23.2264,0
27/09/2011 00:00:00,22.6100,23.2260,23.2264,23.2264,4047
26/09/2011 00:00:00,21.4700,22.0870,0.0000,23.3600,0
23/09/2011 00:00:00,22.0400,0.0000,0.0000,23.3600,0
22/09/2011 00:00:00,22.4600,0.0000,22.0630,23.3600,0
21/09/2011 00:00:00,23.2200,0.0000,23.0260,23.3600,0
20/09/2011 00:00:00,22.7350,23.3600,23.3600,23.3600,1699
19/09/2011 00:00:00,23.2800,0.0000,0.0000,21.6324,0
16/09/2011 00:00:00,23.6800,0.0000,0.0000,21.6324,0
15/09/2011 00:00:00,22.8500,0.0000,0.0000,21.6324,0
14/09/2011 00:00:00,21.8600,0.0000,0.0000,21.6324,0
13/09/2011 00:00:00,22.5250,22.2210,0.0000,21.6324,0
12/09/2011 00:00:00,21.7650,21.6324,21.6320,21.6324,1200
09/09/2011 00:00:00,22.8800,23.0277,22.4970,23.0277,1251
08/09/2011 00:00:00,22.7650,23.0460,0.0000,23.0550,0
07/09/2011 00:00:00,22.2400,0.0000,0.0000,23.0550,0
06/09/2011 00:00:00,21.9750,,,23.0550,
05/09/2011 00:00:00,22.6000,,,23.0550,
02/09/2011 00:00:00,23.2500,23.3638,23.0469,23.0550,1808
01/09/2011 00:00:00,23.6400,,,23.5850,
31/08/2011 00:00:00,22.7150,23.5850,23.5850,23.5850,368
30/08/2011 00:00:00,22.5750,22.5860,22.5097,22.5097,35574
29/08/2011 00:00:00,,,,22.6280,
26/08/2011 00:00:00,22.3450,,,22.6280,
25/08/2011 00:00:00,22.7450,22.8450,,22.6280,
24/08/2011 00:00:00,22.4200,,,22.6280,
23/08/2011 00:00:00,22.5050,22.7160,22.6280,22.6280,3700
22/08/2011 00:00:00,23.0600,,,22.2387,
19/08/2011 00:00:00,22.8900,22.4200,22.2390,22.2387,6600
18/08/2011 00:00:00,24.2500,23.6663,22.6725,23.6425,3533
17/08/2011 00:00:00,26.4400,26.3218,26.3220,26.3218,1300
16/08/2011 00:00:00,26.7350,26.0645,26.0640,26.0645,800
15/08/2011 00:00:00,27.1050,26.9060,,26.7450,
12/08/2011 00:00:00,26.1650,26.7900,26.7450,26.7450,95
11/08/2011 00:00:00,25.9650,,,25.5712,
10/08/2011 00:00:00,26.3450,,,25.5712,
09/08/2011 00:00:00,24.5850,,,25.5712,
08/08/2011 00:00:00,25.4200,,,25.5712,
05/08/2011 00:00:00,25.3250,25.5712,25.5710,25.5712,600
04/08/2011 00:00:00,27.7850,,,27.8075,
03/08/2011 00:00:00,27.1650,28.0175,27.2510,27.8075,297
02/08/2011 00:00:00,28.9650,28.8422,28.8422,28.8422,6070
01/08/2011 00:00:00,29.9650,29.3982,28.9400,28.9400,1102
29/07/2011 00:00:00,28.8200,29.4200,,30.1559,
28/07/2011 00:00:00,29.2100,,29.2410,30.1559,
27/07/2011 00:00:00,29.8900,,,30.1559,
26/07/2011 00:00:00,30.2300,30.1560,30.0860,30.1559,1022
25/07/2011 00:00:00,30.0400,,30.1230,28.8406,
22/07/2011 00:00:00,30.2000,30.2560,,28.8406,
21/07/2011 00:00:00,29.3150,29.9660,,28.8406,
20/07/2011 00:00:00,29.0400,,,28.8406,
19/07/2011 00:00:00,28.5150,28.8710,28.7979,28.8406,68550
18/07/2011 00:00:00,29.2400,,,30.0667,
15/07/2011 00:00:00,29.6300,30.0670,29.3860,30.0667,37027
14/07/2011 00:00:00,30.6000,30.0140,30.0140,30.0140,190
13/07/2011 00:00:00,30.5150,30.7390,30.7394,30.7394,530
12/07/2011 00:00:00,30.5150,30.0758,30.0000,30.0758,6580
11/07/2011 00:00:00,31.8500,31.6259,31.6260,31.6259,330
08/07/2011 00:00:00,32.5350,32.5810,31.9510,32.5809,4419
07/07/2011 00:00:00,32.3150,32.3510,,32.0875,
06/07/2011 00:00:00,32.6500,32.2950,32.0880,32.0875,756
05/07/2011 00:00:00,33.0700,,32.7010,31.0709,
04/07/2011 00:00:00,32.9250,,,31.0709,
01/07/2011 00:00:00,32.7950,32.8490,,31.0709,
30/06/2011 00:00:00,31.9450,31.8610,,31.0709,
29/06/2011 00:00:00,31.2900,31.6450,,31.0709,
28/06/2011 00:00:00,31.0800,31.0710,30.9260,31.0709,480
27/06/2011 00:00:00,30.9050,31.0260,30.9800,31.0166,564
24/06/2011 00:00:00,31.1750,31.2210,31.0276,31.0276,760
23/06/2011 00:00:00,31.1650,,,31.5028,
22/06/2011 00:00:00,31.8100,,31.6260,31.5028,
21/06/2011 00:00:00,31.4100,31.5030,31.5028,31.5028,310
20/06/2011 00:00:00,31.6000,,,31.9750,
17/06/2011 00:00:00,31.5850,31.9750,31.9750,31.9750,77
16/06/2011 00:00:00,31.6400,,,32.0147,
15/06/2011 00:00:00,32.1450,32.0147,32.0147,32.0147,670
14/06/2011 00:00:00,31.6700,,,32.4569,
13/06/2011 00:00:00,31.7050,,,32.4569,
10/06/2011 00:00:00,31.9050,,,32.4569,
09/06/2011 00:00:00,31.6400,,,32.4569,
08/06/2011 00:00:00,32.2700,,,32.4569,
07/06/2011 00:00:00,32.5250,,,32.4569,
06/06/2011 00:00:00,32.5150,32.5488,32.4569,32.4569,2737
03/06/2011 00:00:00,32.6000,,,32.6417,
02/06/2011 00:00:00,32.3350,,,32.6417,
01/06/2011 00:00:00,33.0400,32.6417,32.6417,32.6417,6492
31/05/2011 00:00:00,32.4100,,,32.3250,
30/05/2011 00:00:00,,,,32.3250,
27/05/2011 00:00:00,32.2900,,,32.3250,
26/05/2011 00:00:00,32.3150,32.3250,32.3250,32.3250,2
25/05/2011 00:00:00,31.6900,,,32.7547,
24/05/2011 00:00:00,32.1550,,,32.7547,
23/05/2011 00:00:00,32.6100,,,32.7547,
20/05/2011 00:00:00,32.7150,32.7547,32.7544,32.7547,1538
19/05/2011 00:00:00,33.0800,,,33.0550,
18/05/2011 00:00:00,32.9450,33.0550,32.8500,33.0550,257
17/05/2011 00:00:00,32.9250,,,32.9623,
16/05/2011 00:00:00,32.6000,32.9623,32.9623,32.9623,7008
13/05/2011 00:00:00,35.4600,34.6067,34.6067,34.6067,110
12/05/2011 00:00:00,35.1450,34.9776,34.9776,34.9776,2237
11/05/2011 00:00:00,35.8500,,,35.3300,
10/05/2011 00:00:00,35.0300,,,35.3300,
09/05/2011 00:00:00,35.1350,,,35.3300,
06/05/2011 00:00:00,35.0400,,,35.3300,
05/05/2011 00:00:00,35.2600,35.3300,35.3300,35.3300,18
04/05/2011 00:00:00,36.0600,,,35.9825,
03/05/2011 00:00:00,36.1250,36.3000,35.9825,35.9825,8754
02/05/2011 00:00:00,,,,36.1100,
29/04/2011 00:00:00,,,,36.1100,
28/04/2011 00:00:00,35.8900,36.1100,36.1100,36.1100,1302
27/04/2011 00:00:00,36.3650,,,36.2461,
26/04/2011 00:00:00,36.5750,,,36.2461,
25/04/2011 00:00:00,,,,36.2461,
21/04/2011 00:00:00,36.6300,,,36.2461,
20/04/2011 00:00:00,35.9050,,,36.2461,
19/04/2011 00:00:00,35.4600,,,36.2461,
18/04/2011 00:00:00,36.3050,,,36.2461,
15/04/2011 00:00:00,36.3650,36.2461,36.2461,36.2461,20204
14/04/2011 00:00:00,36.5050,,,36.0981,
13/04/2011 00:00:00,36.2100,,,36.0981,
12/04/2011 00:00:00,36.5950,36.2881,35.9350,36.0981,2080
11/04/2011 00:00:00,36.9950,,,36.6500,
08/04/2011 00:00:00,36.7550,,,36.6500,
07/04/2011 00:00:00,36.9350,36.6500,36.6500,36.6500,753
06/04/2011 00:00:00,37.4900,,,36.3000,
05/04/2011 00:00:00,38.1050,,,36.3000,
04/04/2011 00:00:00,37.8300,38.4050,36.3000,36.3000,4278
01/04/2011 00:00:00,37.6400,,,37.3150,
31/03/2011 00:00:00,37.4200,37.3150,37.3150,37.3150,40
30/03/2011 00:00:00,36.9950,,,36.5150,
29/03/2011 00:00:00,36.6800,36.5150,36.5150,36.5150,750
28/03/2011 00:00:00,36.5150,,,36.6390,
25/03/2011 00:00:00,36.5250,36.6390,36.2525,36.6390,248
24/03/2011 00:00:00,35.9550,,,35.9600,
23/03/2011 00:00:00,35.4600,35.9600,35.9600,35.9600,570
22/03/2011 00:00:00,36.1550,,,35.9639,
21/03/2011 00:00:00,34.8200,35.9639,34.8250,35.9639,1021
18/03/2011 00:00:00,34.7450,34.9174,34.8250,34.8250,19542
17/03/2011 00:00:00,33.8200,,,34.0000,
16/03/2011 00:00:00,32.2000,34.0000,34.0000,34.0000,25000
15/03/2011 00:00:00,34.0600,34.6700,34.6700,34.6700,472
14/03/2011 00:00:00,35.3750,34.9400,34.9400,34.9400,100
11/03/2011 00:00:00,35.4500,,,36.4600,
10/03/2011 00:00:00,35.7250,,,36.4600,
09/03/2011 00:00:00,35.9050,,,36.4600,
08/03/2011 00:00:00,36.1650,,,36.4600,
07/03/2011 00:00:00,36.8100,36.4600,36.4600,36.4600,26
04/03/2011 00:00:00,36.1150,,,36.8000,
03/03/2011 00:00:00,36.9450,,,36.8000,
02/03/2011 00:00:00,37.3850,36.8200,36.3231,36.8000,2090
01/03/2011 00:00:00,37.8700,,,37.0928,
28/02/2011 00:00:00,37.3050,,,37.0928,
25/02/2011 00:00:00,37.0700,37.0928,36.9750,37.0928,2081
24/02/2011 00:00:00,35.6000,,,36.4950,
23/02/2011 00:00:00,36.4600,,,36.4950,
22/02/2011 00:00:00,37.8100,36.6800,36.3900,36.4950,985
21/02/2011 00:00:00,37.4500,,,38.0100,
18/02/2011 00:00:00,37.4400,,,38.0100,
17/02/2011 00:00:00,37.9650,,,38.0100,
16/02/2011 00:00:00,37.9250,,,38.0100,
15/02/2011 00:00:00,37.7350,38.0100,37.7639,38.0100,4218
14/02/2011 00:00:00,36.4100,,,35.9549,
10/02/2011 00:00:00,35.9549,35.9549,35.9549,36.2900,666
09/02/2011 00:00:00,36.3500,36.3500,36.3500,36.2500,1170
08/02/2011 00:00:00,,,,36.2100,
07/02/2011 00:00:00,36.2000,36.4540,36.2000,36.4000,2678
04/02/2011 00:00:00,,,,35.8000,
03/02/2011 00:00:00,35.7725,35.7725,35.5400,35.7400,374
02/02/2011 00:00:00,36.4537,36.4537,36.4537,35.6000,39
01/02/2011 00:00:00,35.4900,35.4900,35.4900,36.4000,16638
31/01/2011 00:00:00,,,,35.1500,
28/01/2011 00:00:00,,,,35.0000,
27/01/2011 00:00:00,,,,35.0900,
26/01/2011 00:00:00,,,,35.3300,
25/01/2011 00:00:00,34.9750,34.9750,34.9750,34.9200,4868
24/01/2011 00:00:00,,,,35.1800,
21/01/2011 00:00:00,34.2800,34.6362,34.2800,34.9500,18706
20/01/2011 00:00:00,34.1300,34.4475,34.1025,34.3600,2147
19/01/2011 00:00:00,35.0900,35.0900,34.8600,34.8400,571
18/01/2011 00:00:00,35.0950,35.0950,35.0950,35.1700,227
17/01/2011 00:00:00,34.5400,34.5400,34.5400,34.4300,179
14/01/2011 00:00:00,,,,34.0800,
13/01/2011 00:00:00,34.6241,34.6241,34.6241,33.8600,1414
12/01/2011 00:00:00,,,,34.5400,
11/01/2011 00:00:00,,,,33.9900,
10/01/2011 00:00:00,34.0007,34.0007,33.8917,34.0000,23923
07/01/2011 00:00:00,,,,34.1900,
06/01/2011 00:00:00,,,,34.4400,
05/01/2011 00:00:00,34.3650,34.5581,33.9725,34.4800,14300
04/01/2011 00:00:00,,,,35.1200,
03/01/2011 00:00:00,35.7304,35.7304,35.7304,0.0000,16507
31/12/2010 00:00:00,,,,35.7200,
29/12/2010 00:00:00,35.2497,35.2497,35.2099,35.4100,833
24/12/2010 00:00:00,,,,35.0500,
22/12/2010 00:00:00,,,,35.2000,
21/12/2010 00:00:00,35.6908,35.6963,35.6908,35.6100,352
20/12/2010 00:00:00,35.1920,35.3837,35.1920,35.5300,15322
17/12/2010 00:00:00,34.9705,34.9705,34.9705,35.2100,10000
16/12/2010 00:00:00,,,,34.9800,
15/12/2010 00:00:00,34.5350,34.8603,34.5350,34.8500,1153
14/12/2010 00:00:00,34.7850,34.7850,34.7850,34.7800,7058
13/12/2010 00:00:00,,,,34.3600,
10/12/2010 00:00:00,,,,33.9900,
09/12/2010 00:00:00,,,,33.9900,
08/12/2010 00:00:00,34.5800,34.5925,34.3500,34.3500,5024
07/12/2010 00:00:00,34.8471,34.9700,34.8471,34.7600,166920
06/12/2010 00:00:00,34.6550,34.8485,34.6550,34.8500,216
03/12/2010 00:00:00,34.2150,34.2150,33.9769,34.0600,47082
02/12/2010 00:00:00,,,,34.0900,
01/12/2010 00:00:00,,,,34.0100,
30/11/2010 00:00:00,32.7863,32.8088,32.7863,33.0100,1977
29/11/2010 00:00:00,,,,32.5500,
26/11/2010 00:00:00,,,,33.7800,
25/11/2010 00:00:00,,,,33.8200,
24/11/2010 00:00:00,33.6774,33.6774,33.6774,33.7100,290
23/11/2010 00:00:00,,,,33.3600,
22/11/2010 00:00:00,33.5450,33.5450,33.5450,33.6900,106
19/11/2010 00:00:00,32.4825,32.4825,32.2815,32.8600,7641
18/11/2010 00:00:00,32.7500,32.7500,32.7150,32.6900,15200
17/11/2010 00:00:00,29.6900,29.6900,29.6900,29.7100,1005
16/11/2010 00:00:00,,,,29.9800,
15/11/2010 00:00:00,,,,30.5700,
12/11/2010 00:00:00,,,,30.2400,
11/11/2010 00:00:00,,,,30.2200,
10/11/2010 00:00:00,,,,30.6700,
09/11/2010 00:00:00,,,,30.3100,
08/11/2010 00:00:00,,,,30.0600,
05/11/2010 00:00:00,30.3100,30.3100,30.3100,30.3900,117
04/11/2010 00:00:00,,,,29.9300,
03/11/2010 00:00:00,,,,29.1400,
02/11/2010 00:00:00,29.4775,29.5825,29.3950,29.3800,3922
01/11/2010 00:00:00,,,,29.4500,
29/10/2010 00:00:00,,,,29.1200,
28/10/2010 00:00:00,30.3850,30.3850,30.1450,29.5700,1292
27/10/2010 00:00:00,30.5200,30.5200,30.5200,30.4500,300
26/10/2010 00:00:00,31.0560,31.0560,31.0560,31.0400,365
25/10/2010 00:00:00,,,,31.0200,
22/10/2010 00:00:00,30.7650,30.7650,30.7650,31.0500,7059
21/10/2010 00:00:00,30.7196,30.7196,30.7196,30.7600,128
20/10/2010 00:00:00,30.8000,30.8000,30.8000,30.8300,25000
19/10/2010 00:00:00,,,,30.6000,
18/10/2010 00:00:00,,,,31.0600,
15/10/2010 00:00:00,,,,31.1900,
14/10/2010 00:00:00,,,,31.0100,
13/10/2010 00:00:00,,,,0.0000,
12/10/2010 00:00:00,,,,29.8800,
11/10/2010 00:00:00,,,,30.1800,
08/10/2010 00:00:00,30.5650,30.5650,30.1500,30.3200,569
07/10/2010 00:00:00,30.8168,30.8168,30.8168,30.5600,1130
06/10/2010 00:00:00,31.4565,31.4565,31.4565,31.3900,81
05/10/2010 00:00:00,30.3900,30.8050,30.3177,30.9200,1861
04/10/2010 00:00:00,,,,30.0100,
01/10/2010 00:00:00,,,,30.3700,
30/09/2010 00:00:00,30.7850,30.7850,30.7850,30.7700,452
29/09/2010 00:00:00,,,,31.0300,
28/09/2010 00:00:00,,,,30.8500,
27/09/2010 00:00:00,30.3700,30.3700,30.2085,30.0800,9817
24/09/2010 00:00:00,29.7400,30.2375,29.7400,30.2200,1731
23/09/2010 00:00:00,30.0025,30.0025,30.0025,30.0100,110
22/09/2010 00:00:00,,,,30.4300,
21/09/2010 00:00:00,,,,30.7400,
20/09/2010 00:00:00,,,,30.1800,
17/09/2010 00:00:00,30.2050,30.3365,29.9925,29.8700,11691
16/09/2010 00:00:00,30.3400,30.3548,30.2125,30.2900,2837
15/09/2010 00:00:00,,,,30.7200,
14/09/2010 00:00:00,,,,30.7900,
13/09/2010 00:00:00,29.7690,29.7690,29.7690,29.7400,287
10/09/2010 00:00:00,29.5450,29.5450,29.5450,29.4600,1857
09/09/2010 00:00:00,,,,29.4400,
08/09/2010 00:00:00,,,,29.0400,
07/09/2010 00:00:00,,,,28.3600,
06/09/2010 00:00:00,28.6800,28.6800,28.6800,28.6200,2862
03/09/2010 00:00:00,29.0925,29.1575,28.7575,28.8000,2990
02/09/2010 00:00:00,29.4450,29.6997,29.2025,29.2600,9926
01/09/2010 00:00:00,29.4950,29.5131,29.4900,29.9900,10115
31/08/2010 00:00:00,28.9525,29.4400,28.9525,29.4300,109
27/08/2010 00:00:00,,,,29.3200,
26/08/2010 00:00:00,,,,29.1100,
25/08/2010 00:00:00,,,,27.9700,
24/08/2010 00:00:00,,,,28.3900,
23/08/2010 00:00:00,30.0050,30.0050,30.0050,29.5800,9311
20/08/2010 00:00:00,31.8175,31.8175,30.8950,30.4900,24839
19/08/2010 00:00:00,33.4200,33.4200,33.3000,33.2600,22000
18/08/2010 00:00:00,32.7100,32.7100,32.5000,33.0300,586
17/08/2010 00:00:00,31.7300,31.9255,31.5500,32.2000,24681
16/08/2010 00:00:00,,,,31.1700,
13/08/2010 00:00:00,,,,30.8700,
12/08/2010 00:00:00,,,,30.8400,
11/08/2010 00:00:00,,,,30.9600,
10/08/2010 00:00:00,,,,32.1300,
09/08/2010 00:00:00,,,,32.3400,
06/08/2010 00:00:00,32.2875,32.2875,32.2875,31.7700,98
05/08/2010 00:00:00,32.6750,32.7900,32.5950,32.5900,1311
04/08/2010 00:00:00,32.6200,32.6200,32.6200,32.5700,11921
03/08/2010 00:00:00,32.4300,32.4300,32.2050,32.2500,2960
02/08/2010 00:00:00,,,,32.7300,
30/07/2010 00:00:00,31.6850,31.6850,31.6850,31.7300,425
29/07/2010 00:00:00,32.7600,32.7600,32.7600,32.4000,4524
28/07/2010 00:00:00,32.6600,32.6600,32.6600,32.4900,2633
27/07/2010 00:00:00,32.9650,32.9650,32.9650,32.6200,320
26/07/2010 00:00:00,32.8659,32.8659,32.8659,32.8600,746
23/07/2010 00:00:00,32.5325,32.5325,32.5325,32.6900,2
22/07/2010 00:00:00,32.1250,32.5250,32.0975,32.6100,325
21/07/2010 00:00:00,31.5800,31.6175,31.5100,31.6900,284
20/07/2010 00:00:00,,,,30.9100,
19/07/2010 00:00:00,,,,31.1400,
16/07/2010 00:00:00,32.9375,32.9375,32.2400,31.6500,8394
15/07/2010 00:00:00,33.0029,33.0029,33.0029,32.6400,3990
14/07/2010 00:00:00,33.0445,33.0445,33.0445,32.9500,444
13/07/2010 00:00:00,32.9761,32.9761,32.9761,32.9600,3812
12/07/2010 00:00:00,,,,32.7900,
09/07/2010 00:00:00,,,,32.6200,
08/07/2010 00:00:00,32.8803,32.8803,32.8803,32.8800,1420
07/07/2010 00:00:00,,,,32.7800,
06/07/2010 00:00:00,,,,32.6500,
05/07/2010 00:00:00,,,,31.3600,
02/07/2010 00:00:00,31.7335,31.7335,31.7335,31.6000,6720
01/07/2010 00:00:00,31.6250,31.9700,31.6250,31.5700,3139
30/06/2010 00:00:00,32.1050,32.1995,32.1050,32.1100,665
29/06/2010 00:00:00,,,,32.2600,
28/06/2010 00:00:00,,,,34.3300,
25/06/2010 00:00:00,33.7700,33.8000,33.3700,33.3300,1400
24/06/2010 00:00:00,34.5700,34.5775,34.2350,33.7700,31949
23/06/2010 00:00:00,36.3629,36.3629,35.6650,35.7300,8168
22/06/2010 00:00:00,,,,36.3200,
21/06/2010 00:00:00,,,,35.7100,
18/06/2010 00:00:00,35.2625,35.2625,35.0610,34.9500,264
17/06/2010 00:00:00,34.9750,35.1775,34.9750,35.0600,142
16/06/2010 00:00:00,34.7400,34.7400,34.7400,34.7600,660
15/06/2010 00:00:00,,,,35.2000,
14/06/2010 00:00:00,34.5000,34.5000,34.5000,34.5100,4582
11/06/2010 00:00:00,33.9550,33.9550,33.9216,34.0200,20666
10/06/2010 00:00:00,,,,34.1600,
09/06/2010 00:00:00,32.3262,32.3262,32.3262,32.6000,2867
08/06/2010 00:00:00,,,,31.3700,
07/06/2010 00:00:00,,,,31.5900,
04/06/2010 00:00:00,,,,31.5300,
03/06/2010 00:00:00,32.2250,32.2425,31.9725,31.9900,3818
02/06/2010 00:00:00,31.1660,31.1660,31.1660,31.6400,128
01/06/2010 00:00:00,,,,31.1900,
28/05/2010 00:00:00,,,,30.7100,
27/05/2010 00:00:00,30.3750,30.3750,30.3750,30.7900,99
26/05/2010 00:00:00,29.4297,29.4297,29.4297,29.4200,77
25/05/2010 00:00:00,27.9400,27.9400,27.9400,27.7600,645
24/05/2010 00:00:00,,,,28.7700,
21/05/2010 00:00:00,,,,28.6800,
20/05/2010 00:00:00,,,,28.1800,
19/05/2010 00:00:00,30.5825,30.5825,29.7775,29.5100,719
18/05/2010 00:00:00,,,,30.7200,
17/05/2010 00:00:00,,,,30.5200,
14/05/2010 00:00:00,,,,31.2000,
13/05/2010 00:00:00,,,,33.2400,
12/05/2010 00:00:00,33.5588,33.5588,33.5588,33.4600,15
