Date,Open Price,High,Low,Close Price,Volume,
24/12/2014 00:00:00,,,,38.5450,0
23/12/2014 00:00:00,,,,38.5450,0
22/12/2014 00:00:00,,38.5450,38.5450,38.5450,0
19/12/2014 00:00:00,38.4450,38.7900,38.4450,38.5450,74274
18/12/2014 00:00:00,38.5350,38.7000,38.4650,38.5050,114918
17/12/2014 00:00:00,38.5000,38.5400,38.4500,38.5050,110055
16/12/2014 00:00:00,38.4400,38.7000,38.4400,38.5150,153887
15/12/2014 00:00:00,38.6000,38.6100,38.4000,38.5500,92775
12/12/2014 00:00:00,38.5450,38.7000,38.5450,38.6450,46733
11/12/2014 00:00:00,38.5500,38.6600,38.4700,38.6000,48475
10/12/2014 00:00:00,38.4900,38.5450,38.3800,38.5450,61781
09/12/2014 00:00:00,38.1550,38.8000,38.1550,38.4600,120685
08/12/2014 00:00:00,35.4750,39.0000,35.4600,38.1950,359949
05/12/2014 00:00:00,35.3000,35.7050,35.3000,35.7050,45518
04/12/2014 00:00:00,35.8450,35.9850,35.2150,35.5650,76720
03/12/2014 00:00:00,35.8650,36.0100,35.5150,35.6000,36145
02/12/2014 00:00:00,36.0000,36.6950,35.4700,35.6550,80828
01/12/2014 00:00:00,36.2600,36.8400,35.6550,36.0000,66531
28/11/2014 00:00:00,35.4450,36.1650,34.9950,36.0000,95925
27/11/2014 00:00:00,34.0000,35.5350,34.0000,35.3550,145686
26/11/2014 00:00:00,34.1400,34.1900,32.8450,34.0250,128560
25/11/2014 00:00:00,36.3400,36.7350,34.8600,34.8600,138418
24/11/2014 00:00:00,36.4500,36.9100,36.3450,36.4100,55269
21/11/2014 00:00:00,36.4650,37.6000,36.2550,36.2550,176976
20/11/2014 00:00:00,37.6050,38.4000,36.3950,36.3950,174976
19/11/2014 00:00:00,39.3850,40.8850,37.2050,37.9000,359667
18/11/2014 00:00:00,39.6600,39.7900,37.7550,39.5400,238340
17/11/2014 00:00:00,40.1900,40.1900,39.4650,39.9750,242906
14/11/2014 00:00:00,40.3050,40.3150,39.6900,40.2050,1234589
13/11/2014 00:00:00,40.4000,40.7700,40.2000,40.5000,419784
12/11/2014 00:00:00,39.7050,40.0550,39.3500,39.8450,691831
11/11/2014 00:00:00,39.3800,39.8900,39.1250,39.1250,1671263
10/11/2014 00:00:00,39.7100,40.5150,38.5100,39.4500,7002666
07/11/2014 00:00:00,39.4500,40.1100,38.6250,40.0000,779868
06/11/2014 00:00:00,38.9000,39.4150,38.2700,38.8900,2826436
05/11/2014 00:00:00,39.0250,39.2500,38.7950,39.0000,281233
04/11/2014 00:00:00,39.3100,39.3450,38.6400,38.7550,199312
03/11/2014 00:00:00,38.9800,39.3950,38.9800,39.2000,278309
31/10/2014 00:00:00,39.2800,39.3200,38.8650,38.9850,313028
30/10/2014 00:00:00,38.4500,38.7400,38.0650,38.7400,360879
29/10/2014 00:00:00,38.4750,38.6300,38.2850,38.4350,346633
28/10/2014 00:00:00,38.1400,38.6200,38.1200,38.4600,377384
27/10/2014 00:00:00,38.2800,38.3850,37.9100,38.0600,357740
24/10/2014 00:00:00,37.6250,38.1250,37.4050,38.1050,352810
23/10/2014 00:00:00,37.4350,37.7750,37.2650,37.6700,705082
22/10/2014 00:00:00,37.4650,37.6850,37.3400,37.3500,369792
21/10/2014 00:00:00,36.6100,37.4250,36.4100,37.3000,633656
20/10/2014 00:00:00,36.5200,36.7250,36.1250,36.6150,334884
17/10/2014 00:00:00,35.9550,36.5750,35.8650,36.5300,718208
16/10/2014 00:00:00,35.8950,36.2900,34.8750,36.0900,567716
15/10/2014 00:00:00,36.3850,36.4600,35.3600,35.6200,407256
14/10/2014 00:00:00,36.5800,36.7050,36.2450,36.4900,475647
13/10/2014 00:00:00,36.6950,36.8200,36.4600,36.6400,411746
10/10/2014 00:00:00,36.6200,37.1800,36.6200,36.9000,603340
09/10/2014 00:00:00,36.8650,37.2650,36.8250,36.9300,286967
08/10/2014 00:00:00,36.6300,36.9300,36.6300,36.7650,238533
07/10/2014 00:00:00,37.0100,37.1850,36.6950,36.9150,328834
06/10/2014 00:00:00,37.2650,37.4250,37.0700,37.1150,278969
03/10/2014 00:00:00,36.8050,37.4100,36.6400,37.1950,420698
02/10/2014 00:00:00,36.7250,36.9800,36.5500,36.6800,374580
01/10/2014 00:00:00,36.8750,37.3700,36.5500,36.8600,443447
30/09/2014 00:00:00,37.2250,37.3800,36.9800,37.0900,348733
29/09/2014 00:00:00,37.1400,37.4100,37.0100,37.2000,379646
26/09/2014 00:00:00,36.8350,37.2500,36.6550,37.1450,255341
25/09/2014 00:00:00,37.1600,37.5200,36.7100,36.9050,463362
24/09/2014 00:00:00,37.0150,37.0800,36.7250,37.0800,335473
23/09/2014 00:00:00,36.7700,36.8750,36.6000,36.8750,427276
22/09/2014 00:00:00,37.0600,37.3400,36.8000,37.0000,431517
19/09/2014 00:00:00,36.6950,37.4000,36.6150,37.1000,1155827
18/09/2014 00:00:00,36.4400,36.6900,36.4400,36.5300,227433
17/09/2014 00:00:00,36.4700,36.8350,36.4400,36.6050,495146
16/09/2014 00:00:00,36.5850,36.5850,36.3650,36.5550,384637
15/09/2014 00:00:00,36.4250,36.6000,36.4250,36.5550,493213
12/09/2014 00:00:00,36.4300,36.6900,36.3200,36.6000,1027693
11/09/2014 00:00:00,35.4350,36.5150,35.3550,36.2150,1933700
10/09/2014 00:00:00,35.2050,35.4800,35.0450,35.3850,497657
09/09/2014 00:00:00,35.2600,35.4050,35.1550,35.3250,384462
08/09/2014 00:00:00,35.5100,35.5100,35.0850,35.3150,373929
05/09/2014 00:00:00,35.6400,35.6450,35.2300,35.4750,449695
04/09/2014 00:00:00,35.4600,35.7250,35.2850,35.6400,674030
03/09/2014 00:00:00,35.7150,35.9250,35.3500,35.5400,706203
02/09/2014 00:00:00,36.1000,36.1500,35.6700,35.8450,445560
01/09/2014 00:00:00,36.2000,36.2500,35.9000,36.0950,186851
29/08/2014 00:00:00,36.2650,36.4500,36.0950,36.2000,445667
28/08/2014 00:00:00,35.8600,36.4650,35.7750,36.3000,624005
27/08/2014 00:00:00,35.4200,35.8750,35.2950,35.8000,708341
26/08/2014 00:00:00,34.9750,35.4950,34.8850,35.4200,771836
25/08/2014 00:00:00,35.3450,35.4100,34.9950,35.1100,247560
22/08/2014 00:00:00,35.2500,35.3350,34.9200,35.2000,345230
21/08/2014 00:00:00,35.2250,35.2400,35.0000,35.1850,238248
20/08/2014 00:00:00,35.0550,35.2100,34.9650,35.1550,371890
19/08/2014 00:00:00,35.2050,35.2800,34.9600,35.1000,480905
18/08/2014 00:00:00,35.2600,35.4250,35.1050,35.2000,464963
15/08/2014 00:00:00,34.5200,35.3250,34.5200,35.0850,804241
14/08/2014 00:00:00,34.1050,34.6250,34.0600,34.4950,396885
13/08/2014 00:00:00,34.0600,34.3100,34.0550,34.1000,302352
12/08/2014 00:00:00,34.0400,34.1100,33.9250,33.9950,177611
11/08/2014 00:00:00,33.8600,34.1800,33.6000,34.0500,826588
08/08/2014 00:00:00,33.6200,33.8800,33.2100,33.7800,1029798
07/08/2014 00:00:00,34.1050,34.2100,33.8800,33.9000,963266
06/08/2014 00:00:00,33.7150,34.3600,33.4650,34.2250,701526
05/08/2014 00:00:00,33.9300,34.0150,33.7650,33.8850,470882
04/08/2014 00:00:00,33.8700,33.9200,33.7300,33.8800,517811
01/08/2014 00:00:00,33.5400,33.8650,33.2150,33.8450,597648
31/07/2014 00:00:00,33.8750,34.0950,33.5950,33.6850,533241
30/07/2014 00:00:00,33.9200,34.1350,33.8750,34.0600,409121
29/07/2014 00:00:00,34.0000,34.1850,33.8500,34.0000,390596
28/07/2014 00:00:00,34.2150,34.2350,33.8850,34.0600,403152
25/07/2014 00:00:00,34.3300,34.4100,34.0650,34.2050,277673
24/07/2014 00:00:00,34.4850,34.4850,34.2300,34.4400,341081
23/07/2014 00:00:00,34.5250,34.7150,34.3200,34.4700,503677
22/07/2014 00:00:00,34.6000,34.8000,34.3100,34.5050,525802
21/07/2014 00:00:00,34.6300,34.9150,34.5500,34.6450,543003
18/07/2014 00:00:00,34.3000,34.5850,34.2800,34.3500,713029
17/07/2014 00:00:00,34.0600,34.5500,34.0600,34.4050,434382
16/07/2014 00:00:00,34.2450,34.6800,34.2450,34.4600,433321
15/07/2014 00:00:00,34.0050,34.4500,34.0000,34.1450,881308
14/07/2014 00:00:00,33.7100,34.1100,33.7100,33.9400,501550
11/07/2014 00:00:00,33.5350,33.8050,33.4650,33.7050,501163
10/07/2014 00:00:00,33.9800,33.9800,33.3900,33.5600,621715
09/07/2014 00:00:00,33.8100,33.9400,33.4950,33.9250,238051
08/07/2014 00:00:00,33.9500,33.9800,33.6500,33.7250,488582
07/07/2014 00:00:00,34.0550,34.2150,33.9050,33.9450,489097
04/07/2014 00:00:00,34.2800,34.3000,34.0500,34.1200,130513
03/07/2014 00:00:00,34.1450,34.4300,34.0250,34.2000,670293
02/07/2014 00:00:00,33.8750,34.2300,33.7200,34.1000,851346
01/07/2014 00:00:00,33.9300,34.0800,33.5400,33.9300,422882
30/06/2014 00:00:00,33.6700,33.9450,33.6600,33.7700,514575
27/06/2014 00:00:00,33.7050,33.7200,33.4600,33.6100,512251
26/06/2014 00:00:00,33.5000,33.7750,33.2300,33.6250,438728
25/06/2014 00:00:00,33.2000,33.5600,33.1250,33.4200,371433
24/06/2014 00:00:00,33.1100,33.5000,32.9400,33.3350,372634
23/06/2014 00:00:00,33.1400,33.2500,32.9750,33.0750,259662
20/06/2014 00:00:00,33.1400,33.2750,32.9500,33.0650,1030699
19/06/2014 00:00:00,33.3000,33.3350,33.1600,33.2200,424838
18/06/2014 00:00:00,33.5750,33.5950,33.2850,33.3600,816896
17/06/2014 00:00:00,33.6400,33.6400,33.4150,33.5900,370461
16/06/2014 00:00:00,33.8050,33.8050,33.4050,33.4950,507011
13/06/2014 00:00:00,34.0700,34.0700,33.5900,33.8650,593662
12/06/2014 00:00:00,34.1400,34.4750,34.1400,34.2400,439847
11/06/2014 00:00:00,34.5000,34.6400,34.2750,34.3950,364216
10/06/2014 00:00:00,34.3700,34.6300,34.2150,34.5700,466123
09/06/2014 00:00:00,34.3450,34.6300,34.2500,34.6250,270321
06/06/2014 00:00:00,34.4050,34.4500,34.0000,34.2400,447015
05/06/2014 00:00:00,34.4150,34.4150,33.9650,34.3150,537443
04/06/2014 00:00:00,34.4250,34.4250,34.1700,34.2300,306763
03/06/2014 00:00:00,34.6200,34.6300,34.1900,34.3250,445181
02/06/2014 00:00:00,34.4700,34.6650,34.4200,34.5600,291205
30/05/2014 00:00:00,34.4800,34.8800,34.4600,34.5850,796517
29/05/2014 00:00:00,34.4800,34.6700,34.3000,34.5050,245105
28/05/2014 00:00:00,34.3500,34.6200,34.2050,34.3650,593542
27/05/2014 00:00:00,34.7150,35.1650,34.4350,34.4350,648302
26/05/2014 00:00:00,34.5000,34.6600,34.4500,34.6600,150917
23/05/2014 00:00:00,34.3350,34.5350,34.1650,34.3500,414900
22/05/2014 00:00:00,34.1200,34.6650,33.8400,34.4200,789096
21/05/2014 00:00:00,33.6350,34.3000,33.2250,34.1250,640897
20/05/2014 00:00:00,33.8850,33.9300,33.4800,33.5750,359764
19/05/2014 00:00:00,33.4750,33.9400,33.4000,33.7950,362034
16/05/2014 00:00:00,33.5000,33.6300,33.2950,33.4050,519947
15/05/2014 00:00:00,33.6950,33.7750,33.3400,33.4650,508988
14/05/2014 00:00:00,33.8000,33.9000,33.5450,33.6600,261700
13/05/2014 00:00:00,33.5600,33.8300,33.2500,33.7200,437575
12/05/2014 00:00:00,33.1000,33.5800,33.0250,33.4200,408286
09/05/2014 00:00:00,32.9050,33.1000,32.6300,32.9950,373909
08/05/2014 00:00:00,32.8500,33.1900,32.6200,33.0450,540288
07/05/2014 00:00:00,32.5500,33.2800,32.5500,33.0400,543404
06/05/2014 00:00:00,32.5500,32.8250,32.2950,32.6900,690125
05/05/2014 00:00:00,31.9300,32.4300,31.7300,32.3850,302906
02/05/2014 00:00:00,31.3100,32.1550,31.2100,32.1200,682369
30/04/2014 00:00:00,31.0650,31.3200,31.0100,31.2800,560584
29/04/2014 00:00:00,31.3500,31.6150,31.1450,31.2350,354468
28/04/2014 00:00:00,31.3650,31.4400,31.1800,31.3000,611779
25/04/2014 00:00:00,31.5700,31.6700,31.3800,31.4000,328330
24/04/2014 00:00:00,31.5950,31.7950,31.4600,31.7750,418179
23/04/2014 00:00:00,31.5800,31.6700,31.3700,31.6150,329136
22/04/2014 00:00:00,31.0100,31.5750,30.9950,31.5400,433132
17/04/2014 00:00:00,30.8500,31.2000,30.6750,31.2000,680115
16/04/2014 00:00:00,30.7850,31.0000,30.7400,30.9000,460720
15/04/2014 00:00:00,30.9850,30.9850,30.6550,30.8250,900964
14/04/2014 00:00:00,30.8350,31.1050,30.5000,30.9700,565193
11/04/2014 00:00:00,31.5000,31.5000,30.7550,30.9900,847253
10/04/2014 00:00:00,31.9000,32.5000,31.7150,31.8150,980673
09/04/2014 00:00:00,31.4200,31.8200,31.4200,31.6550,523689
08/04/2014 00:00:00,31.9000,31.9000,31.0650,31.4750,801343
07/04/2014 00:00:00,32.4700,32.6000,31.7450,31.9650,879967
04/04/2014 00:00:00,32.7900,32.8650,32.5000,32.6400,536178
03/04/2014 00:00:00,32.3600,32.7700,32.1300,32.7000,863867
02/04/2014 00:00:00,32.1950,32.4700,32.0850,32.4650,491971
01/04/2014 00:00:00,32.3450,32.3550,32.0250,32.2500,588284
31/03/2014 00:00:00,32.3350,32.4500,32.0900,32.2500,365632
28/03/2014 00:00:00,31.7600,32.4300,31.7550,32.2750,554340
27/03/2014 00:00:00,31.6350,31.8600,31.3100,31.6700,474190
26/03/2014 00:00:00,31.7700,31.9800,31.5800,31.7900,641602
25/03/2014 00:00:00,31.8950,32.1950,31.7400,31.8450,535477
24/03/2014 00:00:00,32.3500,32.4350,31.9550,32.0150,925045
21/03/2014 00:00:00,32.3800,32.5000,32.0850,32.1800,1058448
20/03/2014 00:00:00,32.1950,32.3750,31.9350,32.3050,1632156
19/03/2014 00:00:00,32.5000,32.5000,32.1500,32.4050,623054
18/03/2014 00:00:00,32.7050,32.7050,32.2100,32.5000,553870
17/03/2014 00:00:00,32.6100,32.7650,32.4400,32.6350,705334
14/03/2014 00:00:00,32.4950,32.8700,32.3350,32.6950,720797
13/03/2014 00:00:00,32.8300,33.1950,32.5550,32.7350,772567
12/03/2014 00:00:00,32.7650,32.9200,32.6250,32.8000,467628
11/03/2014 00:00:00,32.9900,33.0000,32.5000,32.8100,789544
10/03/2014 00:00:00,32.9800,33.1050,32.8100,32.9200,390556
07/03/2014 00:00:00,33.2600,33.2800,32.9750,33.1000,608795
06/03/2014 00:00:00,32.9850,33.1300,32.9100,33.0800,1069392
05/03/2014 00:00:00,33.3050,33.3050,32.7450,32.8500,668183
04/03/2014 00:00:00,33.0350,33.6000,32.7450,33.4150,762604
03/03/2014 00:00:00,32.8450,33.0300,32.5550,32.8950,548840
28/02/2014 00:00:00,33.0450,33.2650,32.7050,33.1500,925350
27/02/2014 00:00:00,32.8950,33.0500,32.3800,32.9250,669776
26/02/2014 00:00:00,33.3000,33.3000,32.9000,32.9400,854737
25/02/2014 00:00:00,33.4600,33.5250,33.2700,33.3000,522409
24/02/2014 00:00:00,33.3800,33.5900,33.0500,33.5700,791231
21/02/2014 00:00:00,33.6550,33.7000,33.3050,33.5000,973261
20/02/2014 00:00:00,33.4850,33.7600,33.4100,33.6550,568810
19/02/2014 00:00:00,33.4000,33.6950,33.3800,33.5700,1190634
18/02/2014 00:00:00,32.8050,33.3100,32.5700,33.1350,1376350
17/02/2014 00:00:00,32.8100,32.9400,32.7050,32.7950,283909
14/02/2014 00:00:00,32.9400,32.9650,32.5800,32.8700,855870
13/02/2014 00:00:00,32.8100,32.9500,32.3150,32.8800,937991
12/02/2014 00:00:00,32.5900,32.9400,32.4650,32.8000,1095236
11/02/2014 00:00:00,32.3250,32.5450,32.1000,32.4650,844289
10/02/2014 00:00:00,32.2700,32.2800,31.9250,32.1550,626342
07/02/2014 00:00:00,32.0200,32.2400,31.6900,32.1450,1391597
06/02/2014 00:00:00,31.8000,32.0450,31.4800,31.9250,1768957
05/02/2014 00:00:00,31.9500,32.0650,31.6350,31.7650,1894006
04/02/2014 00:00:00,31.9600,31.9900,31.7100,31.8450,1571070
03/02/2014 00:00:00,32.3000,32.3750,31.9400,32.1200,1539799
31/01/2014 00:00:00,32.6100,32.7500,32.0850,32.2350,2710460
30/01/2014 00:00:00,32.3050,32.4700,31.8250,32.4400,2015553
29/01/2014 00:00:00,32.7500,32.9900,32.2400,32.4200,2256548
28/01/2014 00:00:00,32.4000,32.4750,32.0150,32.3900,3608471
27/01/2014 00:00:00,33.7500,33.8500,31.0100,32.3000,6842596
24/01/2014 00:00:00,33.6100,33.9500,32.8950,33.2500,959690
23/01/2014 00:00:00,33.3000,33.7600,33.1100,33.5800,496829
22/01/2014 00:00:00,33.7000,33.9600,33.6450,33.7800,312924
21/01/2014 00:00:00,33.5150,33.9500,33.5100,33.7500,510863
20/01/2014 00:00:00,33.5500,33.6900,33.4150,33.5150,175989
17/01/2014 00:00:00,33.2900,33.7000,33.1300,33.6350,423422
16/01/2014 00:00:00,33.4000,33.6150,33.0600,33.2450,281216
15/01/2014 00:00:00,33.6850,33.6850,33.3650,33.4950,419478
14/01/2014 00:00:00,33.7900,33.7900,33.3300,33.4500,452919
13/01/2014 00:00:00,33.7350,33.8900,33.6000,33.8000,396048
10/01/2014 00:00:00,33.5400,33.7950,33.4000,33.6500,504813
09/01/2014 00:00:00,33.4700,33.5450,33.0250,33.4500,451182
08/01/2014 00:00:00,33.4500,33.5800,33.1300,33.4500,427427
07/01/2014 00:00:00,33.9500,34.0000,33.4200,33.4300,738011
06/01/2014 00:00:00,32.5400,34.0000,32.4450,33.7700,1006483
03/01/2014 00:00:00,32.9050,32.9050,32.5600,32.6000,243798
02/01/2014 00:00:00,33.4250,33.5000,32.6150,32.6200,288958
31/12/2013 00:00:00,33.1650,33.2000,32.9600,33.2000,54178
30/12/2013 00:00:00,33.2250,33.2450,32.8400,33.0750,135519
27/12/2013 00:00:00,33.2000,33.3000,32.7000,33.0850,250077
24/12/2013 00:00:00,33.0000,33.1200,32.8300,33.0850,198872
23/12/2013 00:00:00,33.1000,33.1700,32.9250,33.0200,132789
20/12/2013 00:00:00,33.1000,33.3000,32.7700,33.0550,625659
19/12/2013 00:00:00,33.0000,33.1450,32.7400,33.0000,468527
18/12/2013 00:00:00,32.4950,32.8800,32.3800,32.8400,415120
17/12/2013 00:00:00,32.2000,32.5500,32.1300,32.3500,445953
16/12/2013 00:00:00,32.3500,32.4000,32.1000,32.1500,449076
13/12/2013 00:00:00,32.5200,32.8250,32.3000,32.3500,1006670
12/12/2013 00:00:00,30.9850,33.9750,30.7600,32.5000,2279711
11/12/2013 00:00:00,30.9200,31.2400,30.8250,30.8500,254913
10/12/2013 00:00:00,30.8050,30.9600,30.5150,30.8700,347369
09/12/2013 00:00:00,30.7650,31.2750,30.6250,30.8800,353513
06/12/2013 00:00:00,30.8000,30.9200,30.5150,30.6850,372518
05/12/2013 00:00:00,31.0700,31.0700,30.7350,30.7950,257457
04/12/2013 00:00:00,31.3100,31.4050,30.8650,31.1400,380325
03/12/2013 00:00:00,31.4650,31.5850,31.1000,31.2450,364774
02/12/2013 00:00:00,31.5000,31.6200,31.3550,31.5900,214998
29/11/2013 00:00:00,31.7700,31.8550,31.4300,31.5400,378190
28/11/2013 00:00:00,32.0000,32.2050,31.7850,31.8500,214770
27/11/2013 00:00:00,31.7850,32.1350,31.6050,32.0000,381437
26/11/2013 00:00:00,31.7800,31.8800,31.6700,31.6750,437238
25/11/2013 00:00:00,31.7000,31.7750,31.5100,31.7450,251540
22/11/2013 00:00:00,31.6350,31.7650,31.5000,31.5550,261713
21/11/2013 00:00:00,31.5000,31.6900,31.5000,31.6400,354224
20/11/2013 00:00:00,31.6500,32.2500,31.4500,31.5350,710731
19/11/2013 00:00:00,31.8050,31.8750,31.6000,31.6500,259995
18/11/2013 00:00:00,32.0800,32.1700,31.8300,31.9200,241982
15/11/2013 00:00:00,32.0700,32.5000,31.9850,32.1400,366286
14/11/2013 00:00:00,31.8700,32.0450,31.7550,31.9950,319911
13/11/2013 00:00:00,31.3000,31.6000,31.1800,31.5600,383428
12/11/2013 00:00:00,31.2800,31.4500,31.2300,31.3900,495395
11/11/2013 00:00:00,31.5700,31.5700,31.1500,31.2750,353310
08/11/2013 00:00:00,31.7250,31.8850,31.4050,31.5000,387594
07/11/2013 00:00:00,31.8700,32.1400,31.7000,32.0000,483039
06/11/2013 00:00:00,32.0050,32.1800,31.8700,31.9700,421423
05/11/2013 00:00:00,32.0000,32.2300,31.8400,32.0800,614555
04/11/2013 00:00:00,31.7150,31.9800,31.5500,31.9650,468095
01/11/2013 00:00:00,31.8450,31.8450,31.4500,31.5950,156993
31/10/2013 00:00:00,31.3000,31.7650,31.1400,31.6050,588753
30/10/2013 00:00:00,31.5600,31.8800,31.1900,31.2800,547821
29/10/2013 00:00:00,31.4350,31.6700,31.2150,31.6350,484660
28/10/2013 00:00:00,31.1200,31.4800,31.0450,31.3900,294021
25/10/2013 00:00:00,31.0000,31.2400,31.0000,31.0550,260619
24/10/2013 00:00:00,31.3400,31.5000,31.0050,31.0850,302538
23/10/2013 00:00:00,31.3050,31.4900,30.9250,31.2800,490901
22/10/2013 00:00:00,31.4500,31.4500,31.0700,31.2000,341907
21/10/2013 00:00:00,31.0900,31.5000,31.0000,31.2650,447254
18/10/2013 00:00:00,30.8300,31.1950,30.7200,30.9950,916720
17/10/2013 00:00:00,30.9350,31.0000,30.3000,30.4000,1250757
16/10/2013 00:00:00,29.2000,32.1800,29.0200,31.2000,4414897
15/10/2013 00:00:00,29.4800,29.5000,29.1700,29.2350,403202
14/10/2013 00:00:00,29.2750,29.4950,29.2700,29.4850,216009
11/10/2013 00:00:00,29.2450,29.4800,29.0650,29.4400,429485
10/10/2013 00:00:00,28.7900,29.2500,28.6600,29.0250,401571
09/10/2013 00:00:00,29.1000,29.1000,28.5650,28.7750,747895
08/10/2013 00:00:00,29.3500,29.5150,29.1500,29.2150,600803
07/10/2013 00:00:00,29.5850,29.5950,29.2650,29.4250,261860
04/10/2013 00:00:00,29.6900,29.7600,29.5300,29.7250,231292
03/10/2013 00:00:00,29.7550,29.9050,29.6800,29.7150,323345
02/10/2013 00:00:00,29.9000,29.9750,29.4350,29.6400,290175
01/10/2013 00:00:00,29.9500,29.9500,29.7950,29.9000,378494
30/09/2013 00:00:00,29.9650,30.1000,29.7900,29.9400,555658
27/09/2013 00:00:00,30.4600,30.4950,30.2050,30.3200,362946
26/09/2013 00:00:00,30.4900,30.5750,30.2800,30.3700,284645
25/09/2013 00:00:00,30.5750,30.7750,30.1650,30.3050,448014
24/09/2013 00:00:00,30.6750,30.7500,30.4650,30.4650,440989
23/09/2013 00:00:00,30.7000,30.7550,30.4400,30.5800,580549
20/09/2013 00:00:00,30.4600,30.7500,30.3800,30.3800,2340939
19/09/2013 00:00:00,30.9800,30.9800,30.3350,30.7000,683221
18/09/2013 00:00:00,30.6000,30.9000,30.6000,30.7500,402173
17/09/2013 00:00:00,31.0700,31.0700,30.5450,30.6550,423664
16/09/2013 00:00:00,31.1200,31.3300,30.8550,31.0000,275924
13/09/2013 00:00:00,31.0950,31.2650,30.8550,31.0600,466895
12/09/2013 00:00:00,31.3000,31.3000,30.8500,31.0950,525218
11/09/2013 00:00:00,31.2900,31.3900,31.0700,31.2950,357949
10/09/2013 00:00:00,30.8600,31.3550,30.8600,31.2100,439292
09/09/2013 00:00:00,31.1500,31.2550,30.5800,30.8000,526183
06/09/2013 00:00:00,31.3550,31.7150,31.0200,31.2000,689365
05/09/2013 00:00:00,30.4700,30.9150,30.2300,30.9150,432414
04/09/2013 00:00:00,29.9750,30.6950,29.9100,30.3900,489102
03/09/2013 00:00:00,30.1950,30.3500,29.8350,29.9200,413016
02/09/2013 00:00:00,30.3000,31.0750,30.3000,30.9050,458359
30/08/2013 00:00:00,29.4050,30.0050,29.3000,30.0050,1484140
29/08/2013 00:00:00,29.6450,30.1400,29.5200,29.6900,541564
28/08/2013 00:00:00,29.6600,29.9100,29.3000,29.4750,321279
27/08/2013 00:00:00,30.0350,30.1750,29.7100,29.7100,270505
26/08/2013 00:00:00,30.3600,30.5250,30.1900,30.2000,83185
23/08/2013 00:00:00,30.3650,30.5650,30.2500,30.3600,205462
22/08/2013 00:00:00,30.1500,30.4150,29.9700,30.1900,225348
21/08/2013 00:00:00,30.5100,30.9000,30.2400,30.2400,370839
20/08/2013 00:00:00,30.2000,30.2200,29.7750,30.0600,248386
19/08/2013 00:00:00,30.1250,30.2150,29.9850,30.1450,411911
16/08/2013 00:00:00,30.0750,30.2750,29.9300,30.1250,421334
15/08/2013 00:00:00,30.1900,30.2500,29.8000,30.1500,294968
14/08/2013 00:00:00,30.9300,30.9300,29.8300,30.2350,585132
13/08/2013 00:00:00,30.9300,30.9300,30.6000,30.8950,269539
12/08/2013 00:00:00,30.7500,30.9800,30.6300,30.8350,302903
09/08/2013 00:00:00,30.5600,30.7300,30.4150,30.6400,746796
08/08/2013 00:00:00,29.6000,30.1050,29.3850,29.9850,368271
07/08/2013 00:00:00,29.5300,29.5450,29.1950,29.3000,612022
06/08/2013 00:00:00,29.8600,29.8700,29.3050,29.5050,369382
05/08/2013 00:00:00,30.0900,30.1300,29.5450,29.8000,184999
02/08/2013 00:00:00,30.3600,30.3600,29.9000,29.9600,308571
01/08/2013 00:00:00,30.0400,30.2100,29.7450,30.2100,439334
31/07/2013 00:00:00,29.0500,29.9850,29.0200,29.8600,881013
30/07/2013 00:00:00,28.8000,29.3200,28.6150,29.2500,590219
29/07/2013 00:00:00,29.3000,29.6000,28.6200,28.7800,1372217
26/07/2013 00:00:00,27.8750,28.1750,27.8000,27.9400,558879
25/07/2013 00:00:00,27.5600,27.8750,27.4300,27.8450,841825
24/07/2013 00:00:00,27.5450,27.6850,26.9750,27.5350,1107578
23/07/2013 00:00:00,28.1000,28.1800,27.3950,27.5400,906481
22/07/2013 00:00:00,28.7400,28.7400,28.0000,28.0500,579498
19/07/2013 00:00:00,29.4300,29.6200,28.8100,28.8950,985677
18/07/2013 00:00:00,29.3600,30.1250,28.8500,30.0000,905571
17/07/2013 00:00:00,30.8250,31.2350,30.7500,30.9200,531103
16/07/2013 00:00:00,31.2250,31.2950,30.7450,30.8200,230100
15/07/2013 00:00:00,31.0000,31.3150,31.0000,31.2050,318927
12/07/2013 00:00:00,30.8050,31.2500,30.6850,30.9500,243310
11/07/2013 00:00:00,31.2100,31.3900,30.5650,30.8000,376219
10/07/2013 00:00:00,31.0750,31.3400,30.6650,31.1500,256014
09/07/2013 00:00:00,30.9150,31.1500,30.8350,31.1000,393845
08/07/2013 00:00:00,30.6100,31.0000,30.6100,30.9100,253541
05/07/2013 00:00:00,30.7050,30.7450,30.1150,30.5500,338197
04/07/2013 00:00:00,31.1000,31.1000,30.3350,30.7100,426766
03/07/2013 00:00:00,30.9050,31.6400,30.8700,31.1100,278797
02/07/2013 00:00:00,31.0300,31.5200,30.6850,30.9600,240181
01/07/2013 00:00:00,31.2900,31.5200,30.5400,30.9100,1467872
28/06/2013 00:00:00,30.4000,31.5100,30.3750,30.7500,711738
27/06/2013 00:00:00,28.9500,30.6450,28.9300,30.3650,558862
26/06/2013 00:00:00,28.7950,29.4400,28.7400,28.9450,392682
25/06/2013 00:00:00,28.8350,29.0150,28.6850,28.8000,364069
24/06/2013 00:00:00,29.1700,29.4000,28.4900,28.5700,616228
21/06/2013 00:00:00,29.6050,30.2350,28.8000,28.8000,1177545
20/06/2013 00:00:00,29.4000,29.5900,29.0500,29.5000,390973
19/06/2013 00:00:00,30.0000,30.1000,29.5000,29.6200,547917
18/06/2013 00:00:00,29.8950,30.0000,29.6000,29.7150,517012
17/06/2013 00:00:00,29.8500,30.0200,29.6100,29.7650,414163
14/06/2013 00:00:00,29.6000,29.9650,29.4650,29.6900,518268
13/06/2013 00:00:00,29.3500,29.7500,29.1000,29.7100,597974
12/06/2013 00:00:00,28.4000,29.8000,28.4000,29.5750,1045091
11/06/2013 00:00:00,28.2500,28.3000,28.0650,28.3000,284951
10/06/2013 00:00:00,28.2500,28.4000,28.1500,28.1900,201250
07/06/2013 00:00:00,28.0000,28.4850,28.0000,28.2000,396532
06/06/2013 00:00:00,28.3200,28.3200,27.9550,28.0000,399082
05/06/2013 00:00:00,27.5200,28.2100,27.5200,27.9850,351129
04/06/2013 00:00:00,27.8100,27.8100,27.5000,27.6500,382757
03/06/2013 00:00:00,27.7900,28.2750,27.5000,27.5600,386636
31/05/2013 00:00:00,27.9000,27.9900,27.4250,27.9000,3094800
30/05/2013 00:00:00,28.1650,28.2800,27.7350,27.9550,388391
29/05/2013 00:00:00,28.6650,28.6950,28.1050,28.2200,367986
28/05/2013 00:00:00,28.3950,29.0050,28.3950,28.8200,466935
27/05/2013 00:00:00,28.1500,28.5000,28.1500,28.4100,120845
24/05/2013 00:00:00,27.9250,28.2300,27.8450,28.1250,286959
23/05/2013 00:00:00,28.2800,28.2850,27.7900,27.9900,352812
22/05/2013 00:00:00,28.8000,28.9250,28.4200,28.6050,514640
21/05/2013 00:00:00,28.8000,28.8650,28.5000,28.8000,330469
20/05/2013 00:00:00,28.6650,28.7500,28.5850,28.7500,163912
17/05/2013 00:00:00,28.5350,28.7300,28.5100,28.6900,398471
16/05/2013 00:00:00,28.3800,28.7000,28.3700,28.5350,458204
15/05/2013 00:00:00,28.4750,28.6500,28.2100,28.5900,545261
14/05/2013 00:00:00,27.9500,28.4300,27.9500,28.4000,433324
13/05/2013 00:00:00,27.8050,28.2000,27.8050,28.0550,353500
10/05/2013 00:00:00,27.6500,28.2550,27.6050,27.8450,711081
09/05/2013 00:00:00,27.2450,27.6350,27.1300,27.5500,379895
08/05/2013 00:00:00,27.5500,27.6400,26.9000,27.2950,1007386
07/05/2013 00:00:00,26.7400,27.7700,26.7400,27.5500,1261768
06/05/2013 00:00:00,26.8600,26.9800,26.5100,26.6200,523047
03/05/2013 00:00:00,26.8500,27.0750,26.8200,26.8500,496503
02/05/2013 00:00:00,27.1850,27.1850,26.7450,26.8000,491336
30/04/2013 00:00:00,27.0550,27.3500,26.6000,27.2150,1072402
29/04/2013 00:00:00,26.7500,27.0500,26.7300,27.0300,1292204
26/04/2013 00:00:00,26.5500,26.7600,25.7250,26.7000,7186446
25/04/2013 00:00:00,27.5650,28.0000,27.5650,27.8450,318294
24/04/2013 00:00:00,27.2500,27.5300,27.0150,27.5050,375853
23/04/2013 00:00:00,27.0950,27.2850,26.8000,27.2200,516726
22/04/2013 00:00:00,27.0750,27.6250,26.9500,27.0000,485708
19/04/2013 00:00:00,27.7000,28.3300,27.4500,28.2400,610089
18/04/2013 00:00:00,26.8900,27.9000,26.6100,27.6700,783313
17/04/2013 00:00:00,26.7000,27.4000,26.3450,27.0000,1260379
16/04/2013 00:00:00,26.7500,26.7600,26.1650,26.4350,510255
15/04/2013 00:00:00,27.0050,27.1500,26.6200,26.8000,486106
12/04/2013 00:00:00,27.2700,27.3600,27.0250,27.0600,486065
11/04/2013 00:00:00,27.6100,27.6200,27.0300,27.2200,488911
10/04/2013 00:00:00,27.4000,27.5750,27.3400,27.4750,396609
09/04/2013 00:00:00,27.4050,27.5050,27.1400,27.2650,419953
08/04/2013 00:00:00,27.5300,27.5300,27.0600,27.1900,427810
05/04/2013 00:00:00,27.7750,27.8800,27.1900,27.3800,482690
04/04/2013 00:00:00,28.1500,28.2800,27.6900,27.8850,619815
03/04/2013 00:00:00,28.5000,28.8200,28.1000,28.1050,1163496
02/04/2013 00:00:00,27.3900,28.4850,27.2600,28.2200,943357
28/03/2013 00:00:00,26.5000,27.4350,26.0000,27.4350,3685378
27/03/2013 00:00:00,24.4500,24.5000,24.1650,24.3000,1002965
26/03/2013 00:00:00,24.3500,24.4350,23.9950,24.3700,597648
25/03/2013 00:00:00,23.9000,24.2100,23.7900,24.1900,967483
22/03/2013 00:00:00,24.5750,24.6150,24.0000,24.2150,1644967
21/03/2013 00:00:00,25.0400,25.1500,24.8500,25.1500,531419
20/03/2013 00:00:00,24.4800,25.0200,24.4800,24.9700,742218
19/03/2013 00:00:00,25.0000,25.0900,24.4200,24.5000,2915884
18/03/2013 00:00:00,26.0500,26.1200,25.7600,25.8500,348865
15/03/2013 00:00:00,26.6500,26.6850,26.1500,26.1800,1670893
14/03/2013 00:00:00,26.7350,27.0000,26.5600,26.7000,498418
13/03/2013 00:00:00,26.6200,26.7400,26.4050,26.5750,357694
12/03/2013 00:00:00,26.1300,26.6200,26.1300,26.5850,394104
11/03/2013 00:00:00,26.0000,26.2300,25.8300,26.1800,254014
08/03/2013 00:00:00,26.1900,26.3450,26.0000,26.0700,454728
07/03/2013 00:00:00,26.8900,26.8900,25.8900,25.9950,683850
06/03/2013 00:00:00,26.1100,26.9250,26.1100,26.6550,626795
05/03/2013 00:00:00,25.8350,26.1950,25.8350,26.0700,579095
04/03/2013 00:00:00,25.6750,26.1000,25.6750,25.8350,330843
01/03/2013 00:00:00,25.8200,25.9100,25.6750,25.8750,245482
28/02/2013 00:00:00,26.0550,26.1000,25.8000,25.9000,427949
27/02/2013 00:00:00,26.0000,26.1000,25.8800,26.0500,637455
26/02/2013 00:00:00,25.4350,26.2000,25.2650,26.1850,606362
25/02/2013 00:00:00,25.8300,26.2350,25.7350,25.9550,501459
22/02/2013 00:00:00,25.3550,25.7950,25.2400,25.7850,350123
21/02/2013 00:00:00,25.7200,25.7450,25.0900,25.3750,503027
20/02/2013 00:00:00,25.9000,26.1000,25.7900,25.8100,462212
19/02/2013 00:00:00,25.3650,25.9700,25.3550,25.8050,570636
18/02/2013 00:00:00,25.6400,25.7500,25.2350,25.4200,334103
15/02/2013 00:00:00,25.7350,25.9600,25.4800,25.6400,387252
14/02/2013 00:00:00,25.5250,26.0550,25.4850,25.7400,714409
13/02/2013 00:00:00,24.6250,26.3000,24.4950,25.4850,1928967
12/02/2013 00:00:00,24.4000,24.5050,24.3100,24.4750,371742
11/02/2013 00:00:00,24.0850,24.6100,23.9750,24.3750,461657
08/02/2013 00:00:00,24.1200,24.2500,23.8150,24.1900,487337
07/02/2013 00:00:00,23.4100,24.2200,23.4000,24.1200,664665
06/02/2013 00:00:00,22.8300,23.5050,22.8100,23.3500,927708
05/02/2013 00:00:00,23.3300,23.3600,22.3500,22.7100,1008837
04/02/2013 00:00:00,23.8550,23.9300,23.4800,23.4900,461895
01/02/2013 00:00:00,23.5400,23.8100,23.3500,23.7500,463495
31/01/2013 00:00:00,23.9700,24.0250,23.3600,23.4950,870348
30/01/2013 00:00:00,23.7200,24.2400,23.6700,23.9500,1378234
29/01/2013 00:00:00,23.4500,23.6400,23.3800,23.6250,817169
28/01/2013 00:00:00,22.9000,23.5700,22.7650,23.3300,1037630
25/01/2013 00:00:00,22.2900,22.8650,22.2650,22.6550,1100021
24/01/2013 00:00:00,22.7000,23.1000,22.0150,22.0150,1925993
23/01/2013 00:00:00,22.8000,23.1800,22.6000,22.8750,661389
22/01/2013 00:00:00,22.9650,23.1600,22.8800,22.9000,272664
21/01/2013 00:00:00,22.9000,23.0200,22.8750,22.9600,231703
18/01/2013 00:00:00,22.8900,23.0300,22.5100,22.8300,434374
17/01/2013 00:00:00,23.3600,23.4800,22.7850,22.8500,479522
16/01/2013 00:00:00,23.3200,23.5600,23.2750,23.4300,305913
15/01/2013 00:00:00,23.0100,23.4400,23.0100,23.4200,459268
14/01/2013 00:00:00,23.2900,23.5500,22.7800,23.0100,626410
11/01/2013 00:00:00,23.7400,23.8850,23.0400,23.2400,841337
10/01/2013 00:00:00,24.1350,24.2200,23.7800,23.9600,348282
09/01/2013 00:00:00,24.5200,24.5200,24.0550,24.2250,506226
08/01/2013 00:00:00,24.3200,24.5700,24.2800,24.5000,214648
07/01/2013 00:00:00,24.2500,24.4600,24.2250,24.3550,173051
04/01/2013 00:00:00,24.2850,24.4000,23.8600,24.2500,558254
03/01/2013 00:00:00,24.8500,24.8500,24.4200,24.5150,487764
02/01/2013 00:00:00,25.0850,25.1500,24.7600,24.8150,332743
01/01/2013 00:00:00,,24.7600,24.7600,24.7600,0
31/12/2012 00:00:00,24.7500,24.9000,24.6350,24.7600,69655
28/12/2012 00:00:00,24.9050,24.9950,24.6400,24.7000,143893
27/12/2012 00:00:00,24.8000,24.9500,24.7550,24.9400,178054
26/12/2012 00:00:00,24.8600,25.1900,24.7200,24.9000,89591
25/12/2012 00:00:00,24.8600,25.1900,24.7200,24.9000,89591
24/12/2012 00:00:00,24.8600,25.1900,24.7200,24.9000,89591
21/12/2012 00:00:00,24.7000,24.9950,24.6200,24.9950,1072311
20/12/2012 00:00:00,24.9200,25.0300,24.7900,24.8550,205981
19/12/2012 00:00:00,25.1000,25.1400,24.8600,24.9100,304408
18/12/2012 00:00:00,24.8450,25.1000,24.7500,25.0600,558619
17/12/2012 00:00:00,24.6000,25.1600,24.6000,24.8400,976523
14/12/2012 00:00:00,24.3900,24.4950,24.3500,24.4000,127745
13/12/2012 00:00:00,24.7950,24.7950,24.2250,24.3700,499831
12/12/2012 00:00:00,24.8550,24.8950,24.6800,24.7400,337842
11/12/2012 00:00:00,24.6100,24.8700,24.5500,24.7800,594155
10/12/2012 00:00:00,24.4850,24.5700,24.3500,24.5700,150492
07/12/2012 00:00:00,24.2150,24.6350,24.1500,24.5000,456157
06/12/2012 00:00:00,24.3000,24.4450,24.1500,24.1900,362600
05/12/2012 00:00:00,24.0500,24.3000,23.9000,24.3000,781155
04/12/2012 00:00:00,23.6600,24.0100,23.6450,24.0000,652558
03/12/2012 00:00:00,24.1800,24.1800,23.4100,23.6700,804423
30/11/2012 00:00:00,24.6000,24.6850,24.0400,24.0800,10349298
29/11/2012 00:00:00,24.9600,25.0000,24.5300,24.6100,818727
28/11/2012 00:00:00,24.8700,25.0800,24.7600,24.9100,690769
27/11/2012 00:00:00,25.0000,25.0500,24.8600,25.0400,557802
26/11/2012 00:00:00,24.7150,25.0750,24.7000,24.8950,405989
23/11/2012 00:00:00,24.5250,24.8600,24.4300,24.7900,230468
22/11/2012 00:00:00,24.7900,24.9350,24.2800,24.4100,485445
21/11/2012 00:00:00,25.0500,25.2650,24.7550,24.8000,668801
20/11/2012 00:00:00,25.0500,25.1700,24.9150,25.0050,400745
19/11/2012 00:00:00,25.3000,25.3450,24.9700,25.0550,375210
16/11/2012 00:00:00,25.2100,25.2600,25.0600,25.0600,357197
15/11/2012 00:00:00,25.5500,25.5500,25.0600,25.1550,595093
14/11/2012 00:00:00,25.0000,25.4500,24.9100,25.2150,608183
13/11/2012 00:00:00,25.2850,25.2850,24.8500,25.0000,535068
12/11/2012 00:00:00,25.2700,25.4000,25.1100,25.3200,255918
09/11/2012 00:00:00,25.3400,25.3500,24.9600,25.2000,394116
08/11/2012 00:00:00,25.4400,25.4750,25.2950,25.3000,252019
07/11/2012 00:00:00,25.3800,25.5000,25.2700,25.3900,132032
06/11/2012 00:00:00,25.2500,25.4550,25.1300,25.3000,290529
05/11/2012 00:00:00,25.1750,25.3200,24.9750,25.1750,217895
02/11/2012 00:00:00,25.1500,25.3550,24.9550,25.2400,251858
01/11/2012 00:00:00,25.0000,25.2400,24.9500,25.1150,284781
31/10/2012 00:00:00,25.4600,25.5400,24.9450,24.9900,520242
30/10/2012 00:00:00,25.5200,25.6050,25.4400,25.5000,419920
29/10/2012 00:00:00,25.4700,25.6900,25.3500,25.5000,474338
26/10/2012 00:00:00,25.0000,25.5000,24.9550,25.4400,834085
25/10/2012 00:00:00,25.1500,25.3350,24.8550,25.0100,3349427
24/10/2012 00:00:00,25.9500,26.0950,25.8000,26.0100,285187
23/10/2012 00:00:00,26.0000,26.5500,25.7700,25.9000,539937
22/10/2012 00:00:00,26.0000,26.6750,25.7550,26.3300,681295
19/10/2012 00:00:00,26.5200,27.2650,26.1100,26.1100,730902
18/10/2012 00:00:00,27.4000,27.4800,26.6400,26.8850,329969
17/10/2012 00:00:00,27.2950,27.5000,27.1150,27.4600,217850
16/10/2012 00:00:00,27.3000,27.3750,26.9250,27.2500,139037
15/10/2012 00:00:00,27.2000,27.3400,27.0750,27.2100,255260
12/10/2012 00:00:00,27.0400,27.3050,26.9450,27.0900,163251
11/10/2012 00:00:00,27.1250,27.4150,27.0500,27.1300,235817
10/10/2012 00:00:00,27.1600,27.6300,26.8500,27.2950,247682
09/10/2012 00:00:00,26.8300,27.0900,26.6050,27.0900,219448
08/10/2012 00:00:00,26.6300,27.0300,26.6300,26.9100,220278
05/10/2012 00:00:00,26.2000,27.1450,26.1800,26.7900,309540
04/10/2012 00:00:00,26.5000,26.6300,25.8200,26.2700,234149
03/10/2012 00:00:00,26.6500,26.6500,26.2650,26.3300,228710
02/10/2012 00:00:00,26.7800,26.7800,26.4750,26.6500,223582
01/10/2012 00:00:00,26.4000,26.9000,26.3500,26.8250,816424
28/09/2012 00:00:00,26.9000,26.9000,26.3450,26.4550,333373
27/09/2012 00:00:00,26.4000,26.9500,26.1500,26.6650,315974
26/09/2012 00:00:00,26.9900,26.9900,26.0000,26.0000,434350
25/09/2012 00:00:00,26.5900,27.2000,26.5050,27.0000,299801
24/09/2012 00:00:00,26.8000,27.1000,26.1300,26.6450,528365
21/09/2012 00:00:00,25.7000,26.6550,25.6100,26.5600,636914
20/09/2012 00:00:00,24.9400,25.6700,24.8750,25.6100,888922
19/09/2012 00:00:00,24.3050,24.3950,24.1200,24.3500,195522
18/09/2012 00:00:00,24.3200,24.4700,24.0500,24.2700,388824
17/09/2012 00:00:00,24.7400,24.7900,24.3800,24.4000,245821
14/09/2012 00:00:00,24.7000,24.7500,24.2500,24.6600,475214
13/09/2012 00:00:00,24.8350,24.9500,24.5000,24.5000,190178
12/09/2012 00:00:00,24.9900,25.1950,24.5800,24.7100,327927
11/09/2012 00:00:00,25.0800,25.1300,24.8300,24.9300,297316
10/09/2012 00:00:00,24.9400,24.9400,24.6000,24.7500,413248
07/09/2012 00:00:00,24.7900,24.9100,24.6650,24.7950,608205
06/09/2012 00:00:00,24.3100,24.5900,24.2750,24.5900,294841
05/09/2012 00:00:00,24.4550,24.4550,23.9400,24.2500,222856
04/09/2012 00:00:00,24.2600,24.5450,24.2300,24.4000,85528
03/09/2012 00:00:00,24.9000,25.1000,24.5400,24.8700,102945
31/08/2012 00:00:00,24.9000,25.1000,24.8250,24.8400,178578
30/08/2012 00:00:00,24.7850,25.0500,24.6350,25.0000,184090
29/08/2012 00:00:00,24.9500,24.9500,24.5000,24.7150,93110
28/08/2012 00:00:00,24.8000,25.0100,24.7300,24.8750,103620
27/08/2012 00:00:00,24.6400,25.0850,24.6150,24.9000,96999
24/08/2012 00:00:00,24.4500,24.6750,24.2650,24.6400,1248735
23/08/2012 00:00:00,24.5000,24.5000,24.3100,24.3400,488954
22/08/2012 00:00:00,24.5750,24.6250,24.3150,24.5000,100277
21/08/2012 00:00:00,24.4850,24.6700,24.4750,24.5850,122769
20/08/2012 00:00:00,24.4600,24.6500,24.3650,24.5150,383975
17/08/2012 00:00:00,24.6800,24.7000,24.4300,24.5100,57042
16/08/2012 00:00:00,24.3500,24.7500,24.3500,24.6800,193926
15/08/2012 00:00:00,24.6100,24.9800,24.0750,24.3500,562509
14/08/2012 00:00:00,24.0100,24.7450,24.0100,24.5000,254071
13/08/2012 00:00:00,24.1200,24.2000,23.9400,24.0100,226419
10/08/2012 00:00:00,23.8550,24.1800,23.8550,23.9300,152951
09/08/2012 00:00:00,24.0000,24.1500,23.8850,24.0000,344739
08/08/2012 00:00:00,24.2500,24.2500,23.7000,24.0000,269877
07/08/2012 00:00:00,24.1100,24.3000,23.9700,24.2500,261367
06/08/2012 00:00:00,24.1200,24.3450,23.8950,24.0600,621071
03/08/2012 00:00:00,23.7700,24.2750,23.7700,24.0250,291163
02/08/2012 00:00:00,24.1450,24.1450,23.7700,23.9350,445105
01/08/2012 00:00:00,23.7300,24.1500,23.6650,24.1500,854423
31/07/2012 00:00:00,23.6000,24.2300,23.5000,23.5000,3963340
30/07/2012 00:00:00,24.7800,24.9150,24.5700,24.7600,39249
27/07/2012 00:00:00,24.3300,25.1500,24.2000,24.7800,100831
26/07/2012 00:00:00,24.0100,24.4650,23.8250,24.2350,254163
25/07/2012 00:00:00,25.0000,25.3700,24.4000,24.4050,180012
24/07/2012 00:00:00,25.2600,25.9700,24.8600,24.9900,142086
23/07/2012 00:00:00,25.8000,26.2450,25.1600,25.8900,117344
20/07/2012 00:00:00,26.6000,26.6000,25.0300,25.7550,311630
19/07/2012 00:00:00,26.4950,27.0750,26.4500,26.4500,151280
18/07/2012 00:00:00,25.9000,26.4800,25.9000,26.4600,86239
17/07/2012 00:00:00,25.9400,26.1500,25.7000,25.8800,143528
16/07/2012 00:00:00,25.7600,26.0100,25.5500,25.8000,132159
13/07/2012 00:00:00,25.4350,26.0100,25.4000,25.6700,163157
12/07/2012 00:00:00,25.0000,25.8000,25.0000,25.4700,271806
11/07/2012 00:00:00,24.9600,25.1900,24.8500,25.0200,67695
10/07/2012 00:00:00,25.0500,25.2500,24.9100,25.0000,136096
09/07/2012 00:00:00,25.1000,25.3850,24.8750,25.2000,150372
06/07/2012 00:00:00,24.8200,25.0750,24.7600,25.0700,109650
05/07/2012 00:00:00,24.9000,25.2050,24.7500,24.8200,92024
04/07/2012 00:00:00,25.0600,25.0600,24.7050,24.9000,29684
03/07/2012 00:00:00,25.1200,25.4000,24.8000,25.0000,37669
02/07/2012 00:00:00,25.2500,25.2500,24.8150,25.0000,86604
29/06/2012 00:00:00,25.7700,25.7700,24.7000,25.1850,146728
28/06/2012 00:00:00,25.9850,26.0000,24.7250,25.0000,95321
27/06/2012 00:00:00,25.0000,25.4500,24.7150,25.2500,290862
26/06/2012 00:00:00,24.8000,25.1000,24.5900,24.9800,137293
25/06/2012 00:00:00,24.6000,24.9750,24.4200,24.7000,77791
22/06/2012 00:00:00,24.5550,24.9700,24.5100,24.9250,43483
21/06/2012 00:00:00,24.5500,24.7800,24.3550,24.7800,99399
20/06/2012 00:00:00,24.5500,24.8750,24.2900,24.5950,83710
19/06/2012 00:00:00,24.6000,24.6400,24.2650,24.5000,120075
18/06/2012 00:00:00,25.0000,25.0000,24.3900,24.5500,22227
15/06/2012 00:00:00,25.6500,25.7500,25.0000,25.0000,75461
14/06/2012 00:00:00,24.7100,26.1200,24.6050,25.5000,360725
13/06/2012 00:00:00,24.1050,24.9200,24.1050,24.8750,144208
12/06/2012 00:00:00,23.4500,24.1900,23.1400,24.1900,73490
11/06/2012 00:00:00,23.7000,23.7100,23.2450,23.4500,22416
08/06/2012 00:00:00,23.2300,24.0000,23.1650,23.4900,65131
07/06/2012 00:00:00,23.2850,23.3700,22.7200,23.0300,66503
06/06/2012 00:00:00,22.7000,23.3050,22.2600,23.3050,148239
05/06/2012 00:00:00,22.2400,22.5800,22.1750,22.4500,102074
04/06/2012 00:00:00,22.2000,22.8100,22.1100,22.1200,84885
01/06/2012 00:00:00,23.2350,23.2350,22.2000,22.2000,288866
31/05/2012 00:00:00,23.3700,23.7400,22.7550,23.0000,100081
30/05/2012 00:00:00,24.0500,24.0500,23.1200,23.2450,169073
29/05/2012 00:00:00,24.0250,24.1700,23.9600,24.1000,88327
28/05/2012 00:00:00,24.2950,24.2950,23.8250,24.1500,24694
25/05/2012 00:00:00,24.2000,24.3600,23.9300,24.1500,67551
24/05/2012 00:00:00,23.9600,24.4000,23.5500,24.0900,133346
23/05/2012 00:00:00,23.7300,24.1000,23.5900,23.7400,67686
22/05/2012 00:00:00,23.7000,24.3300,23.2750,23.9700,121753
21/05/2012 00:00:00,22.5200,23.5950,22.5200,23.5950,85112
18/05/2012 00:00:00,23.0050,23.3000,22.8500,22.8800,126250
17/05/2012 00:00:00,23.0000,23.1650,22.8500,23.1300,75827
16/05/2012 00:00:00,22.6950,23.1000,22.5250,22.9500,233195
15/05/2012 00:00:00,22.5000,22.9000,22.3450,22.8500,74397
14/05/2012 00:00:00,22.6100,23.0750,22.2650,22.5100,79554
11/05/2012 00:00:00,23.2000,23.2700,22.7000,22.7500,136474
10/05/2012 00:00:00,23.9700,24.0000,23.3000,23.3200,140190
09/05/2012 00:00:00,24.3000,24.3800,23.4650,23.7700,176585
08/05/2012 00:00:00,24.5000,24.5000,24.1000,24.3000,77010
07/05/2012 00:00:00,24.0200,24.8900,24.0200,24.6000,50563
04/05/2012 00:00:00,24.3950,24.5000,23.7700,24.2800,138125
03/05/2012 00:00:00,24.4950,24.5100,24.1600,24.4000,121293
02/05/2012 00:00:00,24.2350,24.7300,24.0500,24.3000,395309
30/04/2012 00:00:00,23.3050,24.0000,23.3050,23.7600,79202
27/04/2012 00:00:00,23.6500,23.6500,23.0250,23.5200,48068
26/04/2012 00:00:00,23.6500,23.8900,23.2500,23.6300,178827
25/04/2012 00:00:00,23.2800,23.6400,23.1350,23.6050,182525
24/04/2012 00:00:00,22.3500,23.3500,22.3500,23.2800,514075
23/04/2012 00:00:00,23.0000,23.1350,22.1300,22.4400,143875
20/04/2012 00:00:00,23.6000,23.6000,23.0100,23.2700,555570
19/04/2012 00:00:00,22.7300,23.9900,22.6250,23.7000,539440
18/04/2012 00:00:00,22.9450,22.9450,22.2250,22.6000,137728
17/04/2012 00:00:00,22.4200,22.8850,22.1950,22.8000,174375
16/04/2012 00:00:00,22.7500,22.8200,22.5300,22.5300,47287
13/04/2012 00:00:00,22.7600,22.7600,22.4800,22.6100,148548
12/04/2012 00:00:00,22.4000,22.8000,22.2000,22.7200,205312
11/04/2012 00:00:00,22.0100,22.5700,21.9000,22.2800,224013
10/04/2012 00:00:00,22.7000,22.7000,22.1100,22.1550,491478
05/04/2012 00:00:00,22.5500,22.8500,22.3800,22.8000,476575
04/04/2012 00:00:00,23.0800,23.0850,22.4100,22.7100,440715
03/04/2012 00:00:00,23.4100,23.7500,23.2600,23.3000,489208
02/04/2012 00:00:00,23.0650,23.5000,22.5100,23.5000,378480
30/03/2012 00:00:00,23.1500,23.3900,22.9000,23.3900,540456
29/03/2012 00:00:00,22.7500,23.1000,22.7350,23.1000,609232
28/03/2012 00:00:00,22.2000,23.2450,22.2000,22.8500,561220
27/03/2012 00:00:00,22.3500,22.5000,22.1100,22.4900,439366
26/03/2012 00:00:00,22.4000,22.5900,21.9500,22.4000,829513
23/03/2012 00:00:00,21.9000,22.5000,21.5000,22.5000,1525659
22/03/2012 00:00:00,21.3600,22.6450,21.3450,21.8350,4340231
21/03/2012 00:00:00,21.2000,21.9500,21.0000,21.2500,19200174
