(lp0
I6
aI27
aI32
aI49
aI70
aI81
aI97
aI107
aI119
aI128
aI138
aI145
aI155
aI169
aI178
aI187
aI196
aI203
aI211
aI219
aI226
aI234
aI248
aI262
aI270
aI278
aI287
aI306
aI318
aI335
aI342
aI351
aI358
aI372
aI380
aI393
aI401
aI411
aI417
aI429
aI437
aI447
aI456
aI470
aI480
aI494
aI501
aI510
aI531
aI540
aI545
aI555
aI564
aI573
aI598
aI608
aI618
aI629
aI637
aI645
aI654
aI669
aI679
aI684
aI706
aI731
aI739
aI760
aI770
aI781
aI791
aI803
aI812
aI821
aI835
aI842
aI851
aI862
aI873
aI881
aI899
aI908
aI928
aI960
aI969
aI983
aI990
aI998
aI1011
aI1016
aI1024
aI1033
aI1046
aI1061
aI1079
aI1087
aI1102
aI1112
aI1119
aI1130
aI1137
aI1150
aI1156
aI1166
aI1177
aI1201
aI1207
aI1217
aI1230
aI1238
aI1255
aI1262
aI1271
aI1290
aI1300
aI1316
aI1324
aI1349
aI1360
aI1377
aI1384
aI1398
aI1415
aI1422
aI1432
aI1454
aI1462
aI1490
a.