Date,Open,High,Low,Close,Volume,Adj Close
2014-09-12,89.01,89.07,87.40,87.85,1824400,87.85
2014-09-11,88.91,89.11,87.82,89.07,1788800,89.07
2014-09-10,88.28,89.10,87.72,89.00,1885500,89.00
2014-09-09,88.38,89.11,87.96,88.41,2189600,88.41
2014-09-08,88.07,89.67,87.52,88.19,2894900,88.19
2014-09-05,86.36,88.06,86.25,87.88,2659400,87.88
2014-09-04,85.53,87.25,85.47,86.09,2806100,86.09
2014-09-03,85.27,86.19,84.50,85.39,3268100,85.39
2014-09-02,82.97,85.14,82.40,85.02,4160400,85.02
2014-08-29,81.82,84.80,76.50,82.09,6293400,82.09
2014-08-28,75.54,76.49,74.95,76.36,1858700,76.36
2014-08-27,76.00,76.51,75.51,76.16,1343400,76.16
2014-08-26,75.86,76.15,75.27,75.96,1354400,75.96
2014-08-25,77.00,77.21,75.42,75.77,1710000,75.77
2014-08-22,76.51,76.51,75.51,76.21,1583700,76.21
2014-08-21,76.13,76.64,75.75,76.27,1555000,76.27
2014-08-20,75.67,76.50,75.64,76.38,1137500,76.38
2014-08-19,75.58,76.62,75.43,75.62,1873400,75.62
2014-08-18,75.31,75.40,74.35,75.37,1253100,75.37
2014-08-15,74.54,74.89,73.42,74.79,2114300,74.79
2014-08-14,72.68,74.23,72.68,73.84,1899700,73.84
2014-08-13,71.63,72.13,71.08,71.97,1083600,71.97
2014-08-12,70.89,71.39,70.46,71.15,942100,71.15
2014-08-11,70.51,71.45,70.51,70.82,1417300,70.82
2014-08-08,69.73,70.50,69.32,70.43,1282200,70.43
2014-08-07,70.89,70.89,69.45,69.63,1122200,69.63
2014-08-06,69.80,70.97,69.76,70.29,1035400,70.29
2014-08-05,70.82,71.42,69.84,70.12,1538800,70.12
2014-08-04,70.32,71.60,69.93,71.34,1545200,71.34
2014-08-01,69.92,70.71,68.71,70.44,1914100,70.44
2014-07-31,70.01,70.30,68.80,69.38,1847600,69.38
2014-07-30,70.95,71.04,69.72,70.51,1754500,70.51
2014-07-29,70.40,71.17,69.84,69.88,1911100,69.88
2014-07-28,70.02,70.75,69.14,70.51,3181300,70.51
2014-07-25,72.28,72.30,69.71,69.92,3683800,69.92
2014-07-24,73.70,73.89,72.27,72.51,2067600,72.51
2014-07-23,75.70,75.71,73.59,73.63,2445000,73.63
2014-07-22,75.58,76.44,75.30,75.39,2399700,75.39
2014-07-21,74.52,75.50,74.49,75.42,1536800,75.42
2014-07-18,72.74,75.26,72.61,75.00,3394900,75.00
2014-07-17,73.26,73.67,71.66,71.90,1781600,71.90
2014-07-16,73.11,74.38,72.75,73.65,1518000,73.65
2014-07-15,74.01,74.38,72.69,73.42,1455600,73.42
2014-07-14,74.57,74.90,73.41,74.04,1224200,74.04
2014-07-11,73.27,73.48,72.67,73.20,1251700,73.20
2014-07-10,72.07,73.54,72.05,73.15,1547900,73.15
2014-07-09,73.66,74.23,73.09,74.23,979800,74.23
2014-07-08,74.33,74.50,72.10,73.39,1916900,73.39
2014-07-07,75.43,75.55,74.43,74.53,1906600,74.53
2014-07-03,74.67,75.37,74.41,75.18,799400,75.18
2014-07-02,73.58,74.60,73.58,74.32,1608100,74.32
2014-07-01,72.48,74.13,72.35,74.03,2142900,74.03
2014-06-30,70.92,72.07,70.92,72.07,1777300,72.07
2014-06-27,70.74,71.17,70.25,70.94,1693500,70.94
2014-06-26,71.72,71.87,70.38,70.96,812600,70.96
2014-06-25,70.58,71.70,70.06,71.63,1282700,71.63
2014-06-24,71.78,72.30,70.63,70.67,1530400,70.67
2014-06-23,71.61,71.96,70.79,71.24,1334900,71.24
2014-06-20,71.16,71.95,70.87,71.57,2183400,71.57
2014-06-19,71.13,71.32,70.34,70.93,1273400,70.93
2014-06-18,71.58,71.88,70.55,71.22,1383300,71.22
2014-06-17,70.59,71.62,70.59,71.48,1381700,71.48
2014-06-16,71.47,71.94,70.60,70.88,1566800,70.59
2014-06-13,72.18,72.45,70.91,71.42,1350800,71.13
2014-06-12,71.34,72.04,71.20,71.76,1360400,71.47
2014-06-11,71.67,72.39,71.35,71.75,2494300,71.46
2014-06-10,71.75,72.25,71.50,71.86,1640900,71.57
2014-06-09,71.88,72.50,71.47,71.79,1742000,71.50
2014-06-06,72.28,72.35,71.24,71.63,1586600,71.34
2014-06-05,71.51,72.00,71.23,71.87,2728800,71.58
2014-06-04,71.26,71.86,71.14,71.61,1937900,71.32
2014-06-03,71.33,72.08,70.84,71.45,2230800,71.16
2014-06-02,71.21,72.00,70.60,71.64,2659900,71.35
2014-05-30,71.85,72.00,69.41,70.67,3893800,70.38
2014-05-29,70.48,70.85,69.81,70.79,2756600,70.50
2014-05-28,70.55,70.75,69.84,70.10,3492700,69.81
2014-05-27,71.03,71.28,70.32,70.93,3163700,70.64
2014-05-23,69.12,70.61,68.73,70.55,3201700,70.26
2014-05-22,68.43,69.22,67.88,68.68,1567900,68.40
2014-05-21,67.52,68.44,67.37,68.41,1689600,68.13
2014-05-20,68.36,68.38,66.92,67.52,2908500,67.24
2014-05-19,69.10,69.41,68.14,68.32,3778900,68.04
2014-05-16,68.09,68.93,67.32,68.48,5204400,68.20
2014-05-15,68.67,68.95,67.11,67.93,3209300,67.65
2014-05-14,68.54,69.60,67.55,68.51,3024300,68.23
2014-05-13,69.27,69.34,68.56,68.76,2302100,68.48
2014-05-12,67.93,69.18,67.41,69.13,2739400,68.85
2014-05-09,67.92,68.56,66.68,67.41,3870000,67.13
2014-05-08,66.81,68.93,66.71,67.95,5370000,67.67
2014-05-07,67.75,68.61,66.35,66.81,56028000,66.54
2014-05-06,67.93,68.08,66.25,67.34,12780200,67.06
2014-05-05,63.87,64.45,63.02,64.25,1352900,63.99
2014-05-02,64.72,64.99,63.18,64.27,1340700,64.01
2014-05-01,62.92,64.90,62.58,63.49,1886300,63.23
2014-04-30,61.10,63.67,60.37,63.50,2537500,63.24
2014-04-29,60.98,61.55,60.01,60.92,2165600,60.67
2014-04-28,62.91,62.92,60.32,60.78,3070800,60.53
2014-04-25,64.85,65.03,62.19,62.34,1926600,62.08
2014-04-24,65.43,65.48,63.54,65.38,2751900,65.11
2014-04-23,63.98,64.61,63.78,64.60,2698400,64.34
2014-04-22,61.61,63.79,61.61,63.44,2283000,63.18
2014-04-21,60.97,62.18,60.82,61.89,1256000,61.64
2014-04-17,59.34,61.66,58.92,60.89,1909200,60.64
2014-04-16,59.46,59.46,58.11,59.31,1791600,59.07
2014-04-15,59.06,59.36,57.27,58.94,2501400,58.70
2014-04-14,58.45,59.57,58.11,58.82,1941900,58.58
2014-04-11,59.27,59.96,58.46,58.53,2190300,58.29
2014-04-10,62.55,62.55,59.62,59.86,2039600,59.62
2014-04-09,61.04,62.56,61.04,62.47,1925600,62.21
2014-04-08,60.62,60.98,60.05,60.17,2205500,59.92
2014-04-07,61.00,61.94,58.83,60.36,4327400,60.11
2014-04-04,64.56,64.74,60.04,61.80,3883000,61.55
2014-04-03,64.74,65.58,63.47,63.93,2159200,63.67
2014-04-02,64.74,65.31,63.84,64.64,2097900,64.38
2014-04-01,64.55,65.26,64.22,65.05,2196200,64.78
2014-03-31,64.50,65.33,64.24,64.41,1481900,64.15
2014-03-28,62.99,64.68,62.87,64.11,1433000,63.85
2014-03-27,62.77,63.11,61.84,62.78,2524700,62.52
2014-03-26,64.39,64.88,62.12,62.81,2841400,62.55
2014-03-25,63.69,64.98,63.28,64.00,1614500,63.74
2014-03-24,64.03,64.36,62.35,63.16,2481100,62.90
2014-03-21,65.64,65.83,63.64,63.90,2326700,63.64
2014-03-20,64.32,65.39,64.30,65.31,1996600,65.04
2014-03-19,64.01,64.88,63.79,64.41,1755800,64.15
2014-03-18,63.25,64.01,62.79,63.82,1310900,63.56
2014-03-17,63.03,63.99,62.76,63.41,1396800,62.88
2014-03-14,62.77,63.25,62.21,62.68,1393900,62.16
2014-03-13,63.40,64.50,62.04,62.68,3537700,62.16
2014-03-12,61.77,63.31,60.45,63.18,2359800,62.65
2014-03-11,62.98,63.65,61.81,62.02,1619100,61.50
2014-03-10,62.93,63.42,62.47,62.80,1351900,62.28
2014-03-07,63.95,63.95,62.45,62.75,1513300,62.23
2014-03-06,63.29,63.91,63.05,63.64,1216200,63.11
2014-03-05,63.16,64.23,62.94,63.08,2465600,62.55
2014-03-04,62.50,64.10,62.28,63.35,3676100,62.82
2014-03-03,61.15,62.47,60.85,61.74,1534000,61.23
2014-02-28,61.15,61.97,60.79,61.70,1522500,61.19
2014-02-27,61.19,62.22,60.78,61.38,1646000,60.87
2014-02-26,60.00,63.49,59.97,61.90,4912500,61.38
2014-02-25,60.00,60.00,58.39,59.00,2692900,58.51
2014-02-24,58.51,59.99,58.51,59.57,2067200,59.07
2014-02-21,59.43,59.50,58.40,58.55,1799800,58.06
2014-02-20,58.04,59.03,57.70,59.00,2228200,58.51
2014-02-19,58.19,58.42,57.49,57.70,1459800,57.22
2014-02-18,58.51,58.51,57.73,58.37,1587200,57.88
2014-02-14,57.50,58.38,57.44,58.08,2818000,57.60
2014-02-13,57.43,59.51,57.38,59.08,2261400,58.59
2014-02-12,58.20,59.80,58.20,58.94,2586400,58.45
2014-02-11,56.20,58.16,56.19,58.07,1734400,57.59
2014-02-10,56.19,56.48,55.57,56.31,1234700,55.84
2014-02-07,55.47,56.84,55.13,56.57,1703900,56.10
2014-02-06,53.99,55.87,53.62,55.20,1805300,54.74
2014-02-05,53.72,54.73,53.19,53.98,901700,53.53
2014-02-04,53.51,54.16,53.10,54.01,1348700,53.56
2014-02-03,54.80,55.17,52.96,53.26,1142100,52.82
2014-01-31,53.83,55.29,53.83,54.64,1578400,54.18
2014-01-30,54.82,55.27,54.09,55.05,1198900,54.59
2014-01-29,53.94,55.94,53.37,54.07,2397400,53.62
2014-01-28,54.40,54.80,52.96,54.72,2522300,54.26
2014-01-27,54.62,55.25,53.74,54.45,2103100,54.00
2014-01-24,55.70,55.99,54.15,54.49,1742600,54.04
2014-01-23,56.73,57.15,55.74,56.05,1555100,55.58
2014-01-22,56.20,57.18,55.85,57.15,2552600,56.67
2014-01-21,56.61,56.82,55.88,56.11,1659700,55.64
2014-01-17,55.26,56.42,55.23,56.14,3118100,55.67
2014-01-16,56.76,56.96,55.15,55.43,2408400,54.97
2014-01-15,55.68,57.18,55.52,56.97,2718700,56.50
2014-01-14,53.32,55.84,52.74,55.27,3485500,54.81
2014-01-13,53.62,53.78,52.39,52.64,1394400,52.20
2014-01-10,53.94,54.02,52.87,53.30,1669100,52.86
2014-01-09,54.00,54.17,52.76,53.23,1233900,52.79
2014-01-08,53.11,53.92,52.86,53.78,2296800,53.33
2014-01-07,52.82,53.06,52.49,52.99,1335900,52.55
2014-01-06,52.80,53.40,52.43,52.49,1263400,52.05
2014-01-03,52.45,52.96,51.96,52.85,1166100,52.41
2014-01-02,52.85,52.88,51.89,52.65,1453700,52.21
2013-12-31,52.87,53.30,52.54,52.88,865500,52.44
2013-12-30,52.79,52.85,52.19,52.70,1096200,52.26
2013-12-27,52.89,53.06,52.61,52.78,804300,52.34
2013-12-26,52.83,52.95,52.46,52.72,701000,52.28
2013-12-24,52.31,52.79,52.24,52.62,744800,52.18
2013-12-23,52.28,52.28,51.80,52.06,1298800,51.63
2013-12-20,51.43,52.02,51.33,51.65,2888900,51.22
2013-12-19,52.95,53.01,51.31,51.44,3036600,51.01
2013-12-18,53.45,53.45,52.01,53.15,4278700,52.71
2013-12-17,50.35,54.54,50.30,53.56,8723000,52.87
2013-12-16,49.71,50.55,48.36,50.10,12153400,49.45
2013-12-13,46.03,46.15,45.61,45.65,1587600,45.06
2013-12-12,46.45,46.49,45.73,45.75,1367800,45.16
2013-12-11,46.76,46.99,46.06,46.11,1300500,45.51
2013-12-10,47.37,47.41,46.48,46.60,1599700,46.00
2013-12-09,47.09,47.54,46.55,47.37,2071900,46.76
2013-12-06,48.31,48.31,46.95,46.96,2755200,46.35
2013-12-05,45.53,47.68,45.06,47.59,4594700,46.97
2013-12-04,44.48,44.90,44.42,44.50,2644300,43.92
2013-12-03,44.93,44.97,44.61,44.78,1618900,44.20
2013-12-02,45.49,46.21,44.94,45.00,2445400,44.42
2013-11-29,44.99,45.09,44.66,44.73,1140100,44.15
2013-11-27,44.50,44.81,43.73,44.67,1908600,44.09
2013-11-26,43.79,44.86,43.55,44.75,1871200,44.17
2013-11-25,43.93,44.00,43.40,43.71,1600100,43.14
2013-11-22,43.06,43.52,42.95,43.30,1121900,42.74
2013-11-21,42.93,43.22,42.72,43.05,1543400,42.49
2013-11-20,43.25,43.26,42.45,42.70,1108500,42.15
2013-11-19,43.84,44.25,42.93,42.95,1229600,42.39
2013-11-18,44.61,44.72,43.86,43.96,1346300,43.39
2013-11-15,42.98,44.81,42.89,44.61,4836900,44.03
2013-11-14,44.90,45.09,42.58,42.95,5966000,42.39
2013-11-13,44.35,45.38,44.35,45.38,986300,44.79
2013-11-12,44.56,45.18,44.31,45.13,1343800,44.55
2013-11-11,44.44,44.58,43.89,44.21,914000,43.64
2013-11-08,43.73,44.39,43.10,44.35,3606900,43.78
2013-11-07,45.36,45.50,43.58,43.66,3230900,43.09
2013-11-06,45.18,45.49,44.97,45.37,1040500,44.78
2013-11-05,45.04,45.20,44.59,45.03,1248400,44.45
2013-11-04,45.09,45.30,44.60,45.04,1391100,44.46
2013-11-01,45.79,45.89,44.57,44.72,2207400,44.14
2013-10-31,45.00,45.61,45.00,45.43,1739400,44.84
2013-10-30,46.06,46.06,44.40,44.85,2074000,44.27
2013-10-29,45.87,46.28,45.58,45.80,2216200,45.21
2013-10-28,45.35,45.75,45.22,45.51,1904800,44.92
2013-10-25,45.18,45.90,45.18,45.63,2191200,45.04
2013-10-24,45.28,45.70,44.96,45.49,3002100,44.90
2013-10-23,46.51,46.57,44.71,45.39,5667300,44.80
2013-10-22,47.06,47.06,46.46,46.87,4781400,46.26
2013-10-21,46.15,47.21,46.05,47.05,4336000,46.44
2013-10-18,46.28,46.28,45.05,46.06,2741700,45.46
2013-10-17,44.09,45.13,44.00,45.10,2328600,44.52
2013-10-16,44.08,44.60,43.87,44.50,1699900,43.92
2013-10-15,44.27,44.44,43.58,43.74,1876100,43.17
2013-10-14,43.13,44.31,43.01,44.23,2018300,43.66
2013-10-11,43.25,43.50,42.78,43.29,1897900,42.73
2013-10-10,43.31,43.67,42.58,43.51,3246400,42.95
2013-10-09,42.97,43.06,41.83,42.20,2759400,41.65
2013-10-08,43.11,43.47,42.36,42.60,2168200,42.05
2013-10-07,43.50,43.50,42.88,43.00,1458700,42.44
2013-10-04,43.42,43.73,43.29,43.50,1724600,42.94
2013-10-03,43.39,43.59,42.83,43.30,2281700,42.74
2013-10-02,43.07,43.45,42.94,43.41,1736600,42.85
2013-10-01,43.14,43.63,42.98,43.42,2741100,42.86
2013-09-30,42.10,43.29,41.97,43.08,3522900,42.52
2013-09-27,42.11,42.77,41.84,42.70,2199800,42.15
2013-09-26,42.47,42.66,42.04,42.27,1687400,41.72
2013-09-25,42.52,42.60,41.42,42.21,2058400,41.66
2013-09-24,41.85,42.59,41.64,42.41,2975300,41.86
2013-09-23,42.58,42.69,41.49,41.87,2971100,41.33
2013-09-20,41.16,42.58,40.83,41.62,8719200,41.08
2013-09-19,40.75,40.80,40.15,40.75,2501700,40.22
2013-09-18,40.22,40.68,39.84,40.67,2364800,40.14
2013-09-17,39.75,40.36,39.50,40.12,3724700,39.60
2013-09-16,39.37,39.68,39.04,39.28,2155600,38.54
2013-09-13,39.16,39.28,38.70,38.99,1448000,38.26
2013-09-12,39.33,39.45,38.61,39.03,2000600,38.30
2013-09-11,39.23,39.47,38.68,39.25,2392700,38.51
2013-09-10,39.00,39.67,38.95,39.66,2434400,38.92
2013-09-09,38.87,39.00,38.63,38.77,1636400,38.04
2013-09-06,39.18,39.18,38.23,38.56,1715500,37.84
2013-09-05,39.15,39.20,38.72,38.79,1437200,38.06
2013-09-04,38.58,39.13,38.16,38.98,1258800,38.25
2013-09-03,38.82,39.13,38.04,38.35,1735100,37.63
2013-08-30,38.96,38.99,38.29,38.51,2507300,37.79
2013-08-29,38.40,39.00,38.13,38.95,3595500,38.22
2013-08-28,38.93,39.45,37.90,38.28,6780600,37.56
2013-08-27,37.84,37.84,36.35,36.55,2986300,35.87
2013-08-26,36.95,37.72,36.85,37.48,1389000,36.78
2013-08-23,36.79,37.05,36.48,36.74,1831200,36.05
2013-08-22,36.22,37.13,36.08,36.61,994000,35.92
2013-08-21,36.64,36.99,36.38,36.59,1442500,35.90
2013-08-20,36.34,37.10,36.28,36.79,1741700,36.10
2013-08-19,36.32,36.41,36.08,36.25,2338900,35.57
2013-08-16,35.97,36.35,35.89,36.25,1354300,35.57
2013-08-15,36.14,36.94,35.75,36.02,2511100,35.34
2013-08-14,37.90,37.94,37.15,37.22,1527100,36.52
2013-08-13,37.84,38.12,37.32,38.02,1375400,37.31
2013-08-12,36.84,37.80,36.74,37.70,988000,36.99
2013-08-09,37.18,37.24,36.74,36.83,1385800,36.14
2013-08-08,37.60,37.60,37.28,37.32,1939600,36.62
2013-08-07,36.97,37.31,36.68,37.29,1803500,36.59
2013-08-06,36.93,36.95,36.70,36.86,1073000,36.17
2013-08-05,37.22,37.40,36.96,37.02,1177300,36.33
2013-08-02,37.29,37.49,36.93,37.49,1518300,36.79
2013-08-01,37.03,37.52,36.83,37.40,1949900,36.70
2013-07-31,37.01,37.06,36.56,36.68,1312400,35.99
2013-07-30,36.75,37.00,36.34,36.85,1165100,36.16
2013-07-29,36.62,36.90,36.38,36.59,1309400,35.90
2013-07-26,36.53,36.85,36.35,36.78,1225600,36.09
2013-07-25,36.50,36.98,36.30,36.90,2551200,36.21
2013-07-24,37.27,37.99,36.86,36.89,2050600,36.20
2013-07-23,38.08,38.16,37.51,37.61,1650100,36.91
2013-07-22,38.23,38.23,37.54,37.79,986900,37.08
2013-07-19,37.75,38.15,37.51,37.85,1775700,37.14
2013-07-18,38.75,38.88,37.45,37.60,3705000,36.90
2013-07-17,39.01,39.74,38.86,38.92,2399200,38.19
2013-07-16,38.16,39.14,38.16,38.87,3125400,38.14
2013-07-15,38.98,39.08,37.96,38.01,2155100,37.30
2013-07-12,38.69,38.98,38.68,38.95,1834200,38.22
2013-07-11,37.53,38.60,37.48,38.59,1676900,37.87
2013-07-10,37.58,38.35,37.44,38.33,1736300,37.61
2013-07-09,37.72,37.97,37.38,37.58,1385500,36.88
2013-07-08,38.93,39.03,37.19,37.27,2264300,36.57
2013-07-05,38.62,39.18,38.16,38.81,1444700,38.08
2013-07-03,38.39,38.87,38.13,38.59,1520300,37.87
2013-07-02,37.95,38.98,37.82,38.48,4037700,37.76
2013-07-01,37.85,37.87,37.34,37.61,2714700,36.91
2013-06-28,37.00,37.62,36.76,37.38,2299800,36.68
2013-06-27,37.48,37.84,37.29,37.32,2635900,36.62
2013-06-26,37.39,37.72,36.99,37.25,2066100,36.55
2013-06-25,37.13,37.59,36.81,37.10,2601900,36.40
2013-06-24,36.98,36.99,36.10,36.69,3685800,36.00
2013-06-21,37.04,37.48,36.62,37.38,8003000,36.68
2013-06-20,37.71,37.94,36.92,37.06,3163800,36.37
2013-06-19,38.69,38.87,38.07,38.07,2403500,37.36
2013-06-18,38.04,38.80,37.98,38.75,2738300,38.02
2013-06-17,37.80,38.34,37.73,38.09,2472700,37.38
2013-06-14,37.14,37.80,37.05,37.59,2176200,36.89
2013-06-13,35.74,37.16,35.62,37.11,2910600,36.41
2013-06-12,36.66,36.68,35.72,35.98,2130700,35.10
2013-06-11,36.43,36.76,36.26,36.29,2169900,35.40
2013-06-10,37.50,37.51,36.79,36.83,2636000,35.93
2013-06-07,36.76,37.33,36.15,37.29,3073300,36.38
2013-06-06,37.19,37.22,36.44,36.75,2973100,35.85
2013-06-05,37.74,37.77,36.82,37.00,1501900,36.09
2013-06-04,37.40,38.19,37.39,37.80,3312000,36.88
2013-06-03,37.68,37.73,36.59,37.30,2721000,36.39
2013-05-31,37.33,38.27,37.11,37.73,3343200,36.81
2013-05-30,36.20,38.23,36.10,37.82,8260700,36.89
2013-05-29,34.37,34.70,34.15,34.43,2285800,33.59
2013-05-28,34.53,34.61,34.01,34.44,2091900,33.60
2013-05-24,33.86,34.10,33.68,34.10,1511800,33.27
2013-05-23,34.24,34.35,33.84,33.97,2851300,33.14
2013-05-22,34.98,35.24,34.23,34.56,3387300,33.71
2013-05-21,34.61,35.13,34.44,35.09,2074300,34.23
2013-05-20,34.24,34.55,34.24,34.44,1388100,33.60
2013-05-17,34.49,34.78,34.36,34.43,2744300,33.59
2013-05-16,34.17,34.52,33.90,34.21,2474900,33.37
2013-05-15,33.66,34.19,33.54,34.18,1694700,33.34
2013-05-14,33.58,33.82,33.33,33.70,1593800,32.88
2013-05-13,33.83,34.13,33.59,33.62,1495200,32.80
2013-05-10,33.96,34.14,33.83,34.06,1564400,33.23
2013-05-09,33.48,34.08,33.40,33.87,2976900,33.04
2013-05-08,32.63,33.52,32.58,33.50,2543700,32.68
2013-05-07,32.92,32.95,32.47,32.54,1609300,31.74
2013-05-06,32.05,32.90,31.96,32.80,3284800,32.00
2013-05-03,32.16,32.39,31.85,31.88,4690100,31.10
2013-05-02,31.55,32.23,31.31,32.09,3253600,31.30
2013-05-01,32.06,32.07,31.25,31.32,3706800,30.55
2013-04-30,32.47,32.47,31.55,31.96,5251100,31.18
2013-04-29,32.35,32.79,32.20,32.53,2043000,31.73
2013-04-26,32.59,32.59,31.96,32.11,3094500,31.32
2013-04-25,32.81,33.19,32.53,32.63,2512600,31.83
2013-04-24,32.37,32.84,32.04,32.62,3206200,31.82
2013-04-23,31.86,32.42,31.72,32.37,2554200,31.58
2013-04-22,31.36,31.84,30.57,31.58,3639500,30.81
2013-04-19,31.25,31.88,30.83,31.26,3718000,30.50
2013-04-18,33.10,33.28,31.25,31.37,4105600,30.60
2013-04-17,33.75,33.77,32.28,32.40,6401000,31.61
2013-04-16,34.08,34.60,33.86,34.58,2249100,33.73
2013-04-15,34.68,34.73,33.72,33.78,2463400,32.95
2013-04-12,35.50,35.53,34.56,34.91,1612500,34.06
2013-04-11,35.24,35.92,35.01,35.63,1828200,34.76
2013-04-10,34.81,35.50,34.79,35.38,1481700,34.51
2013-04-09,34.71,35.13,34.22,34.78,1600800,33.93
2013-04-08,34.25,34.67,33.97,34.66,1235700,33.81
2013-04-05,34.01,34.42,33.33,34.33,1444900,33.49
2013-04-04,34.24,34.68,33.96,34.60,1534800,33.75
2013-04-03,34.88,35.08,34.10,34.31,1829700,33.47
2013-04-02,35.57,35.61,34.77,34.88,2302000,34.03
2013-04-01,35.82,36.00,35.19,35.34,1850100,34.48
2013-03-28,35.80,35.93,35.48,35.92,1474000,35.04
2013-03-27,35.47,35.73,35.25,35.64,1486100,34.77
2013-03-26,35.67,35.98,35.56,35.79,955600,34.91
2013-03-25,35.87,35.89,35.25,35.52,1288800,34.65
2013-03-22,35.77,36.04,35.38,35.80,1730600,34.92
2013-03-21,35.41,35.76,35.13,35.56,2781600,34.69
2013-03-20,35.68,36.08,35.35,35.93,2963600,34.87
2013-03-19,35.39,35.82,35.04,35.30,3340000,34.25
2013-03-18,35.58,35.90,35.05,35.26,2868900,34.22
2013-03-15,36.70,36.78,35.81,36.00,3444700,34.93
2013-03-14,36.05,36.98,36.03,36.66,4344900,35.57
2013-03-13,35.50,36.11,35.26,35.99,2749500,34.92
2013-03-12,35.22,35.54,35.00,35.45,2247700,34.40
2013-03-11,35.08,35.66,34.97,35.26,2817300,34.22
2013-03-08,35.05,35.41,34.98,35.27,1968800,34.23
2013-03-07,34.69,35.13,34.40,34.97,3073800,33.93
2013-03-06,34.31,34.77,34.21,34.71,2461000,33.68
2013-03-05,33.70,34.36,33.68,34.33,3051000,33.31
2013-03-04,33.56,33.70,33.01,33.54,1700500,32.55
2013-03-01,33.92,34.09,33.26,33.70,3150000,32.70
2013-02-28,33.69,34.31,33.33,34.22,3478600,33.21
2013-02-27,33.80,34.37,33.63,33.69,3597100,32.69
2013-02-26,33.13,33.40,32.66,33.13,3455600,32.15
2013-02-25,34.13,34.22,32.94,32.95,3063200,31.97
2013-02-22,33.97,34.47,33.71,34.09,1896400,33.08
2013-02-21,34.47,34.68,32.96,33.67,6185300,32.67
2013-02-20,35.48,35.73,34.67,34.67,3326200,33.64
2013-02-19,35.00,35.55,34.80,35.54,2439600,34.49
2013-02-15,35.58,35.78,34.98,35.14,2531700,34.10
2013-02-14,35.09,35.67,34.99,35.64,3237200,34.58
2013-02-13,35.36,35.49,34.89,35.17,2659000,34.13
2013-02-12,35.20,35.35,34.78,35.14,3122400,34.10
2013-02-11,35.38,35.69,35.00,35.40,2999900,34.35
2013-02-08,35.28,35.53,35.05,35.32,3296600,34.27
2013-02-07,35.64,35.64,34.54,34.96,4243500,33.92
2013-02-06,35.23,35.79,35.09,35.64,2081100,34.58
2013-02-05,35.08,35.57,35.06,35.41,2939200,34.36
2013-02-04,35.75,36.21,35.14,35.18,4340100,34.14
2013-02-01,35.92,36.30,35.82,36.26,2797300,35.19
2013-01-31,35.52,36.09,35.25,35.77,6776400,34.71
2013-01-30,34.49,35.33,34.49,35.05,2518500,34.01
2013-01-29,34.30,34.71,34.18,34.57,2373200,33.55
2013-01-28,34.40,34.53,34.11,34.48,3846200,33.46
2013-01-25,33.83,34.29,33.82,34.16,3508900,33.15
2013-01-24,33.71,34.31,33.59,33.93,4456700,32.92
2013-01-23,34.85,35.00,34.17,34.42,2279100,33.40
2013-01-22,34.45,34.61,34.33,34.44,1380900,33.42
2013-01-18,34.54,34.75,34.31,34.44,1883000,33.42
2013-01-17,34.78,34.97,34.59,34.81,2106500,33.78
2013-01-16,33.81,34.61,33.77,34.56,2766900,33.54
2013-01-15,34.30,34.44,33.82,33.87,3373600,32.87
2013-01-14,33.84,34.62,33.64,34.57,4925800,33.55
2013-01-11,33.54,34.37,33.49,34.34,4787100,33.32
2013-01-10,33.46,33.59,33.02,33.52,4459100,32.53
2013-01-09,32.50,32.96,32.36,32.81,2945600,31.84
2013-01-08,32.45,32.70,32.09,32.10,2096900,31.15
2013-01-07,32.37,32.49,32.10,32.32,1682200,31.36
2013-01-04,32.70,32.77,32.19,32.50,2711300,31.54
2013-01-03,32.34,32.98,32.34,32.71,2329500,31.74
2013-01-02,32.43,33.06,32.24,32.54,3671600,31.58
2012-12-31,31.33,31.78,30.97,31.65,2664400,30.71
2012-12-28,31.06,31.47,30.96,31.15,1961700,30.23
2012-12-27,31.08,31.49,30.69,31.37,2754500,30.44
2012-12-26,31.22,31.57,30.77,30.88,1633900,29.97
2012-12-24,31.29,31.33,30.98,31.15,799500,30.23
2012-12-21,31.14,31.57,31.01,31.36,3506400,30.43
2012-12-20,32.05,32.24,31.42,31.90,2378800,30.95
2012-12-19,32.29,32.50,31.94,31.99,2502300,31.04
2012-12-18,32.23,32.50,31.69,32.27,4141400,31.31
2012-12-17,31.39,32.00,31.02,31.99,7058300,31.04
2012-12-14,33.16,33.27,30.50,31.14,9871400,30.22
2012-12-13,35.00,35.01,33.59,33.70,6619400,32.70
2012-12-12,34.79,34.88,34.45,34.57,4927400,33.38
2012-12-11,34.66,34.88,34.33,34.56,4362500,33.37
2012-12-10,34.38,34.52,34.10,34.45,2684500,33.26
2012-12-07,34.23,34.56,33.95,34.25,8505000,33.07
2012-12-06,34.54,35.15,34.46,35.12,1196300,33.91
2012-12-05,35.03,35.16,34.50,34.53,1587500,33.34
2012-12-04,34.79,35.16,34.69,34.92,1689900,33.72
2012-12-03,35.39,35.58,34.63,34.81,1750400,33.61
2012-11-30,34.59,35.43,33.90,35.10,4163400,33.89
2012-11-29,34.88,35.43,34.72,35.10,1906000,33.89
2012-11-28,33.62,34.65,33.61,34.56,2070200,33.37
2012-11-27,33.86,34.53,33.60,34.12,2054700,32.95
2012-11-26,33.75,34.24,33.41,34.04,1656200,32.87
2012-11-23,33.00,33.74,32.85,33.55,817700,32.40
2012-11-21,32.78,32.96,32.52,32.82,780200,31.69
2012-11-20,33.32,33.48,32.50,32.81,1190500,31.68
2012-11-19,32.28,32.83,32.01,32.75,1666400,31.62
2012-11-16,32.21,32.38,31.68,31.94,2388800,30.84
2012-11-15,33.14,33.22,32.09,32.25,1374500,31.14
2012-11-14,33.68,33.89,32.87,33.03,1205400,31.89
2012-11-13,33.26,33.82,33.18,33.28,1111300,32.14
2012-11-12,33.58,33.85,33.22,33.61,760700,32.45
2012-11-09,34.00,34.00,33.42,33.48,1418600,32.33
2012-11-08,34.99,34.99,33.83,33.84,1326500,32.68
2012-11-07,34.78,35.11,33.89,33.96,2075100,32.79
2012-11-06,34.32,35.28,34.21,35.28,2004500,34.07
2012-11-05,33.00,34.42,32.99,34.32,1388100,33.14
2012-11-02,34.71,34.85,33.94,33.97,1922300,32.80
2012-11-01,33.29,34.56,33.05,34.50,1872500,33.31
2012-10-31,33.62,33.70,32.81,33.03,2285100,31.89
2012-10-26,33.70,33.99,33.40,33.83,1262300,32.67
2012-10-25,33.07,33.74,33.04,33.70,1539600,32.54
2012-10-24,33.53,33.59,32.59,32.73,1352200,31.60
2012-10-23,32.96,33.35,32.82,33.24,1095300,32.10
2012-10-22,33.48,33.69,33.00,33.40,1270700,32.25
2012-10-19,34.12,34.18,32.90,33.19,1908800,32.05
2012-10-18,34.07,34.40,33.81,34.05,1275200,32.88
2012-10-17,34.09,34.60,33.88,34.11,1341000,32.94
2012-10-16,33.30,34.59,33.23,34.35,1860200,33.17
2012-10-15,33.10,33.36,32.80,33.19,1714400,32.05
2012-10-12,32.73,33.01,32.54,32.98,2673300,31.85
2012-10-11,33.01,33.48,32.56,32.93,1376800,31.80
2012-10-10,33.68,33.71,32.55,32.59,1447600,31.47
2012-10-09,33.50,33.74,33.04,33.59,2077000,32.43
2012-10-08,34.00,34.23,33.71,33.88,1003900,32.71
2012-10-05,34.72,35.28,34.17,34.44,1511700,33.26
2012-10-04,34.57,34.57,34.00,34.42,1142500,33.24
2012-10-03,34.53,35.05,34.43,34.57,2725500,33.38
2012-10-02,34.90,34.90,34.10,34.42,1709600,33.24
2012-10-01,35.14,35.54,34.55,34.69,2009100,33.50
2012-09-28,34.45,35.02,34.10,34.87,2590800,33.67
2012-09-27,33.18,34.99,32.97,34.90,4113400,33.70
2012-09-26,32.74,33.54,32.39,33.46,4126800,32.31
2012-09-25,34.56,34.99,32.93,33.01,3400900,31.87
2012-09-24,35.00,35.14,34.23,34.60,4419000,33.41
2012-09-21,34.33,36.12,34.33,35.51,6864000,34.29
2012-09-20,34.58,34.91,33.22,33.75,4025000,32.59
2012-09-19,35.13,35.42,34.75,35.05,2079700,33.84
2012-09-18,35.08,35.17,34.65,35.16,1054400,33.95
2012-09-17,35.19,35.39,34.88,35.28,1529800,33.91
2012-09-14,35.09,35.50,34.70,35.06,3402400,33.70
2012-09-13,35.28,35.40,34.45,35.07,2187500,33.71
2012-09-12,35.22,35.50,35.01,35.23,1380300,33.86
2012-09-11,35.04,35.57,34.83,34.96,1242000,33.60
2012-09-10,35.96,36.19,34.95,35.00,1623800,33.64
2012-09-07,36.71,36.83,36.10,36.20,1584600,34.80
2012-09-06,35.64,36.81,35.19,36.61,2288300,35.19
2012-09-05,35.61,35.62,35.05,35.18,1618400,33.82
2012-09-04,36.37,36.59,35.33,35.89,2152700,34.50
2012-08-31,36.29,36.80,35.91,36.57,1326600,35.15
2012-08-30,36.50,36.50,35.85,36.02,1367100,34.62
2012-08-29,36.39,36.86,36.22,36.60,1195200,35.18
2012-08-28,35.83,36.42,35.68,36.27,1532000,34.86
2012-08-27,36.07,36.13,35.64,35.77,1330600,34.38
2012-08-24,36.02,36.34,35.84,36.05,1303000,34.65
2012-08-23,36.24,36.30,35.72,36.02,1206000,34.62
2012-08-22,36.25,36.68,36.04,36.49,1325100,35.08
2012-08-21,36.00,36.56,35.70,36.38,1923100,34.97
2012-08-20,36.95,36.95,35.41,35.96,2546800,34.57
2012-08-17,37.75,37.88,36.40,36.84,2998500,35.41
2012-08-16,36.70,37.14,36.70,36.91,2588100,35.48
2012-08-15,36.05,36.63,36.00,36.58,1598400,35.16
2012-08-14,36.73,36.77,35.98,36.15,2432400,34.75
2012-08-13,37.15,37.15,36.09,36.27,2111600,34.86
2012-08-10,37.23,37.43,36.77,37.15,1466200,35.71
2012-08-09,37.04,37.57,37.01,37.32,999600,35.87
2012-08-08,37.46,37.70,37.25,37.48,1717300,36.03
2012-08-07,37.28,37.63,37.06,37.40,1542400,35.95
2012-08-06,37.19,37.44,37.00,37.07,1130300,35.63
2012-08-03,37.15,37.46,36.67,37.11,1433300,35.67
2012-08-02,36.35,37.14,36.10,36.54,1315100,35.12
2012-08-01,37.11,37.12,36.41,36.69,1542300,35.27
2012-07-31,36.24,37.64,36.22,36.90,2359700,35.47
2012-07-30,36.32,36.70,35.72,35.97,1204400,34.58
2012-07-27,35.79,36.47,35.55,36.13,1149800,34.73
2012-07-26,35.01,35.73,35.00,35.44,1310100,34.07
2012-07-25,34.13,34.75,33.82,34.21,2047000,32.88
2012-07-24,34.68,35.09,33.77,34.18,975800,32.85
2012-07-23,34.64,34.80,33.73,34.49,1510100,33.15
2012-07-20,35.95,36.00,35.25,35.28,1496100,33.91
2012-07-19,34.53,36.40,34.42,36.04,3467500,34.64
2012-07-18,32.99,34.05,32.91,33.79,2123000,32.48
2012-07-17,33.10,33.22,32.57,33.04,1803800,31.76
2012-07-16,32.97,33.09,32.38,32.74,1376100,31.47
2012-07-13,32.55,33.25,32.48,33.15,1679100,31.86
2012-07-12,32.92,32.99,32.14,32.58,2114000,31.32
2012-07-11,33.41,33.55,32.93,33.10,1894000,31.82
2012-07-10,33.60,34.07,33.25,33.43,2133800,32.13
2012-07-09,34.50,34.60,33.12,33.29,2197400,32.00
2012-07-06,35.50,35.52,34.07,34.48,1471600,33.14
2012-07-05,35.74,35.96,35.47,35.58,857600,34.20
2012-07-03,35.56,35.80,35.44,35.74,980300,34.35
2012-07-02,35.77,36.19,35.27,35.49,2185500,34.11
2012-06-29,35.02,35.94,35.02,35.90,1899000,34.51
2012-06-28,34.51,34.74,33.93,34.31,1694100,32.98
2012-06-27,34.42,35.06,34.33,34.90,1141500,33.55
2012-06-26,34.30,34.62,33.96,34.39,1865600,33.06
2012-06-25,34.38,34.64,34.04,34.21,2359200,32.88
2012-06-22,34.46,35.05,34.38,34.80,5552000,33.45
2012-06-21,35.25,35.39,34.39,34.48,2317300,33.14
2012-06-20,34.80,35.54,34.79,35.27,2926700,33.90
2012-06-19,34.92,35.00,34.40,34.70,1915200,33.35
2012-06-18,33.95,35.08,33.81,34.76,1716300,33.41
2012-06-15,33.36,34.34,33.34,34.07,1828900,32.75
2012-06-14,33.79,33.80,32.65,33.31,2370900,32.02
2012-06-13,33.91,34.49,33.65,34.04,2058000,32.58
2012-06-12,33.31,34.17,33.31,33.92,1847100,32.46
2012-06-11,34.09,34.26,33.14,33.24,1544300,31.81
2012-06-08,32.83,34.04,32.50,33.84,2511900,32.38
2012-06-07,33.43,33.48,32.86,32.95,2310100,31.53
2012-06-06,31.80,32.99,31.58,32.97,2529900,31.55
2012-06-05,30.58,31.49,30.39,31.41,3605300,30.06
2012-06-04,31.22,31.65,30.18,30.53,3973200,29.22
2012-06-01,32.43,32.67,30.86,30.98,3889200,29.65
2012-05-31,33.28,33.38,32.47,33.10,1915700,31.68
2012-05-30,33.95,34.05,32.87,33.06,2623700,31.64
2012-05-29,33.55,34.51,33.21,34.45,1916300,32.97
2012-05-25,32.60,33.40,32.57,33.15,1545700,31.72
2012-05-24,33.46,33.52,32.43,32.51,2748700,31.11
2012-05-23,31.69,33.59,31.50,33.52,4773500,32.08
2012-05-22,30.94,31.42,30.83,31.27,2847500,29.92
2012-05-21,30.00,30.91,29.70,30.91,2836000,29.58
2012-05-18,30.23,30.25,29.71,30.02,2285500,28.73
2012-05-17,30.70,30.94,30.05,30.07,1887200,28.78
2012-05-16,31.06,31.66,30.71,30.77,1945200,29.45
2012-05-15,31.19,31.66,30.91,31.05,2149300,29.71
2012-05-14,30.68,31.45,30.47,31.13,1859400,29.79
2012-05-11,30.69,31.15,30.61,30.94,2903900,29.61
2012-05-10,31.20,31.35,30.63,30.88,2229000,29.55
2012-05-09,31.17,31.24,30.72,31.07,2459600,29.73
2012-05-08,31.09,31.67,30.90,31.55,2853300,30.19
2012-05-07,31.56,31.99,31.21,31.30,1984800,29.95
2012-05-04,32.93,33.36,31.57,31.63,3860400,30.27
2012-05-03,34.71,34.73,33.29,33.36,1836800,31.93
2012-05-02,34.13,34.86,33.86,34.78,884800,33.28
2012-05-01,34.53,34.95,34.17,34.46,1176200,32.98
2012-04-30,34.42,34.62,34.09,34.48,1346400,33.00
2012-04-27,35.09,35.31,34.50,34.60,1700700,33.11
2012-04-26,34.69,35.25,34.41,35.06,1624200,33.55
2012-04-25,34.53,35.27,34.16,34.98,4019600,33.48
2012-04-24,33.19,33.26,32.38,32.68,3724600,31.27
2012-04-23,33.77,33.83,33.14,33.23,4391200,31.80
2012-04-20,35.75,35.75,33.61,34.28,8040000,32.81
2012-04-19,36.98,37.19,35.61,35.71,2896900,34.17
2012-04-18,37.55,37.81,37.11,37.48,883700,35.87
2012-04-17,37.37,37.95,37.22,37.74,1129600,36.12
2012-04-16,37.39,37.57,37.00,37.05,1763300,35.46
2012-04-13,37.92,37.93,37.21,37.28,894100,35.68
2012-04-12,37.63,38.45,37.50,38.15,1252500,36.51
2012-04-11,37.05,38.21,36.90,37.48,1594400,35.87
2012-04-10,37.39,37.74,36.57,36.80,2007200,35.22
2012-04-09,37.24,37.70,37.07,37.58,1219800,35.96
2012-04-05,37.47,37.99,37.35,37.61,1379200,35.99
2012-04-04,38.05,38.13,37.09,37.41,1312500,35.80
2012-04-03,38.61,38.99,38.13,38.37,1231300,36.72
2012-04-02,38.89,39.01,38.11,38.69,1437000,37.03
2012-03-30,38.46,39.22,38.15,38.97,2421000,37.29
2012-03-29,37.65,38.37,37.50,38.34,1302400,36.69
2012-03-28,38.83,38.87,37.79,37.97,1669100,36.34
2012-03-27,38.69,39.02,38.38,38.78,1759700,37.11
2012-03-26,38.46,38.85,37.97,38.84,1667800,37.17
2012-03-23,37.81,38.17,37.52,38.10,1486300,36.46
2012-03-22,38.18,38.34,37.86,37.95,1968000,36.32
2012-03-21,38.09,38.60,37.85,38.36,1360400,36.71
2012-03-20,37.70,38.15,37.50,38.03,1764200,36.39
2012-03-19,37.77,38.16,37.62,38.06,1005800,36.42
2012-03-16,37.84,38.80,37.67,37.90,2352000,36.27
2012-03-15,37.14,37.77,36.89,37.76,1624800,36.14
2012-03-14,37.60,38.37,37.00,37.11,2228200,35.39
2012-03-13,36.95,37.67,36.88,37.63,1290200,35.89
2012-03-12,36.73,36.86,36.10,36.60,872400,34.90
2012-03-09,36.52,36.82,36.05,36.77,1330700,35.07
2012-03-08,36.30,36.82,36.10,36.42,1747800,34.73
2012-03-07,35.51,35.97,35.26,35.75,1285700,34.09
2012-03-06,34.69,35.48,34.60,35.31,1993600,33.67
2012-03-05,36.52,36.55,35.29,35.45,2488100,33.81
2012-03-02,37.25,37.30,36.33,36.60,1960100,34.90
2012-03-01,37.74,37.80,37.16,37.32,1255000,35.59
2012-02-29,36.94,37.70,36.71,37.61,3450300,35.87
2012-02-28,36.83,37.42,36.56,37.01,2158100,35.29
2012-02-27,36.21,37.19,35.54,36.98,2621600,35.27
2012-02-24,37.35,37.40,36.17,36.32,1932500,34.64
2012-02-23,35.80,37.26,35.71,37.19,4760600,35.47
2012-02-22,35.34,36.32,35.34,35.90,2433300,34.24
2012-02-21,35.48,35.88,35.28,35.47,2044900,33.83
2012-02-17,35.67,35.79,34.84,35.24,1840200,33.61
2012-02-16,35.03,35.95,34.72,35.86,1676900,34.20
2012-02-15,34.92,35.48,34.81,34.98,1986400,33.36
2012-02-14,34.57,34.94,34.19,34.51,1831900,32.91
2012-02-13,34.85,35.17,34.02,34.81,1436000,33.20
2012-02-10,34.58,35.40,34.35,34.49,889800,32.89
2012-02-09,35.01,35.31,34.79,35.13,1179000,33.50
2012-02-08,34.55,35.00,34.44,34.88,1503200,33.26
2012-02-07,34.34,34.64,33.95,34.58,1507600,32.98
2012-02-06,35.00,35.05,34.14,34.30,1885300,32.71
2012-02-03,35.28,35.48,34.97,35.13,2381600,33.50
2012-02-02,34.80,35.18,34.75,35.00,3618800,33.38
2012-02-01,34.39,34.90,34.14,34.62,3936100,33.01
2012-01-31,34.00,34.08,33.37,33.94,1622500,32.37
2012-01-30,33.60,34.01,33.35,33.73,1659000,32.17
2012-01-27,33.84,34.48,33.80,33.98,2946800,32.40
2012-01-26,33.96,34.43,33.84,34.08,2553700,32.50
2012-01-25,34.55,34.55,33.70,33.95,3035200,32.38
2012-01-24,33.59,34.24,33.59,33.87,3077800,32.30
2012-01-23,33.85,33.90,33.28,33.66,2012400,32.10
2012-01-20,33.51,34.04,33.34,33.81,2346200,32.24
2012-01-19,33.88,34.35,33.60,33.62,3154600,32.06
2012-01-18,33.00,35.00,32.78,33.94,4427400,32.37
2012-01-17,31.70,32.26,31.47,31.65,3178200,30.18
2012-01-13,31.52,32.00,31.21,31.57,2427500,30.11
2012-01-12,31.20,31.93,30.82,31.68,1987300,30.21
2012-01-11,30.69,31.65,30.59,31.20,2710300,29.75
2012-01-10,30.52,31.13,30.38,30.65,2682900,29.23
2012-01-09,29.30,30.39,29.25,30.22,3348500,28.82
2012-01-06,28.41,28.55,28.02,28.31,2435700,27.00
2012-01-05,28.46,28.75,28.18,28.49,2007500,27.17
2012-01-04,28.89,29.09,28.10,28.45,2025400,27.13
2012-01-03,29.48,30.17,28.89,28.95,2303200,27.61
2011-12-30,28.96,29.16,28.66,28.86,836400,27.52
2011-12-29,28.76,29.21,28.75,29.12,1022100,27.77
2011-12-28,29.36,29.37,28.65,28.74,1337500,27.41
2011-12-27,29.27,29.53,29.03,29.34,799300,27.98
2011-12-23,29.22,29.61,28.85,29.39,1176700,28.03
2011-12-22,27.98,29.14,27.88,29.02,2787400,27.67
2011-12-21,28.83,29.06,27.55,27.91,2752300,26.62
2011-12-20,27.93,29.00,27.92,28.83,2961300,27.49
2011-12-19,28.83,28.83,27.39,27.55,3112400,26.27
2011-12-16,28.92,29.17,28.17,28.80,9036400,27.46
2011-12-15,28.87,29.25,28.59,28.64,2391700,27.31
2011-12-14,28.96,29.36,28.27,28.71,2112500,27.26
2011-12-13,29.54,30.09,29.07,29.24,3292800,27.77
2011-12-12,28.62,29.63,27.59,29.46,3672900,27.98
2011-12-09,30.03,30.65,29.79,30.61,3370300,29.07
2011-12-08,31.18,31.64,30.59,30.68,2939700,29.14
2011-12-07,30.64,31.39,30.44,31.22,2501900,29.65
2011-12-06,30.93,31.20,30.06,30.81,2705800,29.26
2011-12-05,31.52,31.94,30.78,31.04,2898000,29.48
2011-12-02,30.28,31.64,30.16,31.16,5768900,29.59
2011-12-01,29.82,30.38,29.12,29.91,4861200,28.40
2011-11-30,29.43,30.11,28.98,29.92,3658600,28.41
2011-11-29,28.65,29.36,28.52,28.87,3150000,27.42
2011-11-28,29.33,29.54,28.12,28.58,4765300,27.14
2011-11-25,28.96,29.13,28.31,28.44,895100,27.01
2011-11-23,29.00,29.38,28.67,28.97,2381900,27.51
2011-11-22,29.61,30.22,29.10,29.41,2401400,27.93
2011-11-21,29.37,29.74,28.79,29.45,3638900,27.97
2011-11-18,31.47,31.58,29.51,29.86,3227900,28.36
2011-11-17,32.04,32.12,30.95,31.20,1734900,29.63
2011-11-16,32.77,33.30,31.87,32.10,1718000,30.48
2011-11-15,32.97,33.52,32.71,32.99,1623100,31.33
2011-11-14,34.12,34.31,32.83,33.09,1606300,31.42
2011-11-11,33.34,34.39,33.24,34.29,1155300,32.56
2011-11-10,33.66,33.76,32.89,33.11,956000,31.44
2011-11-09,34.05,34.54,33.07,33.23,1544600,31.56
2011-11-08,34.73,34.86,33.87,34.73,947500,32.98
2011-11-07,34.34,34.60,33.61,34.58,1728900,32.84
2011-11-04,33.62,34.70,33.62,34.38,1711300,32.65
2011-11-03,33.51,34.50,32.81,34.33,3144900,32.60
2011-11-02,33.43,33.50,32.40,32.60,2143900,30.96
2011-11-01,32.69,33.42,32.28,33.00,1619600,31.34
2011-10-31,33.02,34.19,32.98,33.77,3576700,32.07
2011-10-28,33.71,33.99,31.09,33.59,7159600,31.90
2011-10-27,34.07,34.75,33.47,33.76,4317000,32.06
2011-10-26,34.79,35.13,33.64,33.77,2313700,32.07
2011-10-25,34.84,35.36,34.36,34.44,2461400,32.71
2011-10-24,34.08,35.61,34.00,35.35,2569000,33.57
2011-10-21,34.32,34.50,33.42,33.84,2717000,32.14
2011-10-20,34.53,34.82,33.12,33.98,2714100,32.27
2011-10-19,35.44,35.45,34.50,34.63,3031200,32.89
2011-10-18,34.93,35.97,34.91,35.84,1394800,34.04
2011-10-17,35.35,35.69,34.81,35.06,2129800,33.29
2011-10-14,34.98,35.81,34.78,35.70,3500400,33.90
2011-10-13,33.39,34.93,33.28,34.06,6020700,32.35
2011-10-12,33.54,33.86,32.91,33.65,2889400,31.96
2011-10-11,33.62,33.91,33.00,33.33,1300200,31.65
2011-10-10,33.00,34.06,33.00,33.66,3758300,31.97
2011-10-07,33.15,33.43,32.53,32.88,1824000,31.22
2011-10-06,32.75,33.15,32.29,32.95,2484400,31.29
2011-10-05,32.27,32.70,31.60,32.61,3511900,30.97
2011-10-04,31.93,32.73,30.86,32.34,3720500,30.71
2011-10-03,32.79,33.23,31.67,31.89,3663900,30.28
2011-09-30,33.12,33.38,32.43,32.77,5167400,31.12
2011-09-29,33.34,33.56,32.27,33.17,4907600,31.50
2011-09-28,33.02,33.59,32.89,33.01,10650400,31.35
2011-09-27,34.68,35.15,34.36,34.49,2326800,32.75
2011-09-26,34.82,35.08,33.56,34.10,2544600,32.38
2011-09-23,33.87,35.05,33.39,34.80,2086800,33.05
2011-09-22,34.85,35.01,32.97,33.98,3553400,32.27
2011-09-21,36.55,37.99,35.88,35.98,3293900,34.17
2011-09-20,37.50,37.77,36.27,36.32,2709600,34.49
2011-09-19,35.99,37.99,35.41,37.35,4114800,35.47
2011-09-16,36.57,36.86,35.92,36.49,1803000,34.65
2011-09-15,36.81,37.61,36.21,36.74,2998000,34.89
2011-09-14,34.50,36.77,34.40,36.56,4720600,34.61
2011-09-13,33.53,34.49,33.10,34.32,2051100,32.49
2011-09-12,31.85,33.68,31.80,33.53,2047000,31.75
2011-09-09,32.71,33.25,32.00,32.30,1903200,30.58
2011-09-08,32.17,33.35,32.10,33.09,1938300,31.33
2011-09-07,32.21,33.24,32.14,32.70,1459500,30.96
2011-09-06,30.49,31.48,30.22,31.46,1180000,29.79
2011-09-02,30.84,31.54,30.51,31.13,1686200,29.47
2011-09-01,33.01,33.15,31.48,31.56,3113500,29.88
2011-08-31,33.30,34.50,32.74,33.11,2291300,31.35
2011-08-30,32.55,33.77,32.27,33.13,1714500,31.37
2011-08-29,31.97,32.90,31.75,32.85,1345900,31.10
2011-08-26,30.58,31.53,29.70,31.52,2091600,29.84
2011-08-25,32.11,32.27,30.81,30.88,2506500,29.24
2011-08-24,32.02,33.46,31.38,32.27,6934600,30.55
2011-08-23,27.82,29.30,27.26,29.26,3597700,27.70
2011-08-22,28.79,28.90,27.31,27.64,2579300,26.17
2011-08-19,28.63,29.75,28.15,28.29,1260900,26.78
2011-08-18,29.81,29.90,28.28,28.61,2305500,27.09
2011-08-17,31.33,32.03,30.61,30.70,1902300,29.07
2011-08-16,31.34,31.68,30.66,30.97,1745900,29.32
2011-08-15,31.19,32.40,31.19,31.61,1706700,29.93
2011-08-12,31.49,32.00,30.90,31.04,2574300,29.39
2011-08-11,29.60,31.15,29.60,30.71,2706500,29.08
2011-08-10,29.26,30.37,28.58,29.25,3043200,27.69
2011-08-09,27.72,29.69,27.43,29.63,4211200,28.05
2011-08-08,28.61,29.00,26.42,27.19,4369700,25.74
2011-08-05,31.27,32.49,29.09,29.34,4374800,27.78
2011-08-04,32.21,32.50,30.86,30.90,2603000,29.26
2011-08-03,32.08,32.84,31.32,32.78,1700900,31.04
2011-08-02,32.85,33.81,32.04,32.05,2103700,30.34
2011-08-01,34.00,34.10,32.95,33.20,2379500,31.43
2011-07-29,33.62,34.30,32.83,33.63,3841400,31.84
2011-07-28,33.89,34.80,32.41,34.64,4704200,32.80
2011-07-27,36.45,36.65,33.43,33.63,4051900,31.84
2011-07-26,36.29,36.95,36.21,36.66,2725100,34.71
2011-07-25,36.64,36.64,35.89,36.09,1436100,34.17
2011-07-22,36.72,37.39,36.28,37.07,1492900,35.10
2011-07-21,35.90,37.19,35.73,36.76,2049800,34.80
2011-07-20,36.27,37.00,35.92,36.07,1482900,34.15
2011-07-19,35.30,36.46,35.14,36.20,1789600,34.27
2011-07-18,35.28,35.71,34.40,35.00,1198300,33.14
2011-07-15,35.37,35.95,34.95,35.51,1374500,33.62
2011-07-14,35.45,36.49,35.10,35.18,2235600,33.31
2011-07-13,35.75,36.27,35.05,35.38,1945800,33.50
2011-07-12,37.19,37.24,35.01,35.41,3467700,33.53
2011-07-11,37.41,38.12,37.10,37.39,1457300,35.40
2011-07-08,38.21,38.21,37.03,37.96,2021300,35.94
2011-07-07,39.13,39.45,38.54,38.66,2312100,36.60
2011-07-06,38.67,39.08,38.29,39.08,1231200,37.00
2011-07-05,38.75,39.08,38.51,38.96,951900,36.89
2011-07-01,38.22,38.99,38.21,38.66,1947900,36.60
2011-06-30,37.80,38.70,37.15,38.00,2632900,35.98
2011-06-29,37.26,37.79,36.64,37.71,2568000,35.70
2011-06-28,35.81,37.38,35.81,36.95,3114800,34.98
2011-06-27,35.55,36.02,35.00,35.45,1808400,33.56
2011-06-24,35.78,35.83,35.00,35.52,10265600,33.63
2011-06-23,35.48,36.07,34.83,35.82,3811300,33.91
2011-06-22,33.98,36.29,33.55,36.00,3838200,34.08
2011-06-21,32.96,34.40,32.85,34.07,1843900,32.26
2011-06-20,32.46,33.15,32.19,32.75,1912900,31.01
2011-06-17,33.68,33.84,32.19,32.50,2020800,30.77
2011-06-16,33.41,33.47,32.66,33.37,2177000,31.59
2011-06-15,34.14,34.30,33.49,33.56,1919400,31.77
2011-06-14,33.76,34.46,33.75,34.22,2184400,32.31
2011-06-13,33.77,34.31,32.98,33.47,2305300,31.61
2011-06-10,34.28,34.39,33.38,33.77,1424800,31.89
2011-06-09,34.30,34.64,33.75,34.23,3245900,32.32
2011-06-08,33.80,34.17,33.25,33.41,1752400,31.55
2011-06-07,33.80,34.25,33.40,34.05,4984500,32.15
2011-06-06,34.01,34.01,33.26,33.33,1382300,31.47
2011-06-03,33.72,34.14,33.10,33.89,4081700,32.00
2011-06-02,33.81,34.15,32.98,33.52,2314700,31.65
2011-06-01,33.84,34.25,33.65,33.77,3382600,31.89
2011-05-31,33.86,34.07,33.47,33.79,10716300,31.91
2011-05-27,34.80,35.12,34.17,35.01,1712900,33.06
2011-05-26,34.54,34.85,33.65,34.71,1841000,32.78
2011-05-25,32.80,34.68,32.61,34.50,6719500,32.58
2011-05-24,32.13,32.31,31.48,31.71,2800000,29.94
2011-05-23,33.92,33.93,31.78,32.03,2492400,30.25
2011-05-20,34.84,35.21,34.30,34.39,1316400,32.47
2011-05-19,34.70,35.06,34.63,34.81,706700,32.87
2011-05-18,34.39,34.75,33.66,34.63,684300,32.70
2011-05-17,34.10,34.44,33.82,34.27,1257000,32.36
2011-05-16,34.70,34.98,34.14,34.26,756000,32.35
2011-05-13,35.06,35.41,34.88,34.89,1012100,32.95
2011-05-12,35.96,36.07,34.83,35.06,2025500,33.11
2011-05-11,35.81,36.07,35.53,35.87,1383400,33.87
2011-05-10,35.76,36.18,35.61,35.81,1675000,33.82
2011-05-09,35.00,35.64,34.65,35.46,1374300,33.48
2011-05-06,33.85,35.00,33.62,34.91,1907200,32.97
2011-05-05,32.50,33.40,32.08,33.24,819000,31.39
2011-05-04,32.25,32.61,31.92,32.54,748200,30.73
2011-05-03,33.29,33.43,32.13,32.16,1176200,30.37
2011-05-02,33.74,33.74,32.92,33.15,708200,31.30
2011-04-29,32.94,33.50,32.72,33.46,818000,31.60
2011-04-28,33.30,33.82,32.86,32.89,721400,31.06
2011-04-27,32.26,33.50,32.16,33.39,982200,31.53
2011-04-26,32.58,32.58,31.85,32.35,1100000,30.55
2011-04-25,32.54,32.70,32.00,32.24,600000,30.44
2011-04-21,32.88,33.06,32.52,32.60,833500,30.78
2011-04-20,32.18,32.62,31.94,32.56,1115300,30.75
2011-04-19,31.56,31.99,31.44,31.77,723700,30.00
2011-04-18,31.39,31.70,30.53,31.60,805200,29.84
2011-04-15,31.00,31.84,30.58,31.74,1211900,29.97
2011-04-14,31.53,31.79,30.70,31.07,1174600,29.34
2011-04-13,31.87,32.29,31.31,31.80,877000,30.03
2011-04-12,32.02,32.16,30.88,31.37,1883900,29.62
2011-04-11,32.30,32.63,31.74,32.23,889600,30.43
2011-04-08,32.86,33.14,32.27,32.57,834000,30.76
2011-04-07,32.87,32.97,32.31,32.47,1658000,30.66
2011-04-06,32.14,32.86,31.74,32.77,2137300,30.94
2011-04-05,30.75,32.40,30.61,31.67,2044400,29.91
2011-04-04,31.59,31.59,29.96,30.60,1879000,28.90
2011-04-01,31.50,31.90,31.06,31.52,1602900,29.76
2011-03-31,31.53,31.80,30.81,31.10,1580300,29.37
2011-03-30,31.50,31.59,30.61,31.49,1735300,29.74
2011-03-29,31.06,31.11,30.61,30.97,1470800,29.25
2011-03-28,30.87,31.50,30.74,30.99,1074000,29.26
2011-03-25,31.15,31.19,30.77,30.85,912200,29.13
2011-03-24,31.27,31.33,30.60,31.07,1337100,29.34
2011-03-23,30.72,31.02,30.35,31.01,1236400,29.28
2011-03-22,31.15,31.30,30.45,30.71,1517600,29.00
2011-03-21,30.80,31.15,30.58,30.99,1994700,29.26
2011-03-18,30.07,30.49,29.86,30.32,3069700,28.63
2011-03-17,30.27,30.31,28.27,29.32,3814300,27.69
2011-03-16,30.95,31.09,29.40,29.56,2872400,27.91
2011-03-15,30.24,31.28,29.85,31.07,1979600,29.26
2011-03-14,31.09,31.17,30.72,31.00,1641400,29.20
2011-03-11,30.98,31.52,30.71,31.23,1313500,29.41
2011-03-10,30.81,31.12,30.15,31.01,3619100,29.21
2011-03-09,31.74,31.89,30.94,31.00,4392900,29.20
2011-03-08,31.92,32.55,31.59,32.39,1960300,30.51
2011-03-07,33.00,33.00,31.57,31.98,1670900,30.12
2011-03-04,33.06,33.15,32.51,32.79,2049800,30.88
2011-03-03,32.79,33.08,32.35,33.00,3284800,31.08
2011-03-02,32.11,32.54,32.04,32.46,2661700,30.57
2011-03-01,32.25,32.47,31.84,32.07,10131800,30.21
2011-02-28,34.34,34.53,33.49,33.99,1626300,32.01
2011-02-25,34.24,34.59,33.80,34.36,1913200,32.36
2011-02-24,31.85,34.12,31.66,33.98,3533100,32.00
2011-02-23,32.98,33.00,30.92,31.34,3327200,29.52
2011-02-22,33.24,33.24,32.13,32.60,2011800,30.70
2011-02-18,33.77,34.07,33.63,33.85,1563900,31.88
2011-02-17,34.33,34.42,33.31,33.63,3438700,31.68
2011-02-16,33.91,34.60,33.81,34.38,1260500,32.38
2011-02-15,33.89,34.26,33.42,33.71,1978800,31.75
2011-02-14,33.58,34.35,33.58,34.04,2599700,32.06
2011-02-11,32.53,33.35,32.32,33.29,2772500,31.35
2011-02-10,32.99,33.00,32.15,32.48,3504300,30.59
2011-02-09,31.93,32.95,31.75,32.77,4291600,30.87
2011-02-08,31.40,32.25,31.00,31.91,3468400,30.06
2011-02-07,31.17,31.48,30.56,30.79,976200,29.00
2011-02-04,29.79,31.22,29.72,31.20,2550000,29.39
2011-02-03,28.78,29.58,28.60,29.41,1232600,27.70
2011-02-02,29.02,29.40,28.70,28.80,1130000,27.13
2011-02-01,28.92,29.50,28.76,29.07,1583500,27.38
2011-01-31,28.04,28.88,27.95,28.71,1310400,27.04
2011-01-28,29.30,29.36,27.87,28.05,1372200,26.42
2011-01-27,28.42,29.44,28.42,29.22,3730200,27.52
2011-01-26,28.13,28.38,27.80,28.25,1520900,26.61
2011-01-25,28.15,28.15,27.40,28.02,1454800,26.39
2011-01-24,28.22,28.22,27.58,28.09,2149500,26.46
2011-01-21,27.99,28.17,27.66,27.77,1249000,26.16
2011-01-20,27.69,27.82,27.28,27.70,2096300,26.09
2011-01-19,28.00,28.50,27.51,27.76,2979500,26.15
2011-01-18,27.65,27.89,27.23,27.75,10018200,26.14
2011-01-14,28.34,29.06,28.00,29.01,977600,27.32
2011-01-13,28.40,28.66,28.02,28.35,964500,26.70
2011-01-12,29.28,29.33,28.02,28.17,1559900,26.53
2011-01-11,29.14,29.26,28.84,29.24,1354900,27.54
2011-01-10,28.26,29.10,27.93,28.90,1538500,27.22
2011-01-07,28.47,28.51,27.78,28.28,877400,26.64
2011-01-06,28.04,28.53,27.77,28.52,959800,26.86
2011-01-05,27.85,28.17,27.75,27.99,953700,26.36
2011-01-04,27.80,28.30,26.97,28.00,1626200,26.37
2011-01-03,28.70,28.70,27.68,27.80,1443600,26.18
2010-12-31,28.90,28.90,28.29,28.41,617700,26.76
2010-12-30,28.64,28.93,28.35,28.88,681500,27.20
2010-12-29,28.45,28.67,28.15,28.63,629600,26.97
2010-12-28,28.77,28.80,28.22,28.30,583600,26.65
2010-12-27,28.10,28.94,27.82,28.76,1331100,27.09
2010-12-23,28.13,28.46,27.91,28.13,588500,26.49
2010-12-22,27.95,28.19,27.39,28.14,960000,26.50
2010-12-21,27.95,28.09,27.67,27.88,1495000,26.26
2010-12-20,27.89,28.44,27.70,27.81,1460200,26.19
2010-12-17,27.72,28.40,27.53,28.17,3640100,26.53
2010-12-16,26.60,27.65,26.42,27.64,2442500,26.03
2010-12-15,26.30,26.87,25.91,26.40,1800500,24.87
2010-12-14,26.65,26.75,25.97,26.29,946000,24.76
2010-12-13,26.60,26.70,26.35,26.58,1217700,25.03
2010-12-10,26.70,26.70,26.16,26.40,1405200,24.80
2010-12-09,25.74,26.51,25.57,26.41,3405100,24.81
2010-12-08,24.99,25.74,24.86,25.40,4907700,23.86
2010-12-07,24.76,25.29,24.48,24.86,11738100,23.35
2010-12-06,26.85,26.89,26.29,26.85,897100,25.22
2010-12-03,28.00,28.00,26.45,26.55,2627900,24.94
2010-12-02,26.96,28.48,26.83,28.41,1906000,26.69
2010-12-01,26.48,27.00,26.29,26.86,1652200,25.23
2010-11-30,26.92,27.25,26.09,26.11,5435500,24.53
2010-11-29,27.07,27.10,26.36,26.92,1020500,25.29
2010-11-26,26.25,27.05,26.17,27.01,626800,25.37
2010-11-24,26.12,26.40,26.07,26.30,823900,24.71
2010-11-23,25.90,26.06,25.66,25.98,645400,24.40
2010-11-22,25.33,26.01,25.33,26.01,907800,24.43
2010-11-19,24.93,25.33,24.84,25.27,345400,23.74
2010-11-18,24.77,25.16,24.68,25.07,664000,23.55
2010-11-17,24.87,25.20,24.50,24.60,637800,23.11
2010-11-16,25.02,25.07,24.42,24.90,569700,23.39
2010-11-15,25.95,25.96,25.08,25.17,498700,23.64
2010-11-12,24.81,25.81,24.56,25.72,1007500,24.16
2010-11-11,24.40,25.10,23.85,24.85,1211800,23.34
2010-11-10,24.85,24.93,24.38,24.61,268000,23.12
2010-11-09,25.33,25.45,24.78,24.83,407900,23.32
2010-11-08,25.15,25.58,24.93,25.25,374400,23.72
2010-11-05,25.36,25.70,25.15,25.37,629500,23.83
2010-11-04,24.96,25.37,24.67,25.29,983100,23.76
2010-11-03,24.12,24.77,23.96,24.68,584900,23.18
2010-11-02,24.10,24.44,23.87,24.08,404000,22.62
2010-11-01,24.50,24.73,23.77,23.83,857500,22.39
2010-10-29,23.51,24.95,23.36,24.68,1360700,23.18
2010-10-28,23.96,24.05,23.09,23.43,1351800,22.01
2010-10-27,23.41,23.75,23.19,23.70,1125100,22.26
2010-10-26,22.80,23.48,22.64,23.42,1478700,22.00
2010-10-25,22.50,23.12,22.41,22.86,647500,21.47
2010-10-22,22.00,22.49,21.95,22.48,524400,21.12
2010-10-21,22.20,22.21,21.90,21.95,346700,20.62
2010-10-20,22.54,22.65,22.08,22.10,306100,20.76
2010-10-19,22.37,22.72,22.10,22.39,521700,21.03
2010-10-18,22.76,22.78,22.41,22.74,462600,21.36
2010-10-15,22.55,22.72,21.91,22.69,865000,21.31
2010-10-14,22.03,22.50,21.79,22.42,848800,21.06
2010-10-13,22.21,22.24,21.54,22.00,949000,20.67
2010-10-12,22.39,22.39,21.74,22.02,855000,20.68
2010-10-11,22.26,22.46,22.07,22.34,387600,20.99
2010-10-08,22.65,22.71,22.05,22.20,1114400,20.85
2010-10-07,22.34,22.97,22.26,22.88,815800,21.49
2010-10-06,22.42,22.69,21.84,22.28,1026300,20.93
2010-10-05,22.44,22.62,22.25,22.45,409900,21.09
2010-10-04,22.60,22.63,21.92,22.31,785600,20.96
2010-10-01,22.62,22.66,22.35,22.63,633000,21.26
2010-09-30,22.38,23.00,22.34,22.51,1046400,21.15
2010-09-29,22.30,22.50,22.12,22.33,388000,20.98
2010-09-28,22.10,22.42,21.81,22.30,654700,20.95
2010-09-27,21.98,22.11,21.73,21.95,666300,20.62
2010-09-24,21.38,21.78,21.32,21.58,793400,20.27
2010-09-23,20.65,21.65,20.22,21.33,1033700,20.04
2010-09-22,20.80,21.45,20.70,20.76,1423800,19.50
2010-09-21,20.75,21.92,20.43,20.77,971900,19.51
2010-09-20,20.14,20.98,19.79,20.63,1249800,19.38
2010-09-17,19.40,20.32,19.30,20.04,1540800,18.83
2010-09-16,19.01,19.65,19.00,19.25,857600,18.08
2010-09-15,19.80,20.11,18.91,19.11,1106400,17.95
2010-09-14,18.83,20.18,18.61,19.90,1211500,18.69
2010-09-13,18.77,19.07,18.76,18.95,1164100,17.80
2010-09-10,19.54,19.65,18.41,18.65,2553700,17.52
2010-09-09,20.13,20.30,19.49,19.67,1550000,18.48
2010-09-08,20.56,20.69,19.79,20.08,1060400,18.86
2010-09-07,20.79,20.99,20.47,20.58,439300,19.33
2010-09-03,21.17,21.21,20.73,20.98,524000,19.71
2010-09-02,21.21,21.24,20.83,21.05,304700,19.77
2010-09-01,20.30,21.36,20.16,21.00,1109500,19.73
2010-08-31,19.80,20.25,19.70,20.15,633900,18.93
2010-08-30,20.21,20.36,19.93,20.00,590400,18.79
2010-08-27,20.62,20.65,20.01,20.31,1051800,19.08
2010-08-26,20.52,21.02,20.26,20.60,776900,19.35
2010-08-25,20.25,20.42,19.71,20.29,1122100,19.06
2010-08-24,20.00,20.48,19.95,20.24,1092600,19.01
2010-08-23,20.44,20.57,20.22,20.40,577200,19.16
2010-08-20,20.29,20.55,20.29,20.43,415800,19.19
2010-08-19,20.67,20.85,20.38,20.51,589100,19.27
2010-08-18,20.32,20.82,20.09,20.75,833900,19.49
2010-08-17,20.39,20.71,20.29,20.37,774900,19.14
2010-08-16,19.99,20.30,19.71,20.27,1485800,19.04
2010-08-13,20.38,20.55,19.95,19.99,3957800,18.78
2010-08-12,20.45,20.89,20.20,20.41,1832400,19.17
2010-08-11,20.54,20.75,19.28,20.23,2330000,19.00
2010-08-10,22.58,22.82,22.20,22.30,372200,20.95
2010-08-09,22.68,22.93,22.48,22.90,226700,21.51
2010-08-06,22.56,22.73,22.39,22.59,271600,21.22
2010-08-05,22.11,22.75,22.11,22.74,463900,21.36
2010-08-04,21.69,22.45,21.25,22.34,616800,20.99
2010-08-03,21.72,21.90,21.37,21.60,417600,20.29
2010-08-02,21.98,22.80,21.60,21.83,1010500,20.51
2010-07-30,21.58,21.91,21.09,21.76,277500,20.44
2010-07-29,21.91,21.99,21.36,21.77,510300,20.45
2010-07-28,22.38,22.55,21.77,21.80,355000,20.48
2010-07-27,22.85,23.06,22.23,22.42,972000,21.06
2010-07-26,22.89,22.95,21.91,22.80,689200,21.42
2010-07-23,22.90,23.13,22.50,22.88,631700,21.49
2010-07-22,22.03,22.94,21.89,22.85,839700,21.46
2010-07-21,22.17,22.36,21.72,21.77,503600,20.45
2010-07-20,22.03,22.09,21.60,22.00,712200,20.67
2010-07-19,22.05,22.37,21.78,22.27,526200,20.92
2010-07-16,22.69,22.95,21.98,21.99,659900,20.66
2010-07-15,22.25,23.00,21.91,22.91,835500,21.52
2010-07-14,22.50,22.86,22.22,22.29,538400,20.94
2010-07-13,22.31,22.50,22.14,22.48,658900,21.12
2010-07-12,21.85,22.38,21.45,22.10,499500,20.76
2010-07-09,21.74,22.01,21.50,22.01,325500,20.68
2010-07-08,21.76,22.00,21.35,21.79,291400,20.47
2010-07-07,20.75,21.69,20.50,21.67,949300,20.36
2010-07-06,21.81,22.21,20.75,20.87,1058800,19.60
2010-07-02,21.48,21.69,21.27,21.57,553400,20.26
2010-07-01,21.32,21.55,20.68,21.41,1150300,20.11
2010-06-30,20.89,21.31,20.67,21.06,1344400,19.78
2010-06-29,21.28,21.29,20.36,20.97,1327400,19.70
2010-06-28,21.54,21.86,20.52,21.75,966300,20.43
2010-06-25,21.44,22.07,21.13,21.47,9588300,20.17
2010-06-24,22.65,22.68,20.73,21.24,1777100,19.95
2010-06-23,22.50,22.70,21.51,22.54,1144100,21.17
2010-06-22,22.89,23.04,22.10,22.26,1200800,20.91
2010-06-21,23.39,23.40,22.38,22.99,711100,21.60
2010-06-18,23.29,23.53,22.81,23.04,1272000,21.64
2010-06-17,23.29,23.69,23.03,23.35,2053600,21.93
2010-06-16,22.22,23.49,22.05,22.88,2692300,21.49
2010-06-15,21.75,22.70,21.57,22.25,1208200,20.90
2010-06-14,22.15,22.16,21.31,21.51,1340900,20.21
2010-06-11,21.50,21.98,21.43,21.93,792900,20.60
2010-06-10,21.50,21.97,21.49,21.80,1009900,20.48
2010-06-09,21.25,21.90,20.96,21.07,802500,19.79
2010-06-08,20.94,21.10,20.62,21.09,1192400,19.81
2010-06-07,20.88,21.10,20.55,20.77,735300,19.51
2010-06-04,21.40,21.44,20.58,20.81,315700,19.55
2010-06-03,21.06,22.00,21.06,21.66,646300,20.35
2010-06-02,20.34,21.11,20.34,21.11,861800,19.83
2010-06-01,20.66,20.99,20.34,20.39,456100,19.15
2010-05-28,21.43,21.49,20.30,20.65,795500,19.40
2010-05-27,20.37,21.55,20.29,21.34,1065700,20.05
2010-05-26,19.56,20.42,19.48,20.02,946200,18.81
2010-05-25,19.00,19.34,18.52,19.23,680400,18.06
2010-05-24,19.75,20.00,19.31,19.39,480200,18.21
2010-05-21,19.90,20.25,19.54,19.81,823300,18.61
2010-05-20,19.77,20.30,19.44,20.10,1112300,18.88
2010-05-19,19.84,20.28,18.93,20.02,579000,18.81
2010-05-18,20.60,20.88,19.94,20.08,338400,18.86
2010-05-17,20.25,20.52,19.92,20.52,292900,19.28
2010-05-14,20.41,20.49,19.72,20.23,504900,19.00
2010-05-13,20.83,20.83,20.32,20.46,291900,19.22
2010-05-12,20.56,20.92,20.50,20.72,353300,19.46
2010-05-11,20.33,20.80,20.17,20.66,217400,19.41
2010-05-10,20.00,20.91,20.00,20.74,894400,19.48
2010-05-07,19.24,19.50,18.38,19.29,602500,18.12
2010-05-06,19.57,19.58,18.55,19.20,915500,18.04
2010-05-05,19.94,20.06,19.20,19.59,626600,18.40
2010-05-04,20.97,20.97,19.92,20.05,554000,18.83
2010-05-03,20.65,21.47,20.39,21.12,423900,19.84
2010-04-30,21.57,21.69,20.49,20.51,360300,19.27
2010-04-29,21.33,21.80,21.33,21.40,318500,20.10
2010-04-28,21.18,21.29,20.68,21.01,313900,19.74
2010-04-27,21.86,21.86,20.82,21.00,250600,19.73
2010-04-26,21.35,22.03,21.30,21.79,255000,20.47
2010-04-23,21.43,21.62,21.08,21.49,188600,20.19
2010-04-22,21.84,21.86,20.97,21.53,644100,20.22
2010-04-21,22.50,22.83,21.46,21.84,540200,20.52
2010-04-20,22.47,22.88,22.18,22.37,850600,21.01
2010-04-19,21.68,22.04,21.30,21.90,486700,20.57
2010-04-16,21.97,21.98,21.67,21.88,343900,20.55
2010-04-15,21.60,22.00,21.60,21.96,614800,20.63
2010-04-14,20.63,21.56,20.50,21.55,478300,20.24
2010-04-13,19.86,20.24,19.75,20.15,236700,18.93
2010-04-12,19.92,20.15,19.67,20.02,286700,18.81
2010-04-09,20.10,20.14,19.83,20.01,198300,18.80
2010-04-08,20.48,20.48,20.08,20.10,140200,18.88
2010-04-07,20.58,20.74,20.40,20.48,144600,19.24
2010-04-06,20.05,20.83,20.00,20.68,235800,19.43
2010-04-05,20.69,20.70,19.79,20.26,612000,19.03
2010-04-01,20.69,20.80,20.09,20.50,324600,19.26
2010-03-31,20.39,20.68,20.17,20.56,662000,19.31
2010-03-30,20.28,20.51,19.96,20.38,353900,19.14
2010-03-29,20.09,20.40,19.94,20.22,296100,18.99
2010-03-26,19.66,20.20,19.66,19.91,525000,18.70
2010-03-25,19.75,19.75,19.31,19.65,583500,18.46
2010-03-24,20.20,20.20,19.57,19.62,153500,18.43
2010-03-23,19.98,20.30,19.95,20.22,281900,18.99
2010-03-22,19.87,20.15,19.70,19.94,473400,18.73
2010-03-19,20.11,20.28,19.69,20.11,636500,18.89
2010-03-18,19.94,20.00,19.48,19.98,211200,18.77
2010-03-17,19.59,19.99,19.56,19.89,309400,18.68
2010-03-16,19.42,19.68,19.16,19.50,162300,18.32
2010-03-15,19.56,19.56,19.03,19.42,179200,18.24
2010-03-12,19.90,20.00,19.44,19.65,498400,18.46
2010-03-11,19.79,19.97,19.79,19.86,394700,18.66
2010-03-10,19.46,19.98,19.36,19.74,544900,18.54
2010-03-09,19.44,20.00,19.15,19.35,922700,18.18
2010-03-08,19.48,19.52,19.09,19.31,222000,18.14
2010-03-05,19.05,19.66,19.05,19.36,376700,18.19
2010-03-04,19.01,19.24,18.50,19.06,396600,17.90
2010-03-03,18.75,19.94,18.75,18.91,1063400,17.76
2010-03-02,18.19,18.74,18.19,18.72,981000,17.59
2010-03-01,18.70,18.80,18.12,18.30,872200,17.19
2010-02-26,18.05,18.19,17.96,18.15,280700,17.05
2010-02-25,18.00,18.39,17.69,18.09,2319700,16.99
2010-02-24,17.50,17.87,17.41,17.74,852300,16.66
2010-02-23,17.35,17.49,17.13,17.38,1820200,16.33
2010-02-22,17.50,17.59,17.23,17.35,846500,16.30
2010-02-19,17.50,17.62,17.36,17.53,374600,16.47
2010-02-18,17.47,17.50,17.30,17.45,461900,16.39
2010-02-17,17.60,17.60,17.17,17.41,507700,16.35
2010-02-16,17.40,17.51,17.27,17.48,422700,16.42
2010-02-12,16.98,17.39,16.79,17.36,163200,16.31
2010-02-11,16.76,17.25,16.50,17.13,370000,16.09
2010-02-10,16.86,16.94,16.51,16.80,578000,15.78
2010-02-09,17.04,17.38,16.82,16.99,189600,15.96
2010-02-08,17.08,17.29,16.87,17.01,498300,15.98
2010-02-05,17.25,17.32,16.60,17.20,538700,16.16
2010-02-04,17.38,17.58,17.06,17.22,1376700,16.18
2010-02-03,17.54,17.69,17.48,17.62,1285700,16.55
2010-02-02,17.51,17.80,17.35,17.70,1772900,16.63
2010-02-01,17.38,17.69,17.29,17.50,509500,16.44
2010-01-29,17.72,17.86,17.25,17.38,3357000,16.33
2010-01-28,17.55,17.74,17.25,17.72,14457600,16.65
2010-01-27,17.64,17.95,17.25,17.41,696300,16.35
2010-01-26,17.03,18.00,16.84,17.76,765400,16.68
2010-01-25,17.67,17.80,17.46,17.65,261400,16.58
2010-01-22,17.88,18.06,17.38,17.56,923500,16.50
2010-01-21,17.87,18.49,17.79,17.99,338600,16.90
2010-01-20,17.71,18.01,17.44,17.96,193800,16.87
2010-01-19,17.90,18.15,17.30,17.81,381300,16.73
2010-01-15,18.56,18.56,18.15,18.24,158700,17.13
2010-01-14,18.48,18.87,18.15,18.43,1065400,17.31
2010-01-13,18.96,18.96,18.25,18.42,943900,17.30
2010-01-12,19.14,19.14,18.74,19.00,916700,17.85
2010-01-11,19.20,19.55,19.03,19.29,512700,18.12
2010-01-08,18.90,19.30,18.85,19.17,289900,18.01
2010-01-07,19.04,19.17,18.65,19.03,271800,17.88
2010-01-06,18.95,19.30,18.59,19.15,533100,17.99
2010-01-05,18.95,19.24,18.10,19.00,301100,17.85
2010-01-04,18.30,18.90,18.01,18.86,538700,17.72
2009-12-31,17.61,18.29,17.61,18.29,555800,17.18
2009-12-30,17.31,17.78,17.31,17.69,302500,16.62
2009-12-29,17.52,17.68,17.40,17.53,227600,16.47
2009-12-28,16.75,17.80,16.75,17.38,795400,16.33
2009-12-24,16.72,17.00,16.72,16.78,30800,15.76
2009-12-23,16.75,16.84,16.65,16.78,223500,15.76
2009-12-22,16.50,16.73,16.23,16.73,312700,15.72
2009-12-21,16.79,16.85,16.36,16.49,144300,15.49
2009-12-18,16.30,16.80,16.23,16.39,417800,15.40
2009-12-17,16.91,16.98,16.14,16.31,149000,15.32
2009-12-16,16.88,17.13,16.74,17.00,315700,15.97
2009-12-15,16.85,16.90,16.71,16.74,140400,15.73
2009-12-14,16.74,16.90,16.69,16.85,224800,15.83
2009-12-11,16.69,16.70,16.46,16.58,77400,15.57
2009-12-10,16.80,16.99,16.75,16.77,255500,15.75
2009-12-09,16.61,16.81,16.34,16.81,96700,15.79
2009-12-08,16.61,16.97,16.55,16.75,249500,15.73
2009-12-07,16.50,16.93,16.50,16.87,308400,15.85
2009-12-04,16.40,16.71,15.60,16.52,946800,15.52
2009-12-03,15.58,15.94,15.58,15.93,507900,14.96
2009-12-02,16.03,16.11,15.38,15.61,846500,14.66
2009-12-01,15.90,16.34,15.90,15.96,417800,14.99
2009-11-30,15.87,15.99,15.25,15.86,276500,14.90
2009-11-27,15.13,15.88,15.06,15.86,61600,14.90
2009-11-25,15.38,15.98,15.36,15.50,135300,14.56
2009-11-24,15.10,15.33,15.01,15.26,522800,14.33
2009-11-23,15.54,15.61,15.15,15.19,465300,14.27
2009-11-20,15.56,15.65,15.31,15.44,423700,14.50
2009-11-19,15.84,15.89,15.25,15.57,116600,14.63
2009-11-18,16.15,16.15,15.81,16.03,115500,15.06
2009-11-17,15.83,16.19,15.58,16.07,98500,15.10
2009-11-16,15.63,16.21,15.53,16.01,155600,15.04
2009-11-13,15.61,15.75,15.41,15.58,62100,14.64
2009-11-12,15.40,15.95,15.40,15.60,130000,14.65
2009-11-11,15.53,15.53,15.12,15.36,153500,14.43
2009-11-10,15.69,15.69,15.18,15.45,146800,14.51
2009-11-09,15.26,15.74,15.09,15.66,252900,14.71
2009-11-06,15.32,15.69,14.87,15.29,257500,14.36
2009-11-05,15.02,15.74,14.85,15.32,274100,14.39
2009-11-04,14.60,15.25,14.33,14.78,805300,13.88
2009-11-03,14.68,14.82,14.44,14.49,363700,13.61
2009-11-02,15.10,15.10,14.72,14.87,276600,13.97
2009-10-30,15.10,15.19,14.87,15.00,278100,14.09
2009-10-29,14.95,15.20,14.72,15.04,1183300,14.13
2009-10-28,15.50,15.50,14.89,14.93,622000,14.02
2009-10-27,15.95,15.99,15.26,15.45,328800,14.51
2009-10-26,15.91,16.12,15.81,15.84,162400,14.88
2009-10-23,16.13,16.41,15.92,16.05,1134100,15.08
2009-10-22,16.33,16.33,15.61,16.28,983400,15.29
2009-10-21,16.37,16.91,16.11,16.49,233800,15.49
2009-10-20,16.34,16.73,16.27,16.53,489000,15.53
2009-10-19,16.46,16.64,16.06,16.24,2142900,15.26
2009-10-16,17.23,17.23,16.21,16.43,1263800,15.43
2009-10-15,17.40,17.95,17.10,17.16,2092000,16.12
2009-10-14,16.84,17.00,16.54,16.86,695500,15.84
2009-10-13,16.19,16.67,16.15,16.53,557300,15.53
2009-10-12,16.22,16.45,16.04,16.34,1288800,15.35
2009-10-09,15.98,16.45,15.94,16.25,870500,15.26
2009-10-08,16.11,16.18,15.94,16.01,557300,15.04
2009-10-07,16.57,16.61,15.92,16.13,291700,15.15
2009-10-06,16.74,17.20,16.44,16.47,469400,15.47
2009-10-05,16.10,16.53,16.00,16.49,188900,15.49
2009-10-02,16.20,16.36,15.90,16.09,629600,15.11
2009-10-01,17.00,17.09,16.21,16.31,660500,15.32
2009-09-30,17.00,17.33,16.96,17.07,512600,16.04
2009-09-29,17.55,17.84,16.95,17.03,356700,16.00
2009-09-28,17.32,17.85,17.03,17.65,233600,16.58
2009-09-25,17.48,17.48,17.10,17.13,468500,16.09
2009-09-24,17.33,17.85,16.75,17.49,778800,16.43
2009-09-23,17.62,17.79,17.30,17.40,530300,16.35
2009-09-22,16.96,17.37,16.82,17.25,1114100,16.20
2009-09-21,16.28,16.63,15.87,16.61,553000,15.60
2009-09-18,16.57,17.02,16.18,16.20,899900,15.22
2009-09-17,17.66,17.90,16.53,16.64,1446400,15.63
2009-09-16,17.40,17.75,17.11,17.58,2021100,16.51
2009-09-15,17.25,17.35,16.63,17.18,1986900,16.14
2009-09-14,16.64,16.90,16.31,16.65,1614500,15.64
2009-09-11,17.00,17.33,16.54,16.88,620300,15.86
2009-09-10,17.01,17.46,16.95,17.05,415200,16.02
2009-09-09,17.85,17.85,17.22,17.26,551200,16.21
2009-09-08,17.76,17.93,17.45,17.70,574900,16.63
2009-09-04,17.75,18.00,17.49,17.76,1158600,16.68
2009-09-03,17.97,17.97,17.00,17.45,3657700,16.39
2009-09-02,17.76,18.25,17.48,17.68,1293400,16.61
2009-09-01,18.25,18.44,16.94,17.85,1383500,16.77
2009-08-31,18.35,18.40,17.81,18.20,1004800,17.10
2009-08-28,18.10,19.00,18.00,18.47,1295000,17.35
2009-08-27,17.85,18.21,17.55,18.16,1161100,17.06
2009-08-26,17.69,17.85,17.15,17.85,708600,16.77
2009-08-25,17.65,17.90,17.55,17.85,530800,16.77
2009-08-24,17.52,17.85,17.30,17.50,1021600,16.44
2009-08-21,17.79,17.97,17.58,17.82,863600,16.74
2009-08-20,17.95,17.95,17.29,17.76,1882100,16.68
2009-08-19,16.84,17.94,16.80,17.89,2070800,16.81
2009-08-18,16.48,17.20,16.35,17.07,1446700,16.04
2009-08-17,16.27,16.37,16.20,16.22,254400,15.24
2009-08-14,16.50,17.00,16.25,16.60,637800,15.59
2009-08-13,16.00,16.72,16.00,16.55,1150600,15.55
2009-08-12,16.15,16.20,15.66,16.00,1451300,15.03
2009-08-11,15.98,16.00,15.50,15.67,2305400,14.72
2009-08-10,16.63,16.63,15.61,15.97,2421000,15.00
2009-08-07,16.15,16.76,16.03,16.43,2454300,15.43
2009-08-06,16.50,16.91,15.56,16.18,24197800,15.20
