Date,Open,High,Low,Close,Volume,Adj Close
2014-09-12,280.50,282.39,277.00,279.20,3324600,279.20
2014-09-11,280.46,284.79,278.63,280.31,3766100,280.31
2014-09-10,279.50,281.41,273.66,281.10,3781300,281.10
2014-09-09,282.99,285.49,277.00,278.48,4558800,278.48
2014-09-08,277.62,284.88,277.52,282.11,5501600,282.11
2014-09-05,282.55,282.90,272.51,277.39,11169900,277.39
2014-09-04,284.01,291.42,280.40,286.04,8315700,286.04
2014-09-03,287.67,288.00,280.10,281.19,6772300,281.19
2014-09-02,275.50,284.89,274.30,284.12,9804100,284.12
2014-08-29,268.70,272.00,267.51,269.70,6447100,269.70
2014-08-28,261.89,264.48,261.64,263.86,2844900,263.86
2014-08-27,263.50,264.24,260.29,263.25,2985100,263.25
2014-08-26,264.98,265.50,261.66,261.74,3818000,261.74
2014-08-25,258.19,263.68,258.19,262.55,4308000,262.55
2014-08-22,254.54,256.95,252.61,256.78,2833400,256.78
2014-08-21,256.52,258.80,253.26,254.34,2915600,254.34
2014-08-20,254.67,258.74,253.00,255.71,3015500,255.71
2014-08-19,258.87,259.33,251.62,256.76,5334800,256.76
2014-08-18,263.25,267.26,259.75,259.94,5836800,259.94
2014-08-15,261.48,262.09,258.50,262.01,3857500,262.01
2014-08-14,262.49,263.00,256.50,261.38,4126600,261.38
2014-08-13,262.01,265.64,259.61,260.31,6932600,260.31
2014-08-12,258.08,260.30,254.58,259.96,6382300,259.96
2014-08-11,255.48,263.74,255.00,259.32,8072500,259.32
2014-08-08,251.16,251.76,246.50,248.13,5090100,248.13
2014-08-07,250.12,256.69,249.12,252.39,7464700,252.39
2014-08-06,238.90,251.42,238.58,248.93,9235500,248.93
2014-08-05,237.47,242.99,235.69,238.49,5371300,238.49
2014-08-04,234.38,240.50,233.27,238.52,5959700,238.52
2014-08-01,226.09,237.50,226.00,233.27,11895800,233.27
2014-07-31,229.26,231.40,221.50,223.30,7678300,223.30
2014-07-30,221.92,229.60,221.04,228.92,4917600,228.92
2014-07-29,226.61,228.30,224.86,225.01,3382400,225.01
2014-07-28,224.25,232.00,221.40,224.82,6514300,224.82
2014-07-25,222.72,226.97,221.75,223.57,3087100,223.57
2014-07-24,223.25,225.10,220.80,223.54,3245500,223.54
2014-07-23,220.01,224.75,219.43,222.49,3083300,222.49
2014-07-22,222.19,223.30,219.11,219.58,2730000,219.58
2014-07-21,217.25,223.21,216.72,220.54,3822200,220.54
2014-07-18,215.95,221.21,215.93,220.02,4253700,220.02
2014-07-17,216.16,220.55,213.60,215.40,4649400,215.40
2014-07-16,221.82,224.80,216.82,217.16,4044500,217.16
2014-07-15,226.73,227.65,218.10,219.58,5718500,219.58
2014-07-14,219.99,228.79,215.45,226.70,7203200,226.70
2014-07-11,220.61,221.60,217.60,218.13,3302300,218.13
2014-07-10,217.18,222.22,216.04,219.46,4863900,219.46
2014-07-09,221.27,224.22,219.21,223.06,4115400,223.06
2014-07-08,218.65,220.96,214.27,219.07,7836200,219.07
2014-07-07,227.50,229.78,220.40,222.66,5893700,222.66
2014-07-03,231.29,231.90,224.00,229.25,5166700,229.25
2014-07-02,240.66,242.33,227.07,229.43,8027400,229.43
2014-07-01,242.46,243.44,238.70,239.72,4336100,239.72
2014-06-30,239.55,244.49,239.00,240.06,4828600,240.06
2014-06-27,234.69,240.00,234.50,239.06,5635000,239.06
2014-06-26,237.17,240.40,234.21,235.60,5121400,235.60
2014-06-25,233.05,237.55,230.24,236.89,5801600,236.89
2014-06-24,238.97,241.88,231.63,232.50,8075900,232.50
2014-06-23,229.51,238.99,228.22,237.22,7791100,237.22
2014-06-20,228.52,231.29,226.20,229.59,4903900,229.59
2014-06-19,228.88,235.31,227.00,227.79,8793100,227.79
2014-06-18,231.50,231.71,226.12,227.12,6940200,227.12
2014-06-17,224.11,235.54,222.85,231.67,13304900,231.67
2014-06-16,206.76,225.49,206.26,224.61,13246400,224.61
2014-06-13,204.78,206.79,201.58,206.42,3544300,206.42
2014-06-12,205.10,209.88,202.71,203.52,5993700,203.52
2014-06-11,201.50,205.00,199.25,204.47,3977500,204.47
2014-06-10,204.43,206.97,201.55,202.30,3514700,202.30
2014-06-09,207.95,209.99,204.20,205.31,2805700,205.31
2014-06-06,209.75,210.81,207.18,208.17,3073800,208.17
2014-06-05,204.47,209.20,204.05,206.90,4054600,206.90
2014-06-04,204.35,206.26,200.40,203.99,3427400,203.99
2014-06-03,203.49,208.00,202.59,204.94,3860800,204.94
2014-06-02,207.33,209.35,201.67,204.70,4655100,204.70
2014-05-30,210.30,214.80,207.02,207.77,5581100,207.77
2014-05-29,210.57,212.49,207.72,210.24,3692500,210.24
2014-05-28,210.02,212.77,205.26,210.24,5495100,210.24
2014-05-27,208.52,213.87,207.70,211.56,5341100,211.56
2014-05-23,204.53,207.76,202.50,207.30,4006800,207.30
2014-05-22,200.35,206.88,199.56,204.88,6214500,204.88
2014-05-21,196.18,199.87,194.79,199.45,5285400,199.45
2014-05-20,196.94,199.33,193.07,195.30,5546100,195.30
2014-05-19,190.72,196.89,190.00,196.09,4571700,196.09
2014-05-16,188.95,192.04,187.72,191.56,4487700,191.56
2014-05-15,189.98,192.66,185.30,188.59,6040400,188.59
2014-05-14,188.95,193.48,187.10,190.62,5406700,190.62
2014-05-13,183.76,191.34,183.00,190.16,7097200,190.16
2014-05-12,183.87,187.19,179.88,184.67,7002300,184.67
2014-05-09,179.86,183.40,177.22,182.26,8495200,182.26
2014-05-08,182.00,194.40,178.00,178.59,20056600,178.59
2014-05-07,209.64,210.20,197.25,201.35,10179300,201.35
2014-05-06,216.60,218.66,206.85,207.28,5636700,207.28
2014-05-05,209.48,217.69,208.52,216.61,5147000,216.61
2014-05-02,208.60,211.36,206.52,210.91,4086800,210.91
2014-05-01,207.08,214.02,205.69,207.73,5439900,207.73
2014-04-30,203.60,208.16,201.28,207.89,4440600,207.89
2014-04-29,198.21,207.15,195.53,206.92,5779100,206.92
2014-04-28,200.00,203.79,190.50,198.51,7042000,198.51
2014-04-25,202.00,206.70,197.65,199.85,6996700,199.85
2014-04-24,210.81,212.80,203.20,207.86,5495200,207.86
2014-04-23,216.33,216.74,207.00,207.99,7295600,207.99
2014-04-22,206.36,219.33,205.01,218.64,9804700,218.64
2014-04-21,197.08,206.20,194.00,204.38,5258200,204.38
2014-04-17,199.61,202.29,194.08,198.12,5926800,198.12
2014-04-16,197.00,199.99,190.82,199.11,7202200,199.11
2014-04-15,199.09,199.29,184.32,193.91,13659300,193.91
2014-04-14,207.60,208.44,194.41,198.09,7703000,198.09
2014-04-11,200.61,207.00,198.60,203.78,9067200,203.78
2014-04-10,216.82,217.50,203.79,204.19,7211500,204.19
2014-04-09,216.76,218.45,210.89,216.93,5157900,216.93
2014-04-08,210.05,216.49,206.42,215.46,6889300,215.46
2014-04-07,205.81,216.20,203.51,207.52,9855500,207.52
2014-04-04,226.01,228.27,211.25,212.23,11345600,212.23
2014-04-03,230.30,235.73,222.00,225.40,10923700,225.40
2014-04-02,220.00,230.89,218.05,230.29,10782300,230.29
2014-04-01,209.02,218.16,208.58,216.97,7371400,216.97
2014-03-31,216.50,216.75,206.39,208.45,8380000,208.45
2014-03-28,212.80,216.72,210.27,212.37,9684800,212.37
2014-03-27,212.37,213.60,203.00,207.32,9495700,207.32
2014-03-26,221.95,222.60,211.35,212.96,6907300,212.96
2014-03-25,224.14,227.05,217.90,220.44,7865400,220.44
2014-03-24,229.75,229.90,210.27,220.17,11328800,220.17
2014-03-21,236.02,236.20,227.50,228.89,8216900,228.89
2014-03-20,236.16,239.25,233.36,234.91,3817900,234.91
2014-03-19,241.39,241.55,233.51,235.84,5071300,235.84
2014-03-18,236.95,241.50,235.02,240.04,6242300,240.04
2014-03-17,234.95,237.93,230.50,233.98,5912600,233.98
2014-03-14,235.29,236.94,228.32,230.97,8289700,230.97
2014-03-13,243.79,244.19,234.00,237.79,6236300,237.79
2014-03-12,231.50,247.50,231.11,241.49,9754400,241.49
2014-03-11,236.50,244.60,232.43,234.41,8810100,234.41
2014-03-10,242.70,243.00,236.06,238.84,7728100,238.84
2014-03-07,252.94,254.85,244.41,246.21,7812300,246.21
2014-03-06,254.14,257.50,249.45,252.94,7361100,252.94
2014-03-05,256.72,256.99,251.80,252.66,5935700,252.66
2014-03-04,258.48,260.00,252.83,254.84,8745600,254.84
2014-03-03,237.26,251.65,234.99,250.56,13089300,250.56
2014-02-28,249.65,252.68,242.55,244.81,14589800,244.81
2014-02-27,261.25,261.90,248.33,252.54,17945800,252.54
2014-02-26,258.58,265.00,247.50,253.00,24604600,253.00
2014-02-25,230.00,259.20,228.45,248.00,32681700,248.00
2014-02-24,208.76,218.36,208.32,217.65,8278400,217.65
2014-02-21,211.64,213.98,209.19,209.60,7818800,209.60
2014-02-20,215.01,215.21,206.27,209.97,18002300,209.97
2014-02-19,203.70,203.70,193.41,193.64,16169000,193.64
2014-02-18,205.24,206.00,201.36,203.70,9332800,203.70
2014-02-14,198.10,201.88,197.00,198.23,6158000,198.23
2014-02-13,193.34,202.72,193.25,199.63,8029300,199.63
2014-02-12,195.78,198.27,194.32,195.32,5173700,195.32
2014-02-11,198.97,202.20,192.70,196.62,10709900,196.62
2014-02-10,189.34,199.30,189.32,196.56,12970700,196.56
2014-02-07,181.01,186.63,179.60,186.53,8928500,186.53
2014-02-06,176.30,180.11,176.00,178.38,5841600,178.38
2014-02-05,178.30,180.59,169.36,174.42,7268000,174.42
2014-02-04,180.70,181.60,176.20,178.73,4686300,178.73
2014-02-03,182.89,184.88,175.16,177.11,6764900,177.11
2014-01-31,178.85,186.00,178.51,181.41,6508800,181.41
2014-01-30,178.00,184.78,177.01,182.84,8565000,182.84
2014-01-29,175.30,179.09,173.13,175.23,5935500,175.23
2014-01-28,171.50,178.98,171.00,178.38,6093400,178.38
2014-01-27,175.16,177.92,164.71,169.62,8716400,169.62
2014-01-24,177.85,180.48,173.53,174.60,7664300,174.60
2014-01-23,177.23,182.38,173.42,181.50,7867400,181.50
2014-01-22,177.81,180.32,174.76,178.56,7022600,178.56
2014-01-21,171.24,177.29,170.81,176.68,9734700,176.68
2014-01-17,170.19,173.20,167.95,170.01,9206200,170.01
2014-01-16,162.50,172.70,162.40,170.97,11959400,170.97
2014-01-15,168.45,172.23,162.10,164.13,20465600,164.13
2014-01-14,140.50,162.00,136.67,161.27,27607000,161.27
2014-01-13,145.78,147.00,137.82,139.34,6316100,139.34
2014-01-10,148.46,148.90,142.25,145.72,7446100,145.72
2014-01-09,152.50,153.43,146.85,147.53,5382000,147.53
2014-01-08,148.85,153.70,148.76,151.28,6163200,151.28
2014-01-07,147.62,150.40,145.25,149.36,5034100,149.36
2014-01-06,150.00,150.40,145.24,147.00,5361100,147.00
2014-01-03,150.00,152.19,148.60,149.56,4695000,149.56
2014-01-02,149.80,152.48,146.55,150.10,6188400,150.10
2013-12-31,152.32,153.20,148.66,150.43,4262400,150.43
2013-12-30,151.12,154.81,150.75,152.44,4467500,152.44
2013-12-27,155.30,155.50,150.80,151.12,5460200,151.12
2013-12-26,155.04,158.00,154.29,155.50,7129500,155.50
2013-12-24,150.00,154.97,149.82,151.41,9941500,151.41
2013-12-23,144.85,146.24,142.60,143.55,5385500,143.55
2013-12-20,141.58,144.35,141.58,143.24,7412600,143.24
2013-12-19,146.90,147.00,139.10,140.72,12740000,140.72
2013-12-18,152.24,154.90,145.95,147.98,11581900,147.98
2013-12-17,147.58,154.63,146.32,152.46,10495000,152.46
2013-12-16,148.48,150.43,146.10,147.94,6675300,147.94
2013-12-13,148.05,151.80,147.32,147.65,10591900,147.65
2013-12-12,139.70,148.24,138.53,147.47,10767800,147.47
2013-12-11,141.88,143.05,139.49,139.65,7137800,139.65
2013-12-10,140.05,145.87,139.86,142.19,10748200,142.19
2013-12-09,137.00,141.70,134.21,141.60,9061500,141.60
2013-12-06,141.51,142.49,136.30,137.36,7909600,137.36
2013-12-05,140.15,143.35,139.50,140.48,9288400,140.48
2013-12-04,144.32,144.43,137.13,138.95,13147700,138.95
2013-12-03,132.68,144.94,131.59,144.70,25682400,144.70
2013-12-02,126.35,128.55,123.93,124.17,7751200,124.17
2013-11-29,129.77,130.59,126.98,127.28,9716200,127.28
2013-11-27,121.31,126.95,119.52,126.94,12367600,126.94
2013-11-26,119.38,122.72,116.10,120.50,13885500,120.50
2013-11-25,124.50,125.84,120.30,120.84,10267300,120.84
2013-11-22,121.58,122.75,117.93,121.38,11096700,121.38
2013-11-21,122.89,124.79,120.25,122.10,11903800,122.10
2013-11-20,126.08,127.45,119.06,121.11,13849600,121.11
2013-11-19,119.43,129.00,119.22,126.09,19816200,126.09
2013-11-18,135.27,135.45,119.61,121.58,23138200,121.58
2013-11-15,136.85,137.95,134.35,135.45,9900200,135.45
2013-11-14,138.92,140.40,134.11,137.60,12203700,137.60
2013-11-13,140.84,142.37,136.34,138.70,12658300,138.70
2013-11-12,144.69,144.70,136.18,137.80,14985200,137.80
2013-11-11,141.00,145.42,137.10,144.70,13997600,144.70
2013-11-08,136.48,140.60,132.32,137.95,22477900,137.95
2013-11-07,144.19,145.65,137.62,139.77,22284700,139.77
2013-11-06,154.81,160.73,146.35,151.16,31071700,151.16
2013-11-05,180.00,181.43,171.36,176.81,22467100,176.81
2013-11-04,165.00,175.39,164.22,175.20,13120400,175.20
2013-11-01,163.00,165.90,160.41,162.17,7180600,162.17
2013-10-31,155.67,162.44,153.30,159.94,9333800,159.94
2013-10-30,164.63,167.68,158.17,159.22,8401800,159.22
2013-10-29,162.76,165.45,153.00,164.47,14111700,164.47
2013-10-28,170.18,170.50,162.20,162.86,7841700,162.86
2013-10-25,174.21,174.50,166.80,169.66,7595500,169.66
2013-10-24,165.00,174.50,162.83,173.15,10825700,173.15
2013-10-23,168.91,171.81,160.15,164.50,13320400,164.50
2013-10-22,170.50,177.78,166.11,171.54,11386700,171.54
2013-10-21,183.28,183.39,171.00,172.60,11532100,172.60
2013-10-18,184.15,185.96,182.52,183.40,5930800,183.40
2013-10-17,183.54,184.80,180.99,182.80,6705000,182.80
2013-10-16,184.90,187.30,182.09,183.56,8205400,183.56
2013-10-15,185.28,188.79,183.18,183.94,10978500,183.94
2013-10-14,175.00,182.50,174.15,179.72,7769600,179.72
2013-10-11,172.75,179.29,171.20,178.70,8311100,178.70
2013-10-10,173.09,175.75,169.69,172.93,8883900,172.93
2013-10-09,174.73,174.99,161.50,168.78,15316500,168.78
2013-10-08,184.40,185.93,173.21,174.73,13757200,174.73
2013-10-07,182.46,186.73,180.26,183.07,11485600,183.07
2013-10-04,176.40,181.18,172.65,180.98,14414000,180.98
2013-10-03,175.05,179.69,168.00,173.31,23816500,173.31
2013-10-02,188.59,191.83,175.40,180.95,20775400,180.95
2013-10-01,193.96,194.23,188.37,193.00,7755900,193.00
2013-09-30,189.00,194.50,188.00,193.37,8924700,193.37
2013-09-27,187.52,191.28,186.43,190.90,5916400,190.90
2013-09-26,186.70,189.68,185.61,188.64,6614400,188.64
2013-09-25,183.56,186.30,180.50,185.24,8252700,185.24
2013-09-24,179.14,184.96,177.65,182.33,6273400,182.33
2013-09-23,184.48,185.48,177.11,181.11,8173400,181.11
2013-09-20,178.90,185.83,178.56,183.39,13401700,183.39
2013-09-19,170.80,180.47,169.08,177.92,15594600,177.92
2013-09-18,167.07,167.45,164.20,166.22,5439700,166.22
2013-09-17,165.08,168.42,163.36,166.23,5496900,166.23
2013-09-16,168.00,170.85,165.85,166.58,7574900,166.58
2013-09-13,162.77,166.37,162.16,165.54,5401200,165.54
2013-09-12,164.00,166.76,160.51,164.93,6160000,164.93
2013-09-11,166.41,167.90,162.13,163.52,5832500,163.52
2013-09-10,161.45,167.50,160.63,166.37,8967800,166.37
2013-09-09,163.12,164.50,158.51,160.70,14344500,160.70
2013-09-06,168.57,169.70,165.15,166.97,8619700,166.97
2013-09-05,170.10,171.50,168.25,169.93,6685300,169.93
2013-09-04,169.77,171.62,165.56,170.62,11475700,170.62
2013-09-03,173.40,173.70,166.40,168.94,12061100,168.94
2013-08-30,166.37,169.21,163.96,169.00,11028400,169.00
2013-08-29,164.22,167.75,162.51,166.06,9436000,166.06
2013-08-28,169.06,171.50,163.25,166.45,14740100,166.45
2013-08-27,162.30,168.80,160.95,167.01,17566900,167.01
2013-08-26,165.15,173.00,160.25,164.22,24171100,164.22
2013-08-23,157.00,162.30,155.00,161.84,12931900,161.84
2013-08-22,149.22,157.48,148.14,157.10,10592400,157.10
2013-08-21,150.00,150.31,146.25,147.86,6266300,147.86
2013-08-20,148.65,149.78,147.00,149.58,6418200,149.58
2013-08-19,143.43,147.38,142.83,144.90,8037700,144.90
2013-08-16,141.63,143.91,140.97,142.00,7108100,142.00
2013-08-15,136.43,143.60,135.00,139.67,10179200,139.67
2013-08-14,142.72,144.84,138.05,139.36,11693800,139.36
2013-08-13,149.50,149.84,144.45,145.43,8748900,145.43
2013-08-12,149.43,150.50,142.05,147.38,14912200,147.38
2013-08-09,152.40,155.95,151.25,153.00,8927700,153.00
2013-08-08,154.35,158.88,150.46,153.48,27246800,153.48
2013-08-07,141.89,141.95,132.36,134.23,18212200,134.23
2013-08-06,144.75,145.73,141.10,142.15,9254500,142.15
2013-08-05,140.01,144.89,139.65,144.68,10200700,144.68
2013-08-02,134.59,138.25,133.61,138.00,6269900,138.00
2013-08-01,135.00,136.52,132.63,135.55,5323600,135.55
2013-07-31,132.57,134.97,131.45,134.28,6351700,134.28
2013-07-30,134.80,137.49,128.18,131.74,13127000,131.74
2013-07-29,129.32,135.37,128.25,134.62,9678900,134.62
2013-07-26,128.14,130.68,126.61,129.39,9633100,129.39
2013-07-25,120.40,124.75,120.19,124.07,5284300,124.07
2013-07-24,124.47,124.50,119.56,121.70,6869000,121.70
2013-07-23,124.00,125.56,121.82,122.74,7736400,122.74
2013-07-22,119.89,126.68,119.88,122.43,9797800,122.43
2013-07-19,118.50,120.55,116.51,119.68,5890300,119.68
2013-07-18,120.97,122.73,116.18,119.03,11398100,119.03
2013-07-17,106.52,121.62,104.50,120.25,26029000,120.25
2013-07-16,126.28,126.32,107.30,109.05,32371900,109.05
2013-07-15,133.03,133.26,126.82,127.26,9922400,127.26
2013-07-12,125.50,129.94,124.51,129.90,11344000,129.90
2013-07-11,124.88,126.09,122.35,125.61,7483600,125.61
2013-07-10,123.19,123.25,120.79,122.27,5600100,122.27
2013-07-09,124.64,125.32,121.91,123.45,8603300,123.45
2013-07-08,121.37,122.18,118.82,121.61,7814200,121.61
2013-07-05,118.32,120.28,115.70,120.09,6818700,120.09
2013-07-03,118.00,119.25,114.27,115.24,4806700,115.24
2013-07-02,118.25,121.89,115.50,117.82,12064100,117.82
2013-07-01,109.36,117.77,109.15,117.18,10903600,117.18
2013-06-28,108.57,109.44,106.71,107.36,5748600,107.36
2013-06-27,106.75,110.25,106.13,109.25,8744900,109.25
2013-06-26,103.80,105.87,102.66,105.72,6602600,105.72
2013-06-25,103.10,104.20,100.55,102.40,5848700,102.40
2013-06-24,96.50,102.87,95.30,101.49,7119800,101.49
2013-06-21,103.70,103.70,97.50,99.55,11718600,99.55
2013-06-20,104.65,107.13,99.45,100.65,10106500,100.65
2013-06-19,102.06,106.67,102.01,104.68,8578900,104.68
2013-06-18,101.75,103.98,99.20,103.39,8795300,103.39
2013-06-17,103.60,104.75,101.20,102.20,7066200,102.20
2013-06-14,100.00,102.52,99.33,100.30,6564700,100.30
2013-06-13,99.00,99.28,95.12,98.18,5961600,98.18
2013-06-12,96.80,100.48,95.75,97.73,9192700,97.73
2013-06-11,98.18,98.68,94.05,94.47,7394000,94.47
2013-06-10,98.93,102.52,98.57,100.05,9228600,100.05
2013-06-07,98.00,102.90,96.70,102.04,10711600,102.04
2013-06-06,95.25,99.27,95.11,97.35,9510900,97.35
2013-06-05,93.66,97.97,89.11,95.37,12224800,95.37
2013-06-04,92.75,96.42,92.40,94.84,8856100,94.84
2013-06-03,97.62,97.62,88.25,92.59,19139600,92.59
2013-05-31,106.26,106.44,97.73,97.76,15172000,97.76
2013-05-30,102.46,109.54,101.20,104.95,16133700,104.95
2013-05-29,113.55,114.90,99.00,104.63,25099500,104.63
2013-05-28,101.55,110.75,100.30,110.33,19691900,110.33
2013-05-24,92.60,97.95,92.00,97.08,16124200,97.08
2013-05-23,84.81,93.01,83.05,92.73,12022200,92.73
2013-05-22,86.37,90.96,85.50,87.24,8568000,87.24
2013-05-21,88.50,89.99,85.28,87.59,8998200,87.59
2013-05-20,91.12,92.50,88.63,89.94,8348400,89.94
2013-05-17,92.50,94.44,87.50,91.50,19002200,91.50
2013-05-16,94.70,95.00,88.66,92.25,21614000,92.25
2013-05-15,81.80,86.88,78.11,84.84,16878700,84.84
2013-05-14,94.22,97.12,81.15,83.24,37163900,83.24
2013-05-13,80.99,88.00,79.15,87.80,22416900,87.80
2013-05-10,69.65,81.00,69.25,76.76,25082600,76.76
2013-05-09,70.12,75.77,63.69,69.40,28605000,69.40
2013-05-08,57.50,58.20,55.71,55.79,6769900,55.79
2013-05-07,62.00,62.37,55.12,55.51,9991000,55.51
2013-05-06,56.39,59.66,55.50,59.50,4366700,59.50
2013-05-03,56.47,56.47,54.50,54.55,3378700,54.55
2013-05-02,53.85,55.27,53.70,54.11,3050400,54.11
2013-05-01,55.99,55.99,53.00,53.28,2742800,53.28
2013-04-30,56.00,58.18,53.76,53.99,5522600,53.99
2013-04-29,51.76,54.99,51.20,54.94,3639700,54.94
2013-04-26,53.13,53.74,50.62,51.20,3622100,51.20
2013-04-25,50.50,52.40,50.50,52.00,2795900,52.00
2013-04-24,50.90,51.05,48.98,50.43,2630000,50.43
2013-04-23,51.00,52.92,50.66,51.01,3733800,51.01
2013-04-22,48.60,50.20,47.75,50.19,3939400,50.19
2013-04-19,47.46,49.88,47.07,47.83,3011700,47.83
2013-04-18,45.98,47.60,45.39,46.97,3367900,46.97
2013-04-17,45.50,45.95,44.54,45.45,2118500,45.45
2013-04-16,44.19,46.14,43.91,45.59,3180400,45.59
2013-04-15,43.50,43.80,42.51,43.30,1681400,43.30
2013-04-12,43.25,45.14,43.05,43.75,3149400,43.75
2013-04-11,42.06,44.55,41.75,43.59,3447400,43.59
2013-04-10,40.70,42.01,40.61,41.86,2121100,41.86
2013-04-09,41.80,41.83,40.33,40.50,1696100,40.50
2013-04-08,41.97,42.55,41.51,41.83,1679000,41.83
2013-04-05,42.00,42.00,40.50,41.37,1552400,41.37
2013-04-04,41.11,42.25,40.81,42.01,2264800,42.01
2013-04-03,43.10,43.47,40.21,41.10,5643600,41.10
2013-04-02,43.60,45.50,43.51,44.34,6652400,44.34
2013-04-01,42.36,46.68,41.70,43.93,14098500,43.93
2013-03-28,38.23,38.24,37.75,37.89,1158700,37.89
2013-03-27,37.94,38.38,37.31,38.16,1296300,38.16
2013-03-26,37.98,38.22,37.66,37.86,1808200,37.86
2013-03-25,37.10,38.52,36.77,37.53,2378800,37.53
2013-03-22,36.20,36.80,36.20,36.62,440200,36.62
2013-03-21,35.95,37.06,35.74,36.01,1146300,36.01
2013-03-20,35.26,36.07,35.16,35.95,1423000,35.95
2013-03-19,35.25,35.60,34.94,35.08,1098500,35.08
2013-03-18,35.30,36.06,34.92,35.15,1316100,35.15
2013-03-15,36.64,36.65,35.21,35.29,3279600,35.29
2013-03-14,38.90,38.91,36.77,36.85,2021000,36.85
2013-03-13,39.00,39.49,38.81,38.98,822000,38.98
2013-03-12,38.90,39.38,38.85,39.12,1275100,39.12
2013-03-11,38.87,39.44,38.65,39.10,1579500,39.10
2013-03-08,38.06,39.44,37.36,38.47,912100,38.47
2013-03-07,37.73,38.65,36.88,38.23,1158300,38.23
2013-03-06,37.01,37.88,36.97,37.69,1150000,37.69
2013-03-05,36.00,36.92,35.79,36.65,2087000,36.65
2013-03-04,34.77,35.83,34.70,35.58,1757700,35.58
2013-03-01,35.00,35.08,34.25,34.65,1546600,34.65
2013-02-28,35.89,36.10,34.37,34.83,1964900,34.83
2013-02-27,34.41,35.41,34.40,35.10,1959200,35.10
2013-02-26,34.46,34.96,33.80,34.43,2762900,34.43
2013-02-25,36.15,36.75,34.34,34.38,2889400,34.38
2013-02-22,35.72,36.39,35.60,36.11,2547300,36.11
2013-02-21,36.49,37.39,34.54,35.16,9037800,35.16
2013-02-20,39.30,39.65,38.46,38.54,3122000,38.54
2013-02-19,37.36,39.29,37.31,39.28,2701400,39.28
2013-02-15,38.50,38.51,36.95,37.04,2017600,37.04
2013-02-14,38.64,38.75,38.21,38.27,990700,38.27
2013-02-13,38.30,39.00,38.05,38.45,966800,38.45
2013-02-12,38.45,38.87,37.29,37.89,2261300,37.89
2013-02-11,37.98,39.15,37.50,38.42,3266300,38.42
2013-02-08,39.45,40.00,39.14,39.24,1139800,39.24
2013-02-07,39.19,39.68,38.95,39.48,1196600,39.48
2013-02-06,38.18,39.39,37.90,39.17,1893200,39.17
2013-02-05,38.00,38.65,37.68,38.13,1310200,38.13
2013-02-04,38.40,38.42,37.59,37.74,1128000,37.74
2013-02-01,38.17,38.50,37.62,38.30,1100600,38.30
2013-01-31,37.87,37.87,36.93,37.51,901400,37.51
2013-01-30,37.85,38.00,37.43,37.52,968100,37.52
2013-01-29,38.10,38.44,37.13,37.95,1426600,37.95
2013-01-28,36.86,38.71,36.86,38.03,1986000,38.03
2013-01-25,37.00,37.54,36.80,36.98,1287800,36.98
2013-01-24,36.00,37.72,35.84,36.99,1970400,36.99
2013-01-23,35.02,36.24,34.96,36.00,1564300,36.00
2013-01-22,34.56,35.55,34.26,35.19,1920200,35.19
2013-01-18,34.74,34.78,33.82,34.52,3555100,34.52
2013-01-17,34.16,34.85,33.92,34.38,1436700,34.38
2013-01-16,33.85,34.23,33.73,34.10,1378200,34.10
2013-01-15,33.11,34.25,33.08,33.90,1624200,33.90
2013-01-14,33.08,33.38,32.85,33.26,925100,33.26
2013-01-11,34.04,34.04,32.11,32.91,1563200,32.91
2013-01-10,33.87,33.99,33.38,33.53,922500,33.53
2013-01-09,34.01,34.19,33.40,33.64,698000,33.64
2013-01-08,34.50,34.50,33.11,33.68,1284000,33.68
2013-01-07,34.80,34.80,33.90,34.34,442000,34.34
2013-01-04,34.80,34.80,33.92,34.40,674000,34.40
2013-01-03,35.18,35.45,34.75,34.77,742000,34.77
2013-01-02,35.00,35.45,34.71,35.36,1194800,35.36
2012-12-31,33.00,33.97,33.00,33.87,594900,33.87
2012-12-28,33.38,33.65,33.02,33.22,414100,33.22
2012-12-27,33.50,33.91,33.00,33.69,561100,33.69
2012-12-26,33.96,34.50,33.50,33.59,601400,33.59
2012-12-24,33.64,34.35,33.55,34.28,375800,34.28
2012-12-21,33.94,34.17,33.58,34.00,1492400,34.00
2012-12-20,34.51,34.79,34.05,34.43,921200,34.43
2012-12-19,34.75,35.26,34.52,34.61,1298800,34.61
2012-12-18,34.26,35.07,34.26,34.59,1553900,34.59
2012-12-17,33.77,34.50,33.75,34.40,824900,34.40
2012-12-14,33.78,34.40,33.59,33.81,1023000,33.81
2012-12-13,35.26,35.30,32.75,33.61,2151300,33.61
2012-12-12,35.21,35.80,34.95,35.26,2063800,35.26
2012-12-11,34.60,35.50,34.46,35.28,1572600,35.28
2012-12-10,34.43,34.80,34.18,34.57,929800,34.57
2012-12-07,34.30,34.49,33.85,34.17,664400,34.17
2012-12-06,33.82,34.80,33.50,33.90,660400,33.90
2012-12-05,33.82,34.19,33.58,33.71,661500,33.71
2012-12-04,34.08,34.80,33.55,33.90,1263300,33.90
2012-12-03,33.89,35.00,33.50,34.62,2085700,34.62
2012-11-30,33.63,34.28,33.01,33.82,1420300,33.82
2012-11-29,33.44,34.00,32.87,33.69,1103400,33.69
2012-11-28,32.00,34.29,31.91,33.23,1525200,33.23
2012-11-27,32.13,32.66,31.52,32.15,910800,32.15
2012-11-26,32.10,32.30,31.62,32.27,495800,32.27
2012-11-23,32.60,32.83,31.70,32.13,430300,32.13
2012-11-21,32.61,33.47,32.29,32.47,963200,32.47
2012-11-20,32.80,33.10,31.91,33.00,922500,33.00
2012-11-19,32.07,33.25,31.84,32.92,1392400,32.92
2012-11-16,31.15,32.00,30.59,31.84,908700,31.84
2012-11-15,31.30,31.44,30.50,30.82,984000,30.82
2012-11-14,31.96,32.12,31.20,31.38,871300,31.38
2012-11-13,31.29,32.00,30.72,31.61,998300,31.61
2012-11-12,30.29,31.42,30.16,31.07,555900,31.07
2012-11-09,30.60,30.93,29.85,30.32,863000,30.32
2012-11-08,31.01,31.88,30.94,31.31,1274000,31.31
2012-11-07,31.00,32.05,30.81,31.54,1714500,31.54
2012-11-06,30.61,31.20,29.95,31.15,2324000,31.15
2012-11-05,29.80,31.58,29.33,31.50,2048900,31.50
2012-11-02,29.27,29.55,28.55,28.92,1030300,28.92
2012-11-01,28.25,29.49,28.20,29.25,1024100,29.25
2012-10-31,27.70,28.35,27.37,28.13,775200,28.13
2012-10-26,27.53,27.80,27.02,27.38,477400,27.38
2012-10-25,27.80,27.80,27.45,27.52,577700,27.52
2012-10-24,28.52,28.52,27.25,27.42,1016400,27.42
2012-10-23,27.38,28.56,27.37,28.39,749000,28.39
2012-10-22,27.99,28.00,27.36,27.85,470200,27.85
2012-10-19,27.83,28.20,27.30,27.74,1027400,27.74
2012-10-18,28.99,28.99,27.78,28.04,741000,28.04
2012-10-17,28.25,28.84,27.80,28.82,668000,28.82
2012-10-16,27.67,28.09,27.34,28.06,479300,28.06
2012-10-15,28.02,28.05,26.86,27.33,1468700,27.33
2012-10-12,28.32,28.73,27.50,27.64,987600,27.64
2012-10-11,28.94,28.98,28.25,28.32,450600,28.32
2012-10-10,28.39,28.72,28.01,28.40,503600,28.40
2012-10-09,29.12,29.12,28.25,28.37,1193000,28.37
2012-10-08,28.86,29.40,28.61,29.25,889700,29.25
2012-10-05,29.70,29.81,28.68,28.89,938600,28.89
2012-10-04,30.00,30.10,28.65,29.40,1541300,29.40
2012-10-03,29.75,29.95,29.24,29.30,1052800,29.30
2012-10-02,29.28,29.89,29.00,29.80,729000,29.80
2012-10-01,29.50,29.89,29.00,29.16,884400,29.16
2012-09-28,28.73,29.89,28.61,29.28,4343400,29.28
2012-09-27,27.82,28.54,27.60,28.49,1758600,28.49
2012-09-26,27.66,28.40,27.48,27.54,1527200,27.54
2012-09-25,28.62,29.48,27.53,27.66,5680400,27.66
2012-09-24,29.51,31.03,29.40,30.66,1301900,30.66
2012-09-21,31.10,31.49,29.54,30.02,1870000,30.02
2012-09-20,30.93,31.50,30.68,30.90,912400,30.90
2012-09-19,31.00,31.74,30.94,31.05,1048500,31.05
2012-09-18,31.88,31.90,30.68,31.34,1788500,31.34
2012-09-17,32.35,32.78,31.51,32.54,3212800,32.54
2012-09-14,30.00,30.65,29.65,30.39,1536600,30.39
2012-09-13,28.57,29.50,28.48,29.48,1484700,29.48
2012-09-12,27.90,28.58,27.80,28.28,1145200,28.28
2012-09-11,27.76,28.16,27.40,27.80,1014900,27.80
2012-09-10,29.20,29.35,27.30,27.37,1483300,27.37
2012-09-07,28.55,29.57,28.50,29.35,953200,29.35
2012-09-06,28.00,28.90,27.90,28.55,841700,28.55
2012-09-05,28.01,28.50,27.81,27.94,639300,27.94
2012-09-04,28.52,28.99,27.90,28.14,752500,28.14
2012-08-31,28.61,28.84,28.20,28.52,539800,28.52
2012-08-30,28.60,28.74,28.10,28.41,656400,28.41
2012-08-29,28.49,28.64,28.02,28.41,838900,28.41
2012-08-28,28.40,29.38,28.00,28.69,1402700,28.69
2012-08-27,29.57,29.70,28.17,28.32,1350400,28.32
2012-08-24,30.06,30.24,29.41,29.50,1429400,29.50
2012-08-23,30.00,30.85,29.65,30.73,1471000,30.73
2012-08-22,29.01,30.04,29.01,29.95,775500,29.95
2012-08-21,29.58,30.00,29.00,29.11,761600,29.11
2012-08-20,30.15,30.39,29.10,29.51,1179100,29.51
2012-08-17,30.29,30.71,29.98,30.01,508200,30.01
2012-08-16,29.53,30.39,29.50,30.30,669000,30.30
2012-08-15,29.39,29.70,28.81,29.40,525400,29.40
2012-08-14,30.75,31.17,29.26,29.42,793400,29.42
2012-08-13,29.69,31.30,29.10,31.17,870100,31.17
2012-08-10,29.31,29.94,29.31,29.94,707400,29.94
2012-08-09,29.52,30.00,29.13,29.41,672600,29.41
2012-08-08,29.90,30.00,28.59,29.09,1308900,29.09
2012-08-07,28.77,30.90,28.50,30.25,2387200,30.25
2012-08-06,27.55,28.70,27.55,28.27,1528200,28.27
2012-08-03,26.90,27.55,26.74,27.27,1209500,27.27
2012-08-02,26.84,26.85,25.52,26.10,1305100,26.10
2012-08-01,27.99,27.99,26.03,26.25,1592300,26.25
2012-07-31,27.54,27.97,27.35,27.42,1575100,27.42
2012-07-30,29.51,30.25,27.21,27.35,2065200,27.35
2012-07-27,28.71,29.66,28.10,29.51,1673000,29.51
2012-07-26,29.90,30.00,27.64,28.13,2262300,28.13
2012-07-25,29.92,29.98,28.75,28.95,2842200,28.95
2012-07-24,30.66,31.04,29.62,29.84,1500300,29.84
2012-07-23,31.05,31.30,30.62,30.66,1386800,30.66
2012-07-20,32.07,32.25,31.25,31.79,1568500,31.79
2012-07-19,32.72,33.15,32.04,32.27,1435900,32.27
2012-07-18,31.42,33.67,31.06,32.15,2881900,32.15
2012-07-17,35.00,35.21,32.38,33.35,2569300,33.35
2012-07-16,34.32,36.00,33.90,35.96,1744000,35.96
2012-07-13,32.97,34.40,32.83,34.25,1304800,34.25
2012-07-12,31.29,33.01,30.80,32.70,1125700,32.70
2012-07-11,31.57,31.68,31.01,31.51,638600,31.51
2012-07-10,31.54,32.48,30.89,31.27,758400,31.27
2012-07-09,30.94,31.83,30.67,31.49,910500,31.49
2012-07-06,30.99,31.73,30.80,30.99,784500,30.99
2012-07-05,30.81,31.67,30.80,31.23,1253800,31.23
2012-07-03,30.60,31.00,30.40,30.66,947000,30.66
2012-07-02,31.35,31.80,30.19,30.40,1315600,30.40
2012-06-29,32.80,32.80,31.00,31.29,1125800,31.29
2012-06-28,31.90,32.11,30.62,31.41,914100,31.41
2012-06-27,31.90,32.45,31.57,31.96,1047200,31.96
2012-06-26,32.05,32.35,31.39,31.61,2613900,31.61
2012-06-25,33.94,34.12,32.75,33.11,1498500,33.11
2012-06-22,32.60,33.98,32.46,33.79,3046600,33.79
2012-06-21,34.26,34.28,31.84,32.19,1891900,32.19
2012-06-20,33.50,34.50,33.21,33.78,3422400,33.78
2012-06-19,32.02,32.66,31.50,32.09,911100,32.09
2012-06-18,29.94,32.33,29.50,31.84,1256800,31.84
2012-06-15,29.39,29.95,28.81,29.91,646800,29.91
2012-06-14,30.18,30.65,28.62,29.39,872200,29.39
2012-06-13,29.55,30.64,29.47,29.77,844100,29.77
2012-06-12,29.23,29.84,28.81,29.66,569000,29.66
2012-06-11,30.31,31.00,28.96,29.12,636000,29.12
2012-06-08,28.86,30.19,28.15,30.08,881100,30.08
2012-06-07,29.81,29.87,28.85,28.93,492100,28.93
2012-06-06,28.20,29.45,28.14,29.22,909900,29.22
2012-06-05,27.84,28.39,27.56,27.91,630900,27.91
2012-06-04,28.03,28.41,27.11,27.88,1030900,27.88
2012-06-01,28.53,29.16,27.76,28.15,885800,28.15
2012-05-31,30.07,30.29,28.75,29.50,1118700,29.50
2012-05-30,31.08,31.42,30.24,30.41,1307200,30.41
2012-05-29,30.01,31.93,30.01,31.69,1650000,31.69
2012-05-25,30.16,30.41,29.20,29.81,757000,29.81
2012-05-24,31.25,31.25,29.69,30.28,1075600,30.28
2012-05-23,30.56,31.05,29.50,31.02,1220400,31.02
2012-05-22,30.10,31.34,30.00,30.80,2366200,30.80
2012-05-21,27.58,29.26,27.12,28.77,1475200,28.77
2012-05-18,28.37,28.46,26.83,27.56,1616500,27.56
2012-05-17,29.30,29.79,28.24,28.57,1149000,28.57
2012-05-16,29.58,30.18,28.88,29.18,1257100,29.18
2012-05-15,30.26,30.96,29.22,29.43,1585700,29.43
2012-05-14,31.92,32.13,30.05,30.06,1380900,30.06
2012-05-11,32.49,33.44,32.16,32.25,1221300,32.25
2012-05-10,32.97,34.68,32.40,32.96,5556300,32.96
2012-05-09,30.30,30.77,29.76,30.06,1947900,30.06
2012-05-08,32.50,32.73,29.37,30.19,3097200,30.19
2012-05-07,31.96,32.58,31.61,32.47,1158000,32.47
2012-05-04,32.32,32.46,31.40,31.83,1247500,31.83
2012-05-03,33.91,34.00,32.13,32.46,841300,32.46
2012-05-02,33.50,34.39,33.39,33.94,497300,33.94
2012-05-01,33.13,34.21,33.13,33.78,659000,33.78
2012-04-30,33.27,33.36,32.58,33.13,413900,33.13
2012-04-27,33.60,33.63,32.91,33.34,591000,33.34
2012-04-26,32.96,33.52,32.91,33.49,425300,33.49
2012-04-25,32.07,32.99,32.07,32.91,712200,32.91
2012-04-24,31.82,32.20,31.00,31.82,674500,31.82
2012-04-23,32.86,32.97,31.71,31.94,890800,31.94
2012-04-20,33.14,33.73,32.94,33.16,821800,33.16
2012-04-19,32.75,33.43,32.50,33.16,774900,33.16
2012-04-18,32.09,32.75,31.53,32.66,823100,32.66
2012-04-17,32.43,33.07,32.04,32.24,1115500,32.24
2012-04-16,33.41,33.70,32.09,32.25,1099600,32.25
2012-04-13,33.94,34.04,32.85,33.59,649600,33.59
2012-04-12,33.77,34.48,32.92,33.44,1033900,33.44
2012-04-11,33.24,33.29,32.01,33.09,1105500,33.09
2012-04-10,33.15,33.85,32.10,32.46,1847700,32.46
2012-04-09,34.10,34.29,33.10,33.15,1655700,33.15
2012-04-05,35.10,35.44,34.41,34.48,1509400,34.48
2012-04-04,35.27,35.49,34.69,35.00,4481800,35.00
2012-04-03,36.70,38.47,36.67,38.01,1098100,38.01
2012-04-02,37.33,37.97,36.53,36.58,1028600,36.58
2012-03-30,37.52,37.94,36.68,37.24,886400,37.24
2012-03-29,38.19,38.19,37.03,37.33,796400,37.33
2012-03-28,37.78,38.44,37.11,37.85,955000,37.85
2012-03-27,37.16,39.95,37.03,37.94,2539200,37.94
2012-03-26,35.59,38.09,35.04,37.40,3140500,37.40
2012-03-23,34.26,34.63,33.15,34.08,1170600,34.08
2012-03-22,34.97,35.15,34.30,34.40,522400,34.40
2012-03-21,34.94,35.30,34.60,35.15,607200,35.15
2012-03-20,34.98,35.20,34.57,34.96,567000,34.96
2012-03-19,35.26,35.32,34.54,34.98,1015600,34.98
2012-03-16,34.90,35.89,34.83,35.32,729300,35.32
2012-03-15,35.28,35.48,34.78,35.00,571600,35.00
2012-03-14,36.00,36.00,34.80,35.29,851500,35.29
2012-03-13,36.51,36.59,35.50,36.09,1001600,36.09
2012-03-12,34.69,36.29,34.60,36.01,1963300,36.01
2012-03-09,33.20,35.31,33.20,34.74,1553400,34.74
2012-03-08,33.11,33.49,33.04,33.07,633300,33.07
2012-03-07,33.12,33.31,32.91,33.12,364900,33.12
2012-03-06,33.25,33.28,32.62,33.11,573800,33.11
2012-03-05,34.35,34.40,33.46,33.77,467000,33.77
2012-03-02,34.40,34.50,33.71,34.04,550000,34.04
2012-03-01,33.51,34.50,33.31,34.41,703500,34.41
2012-02-29,33.81,34.12,33.14,33.41,535700,33.41
2012-02-28,33.64,34.44,33.17,33.81,612200,33.81
2012-02-27,33.41,34.00,33.00,33.62,606000,33.62
2012-02-24,34.23,34.52,33.27,33.75,959900,33.75
2012-02-23,33.99,34.97,33.56,34.53,820400,34.53
2012-02-22,34.50,34.72,32.50,34.22,1654600,34.22
2012-02-21,34.87,34.87,33.81,34.50,1135800,34.50
2012-02-17,33.99,34.97,33.50,34.97,1376700,34.97
2012-02-16,33.50,34.51,32.54,34.18,2219700,34.18
2012-02-15,33.10,34.41,32.27,33.60,2761800,33.60
2012-02-14,31.74,33.79,31.40,33.17,1810800,33.17
2012-02-13,31.55,32.06,30.90,31.49,1157900,31.49
2012-02-10,32.26,32.27,29.84,31.10,1874200,31.10
2012-02-09,32.00,32.90,31.43,32.58,1277100,32.58
2012-02-08,31.60,32.01,31.29,31.93,623700,31.93
2012-02-07,31.80,31.80,30.82,31.60,1021600,31.60
2012-02-06,31.10,31.90,31.05,31.80,652100,31.80
2012-02-03,30.41,31.33,30.25,31.15,764500,31.15
2012-02-02,29.72,30.88,29.61,30.25,805700,30.25
2012-02-01,29.07,29.70,29.00,29.58,523200,29.58
2012-01-31,29.90,30.00,28.87,29.07,956400,29.07
2012-01-30,29.49,29.61,28.53,29.57,729000,29.57
2012-01-27,28.50,29.72,28.50,29.33,748400,29.33
2012-01-26,28.07,29.58,28.00,28.94,1271100,28.94
2012-01-25,27.27,28.01,27.05,27.97,611200,27.97
2012-01-24,26.63,27.68,26.44,27.42,858000,27.42
2012-01-23,26.81,27.21,26.60,26.77,594600,26.77
2012-01-20,26.90,27.00,26.40,26.60,662300,26.60
2012-01-19,27.19,27.74,26.61,26.76,1246300,26.76
2012-01-18,26.69,26.88,26.25,26.81,1260200,26.81
2012-01-17,26.62,27.34,26.41,26.60,4651600,26.60
2012-01-13,28.40,28.50,22.64,22.79,5500400,22.79
2012-01-12,28.48,28.62,27.81,28.25,729300,28.25
2012-01-11,27.62,28.38,27.30,28.23,672300,28.23
2012-01-10,27.44,27.76,27.25,27.62,671800,27.62
2012-01-09,27.00,27.49,26.12,27.25,897000,27.25
2012-01-06,27.20,27.79,26.41,26.91,986300,26.91
2012-01-05,27.76,27.93,26.85,27.12,1005500,27.12
2012-01-04,28.21,28.67,27.50,27.71,630100,27.71
2012-01-03,28.94,29.50,27.65,28.08,928100,28.08
2011-12-30,28.49,28.98,28.25,28.56,339800,28.56
2011-12-29,28.59,29.34,28.55,28.73,488200,28.73
2011-12-28,28.99,29.24,28.04,28.51,575200,28.51
2011-12-27,27.66,28.77,27.64,28.57,777500,28.57
2011-12-23,28.00,28.00,27.52,27.90,591400,27.90
2011-12-22,27.60,28.05,27.30,27.77,1009400,27.77
2011-12-21,27.91,28.07,26.03,27.57,1705500,27.57
2011-12-20,28.05,28.45,27.72,27.90,843300,27.90
2011-12-19,28.09,28.50,27.37,27.75,987000,27.75
2011-12-16,28.79,28.93,27.98,28.00,1029700,28.00
2011-12-15,28.67,29.17,28.12,28.62,700300,28.62
2011-12-14,29.50,29.68,28.00,28.53,1163900,28.53
2011-12-13,30.57,30.93,28.91,29.45,994100,29.45
2011-12-12,30.44,30.62,30.02,30.41,758700,30.41
2011-12-09,30.54,31.12,30.28,31.04,1239500,31.04
2011-12-08,30.84,31.65,29.61,30.89,3305800,30.89
2011-12-07,34.63,34.89,33.80,34.19,674300,34.19
2011-12-06,34.20,34.98,34.03,34.87,951800,34.87
2011-12-05,33.53,35.00,33.43,34.42,1160100,34.42
2011-12-02,32.83,33.69,32.40,33.30,802800,33.30
2011-12-01,32.57,33.99,31.98,32.60,1030200,32.60
2011-11-30,32.50,32.93,32.22,32.74,760300,32.74
2011-11-29,32.49,33.07,31.63,31.75,591100,31.75
2011-11-28,32.00,33.28,31.81,32.56,681200,32.56
2011-11-25,31.55,32.41,31.08,31.66,239600,31.66
2011-11-23,31.76,32.05,31.25,31.45,451800,31.45
2011-11-22,31.76,32.79,31.05,32.07,732600,32.07
2011-11-21,32.44,32.44,31.05,31.76,1031600,31.76
2011-11-18,33.64,34.11,32.54,32.60,902800,32.60
2011-11-17,34.50,34.90,33.19,33.68,1349300,33.68
2011-11-16,33.48,35.00,33.40,34.94,1833200,34.94
2011-11-15,32.92,34.40,32.73,33.93,891000,33.93
2011-11-14,33.00,33.54,32.62,33.22,1325700,33.22
2011-11-11,31.90,34.50,30.57,33.64,3868300,33.64
2011-11-10,30.94,31.50,30.65,31.33,747300,31.33
2011-11-09,30.87,31.49,30.30,30.88,953700,30.88
2011-11-08,31.37,32.00,30.72,31.84,1167900,31.84
2011-11-07,31.64,32.00,30.75,31.27,1266300,31.27
2011-11-04,31.46,32.40,30.51,32.31,3032900,32.31
2011-11-03,30.00,32.49,29.53,32.46,2509700,32.46
2011-11-02,29.00,29.26,28.25,28.71,875300,28.71
2011-11-01,28.39,28.92,28.00,28.88,635200,28.88
2011-10-31,29.50,29.51,28.75,29.37,1134000,29.37
2011-10-28,28.50,30.00,28.01,29.87,1264000,29.87
2011-10-27,28.34,28.95,28.11,28.76,869400,28.76
2011-10-26,28.19,28.37,27.40,27.98,510500,27.98
2011-10-25,28.23,28.86,27.80,28.25,654400,28.25
2011-10-24,27.87,28.89,27.75,28.55,940600,28.55
2011-10-21,27.40,28.30,27.01,28.03,1142600,28.03
2011-10-20,27.44,27.47,27.00,27.34,999700,27.34
2011-10-19,28.02,28.06,27.30,27.57,792900,27.57
2011-10-18,27.30,28.43,26.71,28.34,999700,28.34
2011-10-17,27.86,28.00,27.26,27.42,754500,27.42
2011-10-14,28.00,28.55,27.26,28.05,1400500,28.05
2011-10-13,27.63,28.47,27.44,27.94,1043500,27.94
2011-10-12,27.25,28.00,27.20,27.80,1123400,27.80
2011-10-11,27.51,27.77,27.09,27.61,575700,27.61
2011-10-10,27.31,28.18,27.00,27.88,923500,27.88
2011-10-07,26.98,27.60,26.05,26.99,1311600,26.99
2011-10-06,25.37,27.60,25.02,26.96,1769100,26.96
2011-10-05,24.03,25.84,23.35,25.37,1229500,25.37
2011-10-04,23.29,24.32,22.93,23.66,1200300,23.66
2011-10-03,24.95,25.00,23.25,23.73,1023200,23.73
2011-09-30,24.80,24.89,23.49,24.39,1336100,24.39
2011-09-29,25.72,25.82,23.55,24.12,929600,24.12
2011-09-28,26.00,26.50,24.51,24.59,723300,24.59
2011-09-27,26.00,26.99,25.57,26.19,674500,26.19
2011-09-26,26.52,26.52,24.90,25.52,934800,25.52
2011-09-23,25.49,26.62,25.35,26.38,1156400,26.38
2011-09-22,25.64,26.11,24.88,25.63,775800,25.63
2011-09-21,25.95,26.95,25.70,25.85,987600,25.85
2011-09-20,25.98,26.60,25.67,26.01,1180400,26.01
2011-09-19,24.95,25.81,23.82,25.77,1157400,25.77
2011-09-16,24.78,25.84,24.49,25.80,1417100,25.80
2011-09-15,24.58,24.93,24.33,24.82,562600,24.82
2011-09-14,24.25,24.84,23.79,24.34,830800,24.34
2011-09-13,23.01,24.10,22.75,24.08,726500,24.08
2011-09-12,22.50,23.31,22.45,22.88,566600,22.88
2011-09-09,23.37,23.57,22.55,22.97,669300,22.97
2011-09-08,23.58,24.03,23.28,23.61,505700,23.61
2011-09-07,23.39,24.00,23.28,23.84,459200,23.84
2011-09-06,22.50,23.20,22.29,22.94,809800,22.94
2011-09-02,23.66,23.99,22.68,23.07,769900,23.07
2011-09-01,24.66,24.87,23.84,24.00,848100,24.00
2011-08-31,24.80,25.50,24.28,24.74,823800,24.74
2011-08-30,24.50,24.77,24.09,24.63,366200,24.63
2011-08-29,24.22,24.85,24.02,24.71,803400,24.71
2011-08-26,22.71,23.95,22.07,23.73,761800,23.73
2011-08-25,23.87,23.87,22.90,23.11,679800,23.11
2011-08-24,23.10,23.93,22.83,23.87,684300,23.87
2011-08-23,21.93,23.11,21.50,22.96,869000,22.96
2011-08-22,23.11,23.80,21.68,21.95,986100,21.95
2011-08-19,23.86,24.22,22.00,22.30,1375300,22.30
2011-08-18,25.00,25.15,23.47,24.26,1056600,24.26
2011-08-17,26.39,26.65,25.51,25.83,643700,25.83
2011-08-16,26.13,26.54,25.83,26.10,537700,26.10
2011-08-15,26.62,26.75,25.93,26.23,738600,26.23
2011-08-12,25.60,27.14,25.36,26.31,1009100,26.31
2011-08-11,24.04,25.75,24.00,25.30,836500,25.30
2011-08-10,25.44,25.44,23.63,23.82,1564200,23.82
2011-08-09,24.15,25.45,23.70,25.06,1333400,25.06
2011-08-08,23.10,24.44,23.10,23.64,2608500,23.64
2011-08-05,24.99,25.38,22.83,24.24,1964400,24.24
2011-08-04,26.51,26.89,24.67,24.75,3064500,24.75
2011-08-03,27.50,27.83,26.34,27.20,1794500,27.20
2011-08-02,28.69,29.20,27.27,27.34,1549400,27.34
2011-08-01,28.67,28.98,28.21,28.77,1164900,28.77
2011-07-29,27.80,28.40,27.50,28.17,948200,28.17
2011-07-28,27.60,28.55,27.54,28.17,938700,28.17
2011-07-27,28.50,28.50,27.51,27.64,958500,27.64
2011-07-26,28.31,28.77,27.97,28.00,760600,28.00
2011-07-25,29.01,29.25,28.44,28.49,673300,28.49
2011-07-22,28.70,29.54,28.55,29.29,583500,29.29
2011-07-21,28.91,29.16,28.10,28.70,1011500,28.70
2011-07-20,28.00,30.44,27.80,28.69,3048300,28.69
2011-07-19,27.58,28.11,27.54,27.89,1026100,27.89
2011-07-18,27.34,27.45,26.63,27.23,851900,27.23
2011-07-15,27.79,27.83,27.40,27.58,709000,27.58
2011-07-14,28.53,28.96,27.25,27.61,1159000,27.61
2011-07-13,28.43,29.03,27.90,28.64,1066000,28.64
2011-07-12,28.37,29.09,28.00,28.17,1045400,28.17
2011-07-11,28.40,28.53,28.00,28.35,975800,28.35
2011-07-08,29.89,29.89,28.59,28.81,1240600,28.81
2011-07-07,29.14,30.00,29.01,29.73,1327900,29.73
2011-07-06,29.14,29.14,28.55,28.96,926900,28.96
2011-07-05,29.02,29.52,28.71,29.14,996000,29.14
2011-07-01,29.07,29.60,28.80,29.02,854900,29.02
2011-06-30,28.50,29.33,28.40,29.13,946700,29.13
2011-06-29,28.50,29.09,28.07,28.29,1461800,28.29
2011-06-28,27.79,28.25,27.67,28.11,889200,28.11
2011-06-27,27.73,28.28,27.31,27.46,1809400,27.46
2011-06-24,27.64,27.97,27.26,27.57,3608500,27.57
2011-06-23,27.20,27.72,26.21,27.71,1170000,27.71
2011-06-22,27.37,28.25,27.10,27.21,1475600,27.21
2011-06-21,26.24,27.73,26.00,27.53,1496000,27.53
2011-06-20,26.29,26.46,25.50,26.01,1537800,26.01
2011-06-17,26.87,27.70,26.14,26.50,1714000,26.50
2011-06-16,27.67,28.00,25.74,26.50,1842200,26.50
2011-06-15,28.44,28.45,27.07,27.32,1345000,27.32
2011-06-14,28.54,29.70,28.52,28.60,1573400,28.60
2011-06-13,28.07,28.88,27.88,28.43,1713400,28.43
2011-06-10,27.52,28.30,27.35,27.86,1566600,27.86
2011-06-09,27.43,28.10,27.10,27.62,1603200,27.62
2011-06-08,28.44,28.60,27.02,27.12,1695900,27.12
2011-06-07,28.94,29.39,28.26,28.37,1222100,28.37
2011-06-06,30.10,30.13,28.26,28.70,2331100,28.70
2011-06-03,29.95,31.50,29.50,30.13,6209200,30.13
2011-06-02,28.52,29.32,28.51,28.76,986300,28.76
2011-06-01,30.00,30.10,28.38,28.52,1529900,28.52
2011-05-31,29.69,30.28,29.55,30.14,3290500,30.14
2011-05-27,29.54,29.67,28.82,29.55,1687100,29.55
2011-05-26,28.82,29.76,28.10,29.48,3336900,29.48
2011-05-25,26.90,29.01,26.17,28.98,4693100,28.98
2011-05-24,27.02,27.50,26.60,26.72,613700,26.72
2011-05-23,27.62,27.62,26.62,26.82,863600,26.82
2011-05-20,28.26,28.28,27.35,27.97,842500,27.97
2011-05-19,27.03,28.44,26.60,28.20,2655100,28.20
2011-05-18,26.10,26.47,25.52,26.35,729500,26.35
2011-05-17,27.00,27.00,25.72,25.96,1234200,25.96
2011-05-16,27.99,27.99,26.55,26.60,755700,26.60
2011-05-13,28.00,28.19,27.30,27.55,661500,27.55
2011-05-12,27.07,27.74,26.65,27.67,628000,27.67
2011-05-11,28.20,28.30,26.92,27.07,962500,27.07
2011-05-10,28.24,28.95,27.91,28.33,1535300,28.33
2011-05-09,27.00,28.00,26.85,27.91,916400,27.91
2011-05-06,26.90,27.70,26.62,27.12,981700,27.12
2011-05-05,27.20,27.44,26.17,26.44,1218500,26.44
2011-05-04,26.78,27.00,25.75,26.69,1044500,26.69
2011-05-03,27.38,27.39,26.50,26.87,913900,26.87
2011-05-02,27.60,27.80,27.06,27.45,784600,27.45
2011-04-29,27.69,27.87,27.42,27.60,726000,27.60
2011-04-28,27.07,27.69,26.72,27.66,1600000,27.66
2011-04-27,26.93,27.36,26.63,27.08,996900,27.08
2011-04-26,26.66,27.25,26.31,26.93,1400000,26.93
2011-04-25,26.70,26.73,25.97,26.39,800900,26.39
2011-04-21,25.85,26.98,25.59,26.74,1386100,26.74
2011-04-20,25.70,26.09,25.30,25.75,837200,25.75
2011-04-19,25.26,25.26,24.65,25.16,548700,25.16
2011-04-18,25.13,25.62,24.36,25.03,1033900,25.03
2011-04-15,25.65,26.18,25.41,25.58,943500,25.58
2011-04-14,24.87,25.28,24.20,25.14,983400,25.14
2011-04-13,25.13,25.69,24.81,24.93,1211500,24.93
2011-04-12,25.08,25.21,24.30,24.65,1357400,24.65
2011-04-11,26.47,26.53,25.02,25.27,1369400,25.27
2011-04-08,27.58,27.60,26.36,26.49,1946400,26.49
2011-04-07,26.85,27.94,26.45,27.24,2810300,27.24
2011-04-06,26.99,27.01,25.80,26.49,1288300,26.49
2011-04-05,25.90,27.00,25.69,26.70,3180900,26.70
2011-04-04,26.83,27.00,25.23,25.83,2609300,25.83
2011-04-01,27.45,28.18,26.57,26.66,2864800,26.66
2011-03-31,26.55,28.71,26.50,27.75,11517800,27.75
2011-03-30,24.11,24.49,23.01,23.71,1223300,23.71
2011-03-29,23.30,24.00,23.21,23.92,755400,23.92
2011-03-28,22.70,23.54,22.55,23.25,1058100,23.25
2011-03-25,22.43,23.00,22.40,22.75,568000,22.75
2011-03-24,22.14,22.38,21.98,22.33,462200,22.33
2011-03-23,22.11,22.27,21.77,22.21,422800,22.21
2011-03-22,22.73,22.86,22.00,22.19,582900,22.19
2011-03-21,23.05,23.05,22.54,22.73,411700,22.73
2011-03-18,23.19,23.19,22.51,22.96,687900,22.96
2011-03-17,23.24,23.43,22.64,22.81,922600,22.81
2011-03-16,22.86,23.25,22.69,22.82,1169700,22.82
2011-03-15,22.20,22.96,21.80,22.95,1318800,22.95
2011-03-14,23.82,24.00,23.20,23.25,1166000,23.25
2011-03-11,23.85,24.25,23.53,24.07,930800,24.07
2011-03-10,24.44,24.49,23.73,24.01,1017000,24.01
2011-03-09,24.66,24.99,24.27,24.72,924800,24.72
2011-03-08,24.60,24.96,24.00,24.66,1399900,24.66
2011-03-07,24.93,25.40,24.70,24.94,2033600,24.94
2011-03-04,24.48,24.99,23.78,24.95,1580100,24.95
2011-03-03,24.48,24.79,24.06,24.36,640200,24.36
2011-03-02,23.82,24.28,23.73,24.02,663300,24.02
2011-03-01,24.05,24.32,23.70,23.94,1106400,23.94
2011-02-28,23.74,24.10,23.50,23.89,1051200,23.89
2011-02-25,22.81,23.85,22.69,23.61,1346300,23.61
2011-02-24,21.78,22.58,21.50,22.53,1055300,22.53
2011-02-23,22.18,22.50,21.11,21.83,1605600,21.83
2011-02-22,22.88,23.00,21.78,21.87,2064600,21.87
2011-02-18,23.33,23.49,22.96,23.18,2370700,23.18
2011-02-17,24.63,25.49,23.55,23.60,2618400,23.60
2011-02-16,23.10,24.97,23.07,24.73,4115100,24.73
2011-02-15,23.01,23.17,22.56,22.84,953700,22.84
2011-02-14,23.64,24.14,23.05,23.08,1283100,23.08
2011-02-11,23.25,23.75,22.94,23.25,634500,23.25
2011-02-10,23.26,23.64,22.81,23.22,836100,23.22
2011-02-09,24.13,24.18,22.79,23.21,2635600,23.21
2011-02-08,23.78,25.25,23.00,24.49,3504900,24.49
2011-02-07,23.26,23.26,22.88,23.07,895100,23.07
2011-02-04,23.44,23.67,23.22,23.46,544000,23.46
2011-02-03,23.82,23.90,23.15,23.63,512000,23.63
2011-02-02,24.16,24.18,23.67,23.94,569500,23.94
2011-02-01,24.31,24.73,23.54,23.91,707800,23.91
2011-01-31,24.05,24.12,23.50,24.10,830300,24.10
2011-01-28,24.88,24.88,23.75,24.01,1048400,24.01
2011-01-27,24.74,25.08,24.53,24.92,895700,24.92
2011-01-26,24.71,24.88,24.10,24.75,1079900,24.75
2011-01-25,24.65,24.89,24.02,24.68,1271500,24.68
2011-01-24,23.53,24.81,23.23,24.49,1645100,24.49
2011-01-21,23.12,23.59,22.71,23.04,1217000,23.04
2011-01-20,24.03,24.45,22.37,22.62,2279900,22.62
2011-01-19,25.27,25.47,23.75,24.03,2371500,24.03
2011-01-18,25.48,25.64,24.75,25.64,1621700,25.64
2011-01-14,26.15,26.58,25.61,25.75,1192000,25.75
2011-01-13,26.96,26.97,26.16,26.22,723600,26.22
2011-01-12,27.01,27.40,26.52,26.96,964400,26.96
2011-01-11,28.59,28.71,26.92,26.96,1710200,26.96
2011-01-10,28.17,28.68,28.05,28.45,1342700,28.45
2011-01-07,28.00,28.58,27.90,28.24,2247900,28.24
2011-01-06,26.83,28.00,26.81,27.88,2061200,27.88
2011-01-05,26.48,26.90,26.19,26.83,1446700,26.83
2011-01-04,26.66,26.95,26.02,26.67,1187400,26.67
2011-01-03,26.84,27.00,25.90,26.62,1283000,26.62
2010-12-31,26.57,27.25,26.50,26.63,1417900,26.63
2010-12-30,27.70,27.90,26.38,26.50,2041100,26.50
2010-12-29,27.03,28.01,26.50,27.73,3319200,27.73
2010-12-28,25.85,26.75,25.00,26.41,4056300,26.41
2010-12-27,28.02,28.58,25.06,25.55,9301900,25.55
2010-12-23,31.26,32.48,29.92,30.09,1552600,30.09
2010-12-22,32.25,32.86,31.70,32.63,833300,32.63
2010-12-21,31.80,32.69,31.71,32.26,777700,32.26
2010-12-20,31.64,32.19,31.26,31.70,523400,31.70
2010-12-17,31.34,31.54,30.71,31.36,813000,31.36
2010-12-16,30.00,30.91,29.65,30.81,790100,30.81
2010-12-15,28.67,29.97,28.53,29.60,742900,29.60
2010-12-14,30.29,30.39,27.76,28.53,1765700,28.53
2010-12-13,31.64,31.77,30.40,30.55,410400,30.55
2010-12-10,32.05,32.92,31.13,31.52,429400,31.52
2010-12-09,32.51,32.72,31.65,32.05,406000,32.05
2010-12-08,32.48,32.49,31.52,32.37,660000,32.37
2010-12-07,30.49,32.40,30.05,31.56,1311300,31.56
2010-12-06,31.35,31.45,29.56,30.31,1274400,30.31
2010-12-03,32.01,32.25,30.87,31.49,1160100,31.49
2010-12-02,34.01,34.30,31.20,32.35,2007000,32.35
2010-12-01,35.87,36.42,33.45,34.35,1299200,34.35
2010-11-30,33.74,35.33,33.41,35.33,2222600,35.33
2010-11-29,35.41,35.95,33.33,34.33,1145600,34.33
2010-11-26,35.60,36.00,34.75,35.32,350600,35.32
2010-11-24,35.27,35.97,34.33,35.47,1425000,35.47
2010-11-23,33.29,35.68,32.19,34.57,1577800,34.57
2010-11-22,31.57,33.45,31.50,33.40,1529700,33.40
2010-11-19,30.16,31.37,29.70,30.99,1150500,30.99
2010-11-18,30.67,30.74,28.92,29.89,956100,29.89
2010-11-17,30.20,30.75,28.61,29.49,750000,29.49
2010-11-16,31.00,31.40,28.42,29.67,1347600,29.67
2010-11-15,30.22,32.94,30.22,30.80,2622900,30.80
2010-11-12,28.25,30.50,28.07,29.84,2729100,29.84
2010-11-11,28.60,29.10,27.33,28.04,1945300,28.04
2010-11-10,24.48,29.97,24.05,29.36,3060500,29.36
2010-11-09,25.00,25.69,24.05,24.63,956400,24.63
2010-11-08,24.50,25.00,24.03,24.98,509500,24.98
2010-11-05,24.87,24.97,23.72,24.44,1011000,24.44
2010-11-04,22.60,25.33,22.15,24.90,1874000,24.90
2010-11-03,21.28,22.50,21.16,21.77,372600,21.77
2010-11-02,21.68,21.88,21.05,21.25,322500,21.25
2010-11-01,21.94,22.75,21.31,21.41,455800,21.41
2010-10-29,21.14,21.85,21.05,21.84,280600,21.84
2010-10-28,21.39,21.50,20.96,21.19,224200,21.19
2010-10-27,21.25,21.38,20.65,21.00,356500,21.00
2010-10-26,20.80,21.87,20.51,21.36,660900,21.36
2010-10-25,20.94,20.98,20.73,20.85,118500,20.85
2010-10-22,20.68,20.93,20.55,20.72,161100,20.72
2010-10-21,20.61,20.95,20.45,20.75,417100,20.75
2010-10-20,20.16,20.69,20.04,20.65,312500,20.65
2010-10-19,20.20,20.41,20.00,20.05,245200,20.05
2010-10-18,20.52,20.64,20.22,20.23,162800,20.23
2010-10-15,20.89,20.90,20.25,20.54,284700,20.54
2010-10-14,21.00,21.03,20.40,20.75,294800,20.75
2010-10-13,20.64,20.85,20.36,20.54,318200,20.54
2010-10-12,20.20,20.28,20.03,20.24,244000,20.24
2010-10-11,20.44,20.70,20.07,20.24,171200,20.24
2010-10-08,20.43,20.79,20.39,20.43,267800,20.43
2010-10-07,20.57,20.64,20.34,20.43,141000,20.43
2010-10-06,21.06,21.26,20.32,20.46,313400,20.46
2010-10-05,21.15,21.28,21.01,21.12,332000,21.12
2010-10-04,20.43,21.17,20.30,20.99,643600,20.99
2010-10-01,20.69,20.75,20.31,20.60,597700,20.60
2010-09-30,22.00,22.15,20.19,20.41,2195800,20.41
2010-09-29,21.19,22.03,21.13,21.98,1969300,21.98
2010-09-28,21.04,21.49,20.76,21.40,1214500,21.40
2010-09-27,20.40,20.81,20.05,20.53,418600,20.53
2010-09-24,19.95,20.19,19.65,20.10,578900,20.10
2010-09-23,19.89,20.14,19.50,19.56,668100,19.56
2010-09-22,20.87,20.95,19.80,19.87,962900,19.87
2010-09-21,20.89,21.55,20.67,20.77,796000,20.77
2010-09-20,20.67,21.35,20.16,21.06,947500,21.06
2010-09-17,21.02,21.32,19.80,20.23,1198500,20.23
2010-09-16,22.15,23.16,20.84,20.94,2684500,20.94
2010-09-15,20.98,22.00,20.79,21.98,684600,21.98
2010-09-14,20.54,21.60,20.53,21.12,654700,21.12
2010-09-13,20.89,20.90,20.50,20.72,360800,20.72
2010-09-10,20.75,20.93,19.76,20.17,386600,20.17
2010-09-09,21.00,21.05,20.69,20.71,376200,20.71
2010-09-08,20.66,20.95,20.60,20.90,288400,20.90
2010-09-07,20.61,21.00,20.50,20.54,243400,20.54
2010-09-03,20.87,21.30,20.66,21.05,434600,21.05
2010-09-02,20.37,21.24,20.31,21.06,487100,21.06
2010-09-01,19.62,20.69,19.60,20.45,494900,20.45
2010-08-31,19.66,19.79,19.33,19.48,201100,19.48
2010-08-30,19.70,20.19,19.61,19.87,732800,19.87
2010-08-27,19.75,19.87,19.50,19.70,379600,19.70
2010-08-26,19.89,20.27,19.60,19.75,433800,19.75
2010-08-25,19.16,19.98,18.56,19.90,503300,19.90
2010-08-24,19.25,19.71,18.95,19.20,673100,19.20
2010-08-23,19.09,20.39,19.00,20.13,1088100,20.13
2010-08-20,18.65,19.11,18.51,19.10,296000,19.10
2010-08-19,18.54,19.25,18.33,18.79,579100,18.79
2010-08-18,19.59,19.59,18.60,18.77,601300,18.77
2010-08-17,18.96,19.40,18.78,19.15,447900,19.15
2010-08-16,18.45,18.80,18.26,18.78,485800,18.78
2010-08-13,18.18,18.45,17.66,18.32,634000,18.32
2010-08-12,17.80,17.90,17.39,17.60,691000,17.60
2010-08-11,18.69,18.88,17.85,17.90,797600,17.90
2010-08-10,19.65,19.65,18.82,19.03,1281300,19.03
2010-08-09,19.90,19.98,19.45,19.60,812700,19.60
2010-08-06,20.10,20.16,19.52,19.59,741900,19.59
2010-08-05,21.54,21.55,20.05,20.45,796200,20.45
2010-08-04,21.95,22.18,20.85,21.26,913000,21.26
2010-08-03,21.00,21.95,20.82,21.95,1230500,21.95
2010-08-02,20.50,20.97,20.33,20.92,718100,20.92
2010-07-30,20.20,20.44,19.55,19.94,426900,19.94
2010-07-29,20.77,20.88,20.00,20.35,616000,20.35
2010-07-28,20.55,20.90,20.51,20.72,467200,20.72
2010-07-27,20.91,21.18,20.26,20.55,619700,20.55
2010-07-26,21.50,21.50,20.30,20.95,922200,20.95
2010-07-23,21.19,21.56,21.06,21.29,653600,21.29
2010-07-22,20.50,21.25,20.37,21.00,957800,21.00
2010-07-21,20.66,20.90,19.50,20.22,1252500,20.22
2010-07-20,21.85,21.85,20.05,20.30,1825300,20.30
2010-07-19,21.37,22.25,20.92,21.91,2486500,21.91
2010-07-16,20.70,21.30,20.05,20.64,2621300,20.64
2010-07-15,19.94,21.50,19.00,19.89,3739800,19.89
2010-07-14,17.94,20.15,17.76,19.84,4195200,19.84
2010-07-13,17.39,18.64,16.90,18.14,2680100,18.14
2010-07-12,17.95,18.07,17.00,17.05,2202500,17.05
2010-07-09,17.58,17.90,16.55,17.40,4050600,17.40
2010-07-08,16.14,17.52,15.57,17.46,7711400,17.46
2010-07-07,16.40,16.63,14.98,15.80,6921700,15.80
2010-07-06,20.00,20.00,15.83,16.11,6866900,16.11
2010-07-02,23.00,23.10,18.71,19.20,5139800,19.20
2010-07-01,25.00,25.92,20.27,21.96,8218800,21.96
2010-06-30,25.79,30.42,23.30,23.83,17187100,23.83
2010-06-29,19.00,25.00,17.54,23.89,18766300,23.89
