Date,Open,High,Low,Close,Volume,Adj Close
2014-09-12,64.50,64.93,64.24,64.63,719700,64.63
2014-09-11,64.58,64.83,64.34,64.77,380700,64.77
2014-09-10,64.26,64.77,64.11,64.68,403700,64.68
2014-09-09,64.00,64.40,63.75,64.24,376000,64.24
2014-09-08,64.41,64.57,64.00,64.22,257700,64.22
2014-09-05,64.37,64.67,64.24,64.64,341900,64.64
2014-09-04,63.98,64.66,63.98,64.28,273600,64.28
2014-09-03,64.50,64.67,64.07,64.27,365500,64.27
2014-09-02,64.09,64.94,64.09,64.47,440100,64.47
2014-08-29,64.28,64.50,63.49,64.19,397300,64.19
2014-08-28,63.76,63.98,63.57,63.88,307000,63.88
2014-08-27,64.00,64.15,63.54,63.80,495200,63.80
2014-08-26,63.95,64.18,63.72,64.07,639300,64.07
2014-08-25,64.12,64.20,63.44,63.63,277500,63.63
2014-08-22,64.27,64.33,63.39,63.80,525900,63.80
2014-08-21,63.50,64.16,63.23,64.15,421100,64.15
2014-08-20,63.23,63.76,63.14,63.58,396200,63.58
2014-08-19,63.80,63.96,63.34,63.55,418900,63.55
2014-08-18,62.83,63.80,62.83,63.77,900500,63.77
2014-08-15,63.11,63.11,62.36,62.69,1238600,62.69
2014-08-14,61.62,62.55,61.57,62.46,648400,62.46
2014-08-13,60.78,61.67,60.53,61.63,700200,61.63
2014-08-12,60.56,60.92,60.38,60.75,521300,60.75
2014-08-11,60.26,60.83,60.01,60.75,2092100,60.75
2014-08-08,60.29,60.55,59.94,60.17,999900,60.17
2014-08-07,59.98,60.88,59.40,60.40,1424000,60.40
2014-08-06,59.00,59.81,58.80,59.72,914500,59.72
2014-08-05,59.34,59.71,58.88,59.42,1152500,59.42
2014-08-04,59.40,59.81,59.24,59.55,646800,59.55
2014-08-01,59.96,60.32,59.32,59.47,590900,59.47
2014-07-31,60.63,60.75,59.90,60.04,1314200,60.04
2014-07-30,62.37,62.41,60.49,60.79,1290300,60.79
2014-07-29,62.61,62.74,62.07,62.19,1147400,62.19
2014-07-28,62.88,62.94,62.14,62.66,670500,62.66
2014-07-25,63.02,63.20,62.71,62.97,530500,62.97
2014-07-24,62.99,63.40,62.82,63.20,424300,63.20
2014-07-23,62.47,63.12,62.28,62.80,488200,62.80
2014-07-22,62.40,62.96,62.36,62.52,629000,62.52
2014-07-21,62.29,62.50,61.87,62.28,585600,62.28
2014-07-18,61.70,62.52,61.43,62.49,703600,62.49
2014-07-17,61.19,61.78,61.07,61.46,610400,61.46
2014-07-16,61.65,61.91,61.30,61.50,459000,61.50
2014-07-15,60.98,61.55,60.90,61.48,650000,61.48
2014-07-14,61.33,61.37,60.82,61.14,476600,61.14
2014-07-11,61.06,61.19,60.44,61.12,554200,61.12
2014-07-10,60.56,61.07,60.28,61.02,654400,61.02
2014-07-09,61.18,61.44,60.81,60.95,484100,60.95
2014-07-08,61.19,61.44,60.86,61.15,541900,61.15
2014-07-07,61.03,61.40,60.78,61.40,582600,61.40
2014-07-03,60.88,61.15,60.63,61.15,205000,61.15
2014-07-02,60.82,61.53,60.23,60.58,698400,60.58
2014-07-01,60.05,61.08,60.03,60.90,892200,60.90
2014-06-30,59.58,60.05,58.93,60.02,814700,60.02
2014-06-27,59.13,59.83,58.87,59.67,1602300,59.67
2014-06-26,59.17,59.28,58.75,59.15,562900,59.15
2014-06-25,59.58,59.72,59.17,59.23,904200,59.23
2014-06-24,60.41,60.63,59.44,59.54,1070900,59.54
2014-06-23,60.31,60.59,59.88,60.37,719900,60.37
2014-06-20,60.08,60.77,60.01,60.46,1016800,60.46
2014-06-19,62.96,62.96,59.81,60.20,797000,60.20
2014-06-18,60.46,60.67,59.81,59.99,525400,59.99
2014-06-17,60.68,61.00,60.28,60.38,636100,60.38
2014-06-16,60.53,61.01,60.44,60.80,653200,60.80
2014-06-13,60.64,60.73,60.27,60.42,468900,60.42
2014-06-12,61.07,61.19,60.47,60.60,457200,60.60
2014-06-11,60.98,61.18,60.75,61.14,318500,61.14
2014-06-10,61.65,61.92,61.10,61.19,374100,61.19
2014-06-09,61.19,61.83,61.03,61.79,362300,61.79
2014-06-06,61.61,61.85,61.24,61.34,378100,61.34
2014-06-05,61.00,61.41,60.85,61.34,579700,61.34
2014-06-04,59.73,61.00,59.73,60.88,1029700,60.88
2014-06-03,59.48,60.21,59.41,59.92,501200,59.92
2014-06-02,59.31,59.69,59.11,59.57,836200,59.57
2014-05-30,61.00,61.00,59.19,59.19,3349800,59.19
2014-05-29,60.55,61.02,60.49,60.81,361700,60.81
2014-05-28,61.25,61.25,60.53,60.54,481200,60.54
2014-05-27,61.03,61.14,60.66,61.13,437700,61.13
2014-05-23,60.89,61.03,60.54,60.95,462600,60.95
2014-05-22,60.89,61.32,60.55,60.63,689600,60.63
2014-05-21,60.83,61.28,60.62,60.99,478100,60.99
2014-05-20,61.25,61.48,60.52,60.74,584900,60.74
2014-05-19,60.68,61.56,60.62,61.16,554600,61.16
2014-05-16,60.26,60.98,59.78,60.97,466900,60.97
2014-05-15,60.86,60.86,59.48,60.25,549300,60.25
2014-05-14,60.54,61.29,60.54,60.91,348600,60.91
2014-05-13,61.65,61.65,60.65,60.82,400700,60.82
2014-05-12,60.73,61.68,60.37,61.45,470700,61.45
2014-05-09,60.31,60.97,59.94,60.53,460300,60.53
2014-05-08,59.54,60.67,59.19,60.20,586500,60.20
2014-05-07,59.88,60.03,59.11,59.73,652500,59.73
2014-05-06,60.10,60.36,59.70,59.85,327900,59.85
2014-05-05,59.34,60.31,59.10,60.25,533900,60.25
2014-05-02,60.43,60.43,59.64,59.73,552600,59.73
2014-05-01,59.96,60.46,59.66,59.91,895000,59.91
2014-04-30,60.00,61.19,58.38,60.09,1528800,60.09
2014-04-29,57.69,58.15,57.31,57.88,453200,57.88
2014-04-28,58.09,58.14,56.85,57.65,882400,57.65
2014-04-25,58.18,58.41,57.60,57.81,721300,57.81
2014-04-24,58.34,58.49,58.02,58.34,663500,58.34
2014-04-23,57.74,58.30,57.61,58.00,673100,58.00
2014-04-22,57.92,58.12,57.50,58.00,388400,58.00
2014-04-21,57.50,57.76,57.17,57.59,487100,57.59
2014-04-17,57.93,58.24,57.52,57.60,461100,57.60
2014-04-16,57.60,58.02,57.01,57.97,596300,57.97
2014-04-15,57.75,58.03,56.73,57.12,684300,57.12
2014-04-14,57.10,57.83,56.52,57.78,1553600,57.78
2014-04-11,57.74,58.21,56.37,56.55,1293100,56.55
2014-04-10,58.86,59.15,57.85,58.08,1729200,58.08
2014-04-09,59.14,59.29,58.70,59.00,1456100,59.00
2014-04-08,58.38,59.21,58.09,58.90,1321900,58.90
2014-04-07,59.34,59.86,58.30,58.34,837600,58.34
2014-04-04,61.11,61.24,59.38,59.57,871800,59.57
2014-04-03,60.59,61.10,60.40,60.75,1037200,60.75
2014-04-02,59.85,60.64,59.50,60.61,2312200,60.61
2014-04-01,59.97,60.06,59.58,59.74,1378500,59.74
2014-03-31,60.11,60.49,59.54,59.96,1044600,59.96
2014-03-28,60.56,60.82,59.75,59.87,1182100,59.87
2014-03-27,61.02,61.24,60.33,60.50,819400,60.50
2014-03-26,61.52,61.76,60.76,60.77,721800,60.77
2014-03-25,62.12,62.36,61.19,61.22,672000,61.22
2014-03-24,62.60,62.88,61.23,61.62,923100,61.62
2014-03-21,62.91,63.00,62.35,62.48,1265000,62.48
2014-03-20,62.76,63.05,62.40,62.47,515600,62.47
2014-03-19,62.96,63.16,62.47,62.83,573600,62.83
2014-03-18,62.89,63.45,62.74,62.94,561700,62.94
2014-03-17,62.75,63.71,62.52,62.88,729000,62.88
2014-03-14,62.27,62.74,62.08,62.37,731400,62.37
2014-03-13,63.29,63.48,62.24,62.36,792600,62.36
2014-03-12,63.39,64.02,62.92,63.29,699700,63.29
2014-03-11,63.76,64.61,63.52,63.73,1168700,63.73
2014-03-10,62.24,63.88,61.99,63.85,2163800,63.85
2014-03-07,63.00,63.00,61.92,62.24,1422600,62.24
2014-03-06,62.10,62.92,61.89,62.58,1897300,62.58
2014-03-05,63.36,63.47,62.06,62.10,1535600,62.10
2014-03-04,63.93,64.21,63.34,63.47,894500,63.47
2014-03-03,63.41,63.68,62.72,63.41,751400,63.41
2014-02-28,63.99,64.16,63.37,63.72,900600,63.72
2014-02-27,64.13,64.13,63.55,63.79,936900,63.79
2014-02-26,67.18,67.48,63.71,63.78,1278500,63.78
2014-02-25,65.64,65.64,65.02,65.20,1255500,65.20
2014-02-24,65.81,65.96,65.35,65.38,1019000,65.38
2014-02-21,66.00,66.29,65.39,65.53,866600,65.53
2014-02-20,65.50,66.25,65.29,66.05,620600,66.05
2014-02-19,65.00,65.78,65.00,65.49,399900,65.49
2014-02-18,65.86,65.86,64.93,65.21,762600,65.21
2014-02-14,66.08,66.21,65.43,65.65,613500,65.65
2014-02-13,63.80,66.01,63.70,65.89,1346000,65.89
2014-02-12,62.74,63.59,62.74,63.28,877600,63.28
2014-02-11,62.33,62.81,62.14,62.78,922800,62.78
2014-02-10,62.32,62.56,61.80,62.30,788500,62.30
2014-02-07,62.40,63.04,61.92,62.40,1111200,62.40
2014-02-06,62.56,62.88,62.32,62.33,838900,62.33
2014-02-05,62.44,63.02,62.01,62.28,619100,62.28
2014-02-04,62.86,63.29,62.39,62.74,821600,62.74
2014-02-03,63.79,63.99,62.62,62.78,951900,62.78
2014-01-31,63.52,64.15,63.19,63.86,553700,63.86
2014-01-30,63.79,64.61,63.58,64.55,551900,64.55
2014-01-29,63.46,63.88,63.05,63.68,674600,63.68
2014-01-28,63.40,63.97,63.35,63.86,863400,63.86
2014-01-27,62.68,63.69,62.68,63.31,1058800,63.31
2014-01-24,63.68,64.03,63.25,63.57,887700,63.57
2014-01-23,63.45,64.16,63.23,64.16,717300,64.16
2014-01-22,64.01,64.22,63.72,63.97,532300,63.97
2014-01-21,63.84,64.27,63.54,64.02,699400,64.02
2014-01-17,63.86,64.10,63.32,63.45,1106200,63.45
2014-01-16,63.46,64.15,63.20,64.12,1000900,64.12
2014-01-15,63.59,63.88,62.94,63.43,1160500,63.43
2014-01-14,62.39,63.28,62.39,63.00,778100,63.00
2014-01-13,62.31,63.40,62.31,62.45,951800,62.45
2014-01-10,63.50,63.75,62.73,62.93,813500,62.93
2014-01-09,63.59,63.65,62.97,63.14,585100,63.14
2014-01-08,63.45,63.56,62.76,63.36,1565400,63.36
2014-01-07,63.79,64.25,63.54,63.61,693200,63.61
2014-01-06,65.10,65.43,63.63,63.65,889100,63.65
2014-01-03,65.03,65.50,64.96,65.13,532100,65.13
2014-01-02,65.27,65.57,64.75,65.12,683300,65.12
2013-12-31,65.35,66.14,65.30,65.72,723000,65.72
2013-12-30,65.91,66.12,65.73,65.81,374400,65.81
2013-12-27,66.25,66.27,65.70,66.05,432400,66.05
2013-12-26,66.19,66.42,65.74,65.98,290300,65.98
2013-12-24,66.23,66.49,65.92,65.97,202200,65.97
2013-12-23,66.42,66.86,65.88,66.03,440800,66.03
2013-12-20,65.57,66.64,65.57,66.56,879100,66.56
2013-12-19,65.51,66.08,65.51,65.85,516400,65.85
2013-12-18,65.42,65.84,64.71,65.75,503300,65.75
2013-12-17,65.09,65.59,64.56,65.22,665400,65.22
2013-12-16,64.64,65.50,64.59,65.22,665800,65.22
2013-12-13,64.60,65.17,64.36,64.63,1163800,64.63
2013-12-12,64.64,64.80,64.04,64.19,849700,64.19
2013-12-11,65.60,65.91,64.56,64.60,1000000,64.60
2013-12-10,66.16,66.36,65.82,66.23,616400,66.23
2013-12-09,67.24,67.34,66.19,66.52,1323300,66.52
2013-12-06,66.33,67.33,65.63,67.33,1071800,67.33
2013-12-05,65.10,65.12,64.71,65.10,975000,65.10
2013-12-04,64.99,65.57,64.72,65.26,576900,65.26
2013-12-03,64.92,65.22,64.73,65.13,651000,65.13
2013-12-02,64.82,65.63,64.73,65.40,834500,65.40
2013-11-29,65.51,65.65,64.83,65.11,333800,65.11
2013-11-27,64.84,65.85,64.63,65.45,1604500,65.45
2013-11-26,64.78,65.11,64.47,64.89,1047800,64.89
2013-11-25,63.70,64.86,63.68,64.53,860700,64.53
2013-11-22,63.18,63.96,63.17,63.91,562000,63.91
2013-11-21,62.63,63.39,62.43,63.27,776600,63.27
2013-11-20,63.12,63.16,62.41,62.63,1350600,62.63
2013-11-19,63.20,63.57,62.91,63.19,436400,63.19
2013-11-18,63.21,63.57,62.80,63.33,982300,63.33
2013-11-15,64.00,64.43,63.31,64.37,717700,64.37
2013-11-14,63.30,64.09,63.20,63.67,546000,63.67
2013-11-13,62.55,63.43,62.43,63.42,711300,63.42
2013-11-12,62.08,62.86,62.00,62.85,905400,62.85
2013-11-11,62.57,62.75,62.17,62.31,832600,62.31
2013-11-08,61.45,62.59,61.25,62.47,935400,62.47
2013-11-07,61.68,64.15,61.13,61.27,1287500,61.27
2013-11-06,61.00,62.85,60.16,62.00,5231700,62.00
2013-11-05,67.91,68.23,67.53,67.80,799800,67.80
2013-11-04,68.05,68.34,67.65,68.33,517200,68.33
2013-11-01,68.79,68.79,67.26,67.98,847100,67.98
2013-10-31,68.11,68.69,67.87,68.52,474600,68.52
2013-10-30,68.68,69.07,67.82,68.15,415800,68.15
2013-10-29,68.21,68.74,68.14,68.74,371400,68.74
2013-10-28,68.51,68.94,67.90,67.94,685600,67.94
2013-10-25,68.45,68.45,67.86,68.39,345600,68.39
2013-10-24,68.43,69.09,67.94,68.02,658200,68.02
2013-10-23,68.06,68.83,67.68,68.53,633300,68.53
2013-10-22,68.74,69.03,68.25,68.35,491500,68.35
2013-10-21,68.71,68.86,67.75,68.38,652300,68.38
2013-10-18,68.72,68.73,68.11,68.69,718600,68.69
2013-10-17,67.60,68.77,67.36,68.71,523000,68.71
2013-10-16,67.43,67.99,67.11,67.77,494700,67.77
2013-10-15,66.96,67.15,66.74,66.97,551700,66.97
2013-10-14,66.86,67.29,66.56,67.26,519100,67.26
2013-10-11,66.33,67.17,66.16,67.07,445200,67.07
2013-10-10,65.35,66.66,65.35,66.45,477600,66.45
2013-10-09,65.00,65.21,64.40,65.14,1106600,65.14
2013-10-08,64.50,65.15,64.32,64.94,970100,64.94
2013-10-07,64.46,64.92,63.86,64.66,625500,64.66
2013-10-04,64.13,65.10,63.87,65.02,884700,65.02
2013-10-03,64.34,64.47,63.29,63.97,1134900,63.97
2013-10-02,64.86,64.86,64.28,64.37,731500,64.37
2013-10-01,65.04,65.53,64.82,65.16,478500,65.16
2013-09-30,64.96,65.26,64.54,64.96,578100,64.96
2013-09-27,65.00,65.44,64.56,65.34,287700,65.34
2013-09-26,65.40,65.78,64.90,65.25,391200,65.25
2013-09-25,65.46,65.57,64.88,65.07,424800,65.07
2013-09-24,65.37,65.79,64.92,65.52,377100,65.52
2013-09-23,65.52,65.83,65.29,65.37,656800,65.37
2013-09-20,66.15,66.44,65.47,65.80,924200,65.80
2013-09-19,66.75,66.77,65.96,66.39,826500,66.39
2013-09-18,66.03,66.65,65.48,66.53,745700,66.53
2013-09-17,65.99,66.46,65.82,66.02,422000,66.02
2013-09-16,65.59,66.09,65.39,66.09,1554900,66.09
2013-09-13,65.50,65.50,64.96,65.32,666800,65.32
2013-09-12,65.16,65.38,64.86,65.17,344500,65.17
2013-09-11,64.79,65.63,64.53,65.05,694200,65.05
2013-09-10,63.90,64.67,63.80,64.66,606500,64.66
2013-09-09,63.18,64.06,62.66,63.64,639800,63.64
2013-09-06,63.45,63.74,62.40,63.14,601700,63.14
2013-09-05,63.23,63.47,62.94,63.08,731200,63.08
2013-09-04,62.75,63.26,62.46,63.26,589900,63.26
2013-09-03,62.79,63.18,62.46,62.84,971200,62.84
2013-08-30,62.36,62.55,61.82,62.18,431100,62.18
2013-08-29,61.85,62.73,61.74,62.31,350500,62.31
2013-08-28,62.06,62.39,61.80,62.13,473800,62.13
2013-08-27,62.10,62.61,61.94,62.27,496100,62.27
2013-08-26,62.56,62.88,62.35,62.67,333500,62.67
2013-08-23,62.20,62.94,62.00,62.75,594600,62.75
2013-08-22,61.70,62.34,61.69,62.03,267700,62.03
2013-08-21,61.36,62.13,61.27,61.74,335000,61.74
2013-08-20,61.35,61.90,61.25,61.69,419800,61.69
2013-08-19,61.34,61.98,61.00,61.39,463600,61.39
2013-08-16,61.50,61.84,61.11,61.52,484300,61.52
2013-08-15,61.82,62.21,61.16,61.66,417100,61.66
2013-08-14,62.99,63.06,62.16,62.31,376400,62.31
2013-08-13,62.94,63.34,62.42,63.05,394500,63.05
2013-08-12,63.09,63.39,62.86,62.94,513300,62.94
2013-08-09,63.00,63.74,62.97,63.25,568500,63.25
2013-08-08,63.66,63.66,62.84,63.29,336800,63.29
2013-08-07,63.50,63.56,63.08,63.36,825300,63.36
2013-08-06,63.90,63.96,63.37,63.55,609800,63.55
2013-08-05,64.00,64.12,63.50,63.92,672600,63.92
2013-08-02,64.64,65.06,64.02,64.25,849400,64.25
2013-08-01,64.43,64.99,64.16,64.46,1478200,64.46
2013-07-31,64.52,65.59,62.84,64.36,2043500,64.36
2013-07-30,61.04,61.31,60.66,60.86,1010200,60.86
2013-07-29,61.31,61.64,61.13,61.23,325400,61.23
2013-07-26,61.25,61.86,60.67,61.47,290900,61.47
2013-07-25,61.67,62.22,61.51,61.70,471600,61.70
2013-07-24,61.90,62.50,61.41,61.57,456800,61.57
2013-07-23,61.97,62.28,61.41,61.68,353500,61.68
2013-07-22,62.37,62.37,61.54,62.04,523100,62.04
2013-07-19,61.75,62.59,61.46,61.87,705500,61.87
2013-07-18,61.75,62.11,61.69,61.75,414000,61.75
2013-07-17,62.34,62.34,61.73,61.75,297900,61.75
2013-07-16,62.81,62.88,61.90,62.10,541400,62.10
2013-07-15,63.12,63.42,62.45,62.88,396400,62.88
2013-07-12,63.12,63.45,62.76,63.24,813700,63.24
2013-07-11,62.00,62.69,61.84,62.64,484700,62.64
2013-07-10,61.39,61.90,61.19,61.67,611000,61.67
2013-07-09,61.90,62.00,61.39,61.50,779200,61.50
2013-07-08,61.39,61.63,61.39,61.55,673600,61.55
2013-07-05,61.00,61.25,60.48,61.23,575500,61.23
2013-07-03,60.50,61.05,60.22,60.91,277400,60.91
2013-07-02,60.55,61.02,60.43,60.47,510900,60.47
2013-07-01,59.95,61.33,59.95,60.71,834200,60.71
2013-06-28,58.90,60.11,58.75,59.70,1214300,59.70
2013-06-27,58.36,58.85,58.31,58.65,314100,58.65
2013-06-26,58.44,58.53,57.76,58.00,409000,58.00
2013-06-25,58.50,58.74,57.39,58.10,737700,58.10
2013-06-24,57.63,58.45,57.19,58.12,600700,58.12
2013-06-21,57.72,58.37,57.69,57.78,1034100,57.78
2013-06-20,59.10,59.10,57.43,57.70,673100,57.70
2013-06-19,59.82,60.36,59.29,59.29,492100,59.29
2013-06-18,59.93,60.42,59.56,60.11,537600,60.11
2013-06-17,59.09,60.25,58.71,59.66,711100,59.66
2013-06-14,58.78,59.07,58.55,58.81,436500,58.81
2013-06-13,58.76,58.97,58.09,58.75,543100,58.75
2013-06-12,59.60,59.74,58.53,58.65,581800,58.65
2013-06-11,58.51,59.52,58.48,59.37,580300,59.37
2013-06-10,59.20,59.47,58.94,59.26,442000,59.26
2013-06-07,58.68,59.31,58.23,59.18,368100,59.18
2013-06-06,57.87,58.60,57.84,58.60,626000,58.60
2013-06-05,58.79,58.79,57.51,57.75,695400,57.75
2013-06-04,59.17,59.49,58.60,58.85,546300,58.85
2013-06-03,58.82,59.41,58.02,59.41,565400,59.41
2013-05-31,58.90,59.58,58.68,58.82,1206700,58.82
2013-05-30,59.22,59.66,59.09,59.18,1440100,59.18
2013-05-29,59.31,59.56,58.67,59.30,1371000,59.30
2013-05-28,59.00,59.63,59.00,59.50,1468800,59.50
2013-05-24,59.96,59.99,58.96,59.34,1400800,59.34
2013-05-23,59.74,60.40,59.06,59.99,1053200,59.99
2013-05-22,60.50,61.00,59.59,59.90,832400,59.90
2013-05-21,60.27,60.56,60.25,60.41,831000,60.41
2013-05-20,60.56,60.73,60.14,60.33,540700,60.33
2013-05-17,60.86,60.91,60.47,60.72,592900,60.72
2013-05-16,59.76,60.92,58.62,60.40,642600,60.40
2013-05-15,60.87,61.04,60.70,60.80,607700,60.80
2013-05-14,60.44,60.82,60.44,60.70,641100,60.70
2013-05-13,60.39,60.68,60.11,60.40,669000,60.40
2013-05-10,61.01,61.13,60.56,60.59,490500,60.59
2013-05-09,61.18,61.36,60.64,60.81,563400,60.81
2013-05-08,60.73,61.30,60.44,61.02,892900,61.02
2013-05-07,60.71,60.97,60.51,60.85,681100,60.85
2013-05-06,60.74,61.25,60.36,60.46,783400,60.46
2013-05-03,60.60,60.96,60.32,60.58,747200,60.58
2013-05-02,59.83,61.17,59.16,60.65,501900,60.65
2013-05-01,56.40,62.39,54.68,60.62,1261900,60.62
2013-04-30,60.57,61.41,60.26,61.29,1019500,61.29
2013-04-29,59.85,60.50,59.71,60.49,690400,60.49
2013-04-26,59.91,59.99,59.59,59.82,486400,59.82
2013-04-25,59.88,60.42,59.74,60.11,576000,60.11
2013-04-24,59.76,60.25,59.55,59.63,583800,59.63
2013-04-23,59.48,60.25,59.48,59.87,609100,59.87
2013-04-22,59.25,59.47,58.80,59.18,474100,59.18
2013-04-19,60.13,60.50,58.72,59.03,1086100,59.03
2013-04-18,59.67,59.88,59.09,59.14,441300,59.14
2013-04-17,59.23,59.92,59.22,59.67,744800,59.67
2013-04-16,60.32,60.67,59.47,59.75,1501700,59.75
2013-04-15,60.90,61.09,59.92,59.93,553600,59.93
2013-04-12,61.18,61.26,60.73,61.15,363100,61.15
2013-04-11,61.16,61.48,60.77,61.03,509700,61.03
2013-04-10,59.92,61.31,59.87,61.23,756700,61.23
2013-04-09,60.10,60.25,59.24,59.78,489200,59.78
2013-04-08,58.90,60.22,58.90,59.93,625900,59.93
2013-04-05,59.03,59.36,58.42,58.90,1107500,58.90
2013-04-04,60.38,60.67,59.70,59.98,560900,59.98
2013-04-03,61.22,61.37,60.16,60.47,531200,60.47
2013-04-02,61.20,61.70,60.85,61.08,545800,61.08
2013-04-01,61.10,61.88,60.61,61.14,787900,61.14
2013-03-28,61.77,61.85,60.90,61.62,1221300,61.62
2013-03-27,61.00,61.72,60.72,61.55,463800,61.55
2013-03-26,61.39,61.64,61.00,61.38,438900,61.38
2013-03-25,61.45,61.57,60.48,61.10,561800,61.10
2013-03-22,60.31,61.42,60.31,61.23,719800,61.23
2013-03-21,59.67,60.28,59.59,60.02,588600,60.02
2013-03-20,60.26,60.49,59.45,60.07,719800,60.07
2013-03-19,59.75,59.96,59.38,59.83,641900,59.83
2013-03-18,59.38,60.01,59.28,59.73,621600,59.73
2013-03-15,58.88,60.12,58.88,60.05,1564300,60.05
2013-03-14,59.13,59.57,58.92,59.56,569700,59.56
2013-03-13,59.01,59.55,58.42,59.19,925200,59.19
2013-03-12,59.85,59.95,58.66,58.70,750700,58.70
2013-03-11,59.68,59.84,59.25,59.84,492300,59.84
2013-03-08,59.62,59.80,59.15,59.71,675000,59.71
2013-03-07,59.47,59.82,59.00,59.37,737600,59.37
2013-03-06,59.69,60.01,59.28,59.34,469600,59.34
2013-03-05,59.48,59.54,58.60,59.32,828700,59.32
2013-03-04,58.95,59.39,58.81,59.37,535900,59.37
2013-03-01,58.18,59.02,57.97,59.00,956900,59.00
2013-02-28,58.30,58.81,57.15,58.47,1249600,58.47
2013-02-27,55.41,60.29,55.02,58.05,2422900,58.05
2013-02-26,54.10,54.26,53.68,53.90,711000,53.90
2013-02-25,54.67,55.06,53.65,53.70,625700,53.70
2013-02-22,53.93,54.47,53.84,54.44,469500,54.44
2013-02-21,54.25,54.32,53.50,53.73,434800,53.73
2013-02-20,54.97,55.40,54.21,54.31,648800,54.31
2013-02-19,54.87,55.02,54.58,55.00,469200,55.00
2013-02-15,54.30,55.18,54.26,54.88,363500,54.88
2013-02-14,54.47,54.55,54.26,54.27,406300,54.27
2013-02-13,54.57,54.81,54.26,54.57,343900,54.57
2013-02-12,54.52,54.60,53.70,54.23,447000,54.23
2013-02-11,55.00,55.00,53.73,54.62,548600,54.62
2013-02-08,54.65,55.13,54.28,54.90,364200,54.90
2013-02-07,54.71,54.71,53.84,54.29,850900,54.29
2013-02-06,54.94,55.18,54.42,54.50,774800,54.50
2013-02-05,54.93,55.23,54.66,55.10,437400,55.10
2013-02-04,55.43,55.73,54.64,54.81,508600,54.81
2013-02-01,55.66,56.06,55.34,55.71,594400,55.71
2013-01-31,55.09,55.50,54.57,55.16,596400,55.16
2013-01-30,55.07,55.70,55.07,55.30,739700,55.30
2013-01-29,54.63,55.36,54.50,55.31,450600,55.31
2013-01-28,54.99,55.10,54.77,54.97,481400,54.97
2013-01-25,55.09,55.27,54.77,54.99,625900,54.99
2013-01-24,54.89,55.77,54.56,55.18,677300,55.18
2013-01-23,54.68,54.75,54.37,54.52,424100,54.52
2013-01-22,54.39,54.63,53.78,54.54,755900,54.54
2013-01-18,53.62,54.65,53.57,54.58,574600,54.58
2013-01-17,53.75,54.16,53.42,53.84,896800,53.84
2013-01-16,54.81,55.11,53.82,53.89,1044300,53.89
2013-01-15,54.14,55.09,54.14,55.03,1035200,55.03
2013-01-14,54.72,55.40,53.97,54.42,958000,54.42
2013-01-11,54.06,54.06,53.36,53.90,672200,53.90
2013-01-10,54.30,54.30,53.67,53.87,1141200,53.87
2013-01-09,53.82,54.20,53.58,53.95,668700,53.95
2013-01-08,53.37,53.91,53.26,53.90,626400,53.90
2013-01-07,53.24,53.49,53.08,53.26,1077500,53.26
2013-01-04,53.43,53.98,53.25,53.50,692300,53.50
2013-01-03,52.94,53.60,52.80,53.59,1201700,53.59
2013-01-02,51.66,53.00,51.17,52.98,1305600,52.98
2012-12-31,50.15,51.09,50.01,50.97,870500,50.97
2012-12-28,49.01,50.47,49.01,50.11,763900,50.11
2012-12-27,49.98,50.27,49.24,50.11,626900,50.11
2012-12-26,50.46,50.80,49.98,50.11,424000,50.11
2012-12-24,50.76,50.79,50.25,50.70,245800,50.70
2012-12-21,50.76,51.29,50.50,50.96,5469400,50.96
2012-12-20,50.82,51.25,50.62,51.13,1060300,51.13
2012-12-19,50.49,51.37,49.90,51.11,1270100,51.11
2012-12-18,50.09,50.63,49.85,50.23,939000,50.23
2012-12-17,49.19,50.34,48.91,50.29,1432800,50.29
2012-12-14,49.25,49.40,48.80,48.84,716900,48.84
2012-12-13,49.55,49.67,49.15,49.21,708500,49.21
2012-12-12,49.60,49.96,49.19,49.78,1179200,49.78
2012-12-11,49.73,49.86,49.48,49.74,664800,49.74
2012-12-10,49.57,49.94,48.96,49.45,910500,49.45
2012-12-07,48.86,49.58,48.86,49.51,486800,49.51
2012-12-06,49.04,49.24,48.81,49.07,914100,49.07
2012-12-05,48.59,49.04,48.51,49.00,717700,49.00
2012-12-04,49.99,49.99,48.25,48.60,1498800,48.60
2012-12-03,49.79,49.97,49.09,49.67,818000,49.67
2012-11-30,49.40,49.97,49.36,49.84,1157500,49.84
2012-11-29,48.92,49.66,48.92,49.53,746100,49.53
2012-11-28,48.10,48.99,48.07,48.91,607600,48.91
2012-11-27,48.35,48.61,48.05,48.35,491200,48.35
2012-11-26,48.02,48.58,48.01,48.52,756000,48.52
2012-11-23,48.36,48.64,47.92,48.09,204900,48.09
2012-11-21,47.89,48.41,47.49,48.36,787700,48.36
2012-11-20,48.21,48.24,47.46,47.78,902800,47.78
2012-11-19,48.40,48.65,47.54,48.03,778300,48.03
2012-11-16,47.96,48.09,47.37,48.09,692800,48.09
2012-11-15,48.35,49.14,47.50,47.97,1024300,47.97
2012-11-14,49.05,49.05,48.34,48.49,561000,48.49
2012-11-13,49.05,49.41,48.91,49.04,250400,49.04
2012-11-12,49.00,49.30,48.89,49.11,334100,49.11
2012-11-09,49.31,49.73,48.96,49.07,321100,49.07
2012-11-08,49.52,49.62,49.19,49.33,495300,49.33
2012-11-07,49.41,50.02,49.31,49.54,777200,49.54
2012-11-06,49.79,50.52,49.60,50.41,919800,50.41
2012-11-05,49.63,50.00,49.26,49.78,1088500,49.78
2012-11-02,50.73,51.71,49.09,49.59,1989600,49.59
2012-11-01,51.00,51.69,50.93,51.35,1063400,51.35
2012-10-31,47.63,52.13,47.63,51.12,3441000,51.12
2012-10-26,46.49,46.77,46.18,46.67,291700,46.67
2012-10-25,45.20,46.42,45.09,46.29,619800,46.29
2012-10-24,46.67,46.81,45.92,46.50,487400,46.50
2012-10-23,45.46,46.47,45.04,46.30,516300,46.30
2012-10-22,46.36,46.58,45.67,45.95,617000,45.95
2012-10-19,46.93,47.17,46.13,46.50,525100,46.50
2012-10-18,47.51,47.58,46.86,46.96,487500,46.96
2012-10-17,47.36,47.61,47.11,47.42,850100,47.42
2012-10-16,47.29,47.38,46.96,47.38,759300,47.38
2012-10-15,47.00,47.14,46.70,46.99,726300,46.99
2012-10-12,46.89,47.20,46.87,47.03,608500,47.03
2012-10-11,47.80,47.83,46.84,46.93,435600,46.93
2012-10-10,47.71,48.10,47.12,47.34,456900,47.34
2012-10-09,48.10,48.29,47.56,47.72,1029400,47.72
2012-10-08,47.94,48.42,47.81,48.34,402000,48.34
2012-10-05,48.09,48.37,47.88,48.16,741600,48.16
2012-10-04,47.64,47.88,47.54,47.88,367000,47.88
2012-10-03,47.11,47.67,46.81,47.63,543400,47.63
2012-10-02,47.33,47.51,46.78,47.02,486700,47.02
2012-10-01,47.93,48.20,47.02,47.40,462900,47.40
2012-09-28,47.87,47.87,46.98,47.61,692700,47.61
2012-09-27,47.38,48.40,46.90,47.81,924500,47.81
2012-09-26,47.00,47.25,46.77,47.24,809900,47.24
2012-09-25,46.99,47.11,46.66,46.81,975300,46.81
2012-09-24,46.80,47.59,46.25,47.26,653900,47.26
2012-09-21,47.35,47.92,47.05,47.19,594200,47.19
2012-09-20,47.54,47.71,47.04,47.30,589200,47.30
2012-09-19,47.97,48.05,47.55,47.59,551000,47.59
2012-09-18,47.75,48.11,47.49,47.91,478100,47.91
2012-09-17,47.33,48.13,47.33,47.96,555600,47.96
2012-09-14,48.09,48.14,47.48,47.68,463200,47.68
2012-09-13,48.07,48.29,47.92,48.08,346800,48.08
2012-09-12,47.98,48.25,47.76,48.15,412300,48.15
2012-09-11,48.14,48.24,47.85,47.98,425200,47.98
2012-09-10,48.49,48.69,48.04,48.08,465200,48.08
2012-09-07,48.95,49.58,48.71,48.90,480500,48.90
2012-09-06,48.03,49.72,47.95,49.13,1215400,49.13
2012-09-05,48.10,48.14,47.47,47.64,825600,47.64
2012-09-04,48.42,48.59,47.95,48.30,545300,48.30
2012-08-31,48.35,48.69,48.20,48.52,530700,48.52
2012-08-30,48.21,48.21,47.61,48.01,323700,48.01
2012-08-29,48.19,48.29,47.77,48.24,440700,48.24
2012-08-28,48.06,48.29,47.62,47.93,472200,47.93
2012-08-27,48.51,48.71,48.25,48.29,254000,48.29
2012-08-24,48.39,48.90,48.37,48.58,349600,48.58
2012-08-23,48.12,48.63,48.12,48.35,649900,48.35
2012-08-22,48.71,48.80,48.19,48.32,509500,48.32
2012-08-21,48.66,49.09,48.40,48.69,628100,48.69
2012-08-20,49.11,49.38,48.57,48.88,590900,48.88
2012-08-17,48.87,49.32,48.58,49.12,612200,49.12
2012-08-16,48.68,48.87,48.44,48.71,801100,48.71
2012-08-15,49.00,49.26,48.70,48.83,387800,48.83
2012-08-14,48.89,49.12,48.51,49.02,522000,49.02
2012-08-13,48.53,48.82,48.41,48.73,525800,48.73
2012-08-10,48.75,48.95,48.05,48.62,723100,48.62
2012-08-09,49.05,49.05,48.46,48.74,941200,48.74
2012-08-08,46.84,49.47,46.00,48.96,1617700,48.96
2012-08-07,46.40,47.27,46.25,47.13,1414600,47.13
2012-08-06,47.36,47.77,46.17,46.39,1246800,46.39
2012-08-03,48.15,48.29,47.24,47.38,856300,47.38
2012-08-02,48.49,48.49,47.01,47.79,1598200,47.79
2012-08-01,48.33,50.00,46.50,47.88,2637400,47.88
2012-07-31,50.67,50.67,49.75,50.25,619500,50.25
2012-07-30,50.79,50.96,50.00,50.45,603400,50.45
2012-07-27,50.18,50.88,49.84,50.86,804200,50.86
2012-07-26,49.30,50.05,49.30,49.92,931400,49.92
2012-07-25,48.86,49.33,48.44,48.93,583900,48.93
2012-07-24,49.27,49.49,48.74,48.95,577600,48.95
2012-07-23,49.19,49.59,48.33,49.41,460300,49.41
2012-07-20,50.00,50.35,49.50,49.55,591800,49.55
2012-07-19,50.74,50.86,50.26,50.44,470200,50.44
2012-07-18,50.72,51.00,50.50,50.74,291500,50.74
2012-07-17,50.26,50.97,50.07,50.94,548500,50.94
2012-07-16,50.47,50.67,49.94,50.01,630400,50.01
2012-07-13,49.88,50.72,49.88,50.65,405500,50.65
2012-07-12,49.47,49.98,49.38,49.83,1001900,49.83
2012-07-11,49.86,49.96,49.31,49.78,478700,49.78
2012-07-10,49.79,50.08,49.51,49.83,722500,49.83
2012-07-09,49.64,49.86,49.16,49.76,413600,49.76
2012-07-06,49.74,49.96,49.31,49.69,699000,49.69
2012-07-05,49.98,50.66,49.80,49.88,1015800,49.88
2012-07-03,50.29,50.42,49.90,50.07,345500,50.07
2012-07-02,49.03,50.17,49.03,50.15,934200,50.15
2012-06-29,48.34,49.34,48.20,49.26,1071100,49.26
2012-06-28,48.10,48.30,47.56,47.92,785100,47.92
2012-06-27,47.46,48.58,47.46,48.37,637400,48.37
2012-06-26,47.51,47.67,47.01,47.58,741000,47.58
2012-06-25,47.61,47.97,47.26,47.40,741000,47.40
2012-06-22,48.40,48.63,48.02,48.08,2714200,48.08
2012-06-21,48.38,48.93,48.27,48.45,952700,48.45
2012-06-20,49.25,49.25,47.92,48.43,1165800,48.43
2012-06-19,49.00,49.25,48.80,49.04,1134900,49.04
2012-06-18,48.54,49.00,48.16,48.85,765500,48.85
2012-06-15,48.34,48.61,48.01,48.55,907900,48.55
2012-06-14,47.75,48.09,47.68,48.08,593100,48.08
2012-06-13,47.23,47.77,47.07,47.70,837600,47.70
2012-06-12,47.54,47.74,47.35,47.43,421200,47.43
2012-06-11,48.05,48.09,47.55,47.60,663900,47.60
2012-06-08,47.06,47.60,46.91,47.59,708900,47.59
2012-06-07,47.54,47.77,46.94,47.09,632300,47.09
2012-06-06,46.76,47.44,46.70,47.30,588000,47.30
2012-06-05,46.67,46.79,45.85,46.37,809200,46.37
2012-06-04,46.51,46.84,46.27,46.55,629600,46.55
2012-06-01,47.55,47.78,46.43,46.75,761600,46.75
2012-05-31,47.89,48.05,47.43,47.90,805500,47.90
2012-05-30,47.60,48.29,47.60,47.89,668500,47.89
2012-05-29,48.27,48.29,47.72,48.09,440100,48.09
2012-05-25,47.39,48.24,47.39,47.96,382600,47.96
2012-05-24,48.20,48.36,47.72,47.98,506200,47.98
2012-05-23,47.81,48.08,47.41,47.96,616000,47.96
2012-05-22,47.90,48.20,47.64,47.97,534000,47.97
2012-05-21,47.67,47.67,47.13,47.58,1053400,47.58
2012-05-18,47.94,48.11,47.22,47.32,695000,47.32
2012-05-17,48.90,48.90,47.71,47.94,487300,47.94
2012-05-16,49.03,49.24,48.76,48.98,463800,48.98
2012-05-15,48.83,49.09,48.58,48.89,763800,48.89
2012-05-14,48.71,48.83,48.20,48.69,505600,48.69
2012-05-11,48.37,49.02,48.34,48.94,450300,48.94
2012-05-10,48.47,48.60,48.10,48.52,473000,48.52
2012-05-09,48.73,48.88,48.10,48.19,1109400,48.19
2012-05-08,48.57,49.00,48.28,48.99,922400,48.99
2012-05-07,49.03,49.09,48.58,48.81,979700,48.81
2012-05-04,48.65,49.09,48.56,49.03,743200,49.03
2012-05-03,49.36,49.43,48.44,48.84,1424400,48.84
2012-05-02,47.60,49.38,47.40,49.18,1651300,49.18
2012-05-01,49.15,49.38,48.09,48.17,1270100,48.17
2012-04-30,49.32,49.41,48.87,48.95,679700,48.95
2012-04-27,49.47,49.66,49.20,49.43,782800,49.43
2012-04-26,48.35,49.30,48.35,49.23,902300,49.23
2012-04-25,48.28,48.60,47.98,48.47,808700,48.47
2012-04-24,48.00,48.47,47.71,47.77,726700,47.77
2012-04-23,47.72,48.19,47.52,48.14,677800,48.14
2012-04-20,47.84,48.10,47.59,47.97,853300,47.97
2012-04-19,48.00,48.19,47.35,47.62,436000,47.62
2012-04-18,47.65,48.00,47.47,48.00,463700,48.00
2012-04-17,47.47,47.99,47.17,47.69,608200,47.69
2012-04-16,47.33,47.50,46.90,47.04,496600,47.04
2012-04-13,47.55,47.57,47.11,47.23,473900,47.23
2012-04-12,47.73,47.89,47.26,47.47,725700,47.47
2012-04-11,46.71,47.96,46.48,47.91,1382900,47.91
2012-04-10,46.88,47.00,46.03,46.34,737500,46.34
2012-04-09,46.97,46.97,46.67,46.83,603000,46.83
2012-04-05,46.98,47.23,46.77,47.13,692400,47.13
2012-04-04,47.13,47.26,46.72,47.19,554700,47.19
2012-04-03,46.67,47.44,46.67,47.34,577600,47.34
2012-04-02,46.76,46.95,46.54,46.82,928800,46.82
2012-03-30,47.04,47.18,46.75,46.97,962900,46.97
2012-03-29,46.53,47.00,46.53,46.94,476900,46.94
2012-03-28,47.02,47.19,46.47,46.77,631800,46.77
2012-03-27,47.43,47.53,46.82,46.89,1731600,46.89
2012-03-26,46.28,47.36,46.25,47.33,1414100,47.33
2012-03-23,46.37,46.39,45.75,46.00,922800,46.00
2012-03-22,45.77,46.25,45.63,46.09,1021800,46.09
2012-03-21,45.52,46.29,45.36,45.80,815800,45.80
2012-03-20,45.28,45.50,44.92,45.44,879600,45.44
2012-03-19,45.58,45.72,45.02,45.22,1090500,45.22
2012-03-16,45.00,45.23,44.62,44.73,404400,44.73
2012-03-15,44.76,45.10,44.52,44.99,658200,44.99
2012-03-14,45.22,45.22,44.49,44.65,523400,44.65
2012-03-13,45.02,45.40,44.57,45.39,586100,45.39
2012-03-12,45.37,45.37,44.68,44.74,634900,44.74
2012-03-09,44.26,45.32,44.17,45.10,918200,45.10
2012-03-08,44.21,44.63,44.10,44.15,593100,44.15
2012-03-07,43.74,45.13,43.41,44.16,1788100,44.16
2012-03-06,43.09,43.81,43.01,43.80,994600,43.80
2012-03-05,43.36,43.60,42.86,43.57,879800,43.57
2012-03-02,42.99,43.65,42.38,42.65,741200,42.65
2012-03-01,43.56,43.99,43.04,43.20,886900,43.20
2012-02-29,44.38,44.58,43.18,43.50,3615900,43.50
2012-02-28,42.43,42.43,42.04,42.18,712000,42.18
2012-02-27,42.00,42.54,41.67,42.14,736100,42.14
2012-02-24,41.64,42.04,41.34,42.00,581700,42.00
2012-02-23,41.13,41.86,41.13,41.75,340200,41.75
2012-02-22,41.16,41.44,40.88,41.23,271200,41.23
2012-02-21,41.10,41.20,40.51,40.97,607900,40.97
2012-02-17,41.40,41.84,41.27,41.28,296800,41.28
2012-02-16,41.54,41.71,41.17,41.54,688300,41.54
2012-02-15,40.70,41.51,40.65,41.30,1030800,41.30
2012-02-14,40.27,40.66,39.68,40.65,416100,40.65
2012-02-13,40.54,40.96,40.37,40.47,377500,40.47
2012-02-10,40.44,40.54,39.84,40.44,363500,40.44
2012-02-09,40.85,40.99,40.55,40.68,277400,40.68
2012-02-08,40.79,41.15,40.72,40.81,385300,40.81
2012-02-07,40.98,41.08,40.79,40.92,474500,40.92
2012-02-06,39.97,41.18,39.94,41.10,978500,41.10
2012-02-03,39.87,40.63,39.64,40.61,834500,40.61
2012-02-02,40.02,40.02,39.38,39.47,680800,39.47
2012-02-01,40.31,40.56,39.80,39.92,1148000,39.92
2012-01-31,40.36,40.79,40.00,40.06,569400,40.06
2012-01-30,40.12,40.49,40.05,40.26,381700,40.26
2012-01-27,39.92,40.47,39.92,40.26,457100,40.26
2012-01-26,40.27,40.71,40.02,40.09,526300,40.09
2012-01-25,39.94,40.35,39.75,40.30,607700,40.30
2012-01-24,39.66,40.39,39.66,39.98,666000,39.98
2012-01-23,39.93,40.20,39.39,39.96,617900,39.96
2012-01-20,40.37,40.62,39.78,40.01,862200,40.01
2012-01-19,39.91,41.01,39.71,40.48,1044200,40.48
2012-01-18,39.32,39.98,39.06,39.97,509400,39.97
2012-01-17,40.16,40.17,39.27,39.29,648500,39.29
2012-01-13,39.70,40.08,39.70,40.00,291900,40.00
2012-01-12,40.34,40.39,39.65,39.80,612000,39.80
2012-01-11,39.66,40.25,39.25,40.23,598700,40.23
2012-01-10,39.49,39.80,39.46,39.77,757300,39.77
2012-01-09,39.49,39.50,38.88,39.38,461100,39.38
2012-01-06,39.04,39.49,39.02,39.37,588700,39.37
2012-01-05,38.86,39.23,38.44,39.13,635600,39.13
2012-01-04,39.20,39.31,38.58,38.98,660800,38.98
2012-01-03,40.51,40.52,39.36,39.36,1294800,39.36
2011-12-30,40.01,40.21,39.88,40.13,280800,40.13
2011-12-29,39.80,40.17,39.70,40.01,500800,40.01
2011-12-28,39.78,39.99,39.61,39.87,476900,39.87
2011-12-27,39.39,39.99,39.18,39.95,411200,39.95
2011-12-23,39.43,39.68,39.22,39.63,471700,39.63
2011-12-22,39.45,39.59,39.08,39.18,609000,39.18
2011-12-21,39.91,39.93,39.34,39.50,1022700,39.50
2011-12-20,39.07,40.00,39.00,39.83,863500,39.83
2011-12-19,39.40,39.52,39.00,39.07,980500,39.07
2011-12-16,38.58,39.84,38.48,39.40,3969000,39.40
2011-12-15,38.69,38.69,38.20,38.48,893100,38.48
2011-12-14,38.26,38.43,37.86,38.27,883500,38.27
2011-12-13,38.43,38.95,38.22,38.54,772900,38.54
2011-12-12,38.47,38.70,38.09,38.57,903900,38.57
2011-12-09,38.19,38.98,38.03,38.91,811000,38.91
2011-12-08,38.22,38.57,38.00,38.00,819100,38.00
2011-12-07,37.76,38.64,37.34,38.57,837600,38.57
2011-12-06,38.85,39.02,37.98,38.06,1001300,38.06
2011-12-05,39.63,39.75,38.49,38.74,1411900,38.74
2011-12-02,39.27,39.39,39.00,39.30,1477600,39.30
2011-12-01,39.03,39.37,38.66,38.75,774200,38.75
2011-11-30,38.05,39.32,37.93,39.28,1544100,39.28
2011-11-29,37.62,37.76,37.36,37.36,801100,37.36
2011-11-28,37.78,38.14,37.25,37.28,935400,37.28
2011-11-25,36.57,37.29,36.41,37.15,1169900,37.15
2011-11-23,36.70,37.02,36.37,36.80,681200,36.80
2011-11-22,36.47,37.02,36.37,36.89,933400,36.89
2011-11-21,35.90,36.79,35.60,36.54,951100,36.54
2011-11-18,36.59,36.83,36.19,36.19,724600,36.19
2011-11-17,36.91,37.15,36.35,36.45,604700,36.45
2011-11-16,37.41,37.90,37.04,37.06,460500,37.06
2011-11-15,37.03,37.86,36.95,37.71,819400,37.71
2011-11-14,38.23,38.23,36.94,37.24,798000,37.24
2011-11-11,37.95,38.16,37.66,37.78,577000,37.78
2011-11-10,37.80,38.25,37.42,37.72,721700,37.72
2011-11-09,36.96,37.65,36.62,37.46,645500,37.46
2011-11-08,38.00,38.00,37.57,37.80,916300,37.80
2011-11-07,37.96,38.00,37.70,37.88,1152200,37.88
2011-11-04,36.90,38.34,36.89,37.97,1973000,37.97
2011-11-03,36.00,37.70,35.84,37.42,2097600,37.42
2011-11-02,34.25,36.00,33.87,35.80,2036600,35.80
2011-11-01,35.01,35.01,33.66,33.72,1055500,33.72
2011-10-31,34.56,35.58,34.31,35.15,1335100,35.15
2011-10-28,34.70,35.03,34.47,34.96,650100,34.96
2011-10-27,34.61,35.00,34.43,34.77,547900,34.77
2011-10-26,34.29,34.51,33.72,34.14,576900,34.14
2011-10-25,34.53,34.76,33.93,33.97,456800,33.97
2011-10-24,34.61,34.90,34.48,34.77,497400,34.77
2011-10-21,34.46,34.76,34.34,34.58,471000,34.58
2011-10-20,33.97,34.48,33.68,34.43,703300,34.43
2011-10-19,33.72,34.41,33.67,34.03,753600,34.03
2011-10-18,33.97,34.09,33.64,33.90,853600,33.90
2011-10-17,34.67,34.98,33.90,33.90,542700,33.90
2011-10-14,34.99,35.08,34.65,34.90,450800,34.90
2011-10-13,35.05,35.13,34.61,34.73,603400,34.73
2011-10-12,35.16,35.21,34.80,35.08,609800,35.08
2011-10-11,34.67,35.12,34.54,35.00,666000,35.00
2011-10-10,34.85,34.98,34.35,34.95,412700,34.95
2011-10-07,34.32,35.00,34.05,34.62,852000,34.62
2011-10-06,34.18,34.51,33.92,34.31,478900,34.31
2011-10-05,34.66,34.92,34.03,34.25,806200,34.25
2011-10-04,32.66,34.69,32.66,34.64,1177200,34.64
2011-10-03,34.58,35.14,32.79,33.06,1153000,33.06
2011-09-30,34.05,34.88,33.82,34.77,960800,34.77
2011-09-29,34.59,34.59,33.60,34.49,797700,34.49
2011-09-28,34.62,34.94,34.12,34.17,692300,34.17
2011-09-27,34.78,34.86,33.92,34.49,519900,34.49
2011-09-26,33.28,33.62,32.54,33.62,756800,33.62
2011-09-23,33.66,33.95,32.87,33.13,681700,33.13
2011-09-22,34.24,34.34,33.52,33.93,655500,33.93
2011-09-21,34.90,35.16,34.70,35.00,712100,35.00
2011-09-20,34.49,35.27,34.27,34.87,771000,34.87
2011-09-19,34.25,34.58,34.06,34.36,391300,34.36
2011-09-16,34.81,35.27,34.70,34.78,648700,34.78
2011-09-15,35.08,35.08,34.62,34.79,771200,34.79
2011-09-14,33.86,35.02,33.70,34.74,845500,34.74
2011-09-13,33.34,33.71,33.15,33.66,370100,33.66
2011-09-12,33.01,33.26,32.54,33.26,477800,33.26
2011-09-09,34.04,34.09,33.22,33.44,589700,33.44
2011-09-08,34.05,34.60,33.90,34.20,381700,34.20
2011-09-07,33.75,34.34,33.54,34.33,491300,34.33
2011-09-06,33.57,33.57,32.89,33.46,531100,33.46
2011-09-02,34.25,34.49,33.79,33.92,398100,33.92
2011-09-01,34.99,35.04,34.36,34.54,555600,34.54
2011-08-31,34.80,35.10,34.64,34.84,1374400,34.84
2011-08-30,34.37,34.80,34.17,34.52,655900,34.52
2011-08-29,33.97,34.46,33.79,34.42,634400,34.42
2011-08-26,33.31,33.73,32.80,33.67,619000,33.67
2011-08-25,34.03,34.05,33.21,33.32,640100,33.32
2011-08-24,33.38,34.14,33.38,33.97,947600,33.97
2011-08-23,32.90,34.00,32.37,33.97,1382100,33.97
2011-08-22,32.03,32.97,31.86,32.83,1790300,32.83
2011-08-19,31.66,32.10,31.38,31.64,1351000,31.64
2011-08-18,31.72,31.85,31.19,31.68,1216000,31.68
2011-08-17,32.56,32.98,32.08,32.39,580900,32.39
2011-08-16,32.39,32.80,32.19,32.50,1139500,32.50
2011-08-15,32.29,32.47,31.99,32.21,465300,32.21
2011-08-12,32.19,32.41,31.71,32.22,405100,32.22
2011-08-11,31.21,32.22,30.97,31.92,814500,31.92
2011-08-10,31.42,31.57,30.95,30.98,1484900,30.98
2011-08-09,31.66,32.10,30.88,31.93,2793900,31.93
2011-08-08,32.61,32.89,31.08,31.50,2519400,31.50
2011-08-05,33.03,33.38,32.10,33.18,1875200,33.18
2011-08-04,33.20,33.21,32.60,32.99,1809600,32.99
2011-08-03,31.74,33.53,31.40,33.43,2174000,33.43
2011-08-02,32.55,32.62,31.34,31.45,972900,31.45
2011-08-01,33.55,33.55,32.59,32.80,887100,32.80
2011-07-29,33.00,33.38,32.80,33.30,726600,33.30
2011-07-28,33.30,33.35,33.00,33.23,469800,33.23
2011-07-27,33.30,33.70,33.10,33.16,1017600,33.16
2011-07-26,33.50,33.61,33.34,33.50,469500,33.50
2011-07-25,33.46,33.71,33.21,33.67,644400,33.67
2011-07-22,33.58,33.75,33.39,33.51,247100,33.51
2011-07-21,33.51,33.73,33.40,33.55,296300,33.55
2011-07-20,33.55,33.55,33.05,33.40,765200,33.40
2011-07-19,33.84,34.02,33.29,33.38,1114300,33.38
2011-07-18,33.19,33.81,33.02,33.70,743000,33.70
2011-07-15,33.63,33.66,33.10,33.31,1034400,33.31
2011-07-14,34.19,34.32,33.54,33.54,312400,33.54
2011-07-13,34.20,34.49,34.03,34.14,337000,34.14
2011-07-12,34.34,34.53,34.02,34.05,600800,34.05
2011-07-11,34.68,34.92,34.38,34.45,350400,34.45
2011-07-08,34.97,35.10,34.58,34.95,285300,34.95
2011-07-07,35.09,35.42,34.99,35.15,462600,35.15
2011-07-06,34.76,35.07,34.55,34.98,555000,34.98
2011-07-05,34.97,34.97,34.56,34.75,622700,34.75
2011-07-01,34.68,34.99,34.57,34.91,769100,34.91
2011-06-30,34.50,34.86,34.36,34.62,684700,34.62
2011-06-29,34.43,34.43,34.23,34.37,416100,34.37
2011-06-28,33.97,34.93,33.90,34.27,441600,34.27
2011-06-27,33.99,34.09,33.86,33.97,484800,33.97
2011-06-24,34.37,34.39,33.91,33.99,2212900,33.99
2011-06-23,33.90,34.35,33.77,34.33,1116700,34.33
2011-06-22,33.77,34.36,33.77,34.20,795500,34.20
2011-06-21,34.00,34.25,33.69,34.00,759900,34.00
2011-06-20,33.72,34.05,33.64,33.94,607400,33.94
2011-06-17,34.10,34.19,33.77,33.87,818500,33.87
2011-06-16,33.88,34.07,33.70,34.05,1049600,34.05
2011-06-15,33.57,33.85,33.40,33.82,1228500,33.82
2011-06-14,33.79,33.88,33.49,33.83,1274500,33.83
2011-06-13,33.69,33.80,33.52,33.56,683000,33.56
2011-06-10,33.74,33.90,33.53,33.70,822500,33.70
2011-06-09,33.67,33.90,33.35,33.89,946800,33.89
2011-06-08,33.56,33.68,33.46,33.57,794600,33.57
2011-06-07,34.03,34.03,33.50,33.59,764300,33.59
2011-06-06,33.97,34.09,33.78,34.06,929700,34.06
2011-06-03,33.89,34.19,33.70,34.12,886200,34.12
2011-06-02,33.86,34.40,33.71,34.10,754000,34.10
2011-06-01,34.07,34.11,33.79,33.93,2948000,33.93
2011-05-31,33.94,34.13,33.50,34.05,1351800,34.05
2011-05-27,33.79,34.01,33.73,33.92,871600,33.92
2011-05-26,33.73,33.90,33.62,33.79,1031300,33.79
2011-05-25,33.58,34.02,33.58,33.84,513000,33.84
2011-05-24,33.87,33.97,33.60,33.73,420800,33.73
2011-05-23,33.69,33.98,33.48,33.95,585900,33.95
2011-05-20,34.53,34.53,33.98,34.02,1072800,34.02
2011-05-19,34.74,35.00,34.52,34.72,730500,34.72
2011-05-18,34.22,34.64,33.95,34.62,592400,34.62
2011-05-17,34.03,34.14,33.98,34.07,430500,34.07
2011-05-16,34.37,34.57,34.00,34.16,455500,34.16
2011-05-13,34.51,34.72,34.31,34.50,411100,34.50
2011-05-12,34.39,34.80,34.37,34.70,739000,34.70
2011-05-11,34.24,34.49,34.11,34.37,550500,34.37
2011-05-10,34.00,34.42,33.93,34.41,480700,34.41
2011-05-09,34.00,34.14,33.86,34.01,417300,34.01
2011-05-06,34.29,34.49,33.86,33.97,616300,33.97
2011-05-05,33.54,34.17,33.25,34.16,1245300,34.16
2011-05-04,33.20,33.74,32.87,33.60,1394100,33.60
2011-05-03,32.86,33.55,32.86,33.39,1434400,33.39
2011-05-02,32.91,33.12,32.66,32.85,1213600,32.85
2011-04-29,32.97,33.18,32.81,32.90,850000,32.90
2011-04-28,32.93,33.16,32.86,33.00,1000000,33.00
2011-04-27,33.64,33.64,33.00,33.09,1043600,33.09
2011-04-26,33.41,33.51,33.23,33.45,934400,33.45
2011-04-25,33.11,33.22,32.98,33.16,496800,33.16
2011-04-21,33.02,33.09,32.80,33.02,719600,33.02
2011-04-20,33.14,33.19,32.89,32.97,526800,32.97
2011-04-19,33.22,33.51,32.85,32.98,842800,32.98
2011-04-18,32.90,33.12,32.53,33.00,452800,33.00
2011-04-15,33.50,33.54,32.97,33.08,361100,33.08
2011-04-14,32.90,33.42,32.62,33.34,437000,33.34
2011-04-13,32.90,33.39,32.65,33.14,958900,33.14
2011-04-12,32.46,32.62,32.36,32.62,435000,32.62
2011-04-11,32.54,32.60,32.24,32.54,673000,32.54
2011-04-08,33.02,33.11,32.42,32.61,307700,32.61
2011-04-07,33.35,33.44,32.88,33.00,421200,33.00
2011-04-06,33.61,33.70,33.43,33.45,450500,33.45
2011-04-05,33.15,33.51,33.10,33.46,345200,33.46
2011-04-04,33.22,33.35,33.00,33.13,420900,33.13
2011-04-01,32.62,33.30,32.56,33.30,877400,33.30
2011-03-31,32.69,32.77,32.47,32.76,649400,32.76
2011-03-30,32.75,32.86,32.61,32.77,428900,32.77
2011-03-29,32.28,32.71,32.03,32.71,543000,32.71
2011-03-28,32.40,32.42,32.17,32.22,347500,32.22
2011-03-25,32.39,32.71,32.28,32.40,620200,32.40
2011-03-24,31.95,32.86,31.91,32.49,1027700,32.49
2011-03-23,31.61,31.96,31.40,31.95,704800,31.95
2011-03-22,31.81,31.87,31.59,31.71,632000,31.71
2011-03-21,31.77,32.15,31.60,31.91,431700,31.91
2011-03-18,31.36,31.74,31.18,31.62,795100,31.62
2011-03-17,31.69,31.76,30.96,30.97,861500,30.97
2011-03-16,31.61,31.85,31.20,31.23,714500,31.23
2011-03-15,31.13,31.79,31.12,31.73,761000,31.73
2011-03-14,31.94,32.01,31.50,31.76,399000,31.76
2011-03-11,31.92,32.28,31.66,32.20,490500,32.20
2011-03-10,32.17,32.40,31.94,32.01,879300,32.01
2011-03-09,32.17,32.69,32.10,32.41,719700,32.41
2011-03-08,31.93,32.41,31.72,32.30,830300,32.30
2011-03-07,31.11,32.00,31.11,31.95,1710800,31.95
2011-03-04,31.29,31.60,31.04,31.17,954200,31.17
2011-03-03,31.56,31.79,31.11,31.30,1253300,31.30
2011-03-02,30.89,31.43,30.76,31.31,2371000,31.31
2011-03-01,32.11,32.68,30.89,31.02,6824300,31.02
2011-02-28,32.63,32.66,32.21,32.35,2232300,32.35
2011-02-25,32.55,32.75,32.36,32.49,1195800,32.49
2011-02-24,32.48,32.64,32.30,32.44,711100,32.44
2011-02-23,33.16,33.22,32.45,32.57,474500,32.57
2011-02-22,33.46,33.74,33.17,33.19,679700,33.19
2011-02-18,33.29,33.85,33.29,33.78,406100,33.78
2011-02-17,33.72,33.82,33.31,33.43,1374000,33.43
2011-02-16,33.80,33.90,33.67,33.75,470200,33.75
2011-02-15,33.75,33.95,33.72,33.73,298100,33.73
2011-02-14,33.80,33.90,33.58,33.85,361200,33.85
2011-02-11,33.91,34.04,33.56,33.86,756500,33.86
2011-02-10,33.87,33.94,33.70,33.76,635300,33.76
2011-02-09,33.70,33.99,33.69,33.90,295200,33.90
2011-02-08,33.85,34.00,33.74,33.77,299100,33.77
2011-02-07,33.89,34.05,33.69,33.90,657000,33.90
2011-02-04,33.80,34.01,33.74,33.76,274400,33.76
2011-02-03,33.88,34.01,33.80,33.85,411200,33.85
2011-02-02,34.07,34.28,33.85,33.88,279000,33.88
2011-02-01,34.05,34.42,33.90,34.18,899300,34.18
2011-01-31,33.70,34.07,33.52,33.83,329300,33.83
2011-01-28,34.18,34.24,33.64,33.75,495200,33.75
2011-01-27,33.99,34.30,33.89,34.22,586600,34.22
2011-01-26,34.23,34.31,33.99,34.06,570800,34.06
2011-01-25,33.70,34.16,33.65,34.13,739800,34.13
2011-01-24,33.31,33.98,33.31,33.84,450100,33.84
2011-01-21,33.50,33.65,33.11,33.36,434700,33.36
2011-01-20,33.41,33.54,33.23,33.41,483200,33.41
2011-01-19,33.63,33.80,33.37,33.58,759000,33.58
2011-01-18,33.63,33.94,33.48,33.59,512100,33.59
2011-01-14,33.91,34.15,33.68,33.73,819000,33.73
2011-01-13,34.04,34.04,33.80,34.00,326400,34.00
2011-01-12,34.00,34.20,33.81,34.10,816900,34.10
2011-01-11,34.32,34.37,33.81,33.94,479200,33.94
2011-01-10,34.20,34.39,34.04,34.29,349200,34.29
2011-01-07,34.42,34.48,34.20,34.24,275500,34.24
2011-01-06,34.50,34.50,34.24,34.34,436000,34.34
2011-01-05,34.02,34.42,34.00,34.32,469200,34.32
2011-01-04,34.44,34.75,34.05,34.27,509100,34.27
2011-01-03,34.13,35.36,34.13,34.47,926000,34.47
2010-12-31,34.25,34.44,34.00,34.08,395600,34.08
2010-12-30,34.38,34.86,34.24,34.39,333200,34.39
2010-12-29,34.23,34.46,34.14,34.36,253500,34.36
2010-12-28,34.49,34.58,34.22,34.31,204900,34.31
2010-12-27,34.12,34.64,33.93,34.60,224800,34.60
2010-12-23,34.34,34.50,34.05,34.20,499300,34.20
2010-12-22,34.30,34.50,34.28,34.45,304100,34.45
2010-12-21,34.40,34.66,34.29,34.44,747100,34.44
2010-12-20,33.93,34.58,33.73,34.41,464200,34.41
2010-12-17,33.36,34.21,33.32,33.93,864100,33.93
2010-12-16,32.15,33.53,32.15,33.51,871200,33.51
2010-12-15,33.24,33.33,33.13,33.19,758500,33.19
2010-12-14,32.87,33.28,32.84,33.19,707500,33.19
2010-12-13,33.19,33.25,32.86,32.97,308800,32.97
2010-12-10,33.42,33.42,32.27,33.00,748600,33.00
2010-12-09,33.50,33.50,33.32,33.41,867500,33.41
2010-12-08,32.69,33.56,32.48,33.30,942600,33.30
2010-12-07,32.20,32.90,31.21,32.51,689400,32.51
2010-12-06,31.51,32.02,31.08,31.92,648000,31.92
2010-12-03,31.04,31.96,30.95,31.57,1048300,31.57
2010-12-02,30.83,31.10,30.83,30.97,424200,30.97
2010-12-01,30.45,31.04,30.31,30.89,596600,30.89
2010-11-30,29.80,30.38,29.80,30.27,1028600,30.27
2010-11-29,30.30,30.30,29.97,30.08,1118200,30.08
2010-11-26,30.40,30.56,29.90,30.46,158200,30.46
2010-11-24,30.60,30.74,30.48,30.59,416900,30.59
2010-11-23,30.70,30.80,30.45,30.45,320100,30.45
2010-11-22,30.64,30.95,30.42,30.89,1020100,30.89
2010-11-19,31.00,31.10,30.57,30.73,1999200,30.73
2010-11-18,30.68,31.04,30.65,31.00,528100,31.00
2010-11-17,30.36,30.60,30.29,30.55,438700,30.55
2010-11-16,30.15,30.41,30.01,30.40,582600,30.40
2010-11-15,29.94,30.55,29.85,30.11,242000,30.11
2010-11-12,30.13,30.34,29.97,29.98,271400,29.98
2010-11-11,30.29,30.40,29.98,30.09,322300,30.09
2010-11-10,29.92,30.53,29.92,30.53,734200,30.53
2010-11-09,30.22,30.36,29.94,29.99,786000,29.99
2010-11-08,30.16,30.48,30.07,30.10,1408100,30.10
2010-11-05,30.63,30.80,30.20,30.27,852200,30.27
2010-11-04,29.87,30.68,29.77,30.51,2804500,30.51
2010-11-03,29.21,29.52,29.14,29.39,465100,29.39
2010-11-02,29.67,29.67,29.28,29.34,604300,29.34
2010-11-01,29.80,29.80,29.31,29.70,607900,29.70
2010-10-29,29.46,29.89,28.82,29.81,568000,29.81
2010-10-28,29.90,29.92,29.43,29.59,457600,29.59
2010-10-27,29.87,30.00,29.68,29.89,672700,29.89
2010-10-26,29.96,30.00,29.81,30.00,531500,30.00
2010-10-25,29.93,29.97,29.65,29.77,360300,29.77
2010-10-22,29.24,29.88,28.98,29.81,447300,29.81
2010-10-21,29.68,29.78,28.97,29.32,1037000,29.32
2010-10-20,29.50,29.73,29.50,29.67,567500,29.67
2010-10-19,29.30,29.74,28.70,29.49,1110100,29.49
2010-10-18,29.00,29.58,28.95,29.53,676100,29.53
2010-10-15,28.67,28.98,28.42,28.88,551000,28.88
2010-10-14,28.26,28.67,28.11,28.62,1269900,28.62
2010-10-13,28.74,28.75,28.26,28.40,824600,28.40
2010-10-12,28.56,28.69,28.11,28.63,785500,28.63
2010-10-11,27.92,28.25,27.77,28.20,439000,28.20
2010-10-08,27.73,28.05,27.51,28.00,518900,28.00
2010-10-07,27.99,27.99,27.58,27.64,422700,27.64
2010-10-06,27.67,28.01,27.54,27.92,359400,27.92
2010-10-05,28.04,28.25,27.60,27.70,1961400,27.70
2010-10-04,28.30,28.42,27.99,28.08,947300,28.08
2010-10-01,27.74,28.74,27.13,28.32,1222000,28.32
2010-09-30,27.84,28.18,27.63,28.01,1256500,28.01
2010-09-29,27.25,27.93,27.23,27.87,1551000,27.87
2010-09-28,27.56,27.69,27.04,27.25,9182900,27.25
2010-09-27,28.00,28.45,27.45,27.54,817200,27.54
2010-09-24,28.43,28.75,27.98,28.39,798400,28.39
2010-09-23,27.94,28.45,27.51,28.31,492600,28.31
2010-09-22,28.05,28.60,28.00,28.47,244000,28.47
2010-09-21,28.10,28.11,27.95,28.01,190500,28.01
2010-09-20,28.00,28.25,27.98,28.19,254800,28.19
2010-09-17,28.43,28.43,27.87,28.00,747900,28.00
2010-09-16,28.31,28.31,27.80,27.84,518700,27.84
2010-09-15,27.69,28.75,27.40,28.42,708600,28.42
2010-09-14,27.86,28.11,27.76,27.83,229400,27.83
2010-09-13,27.80,28.19,27.73,28.00,326300,28.00
2010-09-10,27.70,28.43,27.66,27.85,324500,27.85
2010-09-09,27.68,27.99,27.68,27.80,306900,27.80
2010-09-08,27.84,28.02,27.53,27.56,249300,27.56
2010-09-07,28.05,28.38,27.81,27.86,320800,27.86
2010-09-03,28.43,28.43,28.13,28.15,318900,28.15
2010-09-02,28.04,28.49,28.00,28.37,400800,28.37
2010-09-01,27.83,28.25,27.82,28.14,738300,28.14
2010-08-31,27.70,28.07,27.42,27.82,579200,27.82
2010-08-30,27.67,28.22,27.67,27.75,227700,27.75
2010-08-27,27.60,28.29,27.42,27.92,329200,27.92
2010-08-26,27.70,27.92,27.40,27.60,251700,27.60
2010-08-25,27.87,28.22,27.70,27.77,365000,27.77
2010-08-24,28.00,28.33,28.00,28.00,230100,28.00
2010-08-23,28.46,28.50,27.81,27.96,204200,27.96
2010-08-20,28.18,28.50,28.07,28.47,296600,28.47
2010-08-19,28.18,28.40,27.97,28.32,290500,28.32
2010-08-18,28.27,28.48,28.00,28.19,276500,28.19
2010-08-17,28.25,28.50,28.00,28.40,312200,28.40
2010-08-16,28.14,28.66,28.00,28.20,517800,28.20
2010-08-13,28.17,28.37,28.16,28.31,265600,28.31
2010-08-12,28.02,28.99,28.00,28.34,375100,28.34
2010-08-11,28.10,30.30,28.02,28.37,675100,28.37
2010-08-10,28.22,28.54,28.03,28.42,320700,28.42
2010-08-09,28.50,28.68,28.42,28.47,331500,28.47
2010-08-06,28.39,29.00,27.80,28.50,1452300,28.50
2010-08-05,28.75,28.96,27.80,28.60,829900,28.60
2010-08-04,28.85,29.53,28.85,29.43,126200,29.43
2010-08-03,29.41,29.58,28.76,28.82,291200,28.82
2010-08-02,30.01,30.07,29.27,29.39,374000,29.39
2010-07-30,28.93,29.83,28.75,29.69,277800,29.69
2010-07-29,29.20,29.60,28.94,29.14,150100,29.14
2010-07-28,29.42,29.68,28.99,29.12,270300,29.12
2010-07-27,30.00,30.09,29.50,29.60,187700,29.60
2010-07-26,29.50,30.15,29.13,29.98,325700,29.98
2010-07-23,28.88,29.60,28.86,29.45,359400,29.45
2010-07-22,28.67,28.88,28.63,28.79,170900,28.79
2010-07-21,28.85,29.27,28.41,28.53,749400,28.53
2010-07-20,28.52,28.86,28.42,28.80,396300,28.80
2010-07-19,28.80,29.05,28.64,28.75,402400,28.75
2010-07-16,28.90,29.25,28.75,28.85,483600,28.85
2010-07-15,29.23,29.46,28.94,29.00,427700,29.00
2010-07-14,29.25,29.38,28.97,29.31,500900,29.31
2010-07-13,29.41,29.41,28.81,29.21,860900,29.21
2010-07-12,29.22,29.80,29.15,29.19,358900,29.19
2010-07-09,29.36,29.78,29.11,29.37,335200,29.37
2010-07-08,29.58,29.70,29.40,29.41,393900,29.41
2010-07-07,30.05,30.05,29.35,29.58,344400,29.58
2010-07-06,30.35,30.35,29.76,30.05,471900,30.05
2010-07-02,30.46,30.72,29.93,30.13,386100,30.13
2010-07-01,29.95,30.34,29.60,30.20,664000,30.20
2010-06-30,29.59,30.52,29.50,29.90,503400,29.90
2010-06-29,30.40,30.76,29.64,29.70,295400,29.70
2010-06-28,30.81,31.11,30.56,30.82,634400,30.82
2010-06-25,30.11,30.93,30.11,30.93,1496400,30.93
2010-06-24,30.32,30.48,30.10,30.12,211500,30.12
2010-06-23,30.50,30.57,30.01,30.37,468900,30.37
2010-06-22,30.14,30.78,30.14,30.66,797600,30.66
2010-06-21,30.50,30.60,29.89,29.97,223700,29.97
2010-06-18,30.40,30.50,30.20,30.40,332800,30.40
2010-06-17,30.41,30.60,30.19,30.35,279900,30.35
2010-06-16,30.34,30.47,30.12,30.22,390900,30.22
2010-06-15,30.50,30.66,29.66,30.53,688400,30.53
2010-06-14,29.65,30.52,29.56,30.40,424700,30.40
2010-06-11,29.20,29.61,29.20,29.55,234800,29.55
2010-06-10,29.21,29.54,28.82,29.47,640900,29.47
2010-06-09,29.81,29.99,28.85,28.95,791200,28.95
2010-06-08,29.49,29.73,29.32,29.58,935700,29.58
2010-06-07,30.07,30.58,29.56,29.58,692100,29.58
2010-06-04,30.28,30.50,29.91,30.02,896100,30.02
2010-06-03,30.10,30.80,30.05,30.71,667300,30.71
2010-06-02,29.57,30.26,29.25,30.26,757500,30.26
2010-06-01,30.33,30.48,29.61,29.70,673000,29.70
2010-05-28,29.58,30.40,29.58,30.25,515900,30.25
2010-05-27,29.45,29.93,29.32,29.76,736200,29.76
2010-05-26,30.05,30.21,29.01,29.25,4949700,29.25
2010-05-25,28.62,29.73,28.42,29.73,1114400,29.73
2010-05-24,28.81,29.73,28.81,29.23,964300,29.23
2010-05-21,28.88,29.26,28.46,29.01,1018600,29.01
2010-05-20,29.47,30.28,28.97,29.24,572200,29.24
2010-05-19,30.04,30.49,29.60,29.99,735000,29.99
2010-05-18,30.80,31.15,30.11,30.30,1480700,30.30
2010-05-17,30.78,31.75,30.53,30.75,1406200,30.75
2010-05-14,30.18,30.94,30.10,30.83,1102700,30.83
2010-05-13,29.66,31.48,29.55,30.30,1505400,30.30
2010-05-12,28.85,30.32,28.32,29.92,2098900,29.92
2010-05-11,27.67,28.51,27.56,28.46,584200,28.46
2010-05-10,28.48,28.49,27.65,27.83,889100,27.83
2010-05-07,27.78,28.23,27.46,27.72,1907800,27.72
2010-05-06,28.20,28.45,27.78,27.99,604500,27.99
2010-05-05,28.08,28.56,28.00,28.30,423100,28.30
2010-05-04,28.02,28.46,27.94,28.35,471600,28.35
2010-05-03,27.90,28.24,27.79,28.15,530400,28.15
2010-04-30,27.92,28.73,27.92,28.02,269600,28.02
2010-04-29,27.86,28.07,27.69,28.03,532000,28.03
2010-04-28,28.33,28.33,27.75,27.80,518600,27.80
2010-04-27,28.53,28.60,28.29,28.51,221200,28.51
2010-04-26,28.21,28.64,28.21,28.56,344800,28.56
2010-04-23,28.08,28.39,28.06,28.31,211700,28.31
2010-04-22,28.01,28.36,28.00,28.20,225800,28.20
2010-04-21,28.36,28.60,28.00,28.16,406100,28.16
2010-04-20,28.33,28.73,28.19,28.29,177100,28.29
2010-04-19,28.02,28.49,27.90,28.24,295500,28.24
2010-04-16,28.06,28.20,28.00,28.02,356700,28.02
2010-04-15,28.39,28.52,28.13,28.19,438900,28.19
2010-04-14,28.02,28.64,28.02,28.56,1019800,28.56
2010-04-13,28.00,28.34,27.99,28.07,938700,28.07
2010-04-12,27.88,28.29,27.77,28.04,181300,28.04
2010-04-09,27.81,28.09,27.64,27.98,411400,27.98
2010-04-08,27.66,27.93,27.52,27.65,318300,27.65
2010-04-07,28.02,28.18,27.52,27.81,548500,27.81
2010-04-06,27.72,28.19,27.59,28.16,543700,28.16
2010-04-05,27.68,28.06,27.53,27.89,406400,27.89
2010-04-01,28.25,28.42,27.87,27.99,537000,27.99
2010-03-31,27.93,28.36,27.93,28.20,480200,28.20
2010-03-30,28.11,28.22,27.84,27.91,732900,27.91
2010-03-29,28.06,28.23,27.75,28.00,317000,28.00
2010-03-26,28.02,28.13,27.97,28.07,314300,28.07
2010-03-25,28.07,28.44,27.92,28.00,230300,28.00
2010-03-24,28.00,28.26,27.82,28.02,628600,28.02
2010-03-23,28.05,28.42,27.81,28.00,341500,28.00
2010-03-22,28.22,28.77,28.14,28.20,253800,28.20
2010-03-19,28.29,28.53,27.78,28.29,462000,28.29
2010-03-18,28.01,28.50,28.00,28.37,232800,28.37
2010-03-17,28.15,28.15,28.00,28.01,415200,28.01
2010-03-16,28.06,28.15,27.98,28.05,623800,28.05
2010-03-15,28.07,28.19,27.89,28.10,463300,28.10
2010-03-12,28.43,28.71,28.00,28.20,537800,28.20
2010-03-11,28.59,28.60,28.00,28.19,479100,28.19
2010-03-10,28.35,28.79,28.35,28.53,413000,28.53
2010-03-09,28.77,28.92,27.97,28.45,706800,28.45
2010-03-08,27.24,29.35,27.17,29.03,680100,29.03
2010-03-05,27.27,27.58,27.26,27.38,716400,27.38
2010-03-04,27.57,27.94,27.05,27.24,294700,27.24
2010-03-03,27.94,28.13,27.37,27.63,663200,27.63
2010-03-02,28.40,28.65,27.79,28.02,468000,28.02
2010-03-01,28.46,28.74,28.22,28.40,321800,28.40
2010-02-26,28.08,28.30,27.96,28.30,632800,28.30
2010-02-25,27.83,28.06,27.83,27.98,328900,27.98
2010-02-24,27.99,28.00,27.88,27.96,263000,27.96
2010-02-23,28.42,28.42,27.82,28.01,390400,28.01
2010-02-22,28.00,28.42,27.89,28.24,290500,28.24
2010-02-19,27.83,28.23,27.83,28.01,152500,28.01
2010-02-18,27.77,28.10,27.66,28.00,613800,28.00
2010-02-17,28.07,28.30,27.85,27.94,456100,27.94
2010-02-16,28.10,28.41,27.95,28.25,213500,28.25
2010-02-12,27.71,28.39,27.53,28.31,875600,28.31
2010-02-11,27.70,28.18,27.70,28.02,346900,28.02
2010-02-10,27.96,28.09,27.51,27.84,496600,27.84
2010-02-09,27.58,28.10,27.58,27.84,1451000,27.84
2010-02-08,27.73,27.91,27.38,27.63,632500,27.63
2010-02-05,27.75,27.82,26.65,27.70,645500,27.70
2010-02-04,27.93,27.94,27.71,27.75,617700,27.75
2010-02-03,27.96,28.13,27.90,27.99,309300,27.99
2010-02-02,28.39,28.59,27.90,27.96,536200,27.96
2010-02-01,28.21,28.46,28.20,28.41,400800,28.41
2010-01-29,28.83,28.90,28.00,28.12,389800,28.12
2010-01-28,28.75,29.03,28.57,28.77,495200,28.77
2010-01-27,28.23,29.24,28.01,28.90,475200,28.90
2010-01-26,27.83,28.75,27.83,28.35,302600,28.35
2010-01-25,27.98,28.24,27.91,27.95,256500,27.95
2010-01-22,28.20,28.37,27.93,28.01,595600,28.01
2010-01-21,27.99,28.40,27.91,28.04,681800,28.04
2010-01-20,27.81,28.10,27.69,27.99,957600,27.99
2010-01-19,28.84,28.84,27.81,27.95,1531700,27.95
2010-01-15,29.77,29.92,28.66,28.95,766000,28.95
2010-01-14,30.09,30.10,29.89,29.91,301100,29.91
2010-01-13,30.10,30.29,30.10,30.15,394400,30.15
2010-01-12,29.99,30.38,29.84,30.16,742000,30.16
2010-01-11,30.03,30.11,29.75,29.93,676500,29.93
2010-01-08,30.21,30.27,29.98,30.00,253200,30.00
2010-01-07,30.36,30.68,29.80,30.39,426600,30.39
2010-01-06,30.00,30.87,30.00,30.44,848900,30.44
2010-01-05,29.85,30.07,29.49,30.05,430000,30.05
2010-01-04,30.41,30.50,29.67,29.85,390000,29.85
2009-12-31,30.86,31.00,30.21,30.28,154600,30.28
2009-12-30,30.91,31.00,30.45,31.00,175200,31.00
2009-12-29,30.92,31.14,30.70,31.00,283400,31.00
2009-12-28,30.89,31.12,30.62,30.96,250100,30.96
2009-12-24,30.79,31.18,30.68,30.80,170800,30.80
2009-12-23,30.68,30.94,30.21,30.68,845700,30.68
2009-12-22,30.34,30.85,30.10,30.58,420900,30.58
2009-12-21,30.78,30.78,29.89,30.50,885900,30.50
2009-12-18,30.38,31.00,29.73,30.56,8298500,30.56
2009-12-17,30.25,30.64,30.00,30.40,929200,30.40
2009-12-16,29.27,30.97,29.15,30.39,1572400,30.39
2009-12-15,28.93,29.47,28.77,29.30,891900,29.30
2009-12-14,28.56,29.04,28.56,28.99,502300,28.99
2009-12-11,28.02,28.81,28.00,28.66,590700,28.66
2009-12-10,28.57,28.70,28.13,28.40,435200,28.40
2009-12-09,28.33,28.70,28.18,28.65,449600,28.65
2009-12-08,28.41,28.92,27.90,28.61,398200,28.61
2009-12-07,28.20,28.98,27.94,28.74,361500,28.74
2009-12-04,27.85,28.44,27.85,28.43,535500,28.43
2009-12-03,27.81,27.94,27.50,27.72,491800,27.72
2009-12-02,27.76,27.81,27.35,27.51,820900,27.51
2009-12-01,26.91,28.05,26.91,27.78,617200,27.78
2009-11-30,27.34,27.40,26.73,26.91,888700,26.91
2009-11-27,26.96,27.18,26.66,26.99,264600,26.99
2009-11-25,27.72,27.81,27.17,27.30,892800,27.30
2009-11-24,28.18,28.18,27.65,27.78,685400,27.78
2009-11-23,28.68,28.68,27.67,28.40,447600,28.40
2009-11-20,28.50,28.64,28.42,28.55,875700,28.55
2009-11-19,28.81,28.89,27.94,28.54,1223600,28.54
2009-11-18,28.39,29.00,28.16,28.50,730900,28.50
2009-11-17,28.55,28.96,27.40,27.85,2496000,27.85
2009-11-16,28.75,29.01,28.25,28.85,1424300,28.85
2009-11-13,28.78,29.08,28.51,28.90,414900,28.90
2009-11-12,28.78,30.00,28.43,28.90,1211600,28.90
2009-11-11,27.93,29.12,27.63,28.98,1174600,28.98
2009-11-10,27.25,28.26,27.25,27.67,287300,27.67
2009-11-09,27.25,27.69,27.05,27.58,615600,27.58
2009-11-06,27.15,27.34,26.95,27.10,310800,27.10
2009-11-05,27.02,27.60,26.97,27.30,470400,27.30
2009-11-04,27.33,27.48,26.95,26.96,461200,26.96
2009-11-03,27.43,27.49,26.85,27.36,696500,27.36
2009-11-02,27.38,27.65,26.60,27.37,978000,27.37
2009-10-30,28.00,28.07,27.30,27.43,819600,27.43
2009-10-29,27.88,28.00,27.75,27.89,563500,27.89
2009-10-28,28.21,28.55,27.56,27.69,1153500,27.69
2009-10-27,28.54,29.25,27.93,28.56,1578700,28.56
2009-10-26,27.83,28.60,27.76,28.45,834400,28.45
2009-10-23,28.00,28.39,27.51,28.37,2385700,28.37
2009-10-22,27.76,28.48,27.32,27.89,1172500,27.89
2009-10-21,28.00,28.35,27.86,28.00,1079000,28.00
2009-10-20,27.50,28.10,27.35,28.06,3387000,28.06
2009-10-19,28.52,28.89,27.50,27.50,1892100,27.50
2009-10-16,28.45,28.60,27.55,28.57,3974100,28.57
2009-10-15,28.28,28.80,27.75,28.31,3181300,28.31
2009-10-14,27.25,28.24,27.00,27.99,3222400,27.99
2009-10-13,26.67,27.26,26.54,27.19,3296000,27.19
2009-10-12,27.29,27.90,26.10,26.25,7177000,26.25
2009-10-09,26.83,27.49,26.38,26.40,3361300,26.40
2009-10-08,27.33,27.44,26.50,26.60,6906700,26.60
2009-10-07,27.00,28.97,26.41,27.22,63739500,27.22
