(lp0
I6
aI13
aI24
aI32
aI48
aI61
aI68
aI76
aI86
aI97
aI106
aI128
aI134
aI155
aI166
aI177
aI186
aI198
aI208
aI217
aI226
aI234
aI261
aI275
aI284
aI291
aI313
aI320
aI327
aI345
aI355
aI365
aI375
aI381
aI405
aI425
aI432
aI440
aI450
aI457
aI467
aI475
aI488
aI498
aI508
aI515
aI530
aI549
aI557
aI570
aI588
aI614
aI623
aI632
aI642
aI655
aI666
aI674
aI682
aI697
aI706
aI713
aI721
aI730
aI748
aI758
aI766
aI774
aI785
aI794
aI801
aI812
aI821
aI831
aI842
aI851
aI860
aI866
aI876
aI882
aI900
aI910
aI923
aI935
aI945
aI951
aI960
aI966
aI978
aI984
aI992
aI1005
aI1018
aI1032
aI1039
aI1051
aI1071
aI1078
aI1087
aI1096
aI1105
aI1113
aI1121
aI1130
aI1140
aI1145
aI1158
aI1167
aI1176
aI1188
aI1196
aI1212
aI1219
aI1235
aI1253
aI1260
aI1268
aI1281
aI1294
aI1302
aI1316
aI1324
aI1332
aI1340
aI1349
aI1358
aI1365
aI1377
aI1387
aI1396
aI1403
aI1415
aI1420
aI1428
aI1438
aI1445
aI1466
aI1476
aI1486
a.