(lp0
I215
aI363
aI376
aI459
aI510
aI599
aI615
aI622
aI630
aI685
aI724
aI777
aI784
aI792
aI807
aI816
aI828
aI839
aI851
aI863
aI877
aI899
aI907
aI968
aI988
aI997
aI1007
aI1020
aI1027
aI1036
aI1044
aI1051
aI1059
aI1067
aI1078
aI1084
aI1103
aI1113
aI1129
aI1136
aI1143
aI1151
aI1158
aI1168
aI1181
aI1187
aI1199
aI1207
aI1217
aI1234
aI1248
aI1255
aI1263
aI1271
aI1280
aI1289
aI1300
aI1306
aI1321
aI1331
aI1340
aI1349
aI1358
aI1365
aI1390
aI1398
aI1410
aI1418
aI1429
aI1438
aI1465
aI1482
aI1490
a.