(lp0
I10
aI28
aI36
aI46
aI61
aI79
aI90
aI97
aI136
aI152
aI164
aI169
aI180
aI200
aI212
aI227
aI242
aI252
aI259
aI272
aI282
aI295
aI309
aI322
aI332
aI344
aI352
aI376
aI386
aI405
aI414
aI422
aI431
aI437
aI446
aI457
aI470
aI488
aI497
aI505
aI519
aI527
aI536
aI549
aI555
aI566
aI577
aI584
aI591
aI604
aI612
aI623
aI633
aI642
aI650
aI658
aI665
aI683
aI689
aI699
aI708
aI717
aI722
aI730
aI739
aI749
aI759
aI776
aI782
aI791
aI800
aI811
aI828
aI834
aI842
aI851
aI858
aI879
aI885
aI897
aI917
aI937
aI946
aI955
aI968
aI974
aI983
aI990
aI1007
aI1013
aI1024
aI1036
aI1044
aI1053
aI1061
aI1074
aI1086
aI1105
aI1112
aI1121
aI1130
aI1139
aI1151
aI1159
aI1168
aI1176
aI1186
aI1203
aI1210
aI1218
aI1235
aI1241
aI1254
aI1265
aI1269
aI1288
aI1301
aI1312
aI1321
aI1332
aI1343
aI1349
aI1364
aI1371
aI1384
aI1392
aI1403
aI1417
aI1423
aI1430
aI1454
aI1461
aI1480
aI1487
a.