(lp0
I6
aI24
aI48
aI63
aI77
aI101
aI123
aI145
aI154
aI170
aI177
aI187
aI211
aI224
aI230
aI244
aI261
aI292
aI313
aI320
aI333
aI342
aI354
aI363
aI382
aI395
aI406
aI414
aI429
aI469
aI490
aI499
aI514
aI527
aI537
aI553
aI565
aI581
aI598
aI616
aI623
aI655
aI668
aI696
aI707
aI732
aI740
aI753
aI760
aI767
aI775
aI783
aI793
aI801
aI814
aI826
aI836
aI843
aI854
aI864
aI872
aI906
aI916
aI924
aI962
aI989
aI1004
aI1009
aI1017
aI1027
aI1048
aI1057
aI1076
aI1088
aI1098
aI1128
aI1139
aI1148
aI1155
aI1173
aI1189
aI1206
aI1237
aI1245
aI1262
aI1271
aI1279
aI1288
aI1311
aI1318
aI1337
aI1346
aI1358
aI1365
aI1376
aI1386
aI1396
aI1403
aI1416
aI1429
aI1446
aI1453
aI1464
aI1474
aI1490
a.