(lp0
I6
aI15
aI29
aI48
aI57
aI65
aI91
aI97
aI106
aI128
aI134
aI156
aI172
aI178
aI198
aI219
aI229
aI235
aI248
aI259
aI277
aI289
aI295
aI305
aI320
aI332
aI344
aI356
aI367
aI379
aI388
aI402
aI413
aI425
aI434
aI444
aI453
aI462
aI479
aI489
aI497
aI508
aI524
aI534
aI541
aI550
aI564
aI578
aI594
aI609
aI617
aI625
aI632
aI645
aI659
aI668
aI677
aI682
aI705
aI722
aI732
aI737
aI750
aI758
aI766
aI775
aI781
aI791
aI800
aI812
aI819
aI831
aI843
aI849
aI862
aI876
aI884
aI899
aI913
aI927
aI936
aI946
aI971
aI983
aI989
aI1009
aI1021
aI1037
aI1045
aI1064
aI1073
aI1083
aI1088
aI1100
aI1109
aI1116
aI1128
aI1138
aI1147
aI1164
aI1171
aI1192
aI1210
aI1235
aI1245
aI1263
aI1271
aI1284
aI1292
aI1308
aI1316
aI1322
aI1338
aI1345
aI1359
aI1377
aI1385
aI1395
aI1408
aI1415
aI1423
aI1432
aI1440
aI1448
aI1461
aI1481
aI1488
a.