(lp0
I8
aI32
aI40
aI52
aI69
aI99
aI107
aI120
aI139
aI148
aI158
aI168
aI178
aI184
aI196
aI205
aI214
aI224
aI237
aI254
aI264
aI275
aI284
aI291
aI299
aI309
aI320
aI334
aI341
aI353
aI367
aI382
aI393
aI418
aI425
aI435
aI441
aI452
aI463
aI478
aI503
aI510
aI518
aI527
aI540
aI546
aI553
aI565
aI578
aI600
aI608
aI624
aI633
aI643
aI654
aI669
aI701
aI722
aI729
aI743
aI751
aI761
aI769
aI778
aI788
aI802
aI816
aI824
aI834
aI842
aI849
aI873
aI919
aI933
aI950
aI962
aI988
aI1015
aI1025
aI1043
aI1061
aI1072
aI1113
aI1141
aI1149
aI1157
aI1167
aI1210
aI1215
aI1237
aI1256
aI1268
aI1276
aI1288
aI1293
a.