(lp0
I8
aI13
aI28
aI51
aI68
aI76
aI87
aI110
aI121
aI131
aI144
aI165
aI173
aI186
aI194
aI206
aI224
aI231
aI240
aI248
aI259
aI270
aI291
aI299
aI305
aI324
aI343
aI353
aI363
aI382
aI388
aI397
aI405
aI414
aI421
aI432
aI440
aI462
aI469
aI481
aI488
aI499
aI506
aI517
aI530
aI537
aI550
aI572
aI588
aI596
aI606
aI614
aI623
aI632
aI642
aI648
aI663
aI670
aI677
aI688
aI697
aI707
aI718
aI727
aI734
aI740
aI755
aI761
aI771
aI781
aI790
aI799
aI812
aI824
aI832
aI842
aI851
aI873
aI887
aI899
aI907
aI914
aI921
aI932
aI938
aI952
aI959
aI966
aI985
aI992
aI1018
aI1033
aI1039
aI1052
aI1062
aI1072
aI1080
aI1087
aI1096
aI1110
aI1122
aI1130
aI1140
aI1145
aI1154
aI1164
aI1180
aI1193
aI1215
aI1231
aI1238
aI1258
aI1281
aI1294
aI1308
aI1332
aI1345
aI1355
aI1365
aI1378
aI1397
aI1403
aI1415
aI1421
aI1434
aI1448
aI1471
aI1481
aI1489
a.