Date,Open,High,Low,Close,Volume,Adj Close
2014-09-12,158.39,159.40,157.18,159.10,992700,159.10
2014-09-11,157.21,159.19,157.20,158.80,503800,158.80
2014-09-10,157.22,157.99,156.12,157.63,775900,157.63
2014-09-09,156.99,157.21,155.06,156.52,556700,156.52
2014-09-08,157.82,159.18,156.89,157.74,334500,157.74
2014-09-05,158.09,159.04,157.74,158.33,424200,158.33
2014-09-04,159.60,159.65,157.14,158.15,838300,158.15
2014-09-03,158.91,160.13,158.26,159.60,747200,159.60
2014-09-02,156.67,158.68,156.48,158.40,808000,158.40
2014-08-29,156.85,156.96,154.94,156.87,901800,156.87
2014-08-28,156.20,157.15,155.83,156.01,339500,156.01
2014-08-27,155.11,158.05,155.09,156.83,698900,156.83
2014-08-26,155.50,155.58,154.54,155.27,369200,155.27
2014-08-25,155.80,156.17,154.47,155.06,299700,155.06
2014-08-22,157.03,159.20,155.01,155.43,315700,155.43
2014-08-21,156.24,156.83,155.47,156.75,413800,156.75
2014-08-20,155.51,158.08,154.81,155.77,523000,155.77
2014-08-19,157.52,158.21,155.60,156.15,555400,156.15
2014-08-18,155.99,158.03,155.22,157.41,1120300,157.41
2014-08-15,160.98,160.99,155.18,155.61,1259900,155.61
2014-08-14,154.56,156.63,154.38,156.44,950800,156.44
2014-08-13,153.47,156.27,153.47,155.01,1155700,155.01
2014-08-12,152.41,153.98,151.71,152.71,683100,152.71
2014-08-11,152.16,153.74,151.73,152.43,659600,152.43
2014-08-08,151.79,152.59,151.00,152.04,924200,152.04
2014-08-07,154.45,156.43,151.29,151.40,559000,151.40
2014-08-06,153.91,155.89,153.00,153.76,616500,153.76
2014-08-05,156.10,156.78,153.17,154.97,921400,154.97
2014-08-04,152.79,158.66,152.38,157.10,1245300,157.10
2014-08-01,155.68,157.41,149.66,152.26,1923200,152.26
2014-07-31,161.30,161.48,151.59,154.52,2800200,154.52
2014-07-30,162.16,163.54,160.64,161.77,912200,161.77
2014-07-29,162.25,167.30,161.59,162.06,1566000,162.06
2014-07-28,162.73,163.45,161.18,161.48,579500,161.48
2014-07-25,163.79,164.00,162.03,162.35,514800,162.35
2014-07-24,163.61,164.46,162.76,163.86,554600,163.86
2014-07-23,162.50,164.09,162.06,163.13,949000,163.13
2014-07-22,163.81,165.20,162.59,162.69,882500,162.69
2014-07-21,163.15,164.80,162.52,163.00,1070300,163.00
2014-07-18,163.93,164.32,161.89,164.15,718300,164.15
2014-07-17,162.00,164.28,161.50,163.00,1551300,163.00
2014-07-16,164.05,165.49,163.00,163.98,1075300,163.98
2014-07-15,163.45,164.44,162.51,163.14,1149000,163.14
2014-07-14,162.94,164.55,162.43,163.70,674900,163.70
2014-07-11,163.42,163.63,161.19,162.27,773300,162.27
2014-07-10,160.85,163.50,160.25,162.88,1177200,162.88
2014-07-09,159.48,162.16,158.41,162.15,1255400,162.15
2014-07-08,160.53,160.53,158.57,158.62,1400100,158.62
2014-07-07,162.52,163.00,160.07,160.68,837200,160.68
2014-07-03,163.02,163.19,160.80,162.42,859300,162.42
2014-07-02,160.48,162.60,160.48,162.00,1257900,162.00
2014-07-01,158.68,161.41,157.74,160.40,1251000,160.40
2014-06-30,156.01,159.24,155.05,158.38,1266900,158.38
2014-06-27,152.57,155.79,151.97,154.84,1689600,154.84
2014-06-26,151.83,152.33,150.86,152.00,544700,152.00
2014-06-25,151.01,152.49,150.48,152.00,837700,152.00
2014-06-24,152.32,153.28,150.51,151.06,939000,151.06
2014-06-23,151.75,154.63,151.00,151.63,1145700,151.63
2014-06-20,149.08,150.67,148.18,150.51,1035100,150.51
2014-06-19,149.03,149.38,148.02,148.25,900300,148.25
2014-06-18,148.32,149.17,147.46,148.65,1016300,148.65
2014-06-17,148.77,149.08,147.74,148.00,516500,148.00
2014-06-16,148.35,148.75,147.18,148.50,639200,148.50
2014-06-13,148.53,148.53,147.11,148.21,747800,148.21
2014-06-12,149.11,149.82,147.45,147.79,751200,147.79
2014-06-11,148.26,149.20,147.36,149.20,762700,149.20
2014-06-10,148.25,149.13,147.61,148.89,1161700,148.89
2014-06-09,148.50,149.80,148.20,148.73,1007200,148.73
2014-06-06,148.96,149.75,146.49,148.87,1016200,148.87
2014-06-05,147.40,148.38,145.94,147.62,438600,147.62
2014-06-04,146.66,147.79,145.84,147.48,477100,147.48
2014-06-03,146.76,148.05,146.61,147.22,1093100,147.22
2014-06-02,142.89,148.12,142.85,147.15,1639400,147.15
2014-05-30,144.49,144.49,141.50,143.14,1462600,143.14
2014-05-29,143.75,144.43,142.00,142.71,860900,142.71
2014-05-28,143.33,144.59,141.22,143.59,852500,143.59
2014-05-27,140.65,143.25,140.42,142.91,1132600,142.91
2014-05-23,138.76,141.28,138.39,140.59,663400,140.59
2014-05-22,138.77,139.54,137.64,138.17,754100,138.17
2014-05-21,139.15,139.68,138.07,138.56,621200,138.56
2014-05-20,138.77,140.18,137.80,138.96,759400,138.96
2014-05-19,136.16,138.95,136.16,138.68,765900,138.68
2014-05-16,137.02,138.05,135.84,137.46,508700,137.46
2014-05-15,135.80,137.15,134.14,136.91,1005700,136.91
2014-05-14,136.27,136.84,135.11,136.15,1461700,136.15
2014-05-13,137.40,137.40,135.13,136.62,1853600,136.62
2014-05-12,138.87,139.06,136.20,137.07,1147400,137.07
2014-05-09,137.41,138.88,136.41,137.95,691400,137.95
2014-05-08,139.59,139.79,136.12,137.41,1236000,137.41
2014-05-07,138.83,139.79,138.00,139.52,1290700,139.52
2014-05-06,138.05,139.52,137.61,138.42,966500,138.42
2014-05-05,136.77,138.56,136.36,138.41,665600,138.41
2014-05-02,137.90,138.28,136.14,137.21,711900,137.21
2014-05-01,135.36,137.61,134.31,136.68,1386300,136.68
2014-04-30,135.20,137.82,134.81,135.53,1843200,135.53
2014-04-29,139.35,139.86,135.29,137.15,2275600,137.15
2014-04-28,132.34,142.70,132.34,140.05,7014400,140.05
2014-04-25,129.93,130.39,128.26,130.01,1911700,130.01
2014-04-24,128.97,130.94,127.84,130.49,2178400,130.49
2014-04-23,128.01,129.00,126.89,128.10,1736300,128.10
2014-04-22,123.74,127.42,123.43,126.96,1961700,126.96
2014-04-21,120.61,125.07,120.41,123.61,1307500,123.61
2014-04-17,117.10,118.43,116.90,117.83,1726600,117.83
2014-04-16,118.86,119.71,117.49,118.11,1249800,118.11
2014-04-15,119.65,120.14,116.78,118.07,812700,118.07
2014-04-14,119.47,120.78,118.21,119.41,1002400,119.41
2014-04-11,120.66,121.87,118.33,118.46,1203300,118.46
2014-04-10,123.48,125.00,120.82,121.99,864500,121.99
2014-04-09,121.95,124.15,121.36,124.04,998500,124.04
2014-04-08,119.01,121.53,117.20,121.15,1296800,121.15
2014-04-07,123.24,123.91,118.39,118.94,1645400,118.94
2014-04-04,125.86,125.86,122.45,122.72,895200,122.72
2014-04-03,126.40,127.15,124.23,124.90,980600,124.90
2014-04-02,128.10,128.10,125.47,126.50,549200,126.50
2014-04-01,123.71,125.86,123.39,125.64,867900,125.64
2014-03-31,123.38,125.08,121.65,123.20,821700,123.20
2014-03-28,123.21,124.51,122.27,122.41,1299800,122.41
2014-03-27,122.67,124.41,120.75,121.26,1585800,121.26
2014-03-26,124.55,125.92,122.98,123.11,1389400,123.11
2014-03-25,126.17,126.72,123.79,124.12,722000,124.12
2014-03-24,127.38,127.53,124.79,125.75,1155500,125.75
2014-03-21,127.42,127.97,126.32,127.25,1472200,127.25
2014-03-20,126.02,127.33,125.51,126.70,1068600,126.70
2014-03-19,125.60,126.57,124.87,126.47,748100,126.47
2014-03-18,126.66,128.05,125.80,125.99,831200,125.99
2014-03-17,127.80,128.26,126.00,126.49,713900,126.49
2014-03-14,126.50,127.68,125.97,127.00,919200,127.00
2014-03-13,127.40,127.40,125.05,125.72,687400,125.72
2014-03-12,127.22,128.82,126.00,127.27,912000,127.27
2014-03-11,128.20,129.15,127.36,127.74,1181700,127.74
2014-03-10,128.27,129.75,126.18,128.54,1100900,128.54
2014-03-07,128.66,128.99,125.47,127.00,1838600,127.00
2014-03-06,127.10,128.08,125.81,126.64,1580300,126.64
2014-03-05,128.40,129.61,126.86,127.41,1858800,127.41
2014-03-04,126.19,128.33,125.55,128.22,1912500,128.22
2014-03-03,125.40,125.69,122.30,125.69,1535400,125.69
2014-02-28,124.07,127.09,124.02,126.77,2532900,126.77
2014-02-27,121.79,124.44,121.50,124.14,1335600,124.14
2014-02-26,121.76,122.37,120.86,121.25,2090700,121.25
2014-02-25,123.37,123.96,120.50,121.34,2933900,121.34
2014-02-24,125.00,127.06,122.50,123.58,3138200,123.58
2014-02-21,132.02,132.02,124.00,125.08,5432300,125.08
2014-02-20,130.85,133.18,130.58,131.84,1592500,131.84
2014-02-19,131.13,131.99,129.00,130.44,2774200,130.44
2014-02-18,128.34,133.01,128.34,131.50,1617200,131.50
2014-02-14,128.71,129.41,126.75,129.35,2924000,129.35
2014-02-13,124.94,130.00,124.76,128.91,9910600,128.91
2014-02-12,138.30,139.13,137.14,137.57,1664900,137.57
2014-02-11,137.51,139.45,137.01,137.90,1814800,137.90
2014-02-10,137.96,138.23,137.28,137.62,1699300,137.62
2014-02-07,137.13,138.55,136.82,137.50,2632500,137.50
2014-02-06,138.20,138.69,136.41,136.50,1443200,136.50
2014-02-05,138.75,138.80,136.95,137.35,802700,137.35
2014-02-04,136.85,139.32,136.15,138.86,1860100,138.86
2014-02-03,137.73,140.24,135.02,136.12,1477200,136.12
2014-01-31,137.10,138.72,136.84,137.00,1355000,137.00
2014-01-30,138.46,139.78,137.43,138.77,1301000,138.77
2014-01-29,135.87,138.95,135.27,138.24,3020200,138.24
2014-01-28,137.85,139.46,136.34,136.65,1203900,136.65
2014-01-27,131.31,140.74,131.31,136.92,4419800,136.92
2014-01-24,132.41,133.56,130.58,131.42,1314000,131.42
2014-01-23,134.58,134.73,133.11,133.46,722200,133.46
2014-01-22,133.54,135.15,132.60,135.00,629400,135.00
2014-01-21,134.29,135.19,133.19,133.50,1161400,133.50
2014-01-17,134.56,135.52,134.00,134.29,985200,134.29
2014-01-16,136.26,137.40,132.44,134.96,938700,134.96
2014-01-15,137.50,137.90,134.95,136.04,1375600,136.04
2014-01-14,134.84,137.63,134.13,137.34,1763500,137.34
2014-01-13,135.93,136.38,133.48,134.22,914700,134.22
2014-01-10,136.34,137.25,135.00,136.42,786600,136.42
2014-01-09,136.33,136.99,135.15,136.01,1095200,136.01
2014-01-08,137.92,138.28,135.92,136.09,941900,136.09
2014-01-07,135.26,138.25,135.13,138.08,1026300,138.08
2014-01-06,133.99,137.02,133.75,135.00,660500,135.00
2014-01-03,134.86,135.30,133.02,133.37,678500,133.37
2014-01-02,137.15,137.68,134.48,134.76,1119900,134.76
2013-12-31,134.06,136.76,134.06,136.76,454700,136.76
2013-12-30,133.83,135.10,132.71,134.18,367600,134.18
2013-12-27,132.33,134.19,131.44,133.50,428100,133.50
2013-12-26,132.27,132.62,131.17,132.16,291900,132.16
2013-12-24,131.12,132.89,129.95,132.27,251800,132.27
2013-12-23,130.77,131.44,129.44,131.40,329600,131.40
2013-12-20,129.54,131.01,128.85,130.02,1140200,130.02
2013-12-19,129.74,130.91,128.23,129.12,986300,129.12
2013-12-18,130.51,130.90,128.65,130.34,643200,130.34
2013-12-17,131.88,131.92,129.97,130.11,1000800,130.11
2013-12-16,131.11,132.33,130.58,131.36,1023500,131.36
2013-12-13,132.75,135.86,130.99,131.54,2305100,131.54
2013-12-12,130.59,132.64,130.59,131.99,665200,131.99
2013-12-11,132.05,132.77,130.24,130.82,686500,130.82
2013-12-10,128.38,132.96,128.25,131.75,1353500,131.75
2013-12-09,127.80,128.25,126.31,128.16,964100,128.16
2013-12-06,129.45,129.97,126.96,127.75,938100,127.75
2013-12-05,129.10,129.77,126.48,127.27,1183800,127.27
2013-12-04,128.70,130.38,127.35,129.43,990000,129.43
2013-12-03,132.10,132.71,128.69,129.31,1144100,129.31
2013-12-02,134.84,135.54,132.46,132.72,1126700,132.72
2013-11-29,136.23,136.23,134.26,135.10,660500,135.10
2013-11-27,136.04,136.59,133.24,134.98,1765900,134.98
2013-11-26,134.09,137.41,133.12,136.12,1180000,136.12
2013-11-25,135.17,136.39,133.34,134.29,751700,134.29
2013-11-22,131.00,134.98,126.80,134.66,3642700,134.66
2013-11-21,127.01,128.02,126.30,126.96,645500,126.96
2013-11-20,129.00,129.75,126.75,126.96,735300,126.96
2013-11-19,129.61,130.31,128.86,129.07,808800,129.07
2013-11-18,129.33,130.75,128.70,129.54,942600,129.54
2013-11-15,128.43,129.05,127.90,128.69,740700,128.69
2013-11-14,129.00,129.03,127.76,128.07,513300,128.07
2013-11-13,127.33,128.85,126.51,128.76,485000,128.76
2013-11-12,127.00,128.65,126.06,128.46,798000,128.46
2013-11-11,127.93,128.20,125.68,127.04,772300,127.04
2013-11-08,127.60,128.91,126.93,128.06,933600,128.06
2013-11-07,129.06,129.65,126.25,127.47,1302200,127.47
2013-11-06,130.94,131.33,128.20,128.92,1536400,128.92
2013-11-05,135.98,135.98,129.56,131.06,1586000,131.06
2013-11-04,139.14,139.14,134.58,135.77,536700,135.77
2013-11-01,134.70,138.20,134.09,138.07,1108400,138.07
2013-10-31,135.06,137.92,133.56,134.04,1003200,134.04
2013-10-30,144.02,144.02,134.30,135.02,301700,135.02
2013-10-29,136.57,137.24,135.90,137.23,265600,137.23
2013-10-28,138.81,139.22,135.88,136.54,431600,136.54
2013-10-25,138.10,139.40,137.00,138.58,351400,138.58
2013-10-24,135.74,138.34,134.75,137.97,361800,137.97
2013-10-23,136.54,137.13,134.80,135.22,362800,135.22
2013-10-22,137.29,139.00,135.92,136.71,282700,136.71
2013-10-21,137.65,138.27,135.90,137.10,212200,137.10
2013-10-18,137.64,138.92,136.84,137.31,340700,137.31
2013-10-17,138.70,139.24,137.01,137.71,567500,137.71
2013-10-16,138.55,139.27,136.55,139.01,515700,139.01
2013-10-15,136.97,138.25,135.60,137.44,347800,137.44
2013-10-14,135.49,137.64,135.49,137.19,340300,137.19
2013-10-11,135.61,137.03,134.64,136.23,322100,136.23
2013-10-10,133.63,137.30,133.54,136.09,605300,136.09
2013-10-09,132.14,133.62,130.06,131.50,829300,131.50
2013-10-08,133.26,134.27,131.30,131.61,820100,131.61
2013-10-07,131.64,133.00,131.00,132.49,568600,132.49
2013-10-04,132.04,133.31,131.35,132.64,748900,132.64
2013-10-03,133.41,133.81,130.83,131.55,810400,131.55
2013-10-02,134.19,135.25,133.31,133.79,506000,133.79
2013-10-01,134.80,136.25,134.46,135.47,597600,135.47
2013-09-30,132.97,135.16,132.69,134.76,683300,134.76
2013-09-27,135.53,135.78,133.10,133.57,552900,133.57
2013-09-26,134.67,136.32,134.00,135.99,499600,135.99
2013-09-25,131.50,134.58,131.02,134.01,611000,134.01
2013-09-24,133.07,134.50,130.97,131.15,806400,131.15
2013-09-23,133.34,134.51,131.79,133.44,350100,133.44
2013-09-20,133.59,134.85,133.29,133.84,719800,133.84
2013-09-19,132.46,134.64,132.46,133.23,783300,133.23
2013-09-18,130.11,133.51,130.11,132.39,817900,132.39
2013-09-17,129.43,131.00,128.86,130.26,625200,130.26
2013-09-16,130.21,130.37,127.67,129.18,419900,129.18
2013-09-13,128.93,129.11,127.56,128.75,185400,128.75
2013-09-12,128.80,129.28,127.59,128.28,258500,128.28
2013-09-11,127.34,129.29,125.94,129.11,461800,129.11
2013-09-10,126.95,128.38,126.70,127.44,418000,127.44
2013-09-09,125.01,127.11,125.01,126.70,550700,126.70
2013-09-06,125.48,126.21,123.60,125.02,457900,125.02
2013-09-05,124.44,125.18,123.49,124.66,427500,124.66
2013-09-04,123.31,124.98,123.31,124.56,534900,124.56
2013-09-03,122.66,124.25,122.05,123.05,753400,123.05
2013-08-30,121.26,121.95,120.35,121.42,538900,121.42
2013-08-29,119.28,121.93,119.06,120.90,856000,120.90
2013-08-28,120.87,121.59,119.43,120.00,788300,120.00
2013-08-27,121.94,122.46,120.83,121.01,1079100,121.01
2013-08-26,122.62,124.38,121.96,122.17,406000,122.17
2013-08-23,124.73,125.80,122.46,122.70,681400,122.70
2013-08-22,122.87,125.12,122.87,123.95,292300,123.95
2013-08-21,124.23,124.66,122.79,123.23,418900,123.23
2013-08-20,123.31,125.20,123.05,124.89,612900,124.89
2013-08-19,123.12,123.99,122.64,123.25,982300,123.25
2013-08-16,122.78,123.06,121.02,122.60,515000,122.60
2013-08-15,123.57,123.87,122.32,123.12,555100,123.12
2013-08-14,126.00,126.58,123.97,124.46,1049800,124.46
2013-08-13,127.18,128.50,125.82,126.10,527900,126.10
2013-08-12,127.48,127.74,119.41,126.56,1208500,126.56
2013-08-09,127.65,128.58,126.52,128.27,506500,128.27
2013-08-08,129.85,131.00,127.22,128.06,566500,128.06
2013-08-07,126.27,129.95,124.66,129.63,1143400,129.63
2013-08-06,131.00,133.74,125.39,127.05,1224200,127.05
2013-08-05,132.48,134.44,128.66,130.15,2015000,130.15
2013-08-02,128.00,137.29,127.19,134.00,2570400,134.00
2013-08-01,125.75,129.50,125.75,127.96,880300,127.96
2013-07-31,124.58,126.65,123.87,125.74,792800,125.74
2013-07-30,126.08,126.35,123.49,123.78,736900,123.78
2013-07-29,126.70,127.03,125.15,125.69,677100,125.69
2013-07-26,126.82,127.36,125.73,126.61,544800,126.61
2013-07-25,128.02,128.99,126.86,127.75,825100,127.75
2013-07-24,127.77,129.10,126.94,128.22,4731200,128.22
2013-07-23,129.34,129.96,126.31,127.77,1347300,127.77
2013-07-22,127.88,128.62,127.04,128.19,933400,128.19
2013-07-19,126.06,129.51,126.06,128.31,2012100,128.31
2013-07-18,124.66,125.65,123.31,124.57,614300,124.57
2013-07-17,124.25,125.53,123.19,124.15,1155900,124.15
2013-07-16,124.40,125.54,123.38,123.82,1273200,123.82
2013-07-15,124.91,125.98,124.58,124.58,775500,124.58
2013-07-12,125.00,125.99,124.37,124.67,849600,124.67
2013-07-11,125.50,126.57,124.67,125.20,1246300,125.20
2013-07-10,125.36,126.69,123.67,125.35,1116100,125.35
2013-07-09,128.61,128.88,125.48,125.67,934200,125.67
2013-07-08,127.90,130.59,126.47,127.84,1010400,127.84
2013-07-05,128.59,128.59,125.50,127.38,656300,127.38
2013-07-03,124.49,128.10,124.10,127.64,730900,127.64
2013-07-02,123.31,125.80,122.56,125.14,1383600,125.14
2013-07-01,124.20,125.08,121.40,122.22,2122000,122.22
2013-06-28,124.46,127.03,123.71,123.85,2394000,123.85
2013-06-27,119.75,128.57,118.93,123.81,1620500,123.81
2013-06-26,118.31,120.66,118.00,119.00,948700,119.00
2013-06-25,118.95,119.93,117.66,117.77,1330200,117.77
2013-06-24,118.95,120.77,116.45,118.44,1125600,118.44
2013-06-21,114.35,120.60,114.35,119.68,2468700,119.68
2013-06-20,117.54,117.64,113.79,114.05,865600,114.05
2013-06-19,118.12,119.00,117.26,117.80,711400,117.80
2013-06-18,117.28,119.85,116.75,117.95,751900,117.95
2013-06-17,117.51,119.24,116.61,117.72,1087300,117.72
2013-06-14,110.67,117.09,110.22,116.61,1596700,116.61
2013-06-13,111.62,111.94,110.86,110.89,1123500,110.89
2013-06-12,112.91,113.80,111.25,111.39,812500,111.39
2013-06-11,111.99,113.70,111.17,112.46,1092800,112.46
2013-06-10,114.87,115.15,112.25,112.53,1077400,112.53
2013-06-07,113.36,114.60,112.39,113.91,526100,113.91
2013-06-06,113.92,114.47,111.47,112.63,755400,112.63
2013-06-05,114.62,116.10,113.92,113.92,1209900,113.92
2013-06-04,111.43,115.41,111.43,114.95,1080400,114.95
2013-06-03,112.74,112.74,109.63,111.62,752700,111.62
2013-05-31,111.21,113.39,111.21,112.00,851500,112.00
2013-05-30,112.96,113.14,111.33,111.81,583500,111.81
2013-05-29,113.36,114.43,112.60,112.65,693900,112.65
2013-05-28,114.53,115.45,113.60,114.10,621200,114.10
2013-05-24,113.04,113.04,111.74,112.85,625200,112.85
2013-05-23,111.47,113.64,111.47,113.54,412500,113.54
2013-05-22,113.52,115.13,112.39,112.94,907300,112.94
2013-05-21,111.78,114.82,111.37,114.00,699400,114.00
2013-05-20,112.54,113.31,111.22,111.41,702600,111.41
2013-05-17,114.64,114.72,112.04,112.14,912900,112.14
2013-05-16,114.73,116.42,113.25,113.61,1197100,113.61
2013-05-15,113.82,114.67,113.54,114.53,1090900,114.53
2013-05-14,111.42,114.03,111.09,113.78,1052000,113.78
2013-05-13,109.92,112.09,109.86,111.65,757500,111.65
2013-05-10,110.33,112.10,110.06,110.06,1294900,110.06
2013-05-09,109.16,110.55,109.16,110.13,802600,110.13
2013-05-08,108.76,110.49,107.66,110.04,1628100,110.04
2013-05-07,104.93,111.44,104.93,109.69,1635800,109.69
2013-05-06,104.64,105.77,104.15,105.03,875400,105.03
2013-05-03,103.89,105.29,103.71,104.61,713300,104.61
2013-05-02,101.83,103.21,101.28,103.13,686100,103.13
2013-05-01,100.48,101.72,100.48,101.17,614400,101.17
2013-04-30,101.38,101.38,99.41,100.74,804600,100.74
2013-04-29,102.17,102.17,100.71,101.62,294600,101.62
2013-04-26,100.99,102.64,100.03,101.64,445400,101.64
2013-04-25,102.79,103.30,100.92,101.11,696800,101.11
2013-04-24,104.85,105.15,101.02,103.05,756700,103.05
2013-04-23,104.30,105.57,103.38,104.41,619400,104.41
2013-04-22,104.10,104.55,102.49,103.85,681500,103.85
2013-04-19,103.22,103.43,102.44,103.04,663900,103.04
2013-04-18,104.43,104.43,101.49,102.73,962200,102.73
2013-04-17,104.64,105.39,103.22,104.03,491100,104.03
2013-04-16,104.24,105.20,102.95,104.91,492300,104.91
2013-04-15,104.26,104.26,102.89,103.08,425100,103.08
2013-04-12,104.19,105.47,104.19,105.06,526300,105.06
2013-04-11,103.77,104.84,103.29,104.84,489600,104.84
2013-04-10,104.46,104.84,102.97,103.67,767200,103.67
2013-04-09,104.83,105.09,103.11,103.58,574000,103.58
2013-04-08,105.45,106.98,103.65,104.75,727500,104.75
2013-04-05,102.66,105.50,101.60,105.49,1063100,105.49
2013-04-04,102.50,104.60,101.79,104.55,892700,104.55
2013-04-03,103.91,104.14,101.07,102.28,1098800,102.28
2013-04-02,104.47,105.53,103.78,103.80,527900,103.80
2013-04-01,104.65,105.29,102.96,103.78,391200,103.78
2013-03-28,104.43,105.07,103.84,104.18,586000,104.18
2013-03-27,102.62,105.55,102.62,104.29,807300,104.29
2013-03-26,102.90,103.20,102.32,102.99,903500,102.99
2013-03-25,103.50,103.90,102.06,102.44,1376300,102.44
2013-03-22,102.60,103.29,102.00,103.28,2978900,103.28
2013-03-21,104.28,104.90,101.48,102.36,2077300,102.36
2013-03-20,101.00,106.29,100.75,105.77,2545700,105.77
2013-03-19,99.65,100.65,97.88,100.38,4223400,100.38
2013-03-18,88.93,99.93,88.70,98.04,5333800,98.04
2013-03-15,90.32,90.73,89.12,90.09,1342700,90.09
2013-03-14,89.88,90.19,87.93,90.11,638800,90.11
2013-03-13,90.83,90.95,89.41,89.88,1206800,89.88
2013-03-12,89.44,89.64,88.90,89.50,1509100,89.50
2013-03-11,89.14,89.49,88.69,88.95,732300,88.95
2013-03-08,90.00,90.34,86.76,89.06,2929900,89.06
2013-03-07,90.60,90.60,89.49,89.80,791800,89.80
2013-03-06,88.14,90.90,88.01,89.98,2069600,89.98
2013-03-05,86.96,87.67,86.67,87.61,859700,87.61
2013-03-04,85.91,87.01,85.74,86.99,456600,86.99
2013-03-01,85.77,86.92,85.77,86.49,1022800,86.49
2013-02-28,86.94,87.25,84.21,86.39,1619200,86.39
2013-02-27,87.40,89.14,85.85,87.13,1343000,87.13
2013-02-26,83.99,86.98,83.33,86.74,2008800,86.74
2013-02-25,83.89,85.56,82.92,83.30,1602700,83.30
2013-02-22,79.31,86.32,76.25,85.02,4161100,85.02
2013-02-21,78.00,78.05,76.19,77.03,1125400,77.03
2013-02-20,79.49,79.74,77.93,77.99,567500,77.99
2013-02-19,79.82,79.98,79.07,79.39,411400,79.39
2013-02-15,79.47,79.67,79.22,79.54,680500,79.54
2013-02-14,79.95,80.13,79.12,79.48,439200,79.48
2013-02-13,80.87,80.91,79.68,80.03,769600,80.03
2013-02-12,79.55,80.01,79.24,80.00,444300,80.00
2013-02-11,80.56,80.56,79.18,79.31,365200,79.31
2013-02-08,80.50,81.67,80.02,80.89,410900,80.89
2013-02-07,80.71,82.61,78.79,80.63,1183800,80.63
2013-02-06,78.07,82.15,78.07,81.05,970100,81.05
2013-02-05,77.26,83.55,77.26,81.53,2305500,81.53
2013-02-04,77.58,78.39,76.59,76.67,626900,76.67
2013-02-01,78.06,78.78,76.78,78.04,1907800,78.04
2013-01-31,81.44,81.94,77.97,77.97,2691200,77.97
2013-01-30,81.46,82.20,81.05,81.63,587300,81.63
2013-01-29,82.07,82.24,81.09,81.50,561400,81.50
2013-01-28,80.66,82.82,80.48,82.24,1038100,82.24
2013-01-25,79.61,80.75,79.15,80.68,928500,80.68
2013-01-24,79.10,79.78,78.84,79.22,753200,79.22
2013-01-23,78.42,79.14,78.42,78.95,428300,78.95
2013-01-22,79.15,79.15,78.49,78.82,395900,78.82
2013-01-18,78.89,79.05,78.46,78.83,566200,78.83
2013-01-17,78.56,79.10,78.49,78.95,907600,78.95
2013-01-16,78.28,78.48,77.94,78.34,247800,78.34
2013-01-15,77.73,78.71,77.68,78.32,282600,78.32
2013-01-14,78.28,78.80,77.74,78.18,423900,78.18
2013-01-11,79.00,79.02,78.09,78.39,572100,78.39
2013-01-10,79.03,79.20,78.45,79.00,953400,79.00
2013-01-09,77.50,78.75,77.33,78.60,872100,78.60
2013-01-08,77.54,77.57,76.28,77.20,482300,77.20
2013-01-07,77.18,77.67,76.73,77.40,562200,77.40
2013-01-04,78.31,78.31,77.36,77.60,702800,77.60
2013-01-03,78.00,78.96,77.37,77.98,558500,77.98
2013-01-02,77.50,78.67,77.03,78.10,872600,78.10
2012-12-31,73.92,76.69,73.18,76.24,758300,76.24
2012-12-28,72.90,74.03,72.68,73.58,443400,73.58
2012-12-27,73.02,73.83,72.46,73.67,465400,73.67
2012-12-26,73.58,74.62,72.67,73.24,415500,73.24
2012-12-24,73.74,73.84,73.06,73.43,193900,73.43
2012-12-21,72.05,73.70,71.67,73.43,823100,73.43
2012-12-20,73.94,74.57,73.05,73.21,1223000,73.21
2012-12-19,74.35,75.00,72.57,74.05,1234800,74.05
2012-12-18,71.03,74.64,70.88,74.14,1568100,74.14
2012-12-17,68.89,70.97,68.63,70.78,1088200,70.78
2012-12-14,69.01,69.62,68.44,68.68,330600,68.68
2012-12-13,69.73,69.97,68.61,69.08,480000,69.08
2012-12-12,69.86,70.32,69.35,69.61,669900,69.61
2012-12-11,69.76,69.99,69.13,69.59,810300,69.59
2012-12-10,70.47,70.47,69.28,69.76,539400,69.76
2012-12-07,69.78,70.71,69.50,70.43,923000,70.43
2012-12-06,69.64,70.37,68.96,69.60,700900,69.60
2012-12-05,70.13,70.77,69.61,69.74,924300,69.74
2012-12-04,69.83,70.93,69.60,70.45,1445600,70.45
2012-12-03,70.85,70.86,70.09,70.45,624600,70.45
2012-11-30,71.03,71.46,70.30,70.85,1827500,70.85
2012-11-29,71.10,72.37,70.34,71.31,1667700,71.31
2012-11-28,69.78,70.60,69.64,70.29,567700,70.29
2012-11-27,70.19,70.47,69.86,70.29,663000,70.29
2012-11-26,70.03,70.34,69.36,70.28,675200,70.28
2012-11-23,70.19,70.47,69.70,70.00,196900,70.00
2012-11-21,69.87,70.85,69.59,69.87,1708200,69.87
2012-11-20,69.11,71.67,68.80,70.31,590700,70.31
2012-11-19,69.93,69.96,68.49,68.64,388500,68.64
2012-11-16,68.33,69.98,68.20,69.27,524500,69.27
2012-11-15,67.60,68.58,67.06,68.54,779000,68.54
2012-11-14,69.08,69.11,67.18,67.50,667300,67.50
2012-11-13,68.48,69.15,68.25,68.94,675100,68.94
2012-11-12,69.27,69.69,68.38,69.00,467000,69.00
2012-11-09,68.24,69.72,68.00,68.72,512400,68.72
2012-11-08,69.87,69.96,68.20,68.26,704400,68.26
2012-11-07,70.85,71.61,69.00,69.47,1948800,69.47
2012-11-06,70.01,72.61,70.01,71.62,2566500,71.62
2012-11-05,73.00,73.24,71.07,72.94,1861800,72.94
2012-11-02,77.20,78.17,75.01,75.10,727000,75.10
2012-11-01,77.20,77.99,76.81,77.75,599300,77.75
2012-10-31,76.55,77.81,75.99,77.41,533700,77.41
2012-10-26,75.80,76.73,75.42,76.57,432000,76.57
2012-10-25,76.91,77.62,76.02,76.19,299800,76.19
2012-10-24,76.28,77.07,75.64,76.09,758000,76.09
2012-10-23,77.22,79.95,75.31,76.19,1179800,76.19
2012-10-22,78.14,79.08,77.61,78.17,650400,78.17
2012-10-19,78.41,78.58,77.12,78.54,854000,78.54
2012-10-18,77.30,78.68,76.99,78.51,317300,78.51
2012-10-17,76.47,78.29,76.47,77.69,405200,77.69
2012-10-16,77.02,77.23,76.28,76.65,515800,76.65
2012-10-15,76.10,77.40,76.01,76.73,294200,76.73
2012-10-12,75.83,76.97,75.57,76.13,285900,76.13
2012-10-11,76.25,76.86,75.05,76.12,461200,76.12
2012-10-10,76.04,76.80,75.62,75.98,337800,75.98
2012-10-09,76.16,76.22,75.79,76.08,911000,76.08
2012-10-08,76.29,76.43,75.44,76.03,338600,76.03
2012-10-05,77.55,77.78,76.44,76.53,421000,76.53
2012-10-04,77.12,77.59,76.21,77.38,409700,77.38
2012-10-03,75.85,77.50,75.52,76.76,540200,76.76
2012-10-02,75.06,76.76,75.06,75.50,752100,75.50
2012-10-01,75.34,76.04,74.60,75.01,497800,75.01
2012-09-28,75.03,75.74,74.07,75.06,623900,75.06
2012-09-27,75.05,75.89,74.42,75.21,656700,75.21
2012-09-26,75.35,75.47,73.01,74.89,1151500,74.89
2012-09-25,76.86,77.10,75.36,75.44,703200,75.44
2012-09-24,77.83,78.82,75.66,76.37,1288600,76.37
2012-09-21,80.97,81.85,78.70,79.43,921700,79.43
2012-09-20,79.94,80.87,79.77,80.28,242500,80.28
2012-09-19,80.00,80.56,79.17,80.38,834800,80.38
2012-09-18,80.20,80.73,79.80,79.89,316900,79.89
2012-09-17,82.71,82.74,80.47,80.74,389700,80.74
2012-09-14,81.54,83.41,81.43,82.54,421800,82.54
2012-09-13,79.94,82.27,79.71,81.63,484900,81.63
2012-09-12,78.86,82.21,78.66,80.20,1048800,80.20
2012-09-11,78.06,79.72,77.38,78.90,663200,78.90
2012-09-10,78.22,78.66,77.68,77.80,272600,77.80
2012-09-07,79.06,79.21,77.93,78.15,388200,78.15
2012-09-06,78.75,79.36,78.10,79.28,357400,79.28
2012-09-05,77.32,79.59,76.95,78.16,483500,78.16
2012-09-04,77.57,77.80,76.73,77.08,301500,77.08
2012-08-31,77.05,78.33,76.92,77.80,210600,77.80
2012-08-30,76.50,77.24,76.43,77.00,193500,77.00
2012-08-29,76.66,76.99,75.91,76.46,313500,76.46
2012-08-28,76.93,77.49,76.63,76.76,234300,76.76
2012-08-27,78.18,78.18,77.24,77.24,151100,77.24
2012-08-24,76.56,78.13,76.38,77.73,324900,77.73
2012-08-23,77.15,77.15,75.97,76.38,587900,76.38
2012-08-22,77.11,77.70,76.74,77.11,284900,77.11
2012-08-21,77.87,78.63,77.04,77.28,299300,77.28
2012-08-20,77.89,78.25,76.74,77.88,285400,77.88
2012-08-17,78.83,79.29,77.31,77.80,462400,77.80
2012-08-16,79.60,80.10,78.46,78.50,640600,78.50
2012-08-15,78.74,80.09,78.69,79.80,612400,79.80
2012-08-14,79.01,80.57,78.45,78.50,1486900,78.50
2012-08-13,77.71,79.02,77.16,78.91,843500,78.91
2012-08-10,75.80,78.36,75.20,77.93,726700,77.93
2012-08-09,74.63,76.25,74.50,75.51,2376000,75.51
2012-08-08,75.50,76.12,74.91,76.01,730300,76.01
2012-08-07,77.90,78.90,73.52,76.68,1824400,76.68
2012-08-06,80.00,80.10,77.36,77.59,718700,77.59
2012-08-03,78.58,80.22,78.07,79.93,526900,79.93
2012-08-02,77.97,78.83,77.58,78.30,547400,78.30
2012-08-01,77.70,79.02,77.49,78.34,474500,78.34
2012-07-31,77.00,77.80,76.06,76.92,529400,76.92
2012-07-30,76.16,77.67,76.16,77.46,726300,77.46
2012-07-27,75.96,76.85,75.80,76.35,516900,76.35
2012-07-26,75.07,76.08,74.49,75.80,687200,75.80
2012-07-25,73.22,74.39,72.77,74.20,546300,74.20
2012-07-24,73.52,73.68,72.52,72.92,271500,72.92
2012-07-23,73.92,74.06,73.15,73.52,458200,73.52
2012-07-20,74.15,74.82,73.59,74.37,293600,74.37
2012-07-19,73.02,75.05,72.92,74.81,518300,74.81
2012-07-18,72.78,73.08,72.51,72.95,347500,72.95
2012-07-17,72.47,73.65,72.10,73.07,292100,73.07
2012-07-16,72.74,72.99,72.22,72.53,154300,72.53
2012-07-13,72.92,73.33,72.70,72.87,236800,72.87
2012-07-12,71.30,73.34,70.83,72.78,472700,72.78
2012-07-11,72.09,72.65,71.52,71.59,407500,71.59
2012-07-10,72.11,72.79,71.87,72.10,533700,72.10
2012-07-09,71.74,72.41,71.38,72.02,232000,72.02
2012-07-06,71.66,72.55,71.28,72.08,140600,72.08
2012-07-05,71.97,72.48,71.14,72.24,244600,72.24
2012-07-03,72.33,72.53,71.90,72.21,141100,72.21
2012-07-02,71.12,72.12,70.70,72.05,710800,72.05
2012-06-29,70.95,71.86,70.30,70.87,693500,70.87
2012-06-28,69.56,70.00,69.16,70.00,263000,70.00
2012-06-27,67.96,70.28,67.88,69.65,544800,69.65
2012-06-26,66.99,67.86,66.51,67.70,345800,67.70
2012-06-25,67.24,67.78,66.36,66.61,522800,66.61
2012-06-22,67.51,68.31,66.86,67.91,982700,67.91
2012-06-21,69.55,69.97,67.29,67.44,253700,67.44
2012-06-20,68.95,69.97,68.82,69.40,637200,69.40
2012-06-19,67.98,69.29,67.35,68.98,656300,68.98
2012-06-18,66.51,67.69,66.39,67.63,362900,67.63
2012-06-15,65.81,67.06,65.66,66.89,439600,66.89
2012-06-14,64.85,66.00,64.63,65.89,414500,65.89
2012-06-13,64.65,65.29,64.04,64.93,1072700,64.93
2012-06-12,63.46,64.79,63.46,64.73,596800,64.73
2012-06-11,64.41,64.80,63.36,63.39,261400,63.39
2012-06-08,63.88,64.16,62.96,64.12,181000,64.12
2012-06-07,64.57,65.60,63.68,63.81,676100,63.81
2012-06-06,63.65,64.06,63.13,63.75,450700,63.75
2012-06-05,61.40,63.54,61.14,63.51,787600,63.51
2012-06-04,61.51,61.79,60.46,61.28,262000,61.28
2012-06-01,62.40,62.55,61.00,61.31,290600,61.31
2012-05-31,63.86,63.86,61.66,62.70,2103800,62.70
2012-05-30,63.92,64.43,63.00,63.19,415000,63.19
2012-05-29,64.88,65.39,63.74,64.63,1029000,64.63
2012-05-25,64.35,64.50,63.60,64.27,386400,64.27
2012-05-24,64.66,65.04,63.36,64.21,437200,64.21
2012-05-23,63.95,64.64,62.76,64.61,398000,64.61
2012-05-22,64.07,65.11,64.00,64.65,1162100,64.65
2012-05-21,62.26,63.73,61.49,63.63,447500,63.63
2012-05-18,63.90,63.90,61.34,61.68,575000,61.68
2012-05-17,65.10,65.66,63.29,63.34,429400,63.34
2012-05-16,66.15,67.22,65.22,65.30,728200,65.30
2012-05-15,66.52,66.52,65.31,65.49,384500,65.49
2012-05-14,66.76,67.35,65.91,66.23,426200,66.23
2012-05-11,67.36,67.95,66.73,67.49,519900,67.49
2012-05-10,67.23,68.62,67.15,67.70,491000,67.70
2012-05-09,64.30,67.83,62.96,67.14,1286600,67.14
2012-05-08,61.10,66.18,59.95,64.97,1673600,64.97
2012-05-07,61.27,61.88,60.77,61.82,347800,61.82
2012-05-04,62.25,62.73,60.93,61.57,247200,61.57
2012-05-03,62.32,62.73,62.20,62.35,330700,62.35
2012-05-02,60.93,62.56,60.93,62.24,350900,62.24
2012-05-01,60.39,61.40,60.28,61.02,644400,61.02
2012-04-30,60.47,60.74,60.18,60.47,209100,60.47
2012-04-27,61.02,61.38,60.35,60.42,313400,60.42
2012-04-26,60.61,61.14,60.42,60.95,293900,60.95
2012-04-25,60.73,60.93,60.35,60.63,368600,60.63
2012-04-24,60.13,60.77,59.83,60.17,244200,60.17
2012-04-23,61.85,61.87,60.12,60.20,486900,60.20
2012-04-20,61.65,62.28,61.54,61.96,231300,61.96
2012-04-19,61.10,61.49,60.80,61.45,275200,61.45
2012-04-18,61.11,61.26,60.73,61.16,194000,61.16
2012-04-17,60.78,61.54,60.71,61.31,357600,61.31
2012-04-16,61.18,61.18,60.16,60.34,155500,60.34
2012-04-13,61.10,61.22,60.69,60.97,243300,60.97
2012-04-12,60.76,61.13,60.21,61.06,310100,61.06
2012-04-11,59.96,60.90,59.48,60.56,415200,60.56
2012-04-10,61.75,62.21,59.04,59.41,449000,59.41
2012-04-09,62.20,62.34,61.40,61.66,219600,61.66
2012-04-05,61.52,62.97,61.52,62.76,245200,62.76
2012-04-04,62.50,62.56,61.39,61.78,376000,61.78
2012-04-03,64.14,64.21,62.95,63.01,282100,63.01
2012-04-02,63.50,64.77,63.11,64.37,223100,64.37
2012-03-30,63.22,63.63,62.70,63.45,433100,63.45
2012-03-29,62.84,63.59,62.79,63.11,337000,63.11
2012-03-28,64.07,64.07,63.02,63.25,138400,63.25
2012-03-27,64.53,64.88,63.83,63.98,145300,63.98
2012-03-26,65.17,65.32,64.28,64.37,287300,64.37
2012-03-23,64.99,65.32,64.68,64.91,531000,64.91
2012-03-22,63.68,64.76,63.58,64.63,316100,64.63
2012-03-21,63.04,64.17,62.91,64.01,235500,64.01
2012-03-20,63.55,63.61,63.10,63.23,285000,63.23
2012-03-19,63.74,64.08,63.43,63.97,220500,63.97
2012-03-16,63.60,64.07,63.19,63.99,375300,63.99
2012-03-15,63.19,63.84,62.75,63.49,214900,63.49
2012-03-14,62.76,63.59,62.76,63.11,236100,63.11
2012-03-13,62.62,63.49,62.62,62.89,272000,62.89
2012-03-12,61.21,62.50,61.00,62.47,273700,62.47
2012-03-09,61.36,61.39,60.73,61.09,461700,61.09
2012-03-08,61.08,61.60,60.75,61.04,317700,61.04
2012-03-07,61.01,61.34,60.48,60.54,284300,60.54
2012-03-06,61.91,62.19,60.45,60.90,293600,60.90
2012-03-05,62.55,63.01,62.00,62.35,179200,62.35
2012-03-02,62.90,63.41,62.31,62.56,192000,62.56
2012-03-01,63.30,63.79,62.86,63.24,236500,63.24
2012-02-29,63.25,63.82,62.89,63.41,359100,63.41
2012-02-28,63.70,63.89,63.00,63.56,416700,63.56
2012-02-27,63.01,64.39,61.44,63.57,462000,63.57
2012-02-24,63.59,63.85,62.87,63.43,257800,63.43
2012-02-23,62.58,63.60,62.56,63.50,205200,63.50
2012-02-22,62.92,63.27,62.16,62.72,195900,62.72
2012-02-21,62.92,63.02,62.42,62.70,177300,62.70
2012-02-17,62.40,63.01,62.11,62.85,247900,62.85
2012-02-16,62.31,62.51,61.90,62.51,454000,62.51
2012-02-15,60.44,62.31,60.25,62.22,911600,62.22
2012-02-14,59.93,60.44,59.37,60.02,277300,60.02
2012-02-13,59.04,60.15,58.64,59.97,677400,59.97
2012-02-10,58.44,58.76,58.18,58.59,431700,58.59
2012-02-09,58.26,58.88,58.05,58.79,570700,58.79
2012-02-08,57.91,58.16,57.84,58.12,391400,58.12
2012-02-07,58.26,58.26,57.62,57.84,199000,57.84
2012-02-06,57.95,58.61,57.78,58.31,94900,58.31
2012-02-03,58.10,58.52,58.00,58.17,321600,58.17
2012-02-02,58.48,58.69,57.56,57.80,154400,57.80
2012-02-01,57.96,58.69,57.96,58.28,312800,58.28
2012-01-31,57.11,57.69,56.92,57.64,193500,57.64
2012-01-30,57.18,57.24,56.60,56.83,344100,56.83
2012-01-27,58.09,58.47,57.47,57.61,559600,57.61
2012-01-26,58.17,59.11,57.98,58.49,658500,58.49
2012-01-25,56.53,57.75,56.53,57.71,594800,57.71
2012-01-24,56.47,57.37,56.38,56.64,510300,56.64
2012-01-23,57.01,57.29,56.05,57.00,539500,57.00
2012-01-20,56.94,57.22,56.50,57.01,286900,57.01
2012-01-19,56.43,57.47,56.43,56.97,425500,56.97
2012-01-18,56.91,56.98,56.20,56.44,153100,56.44
2012-01-17,57.37,58.38,56.78,56.97,454000,56.97
2012-01-13,57.45,57.65,56.86,56.96,350100,56.96
2012-01-12,56.71,57.64,56.23,57.46,1292200,57.46
2012-01-11,56.54,57.12,56.12,56.15,362200,56.15
2012-01-10,57.00,57.38,56.49,56.66,434700,56.66
2012-01-09,56.75,56.92,56.32,56.75,341700,56.75
2012-01-06,56.99,56.99,56.25,56.62,274100,56.62
2012-01-05,56.77,57.00,56.13,56.98,571700,56.98
2012-01-04,57.00,57.64,56.70,56.81,379900,56.81
2012-01-03,57.52,57.79,57.00,57.19,792200,57.19
2011-12-30,57.03,57.47,56.55,56.94,222300,56.94
2011-12-29,56.19,57.27,56.07,56.88,701000,56.88
2011-12-28,56.23,56.23,55.03,55.96,232500,55.96
2011-12-27,56.36,56.43,55.99,56.14,280600,56.14
2011-12-23,55.74,56.60,55.65,56.30,833400,56.30
2011-12-22,55.79,56.02,55.51,55.74,322300,55.74
2011-12-21,55.30,55.90,54.89,55.60,439400,55.60
2011-12-20,55.75,56.21,54.59,55.42,1534400,55.42
2011-12-19,54.25,54.68,52.51,52.74,439900,52.74
2011-12-16,53.62,55.18,53.45,54.52,2165100,54.52
2011-12-15,53.18,53.65,52.67,53.10,355000,53.10
2011-12-14,52.98,53.22,51.87,52.54,304700,52.54
2011-12-13,53.40,53.97,52.47,52.67,190600,52.67
2011-12-12,52.21,52.98,51.79,52.81,215100,52.81
2011-12-09,51.21,53.00,51.21,52.94,310000,52.94
2011-12-08,52.71,52.86,51.00,51.17,144000,51.17
2011-12-07,53.08,53.31,52.57,52.94,323000,52.94
2011-12-06,51.74,53.02,51.72,52.97,268900,52.97
2011-12-05,53.26,53.58,51.72,52.04,389400,52.04
2011-12-02,52.62,53.27,52.52,53.08,521400,53.08
2011-12-01,52.79,53.39,52.36,52.81,391000,52.81
2011-11-30,54.12,54.35,52.85,52.87,1685600,52.87
2011-11-29,52.83,53.03,52.30,52.64,577500,52.64
2011-11-28,53.09,53.09,52.54,52.75,473700,52.75
2011-11-25,50.91,52.32,50.91,51.85,210100,51.85
2011-11-23,52.16,52.39,50.77,50.98,295700,50.98
2011-11-22,52.02,52.93,51.99,52.46,267900,52.46
2011-11-21,52.23,52.84,51.68,52.07,354500,52.07
2011-11-18,52.31,53.15,51.81,52.91,387900,52.91
2011-11-17,51.49,52.65,51.49,52.20,380900,52.20
2011-11-16,52.25,53.61,51.46,51.50,461300,51.50
2011-11-15,52.31,53.38,52.31,53.18,442500,53.18
2011-11-14,53.45,53.45,52.18,52.45,354100,52.45
2011-11-11,53.35,54.07,52.97,53.61,302400,53.61
2011-11-10,51.86,52.76,51.11,52.69,231600,52.69
2011-11-09,52.27,53.37,51.00,51.23,217900,51.23
2011-11-08,52.94,53.85,52.73,53.45,225600,53.45
2011-11-07,52.36,52.92,51.47,52.85,422700,52.85
2011-11-04,50.66,53.16,50.66,52.71,673300,52.71
2011-11-03,48.70,50.80,48.34,50.66,672900,50.66
2011-11-02,47.00,48.27,46.98,48.19,720700,48.19
2011-11-01,45.24,47.80,43.98,46.85,865700,46.85
2011-10-31,45.29,47.21,45.29,45.94,790700,45.94
2011-10-28,49.44,49.44,45.15,45.58,1241400,45.58
2011-10-27,50.95,51.98,49.27,49.58,505500,49.58
2011-10-26,50.18,50.51,49.57,50.22,347300,50.22
2011-10-25,50.46,50.69,49.13,49.64,283900,49.64
2011-10-24,49.98,50.60,49.55,50.42,263900,50.42
2011-10-21,49.64,50.10,48.91,49.75,172900,49.75
2011-10-20,48.80,49.39,47.80,49.00,196900,49.00
2011-10-19,50.15,50.48,48.66,48.78,281100,48.78
2011-10-18,49.33,50.59,48.92,50.26,205600,50.26
2011-10-17,48.60,49.29,48.54,49.00,112900,49.00
2011-10-14,49.19,49.44,48.77,49.04,69800,49.04
2011-10-13,48.61,49.01,48.12,48.57,134600,48.57
2011-10-12,48.64,49.48,48.64,49.08,144400,49.08
2011-10-11,48.17,48.93,48.06,48.44,187200,48.44
2011-10-10,47.52,49.00,47.51,48.65,134200,48.65
2011-10-07,47.47,47.93,46.52,46.63,110900,46.63
2011-10-06,46.46,47.63,46.04,47.18,190600,47.18
2011-10-05,45.28,46.78,44.82,46.59,389000,46.59
2011-10-04,43.09,45.12,41.84,45.10,562700,45.10
2011-10-03,46.58,47.34,43.66,43.67,519700,43.67
2011-09-30,47.27,47.85,46.70,46.84,241600,46.84
2011-09-29,49.93,50.80,47.16,48.12,331500,48.12
2011-09-28,50.67,51.27,48.99,49.20,376200,49.20
2011-09-27,50.12,51.23,49.56,50.05,252300,50.05
2011-09-26,47.88,49.35,46.54,49.21,253300,49.21
2011-09-23,46.10,47.68,46.10,47.58,218700,47.58
2011-09-22,46.95,47.71,45.69,46.27,187600,46.27
2011-09-21,49.38,50.11,48.16,48.16,160600,48.16
2011-09-20,49.32,50.18,49.32,49.45,222700,49.45
2011-09-19,48.62,49.35,47.62,49.11,184300,49.11
2011-09-16,49.50,49.95,49.10,49.34,249300,49.34
2011-09-15,49.65,50.00,49.07,49.43,261600,49.43
2011-09-14,48.04,49.58,47.76,49.23,212800,49.23
2011-09-13,47.04,48.18,46.64,47.64,224400,47.64
2011-09-12,46.10,47.13,45.83,46.86,339200,46.86
2011-09-09,48.46,48.90,46.41,46.71,321400,46.71
2011-09-08,49.35,49.89,48.65,48.89,433900,48.89
2011-09-07,48.70,50.27,48.69,49.62,225800,49.62
2011-09-06,48.00,48.44,46.93,47.91,368400,47.91
2011-09-02,49.13,49.60,48.48,48.88,234000,48.88
2011-09-01,49.99,50.85,49.54,49.63,396000,49.63
2011-08-31,50.25,51.68,49.60,49.88,395700,49.88
2011-08-30,49.51,50.66,49.00,49.99,350400,49.99
2011-08-29,48.09,50.00,47.99,49.71,607700,49.71
2011-08-26,46.17,48.07,44.85,47.64,357000,47.64
2011-08-25,47.99,48.14,46.31,46.49,291300,46.49
2011-08-24,47.21,49.54,46.67,47.60,611200,47.60
2011-08-23,45.33,47.59,44.80,47.43,984500,47.43
2011-08-22,47.55,47.93,45.15,45.29,342500,45.29
2011-08-19,45.46,47.65,45.46,46.59,624600,46.59
2011-08-18,47.48,47.93,45.42,45.98,510400,45.98
2011-08-17,48.73,49.67,47.63,48.45,588400,48.45
2011-08-16,48.82,49.81,48.44,48.53,552500,48.53
2011-08-15,47.59,49.57,47.59,49.26,766500,49.26
2011-08-12,47.29,48.21,46.56,47.23,545100,47.23
2011-08-11,44.33,47.79,43.67,46.96,838300,46.96
2011-08-10,44.40,45.68,43.57,44.35,583200,44.35
2011-08-09,42.68,45.73,42.46,45.19,1320900,45.19
2011-08-08,45.00,45.16,41.33,42.06,1830200,42.06
2011-08-05,48.40,48.55,43.03,46.06,1453800,46.06
2011-08-04,50.68,50.68,47.08,47.08,1069300,47.08
2011-08-03,51.01,51.99,49.71,51.36,585600,51.36
2011-08-02,53.44,54.40,50.92,50.99,849300,50.99
2011-08-01,54.01,56.17,52.89,53.28,535500,53.28
2011-07-29,54.46,54.46,53.83,54.00,460800,54.00
2011-07-28,57.35,58.06,54.52,54.74,638200,54.74
2011-07-27,58.72,59.02,57.16,57.35,375300,57.35
2011-07-26,59.07,59.37,58.61,58.99,106500,58.99
2011-07-25,59.55,59.69,58.86,59.12,290000,59.12
2011-07-22,59.57,59.96,59.18,59.75,242800,59.75
2011-07-21,58.73,60.00,58.22,59.51,606500,59.51
2011-07-20,57.76,59.05,57.76,58.78,421800,58.78
2011-07-19,56.84,58.11,56.84,57.41,412100,57.41
2011-07-18,57.15,57.28,55.96,56.28,207700,56.28
2011-07-15,56.96,57.62,56.96,57.34,191500,57.34
2011-07-14,56.83,57.29,56.51,56.86,327500,56.86
2011-07-13,56.76,57.35,56.24,56.76,244200,56.76
2011-07-12,56.32,57.16,56.32,56.72,265300,56.72
2011-07-11,57.48,58.47,56.13,56.51,286800,56.51
2011-07-08,58.20,58.89,57.52,57.80,477800,57.80
2011-07-07,59.00,59.23,58.53,58.54,360700,58.54
2011-07-06,58.29,59.14,57.92,58.98,740200,58.98
2011-07-05,56.67,58.76,56.50,57.97,930300,57.97
2011-07-01,54.50,55.43,54.25,55.15,495500,55.15
2011-06-30,54.52,54.85,54.05,54.26,556600,54.26
2011-06-29,54.63,54.72,53.97,54.36,383000,54.36
2011-06-28,54.51,54.89,53.96,54.57,362500,54.57
2011-06-27,54.36,54.76,53.61,54.09,629600,54.09
2011-06-24,55.86,55.93,53.02,54.41,6393700,54.41
2011-06-23,56.98,57.05,54.98,55.52,573900,55.52
2011-06-22,56.08,58.15,56.08,57.14,658700,57.14
2011-06-21,56.16,56.82,55.93,56.20,431300,56.20
2011-06-20,56.56,56.66,55.48,56.03,486900,56.03
2011-06-17,56.15,56.99,55.77,56.81,1265600,56.81
2011-06-16,55.65,56.36,55.05,56.01,303800,56.01
2011-06-15,55.50,56.40,55.35,55.70,477000,55.70
2011-06-14,55.62,56.65,55.47,55.96,437300,55.96
2011-06-13,57.82,57.87,51.90,55.46,985400,55.46
2011-06-10,57.75,57.94,56.64,57.50,395400,57.50
2011-06-09,57.89,58.06,57.60,57.77,255500,57.77
2011-06-08,57.89,58.30,57.50,57.94,349600,57.94
2011-06-07,57.64,58.40,57.19,57.87,404800,57.87
2011-06-06,57.05,57.64,57.05,57.38,209500,57.38
2011-06-03,56.97,58.13,56.85,57.78,311800,57.78
2011-06-02,56.73,57.75,56.73,57.39,189200,57.39
2011-06-01,56.48,57.29,56.12,56.70,216700,56.70
2011-05-31,56.60,58.23,56.45,56.49,213100,56.49
2011-05-27,55.80,56.32,55.80,56.23,195800,56.23
2011-05-26,55.58,56.55,55.34,55.68,136100,55.68
2011-05-25,55.96,56.08,55.33,55.75,60800,55.75
2011-05-24,55.97,56.59,55.76,55.99,133000,55.99
2011-05-23,56.60,56.73,55.27,55.79,121700,55.79
2011-05-20,57.64,57.64,56.62,57.00,77100,57.00
2011-05-19,57.50,57.66,57.19,57.62,219500,57.62
2011-05-18,56.37,57.69,56.25,57.36,288900,57.36
2011-05-17,57.52,57.74,55.90,56.18,246900,56.18
2011-05-16,57.69,58.92,57.43,57.77,281000,57.77
2011-05-13,58.66,59.06,57.61,57.86,174600,57.86
2011-05-12,58.36,59.09,58.29,59.00,204400,59.00
2011-05-11,57.98,59.23,57.98,58.67,232100,58.67
2011-05-10,57.14,58.44,56.87,58.33,151300,58.33
2011-05-09,58.10,58.50,57.49,57.85,238600,57.85
2011-05-06,57.96,58.48,57.46,58.00,208000,58.00
2011-05-05,58.04,58.51,57.28,57.53,217800,57.53
2011-05-04,58.63,58.92,58.10,58.26,140000,58.26
2011-05-03,57.96,59.99,57.36,58.71,173300,58.71
2011-05-02,59.01,60.57,58.99,59.30,433300,59.30
2011-04-29,58.47,61.15,58.02,58.94,556000,58.94
2011-04-28,56.07,58.69,56.05,58.64,345500,58.64
2011-04-27,55.30,56.42,54.80,56.12,379000,56.12
2011-04-26,55.00,55.44,54.80,55.28,173400,55.28
2011-04-25,54.83,55.01,54.57,54.86,165800,54.86
2011-04-21,55.13,55.25,54.48,54.88,127100,54.88
2011-04-20,55.12,55.44,54.66,54.80,164100,54.80
2011-04-19,55.04,55.24,54.28,54.76,198100,54.76
2011-04-18,54.98,55.80,54.49,54.74,133000,54.74
2011-04-15,55.17,55.58,55.08,55.30,206200,55.30
2011-04-14,54.20,55.35,54.20,55.28,251700,55.28
2011-04-13,54.96,55.37,54.65,54.87,72000,54.87
2011-04-12,53.83,54.80,53.26,54.75,228100,54.75
2011-04-11,53.76,54.61,52.47,54.25,233400,54.25
2011-04-08,55.42,55.47,54.24,54.81,135700,54.81
2011-04-07,55.42,55.54,54.50,55.41,409800,55.41
2011-04-06,54.04,55.56,53.98,55.49,954700,55.49
2011-04-05,52.15,53.02,51.95,52.88,178900,52.88
2011-04-04,51.84,52.06,51.57,51.99,125800,51.99
2011-04-01,51.01,51.89,50.95,51.66,276700,51.66
2011-03-31,49.76,50.69,49.65,50.63,345800,50.63
2011-03-30,49.47,49.81,49.19,49.49,237000,49.49
2011-03-29,49.49,49.49,48.89,49.17,241200,49.17
2011-03-28,49.01,50.02,49.01,49.21,247700,49.21
2011-03-25,49.74,50.40,49.44,49.81,572500,49.81
2011-03-24,49.99,50.31,48.72,49.88,411600,49.88
2011-03-23,48.92,49.34,48.46,48.83,68100,48.83
2011-03-22,49.61,49.92,48.56,48.67,158300,48.67
2011-03-21,48.41,49.13,48.12,48.88,81000,48.88
2011-03-18,47.06,48.59,47.06,48.37,414900,48.37
2011-03-17,46.03,47.15,46.03,47.05,64300,47.05
2011-03-16,45.32,46.66,45.32,45.98,285400,45.98
2011-03-15,45.78,46.14,45.23,45.55,76900,45.55
2011-03-14,47.71,47.71,46.48,46.52,95500,46.52
2011-03-11,46.25,48.00,46.24,47.81,58000,47.81
2011-03-10,47.58,47.83,47.14,47.48,207500,47.48
2011-03-09,48.15,48.45,47.87,48.00,145200,48.00
2011-03-08,48.50,48.67,47.98,48.15,68700,48.15
2011-03-07,47.51,48.75,47.23,48.22,170600,48.22
2011-03-04,47.34,48.20,47.33,47.99,134900,47.99
2011-03-03,48.41,49.21,47.57,47.85,203800,47.85
2011-03-02,47.61,49.69,46.46,48.82,333300,48.82
2011-03-01,45.55,48.35,45.55,46.93,249600,46.93
2011-02-28,45.97,46.59,45.75,45.77,185400,45.77
2011-02-25,45.11,45.60,44.66,45.50,597600,45.50
2011-02-24,45.14,45.24,44.76,45.00,30800,45.00
2011-02-23,45.94,46.84,44.77,44.97,86200,44.97
2011-02-22,46.26,46.72,45.63,45.69,61100,45.69
2011-02-18,46.63,46.75,46.10,46.44,40700,46.44
2011-02-17,46.06,46.81,46.05,46.57,62800,46.57
2011-02-16,47.03,47.20,45.95,46.32,266200,46.32
2011-02-15,47.05,47.37,46.98,47.10,160700,47.10
2011-02-14,46.92,47.49,46.78,47.35,638200,47.35
2011-02-11,46.06,47.46,46.06,47.00,837900,47.00
2011-02-10,45.41,46.26,45.16,46.10,284200,46.10
2011-02-09,43.96,45.50,43.70,45.31,687900,45.31
2011-02-08,42.24,44.20,41.95,43.88,744300,43.88
2011-02-07,42.00,42.02,41.88,41.99,99800,41.99
2011-02-04,42.11,42.11,41.86,41.99,151500,41.99
2011-02-03,41.59,42.09,41.59,42.00,665000,42.00
2011-02-02,41.83,42.00,41.59,41.62,52900,41.62
2011-02-01,41.93,42.00,41.62,41.64,101100,41.64
2011-01-31,42.24,42.53,40.50,42.00,81400,42.00
2011-01-28,42.23,42.23,41.22,42.04,38100,42.04
2011-01-27,42.31,42.50,42.12,42.12,19700,42.12
2011-01-26,41.27,42.58,40.76,42.26,1024600,42.26
2011-01-25,41.24,42.02,41.08,41.66,100900,41.66
2011-01-24,41.20,41.54,41.05,41.29,92600,41.29
2011-01-21,41.21,41.40,41.08,41.13,154300,41.13
2011-01-20,41.50,41.68,41.07,41.10,217200,41.10
2011-01-19,41.12,41.86,41.00,41.50,345100,41.50
2011-01-18,40.91,41.04,40.59,40.99,36100,40.99
2011-01-14,40.05,41.26,40.05,40.93,243900,40.93
2011-01-13,40.00,40.24,39.74,40.02,122800,40.02
2011-01-12,39.10,40.86,38.76,39.87,472100,39.87
2011-01-11,39.30,39.30,38.89,39.04,86800,39.04
2011-01-10,38.92,39.27,38.84,39.15,134900,39.15
2011-01-07,39.26,39.26,38.39,39.18,101300,39.18
2011-01-06,39.59,39.81,39.10,39.22,53400,39.22
2011-01-05,38.54,39.70,38.54,39.57,403000,39.57
2011-01-04,38.49,39.83,38.35,39.60,336100,39.60
2011-01-03,39.08,39.20,38.20,38.46,57100,38.46
2010-12-31,38.12,39.00,38.11,38.94,9800,38.94
2010-12-30,38.21,38.60,38.00,38.51,10100,38.51
2010-12-29,38.23,38.76,37.97,38.50,8900,38.50
2010-12-28,38.41,38.50,38.13,38.31,11600,38.31
2010-12-27,37.86,38.20,37.86,38.17,5700,38.17
2010-12-23,38.50,38.50,38.08,38.11,4000,38.11
2010-12-22,38.23,38.52,38.00,38.50,1046700,38.50
2010-12-21,38.04,38.48,38.00,38.22,139300,38.22
2010-12-20,38.83,39.00,38.01,38.04,40000,38.04
2010-12-17,37.73,38.74,37.42,38.67,357400,38.67
2010-12-16,37.94,37.94,37.40,37.73,144100,37.73
2010-12-15,36.82,38.94,36.82,38.00,268900,38.00
2010-12-14,36.78,37.15,36.60,37.01,307000,37.01
2010-12-13,36.56,37.40,36.17,36.81,418800,36.81
2010-12-10,36.31,36.38,35.61,36.00,619100,36.00
2010-12-09,35.96,36.00,35.42,35.70,75800,35.70
2010-12-08,35.70,36.00,35.35,35.92,56500,35.92
2010-12-07,35.43,36.48,35.38,35.74,848100,35.74
2010-12-06,34.80,35.51,34.80,35.44,182900,35.44
2010-12-03,33.92,35.14,33.92,35.07,46800,35.07
2010-12-02,32.92,34.60,32.83,34.50,290000,34.50
2010-12-01,33.96,34.84,33.74,34.38,121700,34.38
2010-11-30,34.00,34.26,33.10,33.52,82300,33.52
2010-11-29,34.53,34.84,34.09,34.09,81800,34.09
2010-11-26,34.81,35.07,34.54,34.90,11500,34.90
2010-11-24,34.53,35.24,34.53,34.99,14100,34.99
2010-11-23,35.07,35.13,34.68,35.05,93300,35.05
2010-11-22,35.42,35.51,35.00,35.31,25000,35.31
2010-11-19,36.00,36.00,34.95,35.69,54200,35.69
2010-11-18,36.09,36.09,35.66,35.81,48500,35.81
2010-11-17,36.00,36.56,35.41,35.79,161300,35.79
2010-11-16,35.87,36.00,34.74,35.87,17500,35.87
2010-11-15,35.96,36.00,35.78,35.87,22600,35.87
2010-11-12,35.95,35.99,35.08,35.83,38800,35.83
2010-11-11,36.35,37.17,35.90,36.00,123900,36.00
2010-11-10,35.95,36.09,35.40,35.90,232100,35.90
2010-11-09,35.88,36.27,35.75,35.80,112000,35.80
2010-11-08,35.76,36.00,35.41,35.79,48500,35.79
2010-11-05,35.90,36.35,34.59,35.72,63800,35.72
2010-11-04,34.00,36.25,33.62,35.75,496100,35.75
2010-11-03,31.76,33.99,31.75,33.35,190500,33.35
2010-11-02,32.61,32.74,32.20,32.51,57400,32.51
2010-11-01,33.35,33.37,32.03,32.55,53000,32.55
2010-10-29,32.61,32.61,31.36,32.48,22900,32.48
2010-10-28,32.47,32.88,32.16,32.47,4100,32.47
2010-10-27,32.51,32.95,32.25,32.46,12200,32.46
2010-10-26,32.92,33.30,32.61,32.66,7700,32.66
2010-10-25,33.02,33.21,32.31,32.50,28200,32.50
2010-10-22,33.00,33.12,32.93,33.12,271100,33.12
2010-10-21,33.00,33.09,32.35,32.93,262000,32.93
2010-10-20,33.18,33.25,32.87,32.98,156800,32.98
2010-10-19,32.75,33.39,32.60,33.09,51200,33.09
2010-10-18,33.17,33.17,32.31,32.90,172500,32.90
2010-10-15,33.30,33.49,32.71,33.29,1233000,33.29
2010-10-14,32.50,33.20,32.38,33.00,438700,33.00
2010-10-13,33.00,33.02,32.01,32.50,113000,32.50
2010-10-12,32.82,33.24,32.82,32.90,143700,32.90
2010-10-11,32.50,33.00,32.50,32.85,63600,32.85
2010-10-08,32.50,32.50,32.00,32.00,16200,32.00
2010-10-07,32.50,32.50,32.10,32.17,37300,32.17
2010-10-06,32.41,32.90,32.41,32.42,13900,32.42
2010-10-05,32.97,33.00,32.21,32.90,22500,32.90
2010-10-04,33.75,33.75,32.00,32.98,28200,32.98
2010-10-01,33.50,33.50,32.40,33.10,47200,33.10
2010-09-30,33.01,33.03,32.01,32.50,83300,32.50
2010-09-29,33.49,33.50,33.00,33.34,182900,33.34
2010-09-28,33.44,33.49,33.44,33.49,200,33.49
2010-09-27,33.49,33.50,33.05,33.05,20100,33.05
2010-09-24,33.57,34.00,33.00,33.80,6900,33.80
2010-09-23,33.03,33.50,33.03,33.30,7100,33.30
2010-09-22,34.00,34.00,33.00,33.50,5800,33.50
2010-09-21,33.64,34.50,33.00,33.84,20500,33.84
2010-09-20,34.50,34.50,34.15,34.50,80200,34.50
2010-09-17,34.75,34.75,34.30,34.50,9400,34.50
2010-09-16,34.10,34.60,33.46,34.11,35300,34.11
2010-09-15,34.06,34.75,34.06,34.75,73000,34.75
2010-09-14,38.00,38.00,34.50,35.50,94400,35.50
2010-09-13,34.25,35.10,34.25,35.00,153700,35.00
2010-09-10,34.20,34.20,34.00,34.00,15400,34.00
2010-09-09,34.00,34.20,34.00,34.20,13200,34.20
2010-09-08,34.00,34.00,34.00,34.00,000,34.00
2010-09-07,34.00,34.00,34.00,34.00,000,34.00
2010-09-03,34.00,34.00,34.00,34.00,200,34.00
2010-09-02,33.80,33.80,33.80,33.80,200,33.80
2010-09-01,34.00,34.50,34.00,34.00,78100,34.00
2010-08-31,33.75,33.75,33.75,33.75,000,33.75
2010-08-30,33.75,33.75,33.75,33.75,000,33.75
2010-08-27,34.00,34.00,33.75,33.75,2300,33.75
2010-08-26,34.50,34.50,34.25,34.25,50400,34.25
2010-08-25,34.50,34.50,34.50,34.50,300,34.50
2010-08-24,34.75,34.75,34.75,34.75,200,34.75
2010-08-23,35.05,35.05,35.00,35.00,1200,35.00
2010-08-20,35.50,35.50,35.00,35.00,50300,35.00
2010-08-19,35.50,35.50,35.10,35.10,4500,35.10
2010-08-18,35.05,35.05,35.05,35.05,000,35.05
2010-08-17,35.00,35.55,35.00,35.05,166600,35.05
2010-08-16,35.75,35.75,35.55,35.55,5400,35.55
2010-08-13,36.20,36.20,36.00,36.15,1700,36.15
2010-08-12,36.20,36.20,36.20,36.20,000,36.20
2010-08-11,36.15,36.26,36.10,36.20,50200,36.20
2010-08-10,36.25,36.25,36.20,36.20,138300,36.20
2010-08-09,36.15,36.18,36.10,36.15,200200,36.15
2010-08-06,36.10,36.25,36.10,36.25,25300,36.25
2010-08-05,36.25,36.25,36.25,36.25,35500,36.25
2010-08-04,36.25,36.50,36.25,36.50,30100,36.50
2010-08-03,36.25,36.25,36.25,36.25,13200,36.25
2010-08-02,36.40,36.54,36.40,36.50,380200,36.50
2010-07-30,36.50,36.50,36.50,36.50,105600,36.50
2010-07-29,35.50,36.75,35.50,36.25,824200,36.25
2010-07-28,35.75,35.75,35.50,35.50,300,35.50
2010-07-27,35.25,35.50,35.25,35.50,21100,35.50
2010-07-26,35.30,35.50,35.00,35.00,16700,35.00
2010-07-23,35.70,35.70,35.00,35.00,16000,35.00
2010-07-22,35.25,35.45,35.05,35.05,26000,35.05
2010-07-21,35.75,35.75,35.25,35.25,8600,35.25
2010-07-20,35.75,35.75,35.50,35.50,5800,35.50
2010-07-19,35.40,35.85,35.00,35.00,20200,35.00
2010-07-16,35.30,35.40,34.50,35.40,7700,35.40
2010-07-15,35.60,35.60,35.30,35.45,87100,35.45
2010-07-14,36.25,36.50,35.55,35.55,15500,35.55
2010-07-13,36.05,36.25,35.95,36.05,101400,36.05
2010-07-12,36.25,36.25,36.25,36.25,5000,36.25
2010-07-09,36.25,36.25,36.20,36.20,10400,36.20
2010-07-08,36.50,36.50,36.00,36.00,2300,36.00
2010-07-07,36.50,37.00,36.00,36.50,117400,36.50
2010-07-06,35.65,36.50,35.65,36.50,2500,36.50
2010-07-02,35.45,35.50,35.45,35.50,10400,35.50
2010-07-01,35.50,35.50,35.50,35.50,45200,35.50
2010-06-30,35.35,35.35,35.25,35.30,1000,35.30
2010-06-29,35.30,35.50,35.15,35.50,2700,35.50
2010-06-28,35.25,35.35,35.00,35.35,12300,35.35
2010-06-25,35.60,35.60,35.60,35.60,000,35.60
2010-06-24,35.60,35.60,35.60,35.60,200,35.60
2010-06-23,35.65,35.65,35.65,35.65,1300,35.65
2010-06-22,35.30,35.50,35.30,35.50,1900,35.50
2010-06-21,35.25,35.25,35.25,35.25,400,35.25
2010-06-18,34.75,35.25,34.75,35.25,128800,35.25
2010-06-17,34.25,34.95,34.25,34.75,24300,34.75
2010-06-16,34.50,34.70,34.50,34.70,1100,34.70
2010-06-15,34.10,34.55,34.00,34.50,23200,34.50
2010-06-14,34.75,34.75,34.10,34.10,15200,34.10
2010-06-11,34.25,34.55,34.25,34.50,20200,34.50
2010-06-10,34.52,34.52,34.52,34.52,000,34.52
2010-06-09,34.00,34.75,34.00,34.52,405800,34.52
2010-06-08,34.00,34.50,33.80,34.50,159700,34.50
2010-06-07,34.75,35.00,33.75,33.75,211300,33.75
2010-06-04,35.00,35.00,34.75,35.00,2700,35.00
2010-06-03,35.00,35.00,35.00,35.00,2200,35.00
2010-06-02,35.25,35.30,35.00,35.00,8300,35.00
2010-06-01,36.00,36.00,35.88,35.88,43800,35.88
2010-05-28,36.00,36.00,36.00,36.00,400,36.00
2010-05-27,36.13,36.15,36.00,36.00,145500,36.00
2010-05-26,36.00,36.00,36.00,36.00,5000,36.00
2010-05-25,36.00,36.50,35.25,36.00,5300,36.00
2010-05-24,36.50,36.50,36.25,36.30,72100,36.30
2010-05-21,36.80,36.80,36.50,36.75,1900,36.75
2010-05-20,38.00,38.00,37.00,37.00,126600,37.00
2010-05-19,37.00,38.20,37.00,38.20,5800,38.20
2010-05-18,37.00,37.25,37.00,37.25,6000,37.25
2010-05-17,37.60,38.00,37.60,38.00,4400,38.00
2010-05-14,37.65,37.65,37.50,37.60,900,37.60
2010-05-13,38.00,38.00,38.00,38.00,000,38.00
2010-05-12,38.00,38.00,38.00,38.00,3200,38.00
2010-05-11,37.75,38.00,37.75,38.00,2200,38.00
2010-05-10,37.50,38.25,37.50,37.75,41000,37.75
2010-05-07,37.80,38.00,37.50,37.85,4000,37.85
2010-05-06,39.00,39.00,37.00,38.35,43500,38.35
2010-05-05,39.50,39.75,39.00,39.50,83100,39.50
2010-05-04,39.50,39.99,39.00,39.75,9700,39.75
2010-05-03,38.50,39.50,38.50,39.50,26600,39.50
2010-04-30,37.50,38.00,37.25,37.90,130400,37.90
2010-04-29,36.50,37.25,36.50,37.25,50400,37.25
2010-04-28,36.50,36.50,36.33,36.50,16800,36.50
2010-04-27,36.50,36.50,36.50,36.50,1700,36.50
2010-04-26,36.27,36.50,36.27,36.50,3700,36.50
2010-04-23,36.25,36.25,36.25,36.25,2700,36.25
2010-04-22,36.00,36.00,35.95,36.00,16400,36.00
2010-04-21,35.51,35.51,35.51,35.51,100,35.51
2010-04-20,36.01,36.01,36.01,36.01,000,36.01
2010-04-19,36.00,36.05,36.00,36.01,36600,36.01
2010-04-16,36.10,36.10,36.10,36.10,900,36.10
2010-04-15,35.45,36.00,35.30,36.00,11700,36.00
2010-04-14,35.25,35.75,35.25,35.25,35000,35.25
2010-04-13,35.00,35.00,35.00,35.00,000,35.00
2010-04-12,34.75,35.25,34.75,35.00,190400,35.00
2010-04-09,34.55,34.70,34.55,34.70,50500,34.70
2010-04-08,34.55,34.55,34.55,34.55,000,34.55
2010-04-07,34.55,35.00,34.55,34.55,51800,34.55
2010-04-06,35.00,35.00,34.55,34.55,1300,34.55
2010-04-05,34.50,35.00,34.50,35.00,45500,35.00
2010-04-01,34.50,35.00,34.35,35.00,59600,35.00
2010-03-31,34.50,34.50,34.25,34.50,91700,34.50
2010-03-30,34.50,34.52,34.45,34.45,44000,34.45
2010-03-29,34.50,35.00,34.40,34.50,205600,34.50
2010-03-26,35.00,35.00,34.75,34.75,57800,34.75
2010-03-25,34.75,35.00,34.50,34.50,91000,34.50
2010-03-24,35.00,35.00,35.00,35.00,1400,35.00
2010-03-23,34.25,35.25,34.25,35.00,53700,35.00
2010-03-22,34.75,34.75,34.25,34.43,6000,34.43
2010-03-19,34.75,34.75,34.50,34.75,1300,34.75
2010-03-18,34.00,34.75,34.00,34.75,15400,34.75
2010-03-17,33.00,34.00,33.00,34.00,115000,34.00
2010-03-16,32.25,33.00,32.25,32.75,16500,32.75
2010-03-15,33.00,33.50,32.50,33.00,247100,33.00
2010-03-12,33.00,33.00,32.50,32.50,207600,32.50
2010-03-11,33.00,33.00,32.50,32.50,33100,32.50
2010-03-10,32.95,33.00,32.00,33.00,111000,33.00
2010-03-09,32.00,32.75,31.98,32.75,134900,32.75
2010-03-08,31.50,31.75,31.50,31.75,49100,31.75
2010-03-05,31.25,31.75,31.25,31.75,48900,31.75
2010-03-04,31.00,31.50,30.75,31.02,17000,31.02
2010-03-03,30.50,30.75,30.50,30.75,131800,30.75
2010-03-02,30.10,30.40,30.00,30.40,29100,30.40
2010-03-01,29.75,30.10,29.75,30.10,24800,30.10
2010-02-26,29.25,29.75,29.25,29.75,2700,29.75
2010-02-25,29.50,29.70,29.50,29.50,2800,29.50
2010-02-24,29.70,29.70,29.70,29.70,000,29.70
2010-02-23,29.70,29.70,29.70,29.70,000,29.70
2010-02-22,29.10,29.72,29.10,29.70,19700,29.70
2010-02-19,29.70,29.70,29.70,29.70,000,29.70
2010-02-18,29.10,29.70,29.10,29.70,1700,29.70
2010-02-17,29.74,29.74,29.74,29.74,000,29.74
2010-02-16,29.74,29.74,29.74,29.74,000,29.74
2010-02-12,29.74,29.74,29.74,29.74,100,29.74
2010-02-11,29.74,29.74,29.50,29.74,10000,29.74
2010-02-10,29.40,29.85,29.40,29.75,107600,29.75
2010-02-09,29.10,29.80,29.10,29.80,29700,29.80
2010-02-08,30.00,30.00,29.75,29.85,47400,29.85
2010-02-05,30.48,30.50,30.00,30.50,1800,30.50
2010-02-04,30.00,30.25,30.00,30.25,29400,30.25
2010-02-03,30.10,30.10,29.75,29.75,5200,29.75
2010-02-02,30.50,30.50,30.50,30.50,600,30.50
2010-02-01,30.25,30.50,30.25,30.50,3500,30.50
2010-01-29,30.85,30.85,30.50,30.63,30700,30.63
2010-01-28,31.00,31.00,30.75,30.75,10400,30.75
2010-01-27,30.55,31.00,30.55,30.75,77000,30.75
2010-01-26,31.00,31.00,30.75,30.75,300,30.75
2010-01-25,31.10,31.25,31.00,31.25,1300,31.25
2010-01-22,31.50,31.50,31.50,31.50,200,31.50
2010-01-21,31.50,31.60,31.50,31.60,600,31.60
2010-01-20,31.50,31.75,31.50,31.75,600,31.75
2010-01-19,32.25,32.25,31.75,32.00,19400,32.00
2010-01-15,32.50,32.50,32.25,32.25,45500,32.25
2010-01-14,32.75,32.75,32.75,32.75,150500,32.75
2010-01-13,33.01,33.01,32.50,32.75,226300,32.75
2010-01-12,33.50,33.55,33.50,33.50,5100,33.50
2010-01-11,33.50,33.50,33.50,33.50,3700,33.50
2010-01-08,34.55,34.55,33.50,33.50,32200,33.50
2010-01-07,35.25,35.50,35.00,35.00,9800,35.00
2010-01-06,35.00,35.00,35.00,35.00,000,35.00
2010-01-05,35.00,35.00,35.00,35.00,10000,35.00
