Date,Open,High,Low,Close,Volume,Adj Close
2014-09-12,47.90,48.12,47.75,47.93,1043300,47.93
2014-09-11,48.00,48.21,47.73,47.88,1172000,47.88
2014-09-10,48.50,48.64,47.97,48.17,848200,48.17
2014-09-09,48.90,49.21,48.42,48.50,951500,48.50
2014-09-08,48.53,49.40,48.37,48.92,1425300,48.92
2014-09-05,47.53,49.13,47.53,48.66,1309000,48.66
2014-09-04,47.94,48.14,47.43,47.57,981700,47.57
2014-09-03,47.45,48.48,47.39,47.99,1242000,47.99
2014-09-02,47.30,47.67,47.09,47.47,1060700,47.47
2014-08-29,47.67,47.71,47.04,47.12,591700,47.12
2014-08-28,47.11,47.22,46.64,47.03,786800,47.03
2014-08-27,47.49,47.70,46.77,47.23,830100,47.23
2014-08-26,47.11,47.57,47.07,47.47,776800,47.47
2014-08-25,47.27,47.47,46.99,47.10,557900,47.10
2014-08-22,47.38,47.62,46.95,47.05,845200,47.05
2014-08-21,47.32,47.75,47.07,47.25,816000,47.25
2014-08-20,46.91,47.45,46.60,47.28,923100,47.28
2014-08-19,46.35,46.95,46.35,46.82,863900,46.82
2014-08-18,45.93,46.46,45.73,46.35,946500,46.35
2014-08-15,46.05,46.11,45.59,45.80,1310200,45.80
2014-08-14,45.02,45.59,45.02,45.59,838500,45.59
2014-08-13,44.83,45.09,44.63,44.91,891000,44.91
2014-08-12,45.02,45.38,44.47,44.58,743600,44.58
2014-08-11,44.84,45.29,44.71,45.07,936400,45.07
2014-08-08,43.93,44.77,43.64,44.68,944900,44.68
2014-08-07,43.68,44.11,43.38,43.95,949200,43.95
2014-08-06,43.27,44.31,42.91,43.66,1323800,43.66
2014-08-05,44.44,44.44,43.07,43.47,1803900,43.47
2014-08-04,44.75,44.83,42.96,43.41,2534700,43.41
2014-08-01,46.71,47.90,44.57,44.89,4812800,44.89
2014-07-31,45.87,45.92,45.34,45.49,2381500,45.49
2014-07-30,45.46,46.19,45.26,45.93,2176000,45.93
2014-07-29,44.71,45.44,44.29,45.14,1675300,45.14
2014-07-28,44.89,44.99,44.09,44.67,1063400,44.67
2014-07-25,44.51,44.94,44.46,44.75,975800,44.75
2014-07-24,44.99,45.10,44.63,44.69,1018800,44.69
2014-07-23,44.64,44.92,44.27,44.79,741600,44.79
2014-07-22,44.27,44.75,44.21,44.66,698200,44.66
2014-07-21,43.96,44.25,43.60,44.20,744400,44.20
2014-07-18,44.23,44.26,43.85,44.03,1461600,44.03
2014-07-17,44.34,44.37,43.85,44.01,1054000,44.01
2014-07-16,44.36,45.00,44.18,44.56,1580800,44.56
2014-07-15,43.92,44.58,43.63,44.13,1926900,44.13
2014-07-14,44.44,44.60,43.71,44.22,1056000,44.22
2014-07-11,43.59,44.79,43.32,44.20,1910000,44.20
2014-07-10,43.01,43.56,42.59,43.26,1054100,43.26
2014-07-09,43.63,43.95,43.21,43.44,1102100,43.44
2014-07-08,43.86,43.94,43.12,43.71,1288000,43.71
2014-07-07,44.48,44.59,43.88,44.08,788600,44.08
2014-07-03,44.63,44.78,44.44,44.65,414800,44.65
2014-07-02,44.39,44.60,43.82,44.45,1130600,44.45
2014-07-01,44.14,44.90,44.14,44.39,819100,44.39
2014-06-30,43.92,44.41,43.77,44.16,1007800,44.16
2014-06-27,44.48,44.48,43.97,44.15,1176500,44.15
2014-06-26,44.09,44.50,43.49,44.40,902200,44.40
2014-06-25,44.11,44.24,43.50,43.83,1362100,43.83
2014-06-24,43.84,44.26,43.74,44.18,889700,44.18
2014-06-23,44.21,44.27,43.51,44.11,807700,44.11
2014-06-20,43.64,44.39,43.39,44.16,2286200,44.16
2014-06-19,43.80,43.82,43.09,43.51,1506200,43.51
2014-06-18,43.38,43.75,42.83,43.71,1064700,43.71
2014-06-17,43.48,43.80,43.11,43.51,963400,43.51
2014-06-16,42.99,43.93,42.99,43.59,973300,43.59
2014-06-13,43.34,43.44,42.85,43.06,1359600,43.06
2014-06-12,43.54,43.60,42.61,43.10,2282600,43.10
2014-06-11,43.93,43.95,43.30,43.57,1542500,43.57
2014-06-10,44.27,44.29,43.68,44.01,855800,44.01
2014-06-09,44.35,44.91,44.05,44.22,1062600,44.22
2014-06-06,44.03,44.55,44.01,44.51,1096300,44.51
2014-06-05,43.71,44.12,43.09,43.96,1040000,43.96
2014-06-04,43.30,43.64,42.71,43.51,799300,43.51
2014-06-03,43.28,43.60,43.16,43.34,861800,43.34
2014-06-02,43.83,43.98,43.33,43.59,878300,43.59
2014-05-30,44.01,44.01,43.27,43.76,827500,43.76
2014-05-29,43.42,44.03,43.11,43.85,953300,43.85
2014-05-28,43.47,43.56,42.93,43.23,1539000,43.23
2014-05-27,43.86,44.00,43.20,43.55,1689100,43.55
2014-05-23,44.00,44.49,43.83,44.06,1611000,44.06
2014-05-22,43.80,44.35,43.53,44.30,1478000,44.30
2014-05-21,43.22,43.95,43.05,43.82,1579800,43.82
2014-05-20,42.75,43.19,42.40,43.05,1705500,43.05
2014-05-19,42.60,42.98,42.30,42.78,1332100,42.78
2014-05-16,42.30,42.85,42.19,42.81,1406900,42.81
2014-05-15,42.72,42.72,41.74,42.30,1318600,42.30
2014-05-14,42.77,43.04,42.43,42.57,1818800,42.57
2014-05-13,42.53,43.14,42.51,42.92,2154600,42.92
2014-05-12,41.50,42.70,41.30,42.41,2276800,42.41
2014-05-09,40.04,41.30,40.03,41.25,1723000,41.25
2014-05-08,41.03,41.45,39.97,40.20,2229700,40.20
2014-05-07,41.41,41.41,40.35,41.17,1707500,41.17
2014-05-06,41.95,42.10,41.23,41.24,1416900,41.24
2014-05-05,42.14,42.30,41.76,42.05,1677200,42.05
2014-05-02,42.87,42.95,41.87,42.57,2907100,42.57
2014-05-01,41.71,43.85,41.50,42.50,8945500,42.50
2014-04-30,38.85,38.99,36.98,37.75,5295000,37.75
2014-04-29,38.77,38.94,38.40,38.76,1867400,38.76
2014-04-28,39.04,39.19,38.08,38.73,2266500,38.73
2014-04-25,39.53,39.66,38.48,38.95,2197700,38.95
2014-04-24,39.31,39.38,38.94,38.99,1207900,38.99
2014-04-23,39.34,39.67,39.00,39.04,1251800,39.04
2014-04-22,38.54,39.40,38.54,39.27,2195000,39.27
2014-04-21,39.06,39.45,38.67,38.81,1606000,38.81
2014-04-17,39.93,40.13,38.94,39.09,3613100,39.09
2014-04-16,40.37,40.56,39.49,39.94,2026800,39.94
2014-04-15,40.35,40.43,39.40,40.23,4674100,40.23
2014-04-14,39.38,39.55,38.89,39.48,2852000,39.48
2014-04-11,39.07,39.57,38.61,38.89,4052200,38.89
2014-04-10,42.71,42.71,37.87,39.40,9574600,39.40
2014-04-09,41.32,42.20,41.32,41.89,2459100,41.89
2014-04-08,41.67,41.89,40.72,41.28,3459300,41.28
2014-04-07,42.41,42.41,41.24,41.68,3935100,41.68
2014-04-04,43.93,44.19,42.47,42.64,3979000,42.64
2014-04-03,45.35,45.35,43.63,43.76,3285800,43.76
2014-04-02,45.47,45.91,45.04,45.23,2164600,45.23
2014-04-01,44.87,45.49,44.64,45.36,1777400,45.36
2014-03-31,44.67,45.28,44.13,44.76,2009800,44.76
2014-03-28,45.30,45.57,44.22,44.47,3837100,44.47
2014-03-27,45.44,45.51,44.80,44.98,1482500,44.98
2014-03-26,45.80,46.06,45.09,45.11,3250800,45.11
2014-03-25,45.39,45.81,45.31,45.62,1850000,45.62
2014-03-24,46.39,46.57,44.87,45.32,2335900,45.32
2014-03-21,45.97,46.60,45.67,46.29,3518900,46.29
2014-03-20,45.76,46.22,45.50,45.91,1284700,45.91
2014-03-19,45.86,46.07,45.35,45.84,1473300,45.84
2014-03-18,45.68,46.32,45.32,45.75,2237600,45.75
2014-03-17,45.96,46.61,45.48,45.51,2163300,45.51
2014-03-14,45.66,46.00,44.84,45.87,1798300,45.87
2014-03-13,46.29,46.36,45.55,45.80,1918100,45.80
2014-03-12,45.85,46.34,45.65,46.13,1487700,46.13
2014-03-11,45.90,46.70,45.58,45.95,3479400,45.95
2014-03-10,44.53,45.74,44.13,45.53,3805700,45.53
2014-03-07,44.89,44.92,44.16,44.36,2315600,44.36
2014-03-06,44.67,44.95,44.43,44.62,3931000,44.62
2014-03-05,45.11,45.40,44.35,44.70,2166800,44.70
2014-03-04,45.35,45.62,44.95,45.11,2202500,45.11
2014-03-03,44.60,45.49,44.22,45.00,3036700,45.00
2014-02-28,46.24,46.29,45.00,45.08,5397400,45.08
2014-02-27,46.75,48.64,44.70,46.17,18608300,46.17
2014-02-26,52.77,52.98,51.71,51.81,1715200,51.81
2014-02-25,51.72,52.73,51.35,52.32,1925000,52.32
2014-02-24,51.40,51.85,51.22,51.41,742600,51.41
2014-02-21,52.07,52.07,50.96,51.12,1070700,51.12
2014-02-20,51.64,51.82,50.94,51.70,1756500,51.70
2014-02-19,52.31,52.46,51.61,51.71,1419300,51.71
2014-02-18,51.97,52.88,51.86,52.59,1242600,52.59
2014-02-14,51.51,52.51,51.51,52.29,1070600,52.29
2014-02-13,50.85,52.24,50.64,52.03,1371600,52.03
2014-02-12,51.70,51.70,49.53,51.03,1784000,51.03
2014-02-11,48.60,49.45,48.42,49.23,663900,49.23
2014-02-10,48.32,48.71,47.93,48.68,900000,48.68
2014-02-07,48.39,48.70,47.93,48.26,1317000,48.26
2014-02-06,48.74,48.95,48.27,48.34,757700,48.34
2014-02-05,48.07,48.84,47.36,48.50,927100,48.50
2014-02-04,47.50,48.57,47.50,48.33,1400300,48.33
2014-02-03,48.58,49.50,47.44,47.50,1702000,47.50
2014-01-31,48.79,49.25,48.54,48.62,1097300,48.62
2014-01-30,48.91,49.63,48.73,49.55,1480600,49.55
2014-01-29,49.22,49.22,48.06,48.56,1849900,48.56
2014-01-28,49.65,49.98,49.35,49.45,1416900,49.45
2014-01-27,49.31,49.73,48.82,49.60,1696800,49.60
2014-01-24,49.86,49.94,49.31,49.49,2085400,49.49
2014-01-23,49.09,50.21,48.89,50.19,1930600,50.19
2014-01-22,49.83,49.84,48.93,49.42,1033000,49.42
2014-01-21,49.88,50.16,49.00,49.17,1297600,49.17
2014-01-17,50.08,50.08,49.14,49.39,1724200,49.39
2014-01-16,49.65,50.30,49.41,50.24,1038000,50.24
2014-01-15,50.20,50.41,49.30,49.68,1654900,49.68
2014-01-14,50.04,50.56,49.59,50.03,2117800,50.03
2014-01-13,50.08,50.80,49.75,50.28,2176200,50.28
2014-01-10,49.58,50.14,48.55,50.08,1943500,50.08
2014-01-09,48.63,49.73,48.51,49.63,1675800,49.63
2014-01-08,48.75,49.07,47.94,48.66,2085800,48.66
2014-01-07,47.15,48.55,47.00,48.04,1597800,48.04
2014-01-06,47.93,47.97,46.83,46.86,1090500,46.86
2014-01-03,48.09,48.14,47.46,47.62,861600,47.62
2014-01-02,47.45,48.07,46.92,47.87,1183500,47.87
2013-12-31,47.86,48.04,47.35,47.46,1284100,47.46
2013-12-30,48.03,48.05,47.09,47.70,1104800,47.70
2013-12-27,48.39,48.39,47.71,47.99,1284100,47.99
2013-12-26,48.05,48.38,47.56,47.97,441800,47.97
2013-12-24,48.12,48.38,47.76,48.23,322200,48.23
2013-12-23,48.25,48.32,47.76,48.22,1091600,48.22
2013-12-20,46.70,48.15,46.63,48.01,2720800,48.01
2013-12-19,46.48,46.79,46.22,46.63,1005100,46.63
2013-12-18,45.87,46.60,45.52,46.52,1628500,46.52
2013-12-17,45.07,46.59,44.88,45.74,2638800,45.74
2013-12-16,45.49,46.47,45.24,46.15,1626700,46.15
2013-12-13,45.35,46.04,45.00,45.48,2739700,45.48
2013-12-12,44.11,44.26,43.49,44.00,2142100,44.00
2013-12-11,44.33,44.58,44.11,44.33,1302100,44.33
2013-12-10,44.47,44.84,44.31,44.44,1098200,44.44
2013-12-09,45.03,45.16,44.35,44.51,1299100,44.51
2013-12-06,44.80,45.26,44.62,44.99,1501700,44.99
2013-12-05,44.49,44.84,44.21,44.54,1095700,44.54
2013-12-04,44.56,44.67,44.01,44.48,1536800,44.48
2013-12-03,44.92,45.41,44.52,44.77,1027700,44.77
2013-12-02,45.65,45.65,44.94,44.99,1136900,44.99
2013-11-29,45.67,46.03,45.43,45.63,364900,45.63
2013-11-27,45.69,45.76,45.16,45.66,847600,45.66
2013-11-26,45.21,45.94,44.63,45.55,2114900,45.55
2013-11-25,45.30,45.63,44.86,45.11,2354500,45.11
2013-11-22,46.25,46.43,45.04,45.31,2785900,45.31
2013-11-21,46.46,46.55,45.20,45.89,3020900,45.89
2013-11-20,46.19,46.52,45.88,46.40,2951100,46.40
2013-11-19,47.21,47.30,46.21,46.30,1559300,46.30
2013-11-18,47.80,48.24,47.11,47.18,1466100,47.18
2013-11-15,47.89,48.27,47.58,47.84,1161300,47.84
2013-11-14,48.57,48.57,47.90,47.95,2006800,47.95
2013-11-13,47.70,48.54,47.45,48.20,1419700,48.20
2013-11-12,47.41,48.08,47.20,48.00,1443200,48.00
2013-11-11,47.85,47.97,47.29,47.58,1059800,47.58
2013-11-08,47.65,48.39,47.46,47.80,1489500,47.80
2013-11-07,48.84,48.98,47.52,47.94,1586700,47.94
2013-11-06,49.50,49.89,48.47,48.72,2166300,48.72
2013-11-05,47.89,49.63,47.78,49.51,3573400,49.51
2013-11-04,46.74,48.12,46.64,48.00,3033400,48.00
2013-11-01,48.09,48.09,45.66,46.66,3891100,46.66
2013-10-31,51.70,52.75,46.88,46.97,8911600,46.97
2013-10-30,50.07,50.58,49.46,49.73,1884000,49.73
2013-10-29,50.22,50.51,49.50,49.85,1490300,49.85
2013-10-28,49.06,50.02,49.06,49.65,3837600,49.65
2013-10-25,49.99,49.99,48.77,49.10,2023600,49.10
2013-10-24,49.46,49.87,49.35,49.75,647500,49.75
2013-10-23,49.41,49.71,48.89,49.46,2618300,49.46
2013-10-22,50.40,50.58,49.58,49.75,840900,49.75
2013-10-21,50.17,50.82,49.80,50.14,1560000,50.14
2013-10-18,49.23,50.33,48.90,50.06,2056600,50.06
2013-10-17,48.88,49.21,48.54,49.19,1029900,49.19
2013-10-16,48.75,49.75,48.32,49.03,2111600,49.03
2013-10-15,47.99,48.42,47.41,48.29,1446000,48.29
2013-10-14,47.83,48.14,47.29,48.13,1101200,48.13
2013-10-11,48.13,48.49,47.75,47.97,1260600,47.97
2013-10-10,47.11,49.08,46.87,48.39,3306700,48.39
2013-10-09,47.18,47.25,45.83,46.12,1967700,46.12
2013-10-08,46.85,47.54,46.66,46.96,2080400,46.96
2013-10-07,46.28,47.16,46.28,46.74,2134400,46.74
2013-10-04,44.90,46.99,44.85,46.85,2868700,46.85
2013-10-03,45.92,46.28,44.44,44.85,4933300,44.85
2013-10-02,46.67,46.73,45.83,45.84,1724700,45.84
2013-10-01,45.71,46.98,45.71,46.85,2188000,46.85
2013-09-30,47.20,47.20,45.76,45.95,3235600,45.95
2013-09-27,48.00,48.00,47.22,47.51,985300,47.51
2013-09-26,48.08,48.69,47.92,48.09,1669200,48.09
2013-09-25,47.86,48.61,47.67,48.21,2315900,48.21
2013-09-24,47.82,48.23,47.27,47.68,2379000,47.68
2013-09-23,48.71,49.36,47.23,47.91,4228100,47.91
2013-09-20,52.28,52.35,48.88,49.52,3180100,49.52
2013-09-19,51.41,52.78,51.39,52.04,3647900,52.04
2013-09-18,55.07,55.19,49.54,50.82,5199600,50.82
2013-09-17,55.46,55.73,55.26,55.36,909000,55.36
2013-09-16,54.93,55.75,54.51,55.47,858400,55.47
2013-09-13,55.23,55.37,54.40,54.50,718600,54.50
2013-09-12,55.07,55.41,54.66,54.92,452700,54.92
2013-09-11,55.66,55.66,54.95,55.26,620300,55.26
2013-09-10,55.56,55.75,55.30,55.46,569500,55.46
2013-09-09,52.86,55.84,52.86,55.35,471100,55.35
2013-09-06,56.65,56.79,55.15,55.65,548000,55.65
2013-09-05,55.29,56.14,55.29,56.09,591800,56.09
2013-09-04,54.73,55.61,54.58,55.31,496900,55.31
2013-09-03,55.57,56.00,54.29,54.70,697000,54.70
2013-08-30,55.20,55.53,54.78,54.91,636600,54.91
2013-08-29,54.28,55.71,54.22,55.24,737400,55.24
2013-08-28,54.22,54.70,53.78,54.53,514000,54.53
2013-08-27,55.05,55.22,54.17,54.40,834000,54.40
2013-08-26,56.12,56.19,55.22,55.33,816700,55.33
2013-08-23,55.65,56.39,55.46,56.18,758000,56.18
2013-08-22,55.23,56.06,55.12,55.64,483100,55.64
2013-08-21,54.56,55.78,54.49,55.12,565400,55.12
2013-08-20,54.70,55.73,54.70,55.23,831000,55.23
2013-08-19,55.16,55.54,54.72,55.00,637800,55.00
2013-08-16,55.09,55.49,54.89,55.10,954000,55.10
2013-08-15,56.70,56.70,54.63,55.67,1122000,55.67
2013-08-14,57.39,57.53,56.84,56.93,527200,56.93
2013-08-13,57.26,57.54,56.34,57.54,662400,57.54
2013-08-12,57.55,57.90,57.13,57.22,809700,57.22
2013-08-09,57.89,58.12,57.43,57.66,855000,57.66
2013-08-08,57.98,58.33,57.74,58.24,807800,58.24
2013-08-07,58.02,58.30,57.40,57.87,1296400,57.87
2013-08-06,57.79,58.73,57.32,58.32,1403900,58.32
2013-08-05,57.80,58.21,57.07,58.06,1144800,58.06
2013-08-02,57.00,58.56,56.90,58.23,2167500,58.23
2013-08-01,55.81,57.47,55.77,57.03,4169800,57.03
2013-07-31,52.25,52.94,52.03,52.80,2274600,52.80
2013-07-30,51.66,52.36,51.57,51.60,1065200,51.60
2013-07-29,51.61,52.28,51.20,51.24,1066100,51.24
2013-07-26,51.86,52.11,51.29,51.75,786600,51.75
2013-07-25,51.65,52.39,51.25,52.23,1125600,52.23
2013-07-24,51.61,52.42,51.14,51.34,1312000,51.34
2013-07-23,51.16,51.53,50.93,51.04,1438400,51.04
2013-07-22,50.84,51.27,50.15,51.06,1436800,51.06
2013-07-19,50.89,51.10,50.14,50.61,1466200,50.61
2013-07-18,49.37,50.83,49.37,50.80,1513200,50.80
2013-07-17,49.29,49.95,48.96,49.33,1015800,49.33
2013-07-16,49.60,50.06,49.16,49.39,1203500,49.39
2013-07-15,50.10,50.17,49.52,49.81,1797800,49.81
2013-07-12,49.01,49.38,48.84,49.24,1705100,49.24
2013-07-11,48.27,49.02,47.83,48.75,2517100,48.75
2013-07-10,47.91,47.96,46.87,47.31,2205100,47.31
2013-07-09,49.43,49.43,47.76,47.87,1932300,47.87
2013-07-08,47.68,48.70,47.39,48.67,1895400,48.67
2013-07-05,47.88,48.01,47.17,47.38,766900,47.38
2013-07-03,47.95,48.11,47.28,47.31,1064300,47.31
2013-07-02,47.84,48.59,47.51,48.01,2501200,48.01
2013-07-01,49.17,49.57,46.65,47.70,3666100,47.70
2013-06-28,49.72,49.72,48.50,48.76,3491100,48.76
2013-06-27,50.49,50.77,49.49,49.64,1359500,49.64
2013-06-26,49.92,50.30,49.54,49.96,1930200,49.96
2013-06-25,49.53,49.75,48.81,49.38,1608900,49.38
2013-06-24,49.67,49.71,48.31,49.05,3077200,49.05
2013-06-21,50.57,50.85,49.45,49.98,3607500,49.98
2013-06-20,51.90,51.90,50.07,50.40,2284800,50.40
2013-06-19,52.80,53.48,52.28,52.33,1994200,52.33
2013-06-18,53.53,53.66,52.47,52.84,1628700,52.84
2013-06-17,53.70,54.11,53.36,53.53,1371900,53.53
2013-06-14,54.91,54.95,53.63,53.66,1084100,53.66
2013-06-13,53.73,55.14,53.39,54.91,2489600,54.91
2013-06-12,54.24,54.36,53.00,53.85,2933600,53.85
2013-06-11,55.31,56.10,53.50,53.99,8570600,53.99
2013-06-10,49.86,50.50,48.10,48.66,1585700,48.66
2013-06-07,48.40,50.54,48.27,50.29,1250500,50.29
2013-06-06,47.99,48.46,47.26,48.34,992100,48.34
2013-06-05,48.61,48.61,47.74,47.97,1311200,47.97
2013-06-04,47.98,48.90,47.84,48.26,1655500,48.26
2013-06-03,49.86,50.06,47.72,48.10,2149100,48.10
2013-05-31,48.06,49.22,47.85,49.22,4309600,49.22
2013-05-30,47.69,48.65,47.12,48.37,1678200,48.37
2013-05-29,47.73,47.73,46.93,47.55,1120000,47.55
2013-05-28,48.51,48.83,47.65,47.87,1677100,47.87
2013-05-24,47.75,48.12,47.32,47.92,1680400,47.92
2013-05-23,48.17,48.41,47.51,48.06,2023400,48.06
2013-05-22,50.30,50.30,46.29,48.57,6882100,48.57
2013-05-21,50.76,50.94,50.01,50.38,1802200,50.38
2013-05-20,51.02,51.29,49.85,49.91,1459000,49.91
2013-05-17,52.26,52.64,50.21,50.98,2365100,50.98
2013-05-16,53.20,53.53,52.36,52.38,975200,52.38
2013-05-15,52.66,53.61,52.66,53.24,1564200,53.24
2013-05-14,51.05,52.71,51.05,52.68,1430800,52.68
2013-05-13,51.75,51.92,50.92,51.22,829100,51.22
2013-05-10,51.32,51.82,51.24,51.67,968100,51.67
2013-05-09,52.61,52.73,51.15,51.31,1562600,51.31
2013-05-08,52.24,52.73,51.86,52.43,1043100,52.43
2013-05-07,52.46,52.46,51.77,52.18,1045100,52.18
2013-05-06,52.63,53.13,52.43,52.59,1158800,52.59
2013-05-03,53.51,53.72,52.38,52.40,1766400,52.40
2013-05-02,53.83,54.83,50.88,52.98,4559500,52.98
2013-05-01,57.90,57.90,56.64,57.01,997800,57.01
2013-04-30,56.66,58.18,56.11,57.73,1619100,57.73
2013-04-29,56.50,57.11,56.24,56.61,693200,56.61
2013-04-26,56.91,57.35,56.64,56.65,1239300,56.65
2013-04-25,55.35,57.35,55.18,57.16,1687400,57.16
2013-04-24,54.58,55.62,54.32,55.30,842000,55.30
2013-04-23,53.94,54.49,53.72,54.42,1098400,54.42
2013-04-22,55.28,55.28,53.40,53.69,1068200,53.69
2013-04-19,54.55,55.63,53.98,55.10,1268500,55.10
2013-04-18,54.15,54.39,53.58,54.32,973500,54.32
2013-04-17,53.95,54.40,53.58,54.06,1062800,54.06
2013-04-16,54.01,54.91,53.10,54.48,1077100,54.48
2013-04-15,54.12,54.81,53.60,53.69,1272000,53.69
2013-04-12,55.94,55.97,54.24,54.44,1056800,54.44
2013-04-11,54.71,56.03,54.69,55.97,1373400,55.97
2013-04-10,54.00,55.36,54.00,54.80,868700,54.80
2013-04-09,53.33,53.98,53.07,53.71,1049500,53.71
2013-04-08,52.89,53.24,52.40,53.23,961500,53.23
2013-04-05,52.73,52.89,52.30,52.85,1053000,52.85
2013-04-04,53.33,53.64,52.58,53.24,785400,53.24
2013-04-03,54.37,54.59,52.70,53.16,2148400,53.16
2013-04-02,53.41,54.75,53.41,54.38,1365700,54.38
2013-04-01,52.78,53.41,52.59,53.28,1422500,53.28
2013-03-28,52.63,53.12,52.37,53.03,1083500,53.03
2013-03-27,52.62,52.94,52.23,52.66,872500,52.66
2013-03-26,52.15,53.13,52.15,52.80,1260300,52.80
2013-03-25,52.40,52.89,51.56,51.97,776200,51.97
2013-03-22,51.91,53.03,51.70,52.27,1332200,52.27
2013-03-21,52.06,52.34,51.54,51.85,1336800,51.85
2013-03-20,51.06,52.34,50.63,52.22,2044500,52.22
2013-03-19,51.70,51.87,50.54,50.71,1991100,50.71
2013-03-18,51.64,52.34,50.64,51.69,2104300,51.69
2013-03-15,52.92,53.10,51.90,51.94,2523300,51.94
2013-03-14,53.56,53.66,52.59,53.00,2008600,53.00
2013-03-13,54.18,54.19,53.24,53.54,1259700,53.54
2013-03-12,54.90,55.05,53.23,53.90,2028100,53.90
2013-03-11,55.21,55.50,54.72,55.00,1202000,55.00
2013-03-08,56.68,56.68,55.17,55.36,2122700,55.36
2013-03-07,56.41,56.81,55.98,56.21,1684000,56.21
2013-03-06,57.00,57.40,55.96,56.25,1537000,56.25
2013-03-05,56.05,57.35,55.78,56.95,1645600,56.95
2013-03-04,54.87,56.01,54.56,55.96,1329200,55.96
2013-03-01,53.44,55.04,52.97,54.89,1841700,54.89
2013-02-28,54.75,54.75,51.36,53.75,4092000,53.75
2013-02-27,54.46,55.78,54.11,55.54,1293800,55.54
2013-02-26,54.94,55.06,54.07,54.49,1360200,54.49
2013-02-25,54.79,56.15,54.79,54.95,1770900,54.95
2013-02-22,54.32,54.85,53.96,54.65,1185400,54.65
2013-02-21,54.68,54.84,53.96,54.25,1694500,54.25
2013-02-20,53.93,55.54,53.93,54.83,5087000,54.83
2013-02-19,53.77,54.33,53.47,54.00,1424800,54.00
2013-02-15,53.10,54.04,52.71,53.65,1478100,53.65
2013-02-14,53.24,53.29,52.69,53.10,1234700,53.10
2013-02-13,53.72,54.52,53.49,53.59,1787000,53.59
2013-02-12,51.70,52.52,51.42,52.17,1214000,52.17
2013-02-11,51.75,51.75,51.10,51.51,1241900,51.51
2013-02-08,53.00,53.90,49.89,51.48,5012500,51.48
2013-02-07,52.95,53.50,52.80,53.22,823900,53.22
2013-02-06,53.40,53.69,52.82,53.22,732000,53.22
2013-02-05,52.95,53.68,52.85,53.64,732600,53.64
2013-02-04,53.38,53.95,52.81,52.95,677800,52.95
2013-02-01,52.35,53.77,52.30,53.50,1053700,53.50
2013-01-31,52.15,52.18,51.30,51.89,1667700,51.89
2013-01-30,52.46,52.91,52.27,52.71,1026900,52.71
2013-01-29,52.00,52.62,51.75,52.46,566000,52.46
2013-01-28,53.17,53.44,52.08,52.13,802900,52.13
2013-01-25,53.15,53.30,52.49,53.23,954400,53.23
2013-01-24,52.21,53.58,52.12,53.12,957000,53.12
2013-01-23,52.04,52.22,51.42,52.03,1187900,52.03
2013-01-22,52.28,52.66,51.47,51.97,1342400,51.97
2013-01-18,52.14,52.46,51.75,52.07,901700,52.07
2013-01-17,51.82,52.60,51.57,52.53,1182600,52.53
2013-01-16,52.06,52.22,51.21,51.27,1205600,51.27
2013-01-15,51.95,52.50,51.76,52.09,751600,52.09
2013-01-14,51.28,52.43,51.28,52.14,883300,52.14
2013-01-11,51.75,51.84,50.36,51.40,2243100,51.40
2013-01-10,52.65,53.16,52.45,52.62,1181300,52.62
2013-01-09,52.03,53.07,52.03,52.24,1624400,52.24
2013-01-08,51.99,52.92,51.70,51.95,1911900,51.95
2013-01-07,49.85,52.05,49.68,51.77,1877300,51.77
2013-01-04,49.40,50.27,48.79,50.07,1533500,50.07
2013-01-03,48.17,49.30,48.09,49.26,1321000,49.26
2013-01-02,48.00,49.23,47.91,48.50,1470100,48.50
2012-12-31,46.55,47.46,46.29,47.10,1092700,47.10
2012-12-28,46.64,47.60,46.03,46.65,854600,46.65
2012-12-27,47.43,47.68,45.95,46.70,1436700,46.70
2012-12-26,48.39,48.63,47.39,47.50,594700,47.50
2012-12-24,48.05,48.51,48.00,48.36,320900,48.36
2012-12-21,48.39,48.70,48.17,48.49,6339600,48.49
2012-12-20,49.73,50.00,48.90,49.14,1458400,49.14
2012-12-19,49.84,49.85,49.13,49.58,1293900,49.58
2012-12-18,50.26,51.11,50.15,50.25,1479800,50.25
2012-12-17,49.33,50.27,48.35,50.09,1574700,50.09
2012-12-14,49.20,49.43,48.51,49.20,1481800,49.20
2012-12-13,49.38,49.60,49.01,49.16,1003300,49.16
2012-12-12,49.60,49.93,49.28,49.52,1149200,49.52
2012-12-11,49.57,49.66,47.96,49.37,1638600,49.37
2012-12-10,49.20,49.89,49.00,49.64,861000,49.64
2012-12-07,48.80,49.92,48.33,49.23,1085100,49.23
2012-12-06,48.12,49.25,48.06,48.77,755900,48.77
2012-12-05,48.23,48.59,47.83,48.10,871700,48.10
2012-12-04,47.94,48.35,47.79,48.18,868000,48.18
2012-12-03,48.64,48.92,47.70,48.06,1095000,48.06
2012-11-30,47.49,49.08,47.25,48.69,1525200,48.69
2012-11-29,46.51,47.72,46.29,47.41,1233100,47.41
2012-11-28,46.83,47.00,45.81,46.20,1295000,46.20
2012-11-27,47.28,47.48,46.33,47.15,1419200,47.15
2012-11-26,49.22,49.28,47.36,47.40,915300,47.40
2012-11-23,48.89,49.25,48.38,49.23,348000,49.23
2012-11-21,48.42,49.42,48.30,48.66,408600,48.66
2012-11-20,48.69,48.92,47.66,48.74,669300,48.74
2012-11-19,48.04,48.68,47.97,48.64,703300,48.64
2012-11-16,46.95,47.78,46.86,47.48,1189300,47.48
2012-11-15,45.89,47.01,45.43,46.95,1742400,46.95
2012-11-14,49.50,49.80,45.76,46.07,2553800,46.07
2012-11-13,48.77,49.96,48.41,49.57,1407300,49.57
2012-11-12,49.36,50.01,48.59,49.00,988400,49.00
2012-11-09,47.69,48.58,47.25,48.02,771800,48.02
2012-11-08,47.47,48.30,47.21,47.50,763300,47.50
2012-11-07,48.35,48.49,46.96,47.61,1203800,47.61
2012-11-06,48.20,49.18,47.65,48.36,2232900,48.36
2012-11-05,49.28,50.25,48.91,49.65,843700,49.65
2012-11-02,52.00,53.13,49.31,49.66,1834300,49.66
2012-11-01,48.57,51.45,46.69,51.20,2854800,51.20
2012-10-31,47.62,48.26,46.18,47.16,1439000,47.16
2012-10-26,48.76,49.41,47.62,47.67,694800,47.67
2012-10-25,48.18,49.63,47.91,49.01,677500,49.01
2012-10-24,48.46,48.90,47.22,47.44,862300,47.44
2012-10-23,47.53,48.65,47.11,48.56,650300,48.56
2012-10-22,48.52,48.88,47.65,48.58,632000,48.58
2012-10-19,50.00,50.29,47.97,48.42,1136800,48.42
2012-10-18,50.57,50.68,49.75,50.43,670700,50.43
2012-10-17,51.50,51.80,50.55,50.62,584600,50.62
2012-10-16,50.44,51.83,50.15,51.79,626600,51.79
2012-10-15,50.24,50.53,49.76,50.11,749200,50.11
2012-10-12,50.48,50.72,49.98,50.18,433800,50.18
2012-10-11,50.17,50.85,50.03,50.70,815400,50.70
2012-10-10,49.56,49.97,49.32,49.90,733400,49.90
2012-10-09,50.78,51.29,49.38,49.76,625300,49.76
2012-10-08,51.69,51.92,50.42,50.97,674600,50.97
2012-10-05,52.16,52.28,51.04,51.36,1027400,51.36
2012-10-04,51.11,52.04,51.04,51.55,1781800,51.55
2012-10-03,49.71,51.32,49.08,51.09,1815600,51.09
2012-10-02,49.93,50.26,48.57,49.49,1166600,49.49
2012-10-01,98.63,100.84,98.16,99.12,2477800,49.56
2012-09-28,97.84,98.01,96.55,97.97,2051600,48.99
2012-09-27,98.44,98.54,97.09,97.87,1172600,48.94
2012-09-26,98.63,98.92,96.66,97.71,1848800,48.85
2012-09-25,97.00,100.00,96.36,98.79,2902800,49.40
2012-09-24,95.68,97.31,95.00,97.08,1685800,48.54
2012-09-21,95.98,96.76,95.51,95.62,1907800,47.81
2012-09-20,94.98,95.97,94.47,95.36,1070400,47.68
2012-09-19,95.65,96.17,94.44,95.28,1679400,47.64
2012-09-18,95.23,96.26,95.18,96.18,1037400,48.09
2012-09-17,94.94,96.79,94.50,96.19,1018400,48.10
2012-09-14,95.28,96.86,94.66,94.97,1413600,47.49
2012-09-13,92.90,97.38,92.51,95.94,2342000,47.97
2012-09-12,92.93,93.23,92.46,93.03,1269600,46.51
2012-09-11,93.75,96.44,92.54,92.79,3172600,46.40
2012-09-10,91.33,93.25,91.33,91.95,1578400,45.97
2012-09-07,91.05,93.25,90.91,92.27,1950200,46.13
2012-09-06,87.88,91.81,87.88,91.27,1472400,45.63
2012-09-05,87.93,88.15,87.04,87.31,1053200,43.65
2012-09-04,86.86,88.41,85.78,88.23,1177200,44.12
2012-08-31,85.70,87.25,85.70,87.15,1231200,43.58
2012-08-30,86.74,86.81,85.08,85.73,1270200,42.87
2012-08-29,88.73,88.74,87.13,87.17,1368800,43.58
2012-08-28,88.85,89.62,87.66,88.48,2106400,44.24
2012-08-27,92.21,92.29,87.56,88.99,3985800,44.49
2012-08-24,90.29,92.49,89.45,92.07,1585800,46.03
2012-08-23,86.97,91.35,85.52,90.70,1566400,45.35
2012-08-22,87.26,87.84,85.86,87.40,959000,43.70
2012-08-21,87.69,88.31,86.85,87.21,658200,43.60
2012-08-20,89.57,90.69,86.72,87.58,901400,43.79
2012-08-17,88.49,90.04,88.48,89.14,824400,44.57
2012-08-16,88.43,89.50,88.00,88.45,697600,44.22
2012-08-15,88.82,88.82,87.71,88.17,705400,44.08
2012-08-14,88.88,89.37,87.66,88.62,862000,44.31
2012-08-13,89.50,90.39,85.50,88.33,1779600,44.17
2012-08-10,91.97,92.40,89.19,90.66,1673800,45.33
2012-08-09,92.14,92.80,90.85,92.80,819200,46.40
2012-08-08,91.27,92.50,90.19,92.14,1110000,46.07
2012-08-07,91.37,92.36,90.85,91.30,1415400,45.65
2012-08-06,90.81,91.39,88.75,90.18,1350000,45.09
2012-08-03,90.16,92.00,89.69,90.37,1521800,45.19
2012-08-02,88.35,89.97,87.47,88.99,2022000,44.49
2012-08-01,85.53,92.00,84.93,88.53,3938000,44.26
2012-07-31,86.16,87.11,84.17,84.51,2197600,42.26
2012-07-30,86.47,87.35,85.25,87.15,2512800,43.58
2012-07-27,84.88,87.20,83.53,86.51,2620200,43.26
2012-07-26,84.83,87.12,84.53,84.68,1628400,42.34
2012-07-25,84.22,85.52,83.34,84.28,1817600,42.14
2012-07-24,85.74,86.94,83.93,84.29,1935400,42.15
2012-07-23,88.45,88.47,84.13,85.80,2833000,42.90
2012-07-20,89.15,90.43,89.15,89.88,1213400,44.94
2012-07-19,91.80,91.80,87.89,90.32,2278200,45.16
2012-07-18,91.10,92.14,90.56,91.84,1096200,45.92
2012-07-17,92.51,93.98,90.49,91.09,2133000,45.54
2012-07-16,94.27,94.72,92.07,93.06,1224600,46.53
2012-07-13,92.84,95.18,92.84,94.87,1347200,47.44
2012-07-12,93.32,94.19,92.68,93.03,1451200,46.51
2012-07-11,93.00,94.97,92.94,94.97,1117400,47.49
2012-07-10,94.83,96.81,92.72,93.02,2883400,46.51
2012-07-09,95.04,98.55,93.62,94.98,3255200,47.49
2012-07-06,96.72,97.00,94.31,95.41,2859600,47.71
2012-07-05,101.68,101.68,96.05,96.37,14127200,48.19
2012-07-03,97.84,101.40,95.70,96.86,6383200,48.43
2012-07-02,102.10,104.79,96.94,96.98,4386200,48.49
2012-06-29,97.04,99.88,96.56,99.21,2492400,49.60
2012-06-28,94.75,96.06,93.23,94.85,1894600,47.42
2012-06-27,94.88,97.38,94.88,95.71,1119800,47.85
2012-06-26,93.01,95.21,92.54,94.88,1133800,47.44
2012-06-25,93.85,94.39,91.50,92.69,1358000,46.35
2012-06-22,95.00,96.02,92.19,95.51,2503000,47.76
2012-06-21,98.00,98.93,92.18,93.28,2326400,46.64
2012-06-20,98.45,98.96,96.00,97.66,2107200,48.83
2012-06-19,99.58,103.97,98.07,98.55,4411800,49.28
2012-06-18,94.41,99.51,93.95,98.56,2858000,49.28
2012-06-15,94.65,95.47,92.71,94.73,1738800,47.37
2012-06-14,92.04,96.20,92.04,94.71,2226200,47.35
2012-06-13,92.52,92.52,90.55,92.17,1432400,46.08
2012-06-12,91.00,92.57,89.88,92.51,872800,46.26
2012-06-11,95.00,95.00,90.40,90.65,1389800,45.33
2012-06-08,92.31,94.00,92.24,93.84,685000,46.92
2012-06-07,93.95,94.85,92.82,92.88,1459800,46.44
2012-06-06,90.46,93.86,90.30,93.50,1934000,46.75
2012-06-05,87.97,89.91,86.68,89.82,1244400,44.91
2012-06-04,88.54,89.51,86.32,87.88,1380200,43.94
2012-06-01,90.50,90.90,87.21,88.56,2349600,44.28
2012-05-31,89.39,89.92,87.27,89.71,4378400,44.85
2012-05-30,90.50,90.94,88.53,88.74,2457000,44.37
2012-05-29,92.00,93.00,90.63,91.34,1166800,45.67
2012-05-25,89.93,91.39,89.29,91.34,1248200,45.67
2012-05-24,90.45,91.32,88.66,89.83,1158600,44.92
2012-05-23,89.95,90.61,87.98,90.44,938000,45.22
2012-05-22,90.22,94.70,89.47,90.14,2198800,45.07
2012-05-21,88.82,90.40,86.71,90.22,1512000,45.11
2012-05-18,90.95,91.39,88.57,88.88,2315200,44.44
2012-05-17,91.50,92.10,90.52,90.85,1318000,45.42
2012-05-16,91.52,92.54,90.96,91.50,1951800,45.75
2012-05-15,91.11,92.59,90.48,91.13,1349000,45.56
2012-05-14,92.20,92.75,89.97,91.45,1870400,45.72
2012-05-11,91.78,94.77,91.49,93.20,6265800,46.60
2012-05-10,90.26,91.27,88.74,90.60,1400000,45.30
2012-05-09,88.96,91.82,88.96,90.77,1270200,45.38
2012-05-08,89.29,91.31,88.09,90.73,1742200,45.37
2012-05-07,90.58,92.29,89.00,89.24,2281600,44.62
2012-05-04,91.31,92.84,90.62,91.50,1955800,45.75
2012-05-03,96.02,96.34,90.69,91.39,2582600,45.69
2012-05-02,90.71,96.49,90.60,95.84,3057400,47.92
2012-05-01,90.73,91.79,89.91,91.22,1080000,45.61
2012-04-30,91.80,91.92,90.43,90.58,1474000,45.29
2012-04-27,91.97,92.45,90.88,91.71,1989600,45.85
2012-04-26,92.89,93.18,91.60,91.67,2591000,45.83
2012-04-25,92.78,94.32,91.85,92.81,1462800,46.40
2012-04-24,92.99,93.22,91.38,91.64,2299800,45.82
2012-04-23,95.00,95.00,92.46,93.06,2899200,46.53
2012-04-20,97.44,100.50,95.33,95.81,5839600,47.90
2012-04-19,88.99,97.59,87.10,97.00,10676600,48.50
2012-04-18,87.61,89.58,84.86,89.36,26917600,44.68
2012-04-17,79.49,81.67,78.56,80.27,825400,40.13
2012-04-16,78.87,79.88,77.52,78.45,669000,39.22
2012-04-13,77.60,78.76,76.65,78.53,347000,39.26
2012-04-12,76.99,77.85,76.99,77.69,765400,38.85
2012-04-11,75.86,77.50,75.74,76.98,324600,38.49
2012-04-10,77.76,78.37,75.72,75.86,793200,37.93
2012-04-09,77.25,78.85,76.63,77.86,728600,38.93
2012-04-05,76.75,78.65,76.72,78.30,602800,39.15
2012-04-04,78.36,79.24,76.60,76.99,1214000,38.49
2012-04-03,74.46,79.26,73.75,78.87,2422000,39.44
2012-04-02,75.24,75.24,72.82,74.10,1348800,37.05
2012-03-30,74.69,75.39,74.56,74.96,833800,37.48
2012-03-29,71.98,74.38,71.96,74.16,762800,37.08
2012-03-28,72.51,72.74,71.73,72.45,574400,36.22
2012-03-27,72.86,72.86,71.97,72.32,1044200,36.16
2012-03-26,73.09,73.96,72.32,72.38,688800,36.19
2012-03-23,72.26,72.46,71.45,72.21,224800,36.10
2012-03-22,71.64,72.35,71.31,72.23,408200,36.12
2012-03-21,72.08,73.00,71.41,71.91,839000,35.96
2012-03-20,72.00,72.20,71.40,71.59,516400,35.79
2012-03-19,72.00,72.99,71.63,72.29,611600,36.15
2012-03-16,72.37,72.53,71.30,72.00,783000,36.00
2012-03-15,73.61,74.49,72.76,73.14,746800,36.57
2012-03-14,72.57,73.08,71.38,73.08,760400,36.54
2012-03-13,72.78,74.05,72.19,72.85,639400,36.42
2012-03-12,72.09,73.00,71.49,72.52,859400,36.26
2012-03-09,76.42,76.42,72.32,72.82,1328000,36.41
2012-03-08,73.75,74.37,72.31,72.54,751200,36.27
2012-03-07,70.71,73.34,70.06,73.24,645600,36.62
2012-03-06,70.94,71.42,69.65,70.50,661800,35.25
2012-03-05,71.15,71.82,70.81,71.73,888800,35.87
2012-03-02,72.00,72.15,71.43,71.70,884400,35.85
2012-03-01,70.96,72.73,70.54,72.15,1015400,36.08
2012-02-29,71.17,71.82,70.61,70.80,952000,35.40
2012-02-28,71.45,71.89,71.12,71.17,672200,35.58
2012-02-27,70.18,72.34,70.09,71.27,1036200,35.63
2012-02-24,68.61,71.25,67.38,70.99,1415600,35.49
2012-02-23,65.26,68.74,65.24,67.36,2221600,33.68
2012-02-22,62.00,64.24,62.00,63.53,1605600,31.76
2012-02-21,60.35,61.94,60.35,61.80,852400,30.90
2012-02-17,61.10,61.37,60.26,60.35,413000,30.17
2012-02-16,61.19,61.60,60.88,61.20,619600,30.60
2012-02-15,61.72,62.45,61.10,61.43,540400,30.72
2012-02-14,61.51,62.82,61.17,61.91,764800,30.95
2012-02-13,61.81,62.49,61.20,61.37,522000,30.68
2012-02-10,61.55,61.96,61.25,61.50,676600,30.75
2012-02-09,62.71,63.06,61.60,61.92,607600,30.96
2012-02-08,60.61,63.05,59.73,62.61,932000,31.31
2012-02-07,60.99,61.53,59.95,60.30,1173400,30.15
2012-02-06,63.62,63.67,60.73,61.12,1622600,30.56
2012-02-03,63.59,63.89,62.85,63.85,633600,31.92
2012-02-02,64.32,64.94,62.84,63.38,475000,31.69
2012-02-01,63.69,65.13,63.35,64.45,436200,32.22
2012-01-31,62.97,63.77,62.71,63.06,488000,31.53
2012-01-30,61.74,62.78,61.27,62.60,366800,31.30
2012-01-27,62.61,63.10,62.12,62.13,336800,31.07
2012-01-26,63.49,63.91,62.24,62.85,497800,31.42
2012-01-25,63.25,63.46,61.99,63.45,976600,31.73
2012-01-24,62.47,62.95,62.10,62.64,320800,31.32
2012-01-23,62.97,64.08,62.33,62.38,694000,31.19
2012-01-20,62.69,63.37,62.38,62.89,555400,31.44
2012-01-19,63.75,65.95,62.75,62.85,708400,31.42
2012-01-18,61.60,63.79,61.27,63.15,1065400,31.58
2012-01-17,61.94,63.48,61.00,61.26,1130400,30.63
2012-01-13,62.79,62.87,62.01,62.64,1161200,31.32
2012-01-12,64.66,64.87,62.80,62.90,1047200,31.45
2012-01-11,62.85,64.75,61.40,64.65,1322800,32.33
2012-01-10,59.09,63.04,58.75,62.80,1623200,31.40
2012-01-09,58.80,58.95,58.23,58.44,324800,29.22
2012-01-06,59.07,60.00,58.28,58.75,559200,29.38
2012-01-05,57.69,59.20,57.38,59.15,364000,29.58
2012-01-04,57.43,58.71,57.00,57.84,388400,28.92
2012-01-03,57.30,57.78,56.81,57.56,356600,28.78
2011-12-30,56.60,57.33,56.26,56.48,253600,28.24
2011-12-29,56.05,56.76,55.89,56.67,291400,28.33
2011-12-28,57.88,58.01,55.89,56.20,425200,28.10
2011-12-27,56.55,58.04,56.46,57.79,333000,28.90
2011-12-23,56.94,57.68,56.25,56.43,420600,28.22
2011-12-22,57.51,57.80,56.29,57.05,515200,28.52
2011-12-21,57.81,58.03,56.52,57.48,493400,28.74
2011-12-20,57.48,58.62,56.71,58.05,435400,29.02
2011-12-19,56.91,56.93,55.52,56.37,586600,28.18
2011-12-16,55.01,56.78,54.84,56.51,531800,28.25
2011-12-15,55.39,55.40,54.00,54.50,822800,27.25
2011-12-14,56.54,56.54,54.91,55.27,602000,27.64
2011-12-13,56.67,57.53,56.17,56.50,617400,28.25
2011-12-12,57.60,57.60,56.03,56.58,331400,28.29
2011-12-09,56.55,57.93,56.11,57.69,480000,28.84
2011-12-08,56.51,57.26,56.23,56.46,482000,28.23
2011-12-07,55.74,57.39,54.72,56.83,964000,28.42
2011-12-06,56.58,57.07,55.63,55.70,883800,27.85
2011-12-05,58.47,58.47,56.55,56.80,992800,28.40
2011-12-02,60.00,60.00,56.78,56.92,979000,28.46
2011-12-01,58.71,59.93,57.36,59.32,779400,29.66
2011-11-30,57.69,58.83,55.38,58.82,824800,29.41
2011-11-29,56.24,56.77,56.00,56.38,633400,28.19
2011-11-28,54.99,56.90,54.44,56.13,619600,28.07
2011-11-25,53.53,54.38,53.10,54.31,478200,27.16
2011-11-23,55.02,55.30,53.63,54.15,1183800,27.08
2011-11-22,55.12,55.44,54.35,55.10,809000,27.55
2011-11-21,51.06,55.00,50.98,54.86,1672800,27.43
2011-11-18,53.47,54.31,52.40,53.16,1097600,26.58
2011-11-17,52.49,54.16,52.00,52.74,2899200,26.37
2011-11-16,51.42,51.77,49.33,49.56,831400,24.78
2011-11-15,49.51,52.11,49.10,51.71,794600,25.85
2011-11-14,50.80,51.54,49.46,49.67,784800,24.83
2011-11-11,49.90,51.42,49.61,50.63,751400,25.32
2011-11-10,49.25,50.62,49.11,49.62,956800,24.81
2011-11-09,49.23,49.74,48.54,48.77,1219400,24.39
2011-11-08,49.86,50.45,49.18,50.41,752000,25.20
2011-11-07,48.99,49.62,48.01,49.44,817200,24.72
2011-11-04,47.00,49.56,46.66,48.63,1540400,24.32
2011-11-03,46.95,48.65,45.70,47.53,2747600,23.76
2011-11-02,46.90,46.96,43.99,44.49,1923800,22.25
2011-11-01,45.15,46.63,43.73,45.98,1792200,22.99
2011-10-31,45.91,47.22,45.72,46.82,1192600,23.41
2011-10-28,46.64,47.23,46.10,46.54,782000,23.27
2011-10-27,44.77,47.01,44.77,46.71,1734000,23.35
2011-10-26,43.00,44.29,42.00,44.11,2625000,22.06
2011-10-25,43.64,44.67,41.86,42.24,3460800,21.12
2011-10-24,42.41,47.62,40.36,43.37,14672400,21.68
2011-10-21,55.73,56.79,55.16,56.42,680600,28.21
2011-10-20,55.21,55.57,54.29,55.09,389800,27.55
2011-10-19,56.19,56.36,55.16,55.47,612400,27.74
2011-10-18,55.50,56.17,54.37,56.03,683800,28.01
2011-10-17,56.29,56.79,55.92,56.04,724600,28.02
2011-10-14,57.99,58.08,56.57,56.70,590400,28.35
2011-10-13,57.96,58.72,57.12,57.46,456200,28.73
2011-10-12,57.94,59.96,57.94,58.39,598400,29.19
2011-10-11,55.91,57.87,55.91,57.51,428200,28.75
2011-10-10,55.98,56.89,55.62,56.62,229600,28.31
2011-10-07,55.76,56.91,54.26,55.08,876200,27.54
2011-10-06,51.51,55.81,51.51,55.67,1962600,27.83
2011-10-05,48.71,51.56,48.60,51.19,1597600,25.59
2011-10-04,50.72,51.60,47.07,48.30,2106400,24.15
2011-10-03,55.86,56.31,51.20,51.79,860200,25.90
2011-09-30,57.35,57.49,55.60,55.70,685400,27.85
2011-09-29,58.28,58.89,56.51,57.80,755800,28.90
2011-09-28,57.52,59.85,56.90,57.39,870600,28.69
2011-09-27,57.31,58.97,57.21,57.50,534000,28.75
2011-09-26,55.08,56.12,53.72,55.97,472400,27.99
2011-09-23,55.51,55.93,54.49,55.00,540000,27.50
2011-09-22,55.12,56.49,54.50,55.48,737600,27.74
2011-09-21,57.64,59.00,57.01,57.14,732200,28.57
2011-09-20,57.27,58.94,57.27,57.54,588600,28.77
2011-09-19,56.81,57.92,56.23,57.27,678600,28.64
2011-09-16,57.00,58.33,56.68,57.66,960600,28.83
2011-09-15,58.00,58.44,55.46,57.07,689200,28.53
2011-09-14,53.95,57.78,53.20,57.25,980000,28.62
2011-09-13,52.43,53.88,51.77,53.79,493200,26.90
2011-09-12,50.81,52.78,50.31,52.63,492600,26.32
2011-09-09,53.09,54.81,51.40,51.41,1462000,25.70
2011-09-08,52.98,54.11,52.00,53.16,755000,26.58
2011-09-07,52.96,53.58,51.76,53.18,729600,26.59
2011-09-06,50.32,52.49,50.18,52.34,719200,26.17
2011-09-02,52.13,53.55,51.41,52.40,542000,26.20
2011-09-01,55.00,55.21,53.50,53.58,346000,26.79
2011-08-31,53.92,56.46,53.73,54.69,610400,27.34
2011-08-30,52.72,53.76,52.26,53.34,267200,26.67
2011-08-29,52.01,52.93,51.30,52.92,551800,26.46
2011-08-26,50.00,51.29,49.72,51.23,621400,25.61
2011-08-25,51.75,51.80,50.09,50.71,268200,25.35
2011-08-24,51.01,52.02,50.37,51.55,451200,25.77
2011-08-23,49.60,51.12,49.06,50.93,443400,25.47
2011-08-22,49.92,50.45,48.92,49.38,453400,24.69
2011-08-19,48.39,50.31,48.01,48.78,619400,24.39
2011-08-18,52.14,52.48,48.35,49.23,1384600,24.61
2011-08-17,54.28,55.06,52.23,52.69,791600,26.34
2011-08-16,54.16,54.44,53.00,54.24,486200,27.12
2011-08-15,54.11,55.07,53.86,54.91,497800,27.45
2011-08-12,52.95,54.03,51.97,53.55,883400,26.77
2011-08-11,49.36,53.73,48.45,52.54,1276200,26.27
2011-08-10,47.68,50.20,47.68,48.97,1566200,24.49
2011-08-09,46.48,48.87,45.52,48.50,2258800,24.25
2011-08-08,47.62,49.29,45.31,45.43,1506600,22.72
2011-08-05,55.27,55.88,50.33,50.35,2245000,25.17
2011-08-04,57.00,58.90,52.24,54.63,3973600,27.32
2011-08-03,59.48,60.02,57.40,59.92,1312200,29.96
2011-08-02,61.54,63.01,59.14,59.19,1055200,29.59
2011-08-01,62.33,64.67,60.93,61.04,551200,30.52
2011-07-29,60.99,63.41,60.54,63.13,522400,31.57
2011-07-28,62.26,63.19,61.38,61.46,461600,30.73
2011-07-27,63.09,63.25,62.01,62.26,501600,31.13
2011-07-26,64.81,65.25,63.43,63.52,468400,31.76
2011-07-25,64.56,65.15,63.98,64.81,514400,32.40
2011-07-22,64.88,65.35,63.94,64.65,669400,32.33
2011-07-21,63.03,66.40,62.50,64.52,2279600,32.26
2011-07-20,61.92,61.92,60.81,61.57,455400,30.78
2011-07-19,61.62,62.17,61.60,61.80,288000,30.90
2011-07-18,61.42,61.51,60.74,61.14,290400,30.57
2011-07-15,62.51,62.54,61.06,61.68,358600,30.84
2011-07-14,62.01,62.80,61.72,62.10,368200,31.05
2011-07-13,62.15,62.98,61.86,61.94,398800,30.97
2011-07-12,61.02,62.23,60.49,61.82,380400,30.91
2011-07-11,62.47,62.87,61.20,61.33,411800,30.67
2011-07-08,63.00,63.25,62.42,62.99,438800,31.50
2011-07-07,63.94,64.45,63.52,63.62,791600,31.81
2011-07-06,63.59,64.51,63.17,63.67,1165000,31.83
2011-07-05,61.77,64.73,61.54,63.62,803200,31.81
2011-07-01,59.03,63.36,58.40,63.12,1050200,31.56
2011-06-30,57.71,59.36,57.58,58.92,730400,29.46
2011-06-29,55.85,57.92,55.85,57.61,516000,28.81
2011-06-28,56.17,57.13,56.08,56.46,565800,28.23
2011-06-27,55.22,56.12,54.88,55.67,392800,27.83
2011-06-24,55.66,56.11,54.85,55.32,568800,27.66
2011-06-23,55.49,55.95,54.22,55.59,956800,27.80
2011-06-22,55.50,56.05,55.22,55.36,448000,27.68
2011-06-21,55.83,57.01,55.54,55.58,795800,27.79
2011-06-20,55.28,55.80,54.57,55.52,222600,27.76
2011-06-17,56.05,56.83,55.15,55.29,531200,27.65
2011-06-16,56.29,56.56,54.62,55.74,715200,27.87
2011-06-15,56.97,57.78,56.31,56.35,553400,28.17
2011-06-14,55.52,57.61,55.39,57.36,822400,28.68
2011-06-13,55.31,55.86,54.89,55.16,888200,27.58
2011-06-10,55.66,56.16,55.05,55.11,977800,27.56
2011-06-09,55.60,56.56,55.49,55.97,555400,27.99
2011-06-08,56.34,56.72,55.44,55.67,518600,27.83
2011-06-07,56.75,57.85,56.49,56.79,323200,28.40
2011-06-06,57.77,57.97,56.29,56.48,507200,28.24
2011-06-03,58.77,59.00,57.86,58.05,358600,29.02
2011-06-02,59.44,60.44,58.43,59.12,607800,29.56
2011-06-01,58.90,60.80,58.90,59.31,937200,29.66
2011-05-31,60.56,60.56,58.35,58.94,655600,29.47
2011-05-27,58.85,59.48,57.77,58.55,694800,29.27
2011-05-26,57.26,58.93,56.80,58.81,491000,29.41
2011-05-25,57.50,58.55,56.32,57.25,1177400,28.62
2011-05-24,58.99,59.81,57.59,57.67,562000,28.83
2011-05-23,59.76,60.13,58.07,58.55,452800,29.27
2011-05-20,59.70,60.88,58.94,60.49,510200,30.25
2011-05-19,59.40,60.07,59.30,59.70,1337000,29.85
2011-05-18,58.80,59.32,58.00,58.88,684200,29.44
2011-05-17,58.80,60.72,58.77,58.97,485000,29.49
2011-05-16,59.92,60.38,58.72,59.44,820800,29.72
2011-05-13,59.42,61.11,59.16,60.38,809200,30.19
2011-05-12,60.00,60.72,59.31,59.34,778000,29.67
2011-05-11,61.85,62.00,59.76,60.02,640000,30.01
2011-05-10,60.16,62.00,60.10,61.74,1007800,30.87
2011-05-09,58.53,60.16,58.01,59.98,789600,29.99
2011-05-06,57.81,59.07,57.75,58.53,1039800,29.26
2011-05-05,55.13,59.83,55.11,57.94,1841400,28.97
2011-05-04,55.21,55.83,54.55,55.21,558000,27.60
2011-05-03,56.31,56.81,55.14,55.54,411800,27.77
2011-05-02,55.19,57.06,55.16,56.40,759800,28.20
2011-04-29,54.72,55.44,54.53,55.16,798000,27.58
2011-04-28,55.65,56.76,54.75,54.82,742600,27.41
2011-04-27,55.78,55.96,55.20,55.71,446400,27.85
2011-04-26,56.09,57.61,55.53,55.71,790800,27.85
2011-04-25,56.03,57.17,55.94,56.84,397800,28.42
2011-04-21,56.58,57.01,55.92,56.03,459000,28.01
2011-04-20,58.18,58.37,56.35,56.57,682800,28.28
2011-04-19,57.62,57.65,56.19,57.35,477800,28.67
2011-04-18,55.89,57.65,55.54,57.06,739400,28.53
2011-04-15,55.27,57.00,54.94,56.36,731800,28.18
2011-04-14,53.66,55.90,53.66,55.44,516800,27.72
2011-04-13,53.38,54.31,53.10,53.95,657000,26.98
2011-04-12,54.04,54.36,52.53,52.97,1103600,26.49
2011-04-11,53.81,54.64,53.24,54.06,438800,27.03
2011-04-08,53.93,54.44,53.11,53.89,363800,26.94
2011-04-07,53.42,54.01,53.08,53.86,877400,26.93
2011-04-06,54.94,55.15,53.54,53.54,410000,26.77
2011-04-05,54.79,54.95,54.27,54.82,286600,27.41
2011-04-04,54.45,55.04,54.41,54.55,425200,27.27
2011-04-01,55.14,55.49,53.88,54.45,522800,27.23
2011-03-31,54.61,54.92,54.11,54.80,408400,27.40
2011-03-30,54.32,55.00,54.23,54.58,346800,27.29
2011-03-29,53.40,54.14,53.16,54.08,377400,27.04
2011-03-28,54.00,54.27,52.94,53.33,618200,26.67
2011-03-25,52.50,54.60,52.34,54.00,986200,27.00
2011-03-24,51.81,52.54,51.48,52.54,501200,26.27
2011-03-23,50.99,52.07,50.68,51.66,637400,25.83
2011-03-22,49.89,51.06,49.89,50.96,598600,25.48
2011-03-21,48.84,50.07,48.84,49.88,279000,24.94
2011-03-18,49.50,49.65,48.12,48.37,684600,24.18
2011-03-17,50.09,50.29,49.03,49.34,440800,24.67
2011-03-16,49.48,50.53,49.46,49.63,832800,24.82
2011-03-15,48.69,50.58,48.27,50.36,449000,25.18
2011-03-14,50.69,51.00,49.50,50.23,275400,25.11
2011-03-11,49.81,52.16,49.33,51.08,857400,25.54
2011-03-10,49.52,50.52,48.67,50.46,781400,25.23
2011-03-09,46.90,50.59,46.06,50.23,3023200,25.11
2011-03-08,49.70,49.86,49.49,49.74,463000,24.87
2011-03-07,48.60,50.52,48.38,49.89,1289800,24.94
2011-03-04,51.09,52.07,51.02,51.95,391400,25.98
2011-03-03,49.69,51.25,49.57,51.15,349200,25.58
2011-03-02,49.35,49.80,48.67,49.35,555600,24.67
2011-03-01,49.43,49.83,48.67,49.54,271400,24.77
2011-02-28,49.20,49.62,49.09,49.35,267600,24.67
2011-02-25,49.59,49.90,48.47,49.20,500200,24.60
2011-02-24,46.17,49.84,44.14,49.19,2403600,24.59
2011-02-23,49.08,49.38,46.38,46.51,958200,23.25
2011-02-22,49.46,50.46,48.68,49.30,658400,24.65
2011-02-18,50.75,50.94,49.55,49.63,377200,24.82
2011-02-17,51.58,51.84,50.38,50.47,552800,25.24
2011-02-16,52.03,52.48,51.58,51.69,421000,25.84
2011-02-15,52.03,52.78,51.44,51.79,523600,25.90
2011-02-14,50.94,52.12,50.89,52.09,732800,26.05
2011-02-11,51.04,51.34,50.54,51.07,335000,25.53
2011-02-10,48.89,51.47,48.76,51.21,724800,25.60
2011-02-09,48.42,49.21,48.32,48.92,267200,24.46
2011-02-08,48.71,48.79,48.12,48.60,201000,24.30
2011-02-07,48.76,49.02,48.54,48.67,149400,24.33
2011-02-04,48.00,48.56,47.96,48.42,202400,24.21
2011-02-03,48.49,48.74,47.75,48.08,295600,24.04
2011-02-02,48.48,49.16,48.48,48.58,297600,24.29
2011-02-01,48.32,49.42,48.06,48.62,526400,24.31
2011-01-31,46.84,48.27,46.71,48.11,464000,24.06
2011-01-28,48.76,48.92,46.72,46.79,420800,23.40
2011-01-27,47.19,48.93,46.82,48.54,983600,24.27
2011-01-26,45.65,46.71,45.48,46.62,583200,23.31
2011-01-25,45.69,46.02,45.51,45.64,385600,22.82
2011-01-24,45.00,46.20,44.50,45.83,673000,22.92
2011-01-21,45.33,45.76,44.96,44.97,588800,22.49
2011-01-20,44.11,45.28,44.08,45.07,1011200,22.53
2011-01-19,44.12,44.44,43.72,44.33,468400,22.17
2011-01-18,44.01,44.27,43.47,44.16,803200,22.08
2011-01-14,42.72,44.07,42.72,44.01,583200,22.00
2011-01-13,44.25,44.25,43.23,43.60,538000,21.80
2011-01-12,44.14,44.58,44.02,44.31,242600,22.16
2011-01-11,43.75,44.17,43.57,44.00,610800,22.00
2011-01-10,44.31,44.40,43.32,43.71,779400,21.85
2011-01-07,43.62,44.75,43.61,44.57,833600,22.28
2011-01-06,43.25,43.32,42.60,43.08,303600,21.54
2011-01-05,43.15,43.40,42.83,43.28,689600,21.64
2011-01-04,43.24,43.63,42.83,43.29,515400,21.65
2011-01-03,43.12,43.42,42.68,43.14,595200,21.57
2010-12-31,42.95,43.06,42.68,42.86,374600,21.43
2010-12-30,42.92,43.00,42.48,42.87,326400,21.43
2010-12-29,42.85,43.17,42.79,42.96,451600,21.48
2010-12-28,43.35,43.35,42.60,42.85,207200,21.42
2010-12-27,43.24,43.48,42.76,43.38,303000,21.69
2010-12-23,43.70,43.91,43.53,43.61,190200,21.81
2010-12-22,43.75,43.87,43.39,43.72,338200,21.86
2010-12-21,42.92,43.90,42.92,43.76,610400,21.88
2010-12-20,43.13,43.13,42.24,42.72,678200,21.36
2010-12-17,43.50,43.63,43.00,43.26,2157000,21.63
2010-12-16,43.77,43.93,43.15,43.56,399200,21.78
2010-12-15,45.14,45.14,43.69,43.94,620800,21.97
2010-12-14,43.57,44.35,43.42,44.13,723400,22.07
2010-12-13,44.23,44.52,43.78,43.79,656600,21.90
2010-12-10,44.50,44.92,43.91,43.91,591000,21.95
2010-12-09,44.92,45.15,43.70,44.57,770000,22.28
2010-12-08,45.12,45.17,44.80,44.94,381600,22.47
2010-12-07,45.27,45.56,44.61,45.15,880200,22.58
2010-12-06,45.34,45.78,45.15,45.36,660600,22.68
2010-12-03,43.68,45.69,43.68,45.37,1224400,22.68
2010-12-02,39.88,44.03,39.83,43.62,3813600,21.81
2010-12-01,38.52,39.29,38.26,39.10,481400,19.55
2010-11-30,38.34,38.70,38.11,38.35,447600,19.17
2010-11-29,38.58,38.78,38.21,38.63,470200,19.32
2010-11-26,38.99,39.17,38.62,38.74,95800,19.37
2010-11-24,39.32,39.98,39.21,39.26,341800,19.63
2010-11-23,39.32,39.59,38.76,39.25,499800,19.62
2010-11-22,37.75,39.68,37.73,39.62,818600,19.81
2010-11-19,37.88,38.11,37.59,37.74,454800,18.87
2010-11-18,37.59,38.62,37.28,37.88,355000,18.94
2010-11-17,37.59,38.09,37.03,37.68,489200,18.84
2010-11-16,37.88,37.88,36.74,37.30,589600,18.65
2010-11-15,37.66,38.30,37.63,37.94,534200,18.97
2010-11-12,37.70,38.07,37.45,37.65,531400,18.83
2010-11-11,37.52,38.02,36.93,37.96,918600,18.98
2010-11-10,37.32,37.60,36.60,37.52,627800,18.76
2010-11-09,38.83,38.99,37.01,37.32,1154600,18.66
2010-11-08,38.65,39.05,38.46,38.86,315600,19.43
2010-11-05,39.73,39.94,38.71,38.84,1095600,19.42
2010-11-04,38.05,40.37,37.94,39.67,2139200,19.83
2010-11-03,38.93,40.93,38.58,40.93,1133200,20.47
2010-11-02,37.87,39.14,37.87,38.97,506600,19.49
2010-11-01,39.16,39.64,37.53,37.81,671800,18.91
2010-10-29,37.37,38.98,37.15,38.96,653800,19.48
2010-10-28,37.47,37.68,36.80,37.35,389200,18.67
2010-10-27,36.81,37.47,36.50,37.44,609400,18.72
2010-10-26,37.60,37.97,36.92,37.07,574000,18.53
2010-10-25,38.41,38.62,37.49,37.49,364400,18.75
2010-10-22,37.65,38.25,37.41,38.24,257000,19.12
2010-10-21,39.53,39.70,37.60,37.75,497800,18.88
2010-10-20,38.08,39.51,37.73,39.30,1113200,19.65
2010-10-19,36.29,36.90,35.81,36.89,681800,18.44
2010-10-18,37.13,37.13,36.43,36.51,321800,18.25
2010-10-15,37.70,37.75,36.92,37.30,925600,18.65
2010-10-14,38.32,38.51,37.27,37.66,525600,18.83
2010-10-13,38.41,38.80,38.27,38.43,412200,19.22
2010-10-12,38.81,39.06,38.01,38.30,389400,19.15
2010-10-11,39.14,39.35,38.71,38.98,346400,19.49
2010-10-08,38.34,39.14,37.97,38.95,930600,19.48
2010-10-07,38.02,38.35,37.49,38.29,535000,19.15
2010-10-06,37.70,38.26,37.70,37.98,493400,18.99
2010-10-05,37.84,38.18,37.56,37.87,442800,18.93
2010-10-04,37.62,38.27,37.18,37.73,685800,18.86
2010-10-01,36.99,37.87,36.59,37.86,848000,18.93
2010-09-30,36.34,37.43,36.15,36.47,1106600,18.24
2010-09-29,36.32,36.50,35.99,36.31,756200,18.16
2010-09-28,36.15,36.58,35.81,36.32,615800,18.16
2010-09-27,37.14,37.34,36.24,36.33,562400,18.17
2010-09-24,36.55,37.14,36.44,37.10,874600,18.55
2010-09-23,37.77,38.10,36.32,36.55,1239200,18.27
2010-09-22,39.22,39.22,37.87,37.96,677200,18.98
2010-09-21,38.56,39.52,38.23,39.05,998000,19.52
2010-09-20,38.39,38.95,37.80,38.48,945400,19.24
2010-09-17,78.00,78.69,75.43,77.36,3310800,19.34
2010-09-16,81.88,81.88,78.09,78.35,833600,19.59
2010-09-15,81.44,82.02,80.37,81.61,612800,20.40
2010-09-14,82.22,83.15,80.88,81.09,517200,20.27
2010-09-13,81.78,82.40,81.20,82.04,562800,20.51
2010-09-10,79.30,81.63,77.13,80.68,958400,20.17
2010-09-09,79.09,79.20,78.67,79.05,748000,19.76
2010-09-08,78.95,79.27,77.96,78.70,1036800,19.67
2010-09-07,80.23,80.74,78.94,79.63,819600,19.91
2010-09-03,81.19,81.99,80.51,80.67,593200,20.17
2010-09-02,78.25,80.96,78.25,80.67,1232400,20.17
2010-09-01,77.00,79.71,76.47,77.70,2051600,19.42
2010-08-31,77.51,78.79,76.98,77.80,1237200,19.45
2010-08-30,75.02,78.20,74.80,77.80,849600,19.45
2010-08-27,76.92,78.00,75.16,75.74,1466000,18.93
2010-08-26,75.72,77.18,75.56,76.41,762400,19.10
2010-08-25,74.46,75.52,72.68,75.41,758800,18.85
2010-08-24,73.05,75.23,72.96,75.00,717600,18.75
2010-08-23,74.26,74.71,73.53,74.14,517200,18.53
2010-08-20,73.96,74.41,73.03,74.03,477600,18.51
2010-08-19,74.00,74.92,73.51,73.96,732400,18.49
2010-08-18,76.00,76.32,74.30,74.37,1112400,18.59
2010-08-17,76.68,76.75,75.84,76.17,528400,19.04
2010-08-16,75.92,76.93,75.75,76.33,513200,19.08
2010-08-13,76.33,76.99,75.68,76.53,483200,19.13
2010-08-12,75.00,76.95,74.37,76.45,925600,19.11
2010-08-11,76.16,76.44,75.35,75.88,1002800,18.97
2010-08-10,76.99,77.60,76.09,77.20,804400,19.30
2010-08-09,76.92,78.00,76.10,77.40,953200,19.35
2010-08-06,74.33,76.46,74.12,76.39,1212000,19.10
2010-08-05,73.35,75.99,71.11,74.34,2421200,18.58
2010-08-04,69.58,70.98,69.18,70.70,1837200,17.67
2010-08-03,68.65,69.95,67.77,69.52,1372800,17.38
2010-08-02,68.90,69.25,67.65,68.82,1127600,17.20
2010-07-30,63.84,68.29,63.69,67.90,2080400,16.98
2010-07-29,64.80,66.66,64.08,64.27,1930000,16.07
2010-07-28,64.54,65.10,63.98,64.62,1003600,16.16
2010-07-27,65.74,66.38,64.40,64.73,1347200,16.18
2010-07-26,65.98,66.24,64.88,65.19,792800,16.30
2010-07-23,64.52,66.65,63.86,65.81,1287600,16.45
2010-07-22,67.43,67.91,61.39,64.46,4232800,16.11
2010-07-21,66.45,67.60,65.78,66.46,1181600,16.61
2010-07-20,67.65,67.97,65.46,66.41,1792800,16.60
2010-07-19,70.23,70.38,67.93,68.44,1081600,17.11
2010-07-16,69.47,70.15,69.07,69.67,1251200,17.42
2010-07-15,70.75,70.90,68.98,70.02,1003600,17.50
2010-07-14,71.10,71.40,70.11,70.79,1117200,17.70
2010-07-13,70.97,72.18,70.17,71.40,1372800,17.85
2010-07-12,72.15,72.98,68.66,70.04,2487200,17.51
2010-07-09,73.46,74.03,72.35,72.61,866000,18.15
2010-07-08,74.39,75.00,72.95,73.62,1216800,18.41
2010-07-07,73.69,74.04,72.96,73.81,1322000,18.45
2010-07-06,73.47,75.87,72.72,73.24,1236400,18.31
2010-07-02,73.04,74.58,73.04,73.91,1539600,18.48
2010-07-01,73.49,74.01,71.85,73.21,977600,18.30
2010-06-30,71.48,73.48,71.03,73.25,995200,18.31
2010-06-29,73.95,74.21,71.20,71.68,1033200,17.92
2010-06-28,74.08,75.37,72.16,75.08,1048000,18.77
2010-06-25,72.86,75.77,72.55,73.74,12468000,18.43
2010-06-24,71.98,72.66,70.31,72.57,1366000,18.14
2010-06-23,72.22,73.83,71.69,72.24,1046800,18.06
2010-06-22,73.89,74.35,72.00,72.73,1193600,18.18
2010-06-21,75.38,76.61,73.91,74.40,580000,18.60
2010-06-18,76.28,76.97,74.90,75.30,887600,18.83
2010-06-17,75.36,76.92,74.23,76.19,884400,19.05
2010-06-16,74.22,76.87,73.97,74.81,764800,18.70
2010-06-15,72.16,74.86,72.12,74.71,749600,18.68
2010-06-14,74.24,74.25,71.93,72.16,1306400,18.04
2010-06-11,73.61,74.31,72.25,73.11,1718800,18.28
2010-06-10,74.42,75.24,73.14,74.00,1214800,18.50
2010-06-09,73.46,74.34,71.36,73.68,1236000,18.42
2010-06-08,71.04,72.25,70.08,72.12,747200,18.03
2010-06-07,72.00,72.45,70.55,71.34,588000,17.83
2010-06-04,72.96,73.15,70.65,71.25,766800,17.81
2010-06-03,74.42,74.97,72.72,74.42,1006400,18.60
2010-06-02,71.00,73.59,70.53,73.41,866400,18.35
2010-06-01,73.50,74.97,70.91,71.32,1047200,17.83
2010-05-28,73.26,74.86,72.80,73.56,1647200,18.39
2010-05-27,69.34,72.90,69.00,72.78,1601600,18.19
2010-05-26,66.86,70.51,66.86,68.63,836000,17.16
2010-05-25,64.63,66.59,63.24,66.58,724000,16.65
2010-05-24,66.05,67.54,65.91,66.05,467200,16.51
2010-05-21,64.66,67.75,64.23,66.83,638000,16.71
2010-05-20,65.64,66.27,64.94,65.09,872800,16.27
2010-05-19,66.74,67.65,65.64,67.05,553600,16.76
2010-05-18,66.41,68.00,66.02,67.22,608800,16.81
2010-05-17,68.29,69.08,66.11,66.49,1020000,16.62
2010-05-14,69.11,69.11,67.68,68.22,616000,17.06
2010-05-13,69.99,70.38,69.22,69.78,1050400,17.44
2010-05-12,65.96,70.55,65.59,69.74,1248800,17.43
2010-05-11,64.44,65.96,63.85,65.08,522400,16.27
2010-05-10,66.25,66.80,63.83,64.35,1009200,16.09
2010-05-07,64.28,64.64,60.50,63.26,1478400,15.81
2010-05-06,60.99,67.32,58.34,63.36,3220000,15.84
2010-05-05,64.51,64.79,61.20,61.48,1178800,15.37
2010-05-04,67.03,67.03,65.00,65.53,1398000,16.38
2010-05-03,70.11,70.92,68.11,68.44,770400,17.11
2010-04-30,69.87,71.42,68.67,69.69,1064800,17.42
2010-04-29,67.00,69.77,67.00,69.30,667600,17.33
2010-04-28,67.05,67.90,66.06,67.52,567200,16.88
2010-04-27,67.52,67.92,65.54,66.25,681600,16.56
2010-04-26,68.50,69.75,67.64,67.88,526000,16.97
2010-04-23,66.78,68.47,66.75,68.23,580800,17.06
2010-04-22,66.42,67.37,65.18,67.10,564800,16.77
2010-04-21,69.36,69.36,66.51,66.72,540400,16.68
2010-04-20,66.34,69.16,66.34,68.97,624800,17.24
2010-04-19,65.54,66.30,65.17,65.90,769600,16.48
2010-04-16,67.24,67.49,65.91,66.10,390000,16.52
2010-04-15,66.35,67.80,66.35,67.04,781200,16.76
2010-04-14,67.96,68.00,65.60,66.54,1081600,16.64
2010-04-13,68.67,68.67,67.28,67.77,657200,16.94
2010-04-12,68.83,71.07,68.50,68.55,1142400,17.14
2010-04-09,68.10,68.50,67.94,68.24,478800,17.06
2010-04-08,68.61,68.78,67.26,68.10,523600,17.02
2010-04-07,68.64,68.93,68.15,68.53,613200,17.13
2010-04-06,68.17,68.94,67.85,68.61,1076800,17.15
2010-04-05,67.71,68.71,67.28,68.61,642800,17.15
2010-04-01,67.34,68.22,66.66,67.32,877600,16.83
2010-03-31,67.34,68.03,67.24,67.28,758400,16.82
2010-03-30,67.85,68.45,67.51,68.01,1096800,17.00
2010-03-29,66.61,68.33,66.05,68.20,905200,17.05
2010-03-26,68.50,68.50,66.26,66.58,1872400,16.65
2010-03-25,67.93,68.94,67.06,68.07,1287600,17.02
2010-03-24,66.14,68.40,66.00,67.89,878000,16.97
2010-03-23,67.49,67.49,66.00,66.56,502400,16.64
2010-03-22,65.33,67.90,64.85,66.49,2000400,16.62
2010-03-19,65.26,66.00,63.03,65.26,874000,16.32
2010-03-18,65.68,65.78,63.89,64.97,1431600,16.24
2010-03-17,63.29,65.57,63.00,65.27,1299200,16.32
2010-03-16,61.91,63.95,61.16,63.04,1374000,15.76
2010-03-15,61.30,63.04,61.13,61.73,614800,15.43
2010-03-12,63.12,63.19,62.01,62.15,814800,15.54
2010-03-11,61.00,63.48,59.96,62.99,1940800,15.75
2010-03-10,59.81,61.32,59.81,60.50,1702800,15.12
2010-03-09,61.64,61.64,59.31,59.83,1476000,14.96
2010-03-08,62.14,62.83,60.26,61.58,1414000,15.40
2010-03-05,59.98,63.54,58.83,62.14,2952800,15.53
2010-03-04,51.69,60.00,51.64,58.60,5809600,14.65
2010-03-03,50.64,51.13,50.36,50.91,685600,12.73
2010-03-02,50.71,51.14,50.10,50.75,634800,12.69
2010-03-01,50.15,50.91,50.15,50.76,699600,12.69
2010-02-26,49.00,50.00,48.76,49.71,721200,12.43
2010-02-25,49.09,49.35,47.57,49.01,507600,12.25
2010-02-24,49.00,49.49,48.60,49.46,473600,12.36
2010-02-23,49.19,49.28,48.62,48.76,727600,12.19
2010-02-22,49.12,49.35,48.86,49.26,450800,12.31
2010-02-19,48.35,49.33,48.01,49.19,364400,12.30
2010-02-18,47.89,48.81,47.89,48.63,468000,12.16
2010-02-17,47.34,48.16,46.91,48.01,480400,12.00
2010-02-16,46.39,47.38,45.95,47.35,654800,11.84
2010-02-12,47.20,47.64,45.83,46.07,1392400,11.52
2010-02-11,47.25,47.86,46.08,47.51,680000,11.88
2010-02-10,47.56,48.15,46.49,47.40,1162800,11.85
2010-02-09,47.35,47.35,45.99,46.21,918400,11.55
2010-02-08,46.99,47.50,46.53,46.95,832400,11.74
2010-02-05,48.10,48.29,46.54,47.27,840400,11.82
2010-02-04,48.50,49.02,47.75,47.85,1200400,11.96
2010-02-03,48.50,49.16,48.28,48.70,498400,12.18
2010-02-02,47.30,48.64,46.54,48.51,678800,12.13
2010-02-01,47.13,47.93,46.92,47.26,668400,11.81
2010-01-29,47.81,48.17,46.96,47.12,1362000,11.78
2010-01-28,48.71,49.51,46.97,47.82,840400,11.95
2010-01-27,48.02,49.05,48.00,48.66,1100400,12.16
2010-01-26,48.03,48.90,47.70,48.32,762400,12.08
2010-01-25,48.33,49.15,46.79,48.03,1053600,12.01
2010-01-22,48.22,49.35,47.07,48.60,1224400,12.15
2010-01-21,50.85,51.26,47.35,48.41,1678000,12.10
2010-01-20,50.92,51.91,49.26,50.89,2209600,12.72
2010-01-19,48.00,51.12,47.83,51.04,5028800,12.76
2010-01-15,47.55,47.72,45.22,47.30,2808400,11.82
2010-01-14,51.08,51.36,47.75,47.87,2050800,11.97
2010-01-13,48.57,51.57,48.57,51.31,1329600,12.83
2010-01-12,48.72,49.45,47.61,49.02,1581600,12.26
2010-01-11,52.37,52.41,48.07,49.62,2441600,12.40
2010-01-08,53.32,53.57,51.43,52.10,1392000,13.02
2010-01-07,54.11,54.14,53.38,53.69,889200,13.42
2010-01-06,54.95,55.06,53.95,54.07,472400,13.52
2010-01-05,55.80,56.20,54.80,54.90,487600,13.73
2010-01-04,54.94,56.00,54.02,55.76,382400,13.94
2009-12-31,54.46,54.85,53.95,53.95,312800,13.49
2009-12-30,54.07,55.07,53.72,53.94,655200,13.48
2009-12-29,54.01,56.05,54.01,54.84,618000,13.71
2009-12-28,55.65,56.04,54.19,54.33,455600,13.58
2009-12-24,55.69,56.16,54.68,55.35,188000,13.84
2009-12-23,55.31,56.00,54.26,55.35,264400,13.84
2009-12-22,54.25,55.95,53.54,55.02,1048800,13.76
2009-12-21,51.53,54.34,51.53,54.17,1118000,13.54
2009-12-18,51.08,51.42,50.16,51.12,744400,12.78
2009-12-17,51.33,51.53,50.34,50.99,643200,12.75
2009-12-16,51.88,52.13,51.51,51.76,795600,12.94
2009-12-15,51.17,51.95,51.00,51.95,636000,12.99
2009-12-14,52.50,52.50,51.08,51.75,493600,12.94
2009-12-11,52.22,52.22,51.55,51.87,316400,12.97
2009-12-10,52.00,52.35,51.80,52.28,282400,13.07
2009-12-09,51.70,52.25,51.00,52.02,666000,13.01
2009-12-08,52.70,52.92,51.56,51.76,968000,12.94
2009-12-07,54.10,54.30,52.83,53.08,895600,13.27
2009-12-04,53.84,54.77,51.94,53.15,1062400,13.29
2009-12-03,54.37,55.29,52.97,53.14,1242000,13.28
2009-12-02,53.18,54.34,52.48,54.22,960800,13.56
2009-12-01,51.05,53.25,51.02,52.68,824000,13.17
2009-11-30,51.39,52.33,50.61,50.69,1255200,12.67
2009-11-27,51.49,52.53,50.00,51.23,412400,12.81
2009-11-25,52.90,54.50,52.53,53.00,1198400,13.25
2009-11-24,52.06,52.79,51.25,52.51,510400,13.13
2009-11-23,50.51,52.43,50.43,52.07,845200,13.02
2009-11-20,49.05,49.81,47.85,49.68,792800,12.42
2009-11-19,50.98,51.10,49.22,49.60,1019600,12.40
2009-11-18,53.48,53.48,51.27,51.45,876800,12.86
2009-11-17,52.75,54.45,52.74,53.20,1218400,13.30
2009-11-16,50.70,53.27,50.17,52.79,1864800,13.20
2009-11-13,48.05,50.00,47.82,49.73,838000,12.43
2009-11-12,48.25,48.63,47.51,47.78,486800,11.94
2009-11-11,48.19,48.94,47.61,48.25,762400,12.06
2009-11-10,46.30,47.64,46.26,47.51,1081200,11.88
2009-11-09,48.00,48.32,46.71,47.44,1260000,11.86
2009-11-06,47.07,47.94,45.99,47.19,2105200,11.80
2009-11-05,48.40,52.00,47.50,47.81,4408000,11.95
2009-11-04,49.01,51.31,46.69,46.73,2838400,11.68
2009-11-03,46.72,49.13,46.29,48.72,1888000,12.18
2009-11-02,46.38,47.50,45.20,46.45,1424800,11.61
2009-10-30,46.29,46.99,44.90,45.68,1452400,11.42
2009-10-29,43.59,46.69,42.53,46.59,2025600,11.65
2009-10-28,45.65,46.46,43.50,44.16,2317200,11.04
2009-10-27,46.54,46.86,45.85,46.31,1961600,11.58
2009-10-26,48.34,49.35,46.68,46.91,1546000,11.73
2009-10-23,49.44,49.49,47.99,48.75,954000,12.19
2009-10-22,47.61,49.18,47.32,48.94,866800,12.23
2009-10-21,50.05,50.67,47.90,48.04,2002400,12.01
2009-10-20,51.01,52.20,49.83,50.36,2525200,12.59
2009-10-19,51.59,51.87,50.51,51.82,1251600,12.95
2009-10-16,51.51,51.51,50.38,51.10,1260400,12.77
2009-10-15,51.45,51.69,50.63,51.46,898800,12.86
2009-10-14,50.53,51.57,50.12,51.54,2438000,12.89
2009-10-13,50.75,52.59,50.35,51.43,1509600,12.86
2009-10-12,51.08,51.90,50.39,50.76,593200,12.69
2009-10-09,49.20,51.52,49.13,51.30,2077600,12.82
2009-10-08,48.71,49.37,48.39,49.21,566400,12.30
2009-10-07,48.70,49.37,47.50,48.14,873600,12.03
2009-10-06,47.64,48.91,47.02,48.32,904000,12.08
2009-10-05,46.06,47.89,45.97,46.90,1043600,11.73
2009-10-02,44.10,46.07,44.03,45.39,976800,11.35
2009-10-01,46.05,47.04,44.78,44.88,1462400,11.22
2009-09-30,46.62,47.52,45.91,46.79,1112800,11.70
2009-09-29,46.50,46.95,46.06,46.14,940000,11.53
2009-09-28,46.64,47.57,46.27,46.56,1258400,11.64
2009-09-25,46.01,46.69,45.68,46.35,1696000,11.59
2009-09-24,47.99,48.37,46.04,46.34,2306800,11.59
2009-09-23,47.66,48.85,47.29,48.00,1641200,12.00
2009-09-22,48.14,48.30,47.20,47.53,1465200,11.88
2009-09-21,46.99,48.74,46.30,47.65,2593200,11.91
2009-09-18,43.86,47.39,43.70,47.00,14658400,11.75
2009-09-17,42.03,43.45,41.43,41.58,3166800,10.40
2009-09-16,41.90,42.31,40.67,42.27,1341200,10.57
2009-09-15,42.48,42.48,41.17,41.96,1515600,10.49
2009-09-14,43.40,43.81,42.90,43.48,906800,10.87
2009-09-11,44.60,44.60,43.25,43.50,1028800,10.88
2009-09-10,43.34,44.53,43.00,44.22,923600,11.06
2009-09-09,42.72,44.60,42.72,43.04,2407600,10.76
2009-09-08,41.51,42.92,41.51,41.89,574400,10.47
2009-09-04,40.00,42.34,39.99,41.51,1569600,10.38
2009-09-03,40.30,40.87,39.14,39.93,2072400,9.98
2009-09-02,40.25,41.55,40.19,40.33,651600,10.08
2009-09-01,40.16,41.46,39.90,40.70,1194800,10.18
2009-08-31,42.86,42.98,40.05,40.71,3148000,10.18
2009-08-28,43.60,43.75,41.92,42.22,1611600,10.56
2009-08-27,44.40,44.60,43.53,43.70,1364800,10.93
2009-08-26,44.00,44.52,43.41,44.16,1140400,11.04
2009-08-25,43.99,44.67,43.26,43.72,1780000,10.93
2009-08-24,42.71,43.66,42.50,43.40,2097600,10.85
2009-08-21,42.51,42.77,42.06,42.77,419200,10.69
2009-08-20,41.80,42.40,41.61,42.33,495200,10.58
2009-08-19,41.83,42.20,41.43,42.08,1243600,10.52
2009-08-18,41.03,42.60,41.03,41.87,1121200,10.47
2009-08-17,39.90,41.38,39.07,41.36,1348400,10.34
2009-08-14,41.80,42.37,40.34,41.05,823600,10.26
2009-08-13,40.93,41.78,40.56,41.61,1738000,10.40
2009-08-12,40.00,41.28,39.50,40.40,2314800,10.10
2009-08-11,38.71,40.84,37.51,40.14,2121200,10.03
2009-08-10,38.84,39.74,37.63,37.96,1352000,9.49
2009-08-07,37.69,39.72,37.27,39.25,1843600,9.81
2009-08-06,38.34,40.02,36.68,37.53,9045600,9.38
2009-08-05,30.25,30.32,29.47,29.71,662000,7.43
2009-08-04,29.08,30.25,29.08,29.90,552800,7.47
2009-08-03,30.00,30.00,28.83,29.37,474800,7.34
2009-07-31,29.78,29.96,29.16,29.56,387600,7.39
2009-07-30,29.08,29.85,29.08,29.60,462800,7.40
2009-07-29,29.05,29.21,28.00,29.16,802000,7.29
2009-07-28,29.50,29.50,28.63,29.16,512000,7.29
2009-07-27,29.85,29.85,29.14,29.54,469600,7.39
2009-07-24,29.98,30.00,28.52,29.61,430800,7.40
2009-07-23,29.36,29.88,29.22,29.84,636800,7.46
2009-07-22,29.85,29.88,29.11,29.14,478000,7.28
2009-07-21,29.54,29.99,29.40,29.63,652800,7.41
2009-07-20,28.92,29.60,28.73,29.24,773200,7.31
2009-07-17,28.30,28.87,28.09,28.68,618000,7.17
2009-07-16,28.40,28.76,27.77,28.30,889200,7.07
2009-07-15,28.10,28.50,27.62,28.21,1224400,7.05
2009-07-14,27.01,28.15,27.01,27.84,1397200,6.96
2009-07-13,27.17,27.17,26.34,26.89,636400,6.72
2009-07-10,26.80,27.34,26.54,26.87,714400,6.72
2009-07-09,26.10,27.34,25.57,27.00,1080400,6.75
2009-07-08,26.26,26.97,25.31,25.71,1046000,6.43
2009-07-07,25.01,26.67,24.81,26.47,1379200,6.62
2009-07-06,25.22,25.81,24.51,25.07,460000,6.27
2009-07-02,26.18,26.18,25.21,25.56,581600,6.39
2009-07-01,25.76,26.99,25.02,26.44,285200,6.61
2009-06-30,26.35,26.35,25.00,25.42,380000,6.36
2009-06-29,26.52,26.62,25.58,26.04,324000,6.51
2009-06-26,25.62,26.53,25.53,26.20,1196000,6.55
2009-06-25,25.43,25.53,24.63,25.53,322000,6.38
2009-06-24,24.28,25.44,24.15,25.25,988000,6.31
2009-06-23,24.69,24.74,23.05,24.23,979200,6.06
2009-06-22,25.99,25.99,24.70,24.76,916800,6.19
2009-06-19,25.76,26.02,25.38,25.77,748000,6.44
2009-06-18,25.12,25.60,24.58,25.58,1200800,6.39
2009-06-17,24.75,25.22,24.40,25.21,514400,6.30
2009-06-16,25.69,26.07,24.78,24.93,1134400,6.23
2009-06-15,25.85,25.85,25.28,25.72,742800,6.43
2009-06-12,26.57,26.57,25.59,26.23,986000,6.56
2009-06-11,26.34,26.89,26.02,26.78,531200,6.70
2009-06-10,25.95,26.24,25.59,26.06,1036000,6.51
2009-06-09,25.13,25.61,24.58,25.55,1082000,6.39
2009-06-08,25.18,25.18,24.43,25.00,466400,6.25
2009-06-05,25.89,25.98,24.83,25.00,617600,6.25
2009-06-04,24.25,25.59,24.10,25.54,466400,6.39
2009-06-03,25.04,25.21,23.63,24.25,760000,6.06
2009-06-02,25.20,26.42,25.20,25.59,619600,6.40
2009-06-01,24.88,25.29,24.66,25.19,721600,6.30
2009-05-29,24.35,24.88,23.69,24.85,551200,6.21
2009-05-28,24.53,24.78,23.90,24.39,576400,6.10
2009-05-27,24.47,24.75,24.01,24.53,1244000,6.13
2009-05-26,22.34,24.13,22.09,24.00,1906000,6.00
2009-05-22,21.60,22.50,21.60,22.34,902800,5.59
2009-05-21,22.04,22.04,21.13,21.42,866000,5.36
2009-05-20,20.85,22.18,20.85,21.99,937200,5.50
2009-05-19,20.32,20.91,20.27,20.73,662400,5.18
2009-05-18,20.27,20.29,19.57,20.29,599200,5.07
2009-05-15,20.16,20.55,20.00,20.00,511200,5.00
2009-05-14,20.06,20.46,20.06,20.24,252400,5.06
2009-05-13,20.54,20.72,20.00,20.21,473200,5.05
2009-05-12,20.60,20.83,20.33,20.72,688800,5.18
2009-05-11,21.17,21.20,20.16,20.51,1557600,5.13
2009-05-08,21.95,22.03,20.64,20.92,1989200,5.23
2009-05-07,22.02,22.50,21.05,21.25,3288000,5.31
2009-05-06,20.23,20.78,19.72,19.94,819600,4.99
2009-05-05,19.98,20.26,19.68,20.20,585200,5.05
2009-05-04,20.32,20.32,19.77,20.00,790800,5.00
2009-05-01,20.03,20.20,19.43,20.09,739600,5.02
2009-04-30,17.87,20.15,17.84,20.03,1454000,5.01
2009-04-29,19.32,19.33,17.69,18.03,2732400,4.51
2009-04-28,20.51,20.51,19.15,19.62,1210800,4.91
2009-04-27,20.76,21.14,20.20,20.60,782800,5.15
2009-04-24,21.02,21.10,20.31,20.61,1032000,5.15
2009-04-23,21.40,21.54,20.58,20.99,472000,5.25
2009-04-22,20.82,21.53,20.82,21.18,663200,5.30
2009-04-21,20.56,20.91,19.39,20.78,2245600,5.20
2009-04-20,21.24,21.37,20.66,20.85,867600,5.21
2009-04-17,22.60,22.76,21.69,21.74,581600,5.43
2009-04-16,23.12,23.22,22.45,22.75,443600,5.69
2009-04-15,22.28,22.93,22.19,22.84,507200,5.71
2009-04-14,22.97,23.02,22.15,22.55,600400,5.64
2009-04-13,23.06,23.26,22.78,22.94,410400,5.74
2009-04-09,22.85,23.25,22.75,22.88,623200,5.72
2009-04-08,22.01,22.65,21.78,22.45,919200,5.61
2009-04-07,21.74,21.74,20.88,21.57,419200,5.39
2009-04-06,22.50,22.51,21.31,21.85,397600,5.46
2009-04-03,22.43,22.77,22.00,22.36,309600,5.59
2009-04-02,21.95,23.43,21.91,22.23,1358800,5.56
2009-04-01,21.25,21.80,20.95,21.77,535600,5.44
2009-03-31,21.39,21.60,20.85,21.54,264400,5.39
2009-03-30,21.19,21.25,20.37,21.12,614800,5.28
2009-03-27,21.94,21.94,20.93,21.28,434000,5.32
2009-03-26,22.00,22.00,21.33,21.95,656000,5.49
2009-03-25,21.35,21.84,21.28,21.84,573600,5.46
2009-03-24,21.47,21.85,21.11,21.42,402000,5.36
2009-03-23,21.24,21.73,21.03,21.47,489200,5.37
2009-03-20,21.71,21.82,20.50,20.78,1170800,5.20
2009-03-19,21.37,21.96,21.37,21.53,616000,5.38
2009-03-18,21.02,21.28,20.80,21.26,532800,5.32
2009-03-17,21.31,21.35,20.83,21.21,646000,5.30
2009-03-16,20.50,21.64,20.29,21.31,1689200,5.33
2009-03-13,20.25,20.88,19.98,20.29,572000,5.07
2009-03-12,19.55,20.14,19.43,20.13,723600,5.03
2009-03-11,19.54,20.00,19.50,19.57,369200,4.89
2009-03-10,19.36,20.00,19.00,19.57,573200,4.89
2009-03-09,19.96,20.15,19.20,19.31,762000,4.83
2009-03-06,20.81,21.02,19.43,20.02,772800,5.01
2009-03-05,19.85,21.67,19.85,20.61,2065600,5.15
2009-03-04,17.59,19.21,17.43,19.21,556800,4.80
2009-03-03,17.64,17.94,16.89,17.43,1158000,4.36
2009-03-02,18.77,18.82,17.66,17.67,638800,4.42
2009-02-27,20.26,20.26,18.66,19.39,2554400,4.85
2009-02-26,20.86,20.99,20.38,20.45,773200,5.11
2009-02-25,19.84,21.47,19.70,20.63,1724400,5.16
2009-02-24,19.72,20.23,19.64,19.99,623600,5.00
2009-02-23,19.70,20.00,19.50,19.62,361200,4.91
2009-02-20,19.46,19.75,19.30,19.54,300000,4.89
2009-02-19,19.23,19.92,19.23,19.72,288400,4.93
2009-02-18,19.13,19.32,18.29,19.20,599600,4.80
2009-02-17,19.72,19.87,18.80,19.18,506400,4.80
2009-02-13,20.02,20.09,19.71,20.00,347200,5.00
2009-02-12,19.80,20.06,19.54,19.91,1152400,4.98
2009-02-11,20.02,20.14,19.72,19.85,328400,4.96
2009-02-10,20.03,20.44,19.57,20.09,718400,5.02
2009-02-09,19.80,20.52,19.71,20.00,760400,5.00
2009-02-06,20.53,20.53,20.11,20.40,1424800,5.10
2009-02-05,20.29,20.78,20.00,20.45,898000,5.11
2009-02-04,20.03,20.72,19.92,20.25,1334400,5.06
2009-02-03,19.60,20.12,19.25,20.00,1493600,5.00
2009-02-02,18.52,20.08,17.97,19.57,2079600,4.89
2009-01-30,18.64,18.75,17.80,18.54,1399200,4.64
2009-01-29,17.70,18.87,17.52,18.61,927200,4.65
2009-01-28,17.30,17.75,16.91,17.74,1219200,4.43
2009-01-27,16.93,16.95,16.48,16.81,236000,4.20
2009-01-26,17.00,17.25,16.79,16.97,320000,4.24
2009-01-23,16.50,17.00,16.30,17.00,250400,4.25
2009-01-22,16.67,16.97,16.36,16.83,337600,4.21
2009-01-21,16.79,17.03,16.45,16.85,936400,4.21
2009-01-20,17.26,17.27,16.69,16.74,571200,4.18
2009-01-16,16.88,17.50,16.82,17.47,327600,4.37
2009-01-15,16.20,16.77,15.97,16.63,240400,4.16
2009-01-14,16.50,16.61,16.06,16.29,465600,4.07
2009-01-13,16.18,17.03,16.01,16.52,960000,4.13
2009-01-12,17.27,17.27,15.61,16.47,934800,4.12
2009-01-09,18.55,18.60,16.50,17.50,1112400,4.38
2009-01-08,18.46,19.00,18.41,18.68,786800,4.67
2009-01-07,18.45,18.85,18.25,18.36,592000,4.59
2009-01-06,19.23,19.27,18.42,18.73,702000,4.68
2009-01-05,19.19,19.27,18.77,19.03,1160400,4.76
2009-01-02,18.79,19.06,18.63,18.79,406800,4.70
2008-12-31,18.15,18.84,18.15,18.67,348400,4.67
2008-12-30,17.75,18.22,17.35,18.22,412800,4.55
2008-12-29,16.42,17.60,16.42,17.59,478400,4.40
2008-12-26,17.35,17.35,16.01,16.40,210000,4.10
2008-12-24,16.76,17.38,16.76,17.19,250400,4.30
2008-12-23,16.66,16.97,16.50,16.83,915200,4.21
2008-12-22,16.55,17.20,16.40,16.48,543200,4.12
2008-12-19,16.75,16.75,16.01,16.40,444400,4.10
2008-12-18,17.50,17.51,16.40,16.73,345600,4.18
2008-12-17,17.31,17.45,16.68,17.38,394400,4.34
2008-12-16,16.99,17.36,16.20,17.34,1342000,4.34
2008-12-15,17.15,17.36,16.62,16.80,281600,4.20
2008-12-12,17.27,17.27,16.53,16.79,1050400,4.20
2008-12-11,16.29,17.84,16.29,17.64,1088800,4.41
2008-12-10,15.88,16.59,15.88,16.47,893200,4.12
2008-12-09,15.83,16.47,15.74,15.90,516000,3.97
2008-12-08,16.28,16.28,15.70,15.99,584000,4.00
2008-12-05,16.07,16.07,13.51,15.21,752400,3.80
2008-12-04,15.90,16.40,14.85,15.25,303200,3.81
2008-12-03,15.82,16.18,15.71,16.04,360800,4.01
2008-12-02,15.60,16.66,15.26,15.90,746000,3.97
2008-12-01,15.41,15.98,15.31,15.50,554000,3.88
2008-11-28,15.54,15.77,15.44,15.51,46800,3.88
2008-11-26,15.25,15.66,15.24,15.42,138000,3.86
2008-11-25,15.74,16.00,15.19,15.37,203600,3.84
2008-11-24,14.09,15.38,14.09,15.19,292000,3.80
2008-11-21,14.21,14.27,13.45,14.04,246800,3.51
2008-11-20,14.41,14.95,13.96,14.14,789600,3.54
2008-11-19,15.63,15.63,14.74,14.89,590000,3.72
2008-11-18,15.34,15.51,14.92,15.44,470800,3.86
2008-11-17,14.76,15.25,14.58,15.18,483200,3.80
2008-11-14,14.14,14.97,14.14,14.83,130400,3.71
2008-11-13,14.15,14.29,13.32,14.17,443200,3.54
2008-11-12,14.32,14.34,13.85,14.10,88400,3.53
2008-11-11,14.91,15.02,14.54,14.70,92800,3.67
2008-11-10,14.76,15.18,14.76,14.95,134400,3.74
2008-11-07,15.01,15.01,14.44,14.60,187600,3.65
2008-11-06,15.42,15.81,14.14,14.65,289200,3.66
2008-11-05,14.66,14.98,14.39,14.54,55600,3.63
2008-11-04,13.99,14.70,13.89,14.70,103200,3.67
2008-11-03,12.94,14.30,12.80,13.65,456000,3.41
2008-10-31,12.74,13.38,12.54,13.07,186800,3.27
2008-10-30,13.37,13.40,12.62,13.15,252400,3.29
2008-10-29,12.54,13.65,12.54,12.93,186800,3.23
2008-10-28,11.79,12.27,11.49,12.25,444800,3.06
2008-10-27,11.12,11.85,10.94,11.61,131600,2.90
2008-10-24,10.95,11.61,10.40,11.61,127600,2.90
2008-10-23,12.09,12.33,11.22,11.93,149600,2.98
2008-10-22,13.10,13.15,12.01,12.55,219200,3.14
2008-10-21,13.87,13.87,13.54,13.54,93600,3.38
2008-10-20,12.74,13.87,12.73,13.69,279600,3.42
2008-10-17,12.30,13.24,12.05,12.58,96800,3.14
2008-10-16,11.61,12.25,10.81,12.25,276000,3.06
2008-10-15,12.68,12.68,11.68,11.86,114000,2.96
2008-10-14,12.61,13.19,10.59,12.73,341600,3.18
2008-10-13,10.53,11.91,10.53,11.47,64800,2.87
2008-10-10,11.46,11.87,10.50,10.73,512400,2.68
2008-10-09,12.26,12.51,12.06,12.06,142400,3.02
2008-10-08,12.36,13.10,12.20,12.70,253600,3.17
2008-10-07,13.52,13.52,12.40,12.69,301600,3.17
2008-10-06,13.61,14.00,11.50,13.53,492000,3.38
2008-10-03,14.36,14.79,14.14,14.24,250000,3.56
2008-10-02,15.17,15.17,14.37,14.65,244400,3.66
2008-10-01,14.91,15.94,14.65,15.67,104800,3.92
2008-09-30,14.60,15.82,14.23,15.25,129200,3.81
2008-09-29,16.69,16.69,14.52,15.41,155600,3.85
2008-09-26,16.73,16.96,16.65,16.96,296000,4.24
2008-09-25,16.89,16.95,16.71,16.82,75600,4.20
2008-09-24,16.70,16.77,16.65,16.74,82000,4.18
2008-09-23,15.92,16.70,15.92,16.56,319600,4.14
2008-09-22,15.50,16.49,15.50,16.15,102000,4.04
2008-09-19,16.00,16.34,15.70,15.70,377600,3.92
2008-09-18,15.99,16.00,15.25,15.90,314400,3.97
2008-09-17,15.66,16.05,15.39,15.79,342000,3.95
2008-09-16,15.80,16.00,15.48,15.92,74800,3.98
2008-09-15,14.56,16.10,14.56,15.90,67600,3.97
2008-09-12,15.10,15.95,15.10,15.92,101200,3.98
2008-09-11,15.16,15.16,14.96,15.14,121600,3.79
2008-09-10,15.15,15.26,14.79,15.22,142400,3.81
2008-09-09,15.17,15.26,15.16,15.19,84800,3.80
2008-09-08,15.16,15.51,15.16,15.30,118000,3.83
2008-09-05,15.09,15.27,14.90,15.18,150400,3.80
2008-09-04,15.13,15.17,14.99,14.99,101200,3.75
2008-09-03,15.12,15.16,15.03,15.15,52000,3.79
2008-09-02,14.93,14.95,14.76,14.86,53600,3.71
2008-08-29,15.11,15.25,14.86,15.25,45600,3.81
2008-08-28,15.21,15.29,15.12,15.27,18800,3.82
2008-08-27,15.16,15.35,15.16,15.30,26800,3.83
2008-08-26,15.20,15.26,14.84,15.26,51600,3.82
2008-08-25,14.74,15.23,14.74,15.07,60800,3.77
2008-08-22,15.33,15.33,14.84,14.97,58400,3.74
2008-08-21,15.05,15.30,14.73,15.17,148000,3.79
2008-08-20,14.81,15.05,14.81,14.88,56000,3.72
2008-08-19,15.03,15.03,14.56,14.91,103200,3.73
2008-08-18,14.91,15.16,14.91,15.01,63600,3.75
2008-08-15,14.88,15.10,14.88,14.99,111200,3.75
2008-08-14,14.47,15.14,14.47,14.99,104400,3.75
2008-08-13,14.34,14.57,14.34,14.56,164400,3.64
2008-08-12,14.41,14.56,14.26,14.50,79600,3.62
2008-08-11,14.33,14.41,14.02,14.41,88800,3.60
2008-08-08,15.07,15.07,14.18,14.32,228400,3.58
2008-08-07,13.31,15.18,13.31,14.61,311200,3.65
2008-08-06,13.05,13.54,13.05,13.14,64400,3.29
2008-08-05,13.26,13.55,13.02,13.02,100000,3.26
2008-08-04,14.49,14.49,13.06,13.61,44800,3.40
2008-08-01,13.11,13.61,13.11,13.32,255600,3.33
2008-07-31,13.79,13.79,13.38,13.62,165600,3.40
2008-07-30,13.61,13.85,13.11,13.11,91600,3.28
2008-07-29,13.56,13.83,13.47,13.61,244000,3.40
2008-07-28,13.49,13.58,13.26,13.47,76400,3.37
2008-07-25,14.32,14.32,13.03,13.52,234000,3.38
2008-07-24,13.89,13.89,13.64,13.64,130800,3.41
2008-07-23,13.49,13.84,13.34,13.65,84800,3.41
2008-07-22,13.54,14.07,13.43,13.43,282800,3.36
2008-07-21,13.75,13.93,13.75,13.84,34800,3.46
2008-07-18,13.85,13.90,13.79,13.82,49200,3.45
2008-07-17,14.01,14.01,13.72,13.80,70800,3.45
2008-07-16,13.91,14.30,13.58,14.30,123200,3.58
2008-07-15,13.88,13.91,13.72,13.84,144000,3.46
2008-07-14,14.34,14.59,13.90,14.00,158800,3.50
2008-07-11,14.14,14.54,13.98,14.35,130000,3.59
2008-07-10,13.38,14.08,13.38,13.95,134800,3.49
2008-07-09,13.90,14.02,13.36,13.77,204400,3.44
2008-07-08,12.99,13.98,12.99,13.98,88800,3.49
2008-07-07,13.64,13.88,13.20,13.24,250000,3.31
2008-07-03,14.00,14.04,13.70,13.70,148000,3.42
2008-07-02,13.45,14.25,13.45,14.03,136400,3.51
2008-07-01,13.56,13.57,11.54,13.22,308000,3.31
2008-06-30,14.03,14.29,13.67,13.67,197600,3.42
2008-06-27,14.59,14.59,14.04,14.11,114000,3.53
2008-06-26,14.91,15.28,14.05,14.05,306400,3.51
2008-06-25,15.30,15.39,14.79,14.85,214000,3.71
2008-06-24,15.27,15.27,14.80,14.80,184400,3.70
2008-06-23,14.99,15.40,14.90,15.20,113200,3.80
2008-06-20,15.68,15.68,14.65,14.90,164000,3.72
2008-06-19,16.28,16.39,15.57,15.59,109600,3.90
2008-06-18,17.00,17.00,16.38,16.56,102800,4.14
2008-06-17,17.20,17.25,16.04,17.04,222800,4.26
2008-06-16,16.68,17.35,16.68,17.15,113200,4.29
2008-06-13,16.28,16.63,16.04,16.60,248000,4.15
2008-06-12,16.59,16.59,15.88,16.32,253600,4.08
2008-06-11,15.75,16.58,15.69,16.52,184800,4.13
2008-06-10,15.60,15.90,15.45,15.88,108400,3.97
2008-06-09,15.79,16.00,15.37,15.92,113600,3.98
2008-06-06,15.90,16.34,15.90,16.09,59200,4.02
2008-06-05,15.85,16.13,15.80,16.13,51600,4.03
2008-06-04,15.76,16.19,15.63,15.75,96000,3.94
2008-06-03,16.06,16.06,15.53,16.04,147200,4.01
2008-06-02,16.24,16.29,16.04,16.24,39200,4.06
2008-05-30,16.23,16.46,16.11,16.29,164400,4.07
2008-05-29,16.13,17.15,15.00,16.33,144400,4.08
2008-05-28,16.03,16.51,16.00,16.45,45200,4.11
2008-05-27,15.93,16.57,15.48,16.28,50800,4.07
2008-05-23,16.03,16.09,15.73,15.97,66000,3.99
2008-05-22,16.00,16.20,15.89,16.20,110400,4.05
2008-05-21,16.42,16.42,16.04,16.19,43600,4.05
2008-05-20,16.16,16.50,15.93,16.38,294400,4.09
2008-05-19,16.53,16.53,15.44,16.16,86800,4.04
2008-05-16,16.15,16.42,16.11,16.34,64000,4.09
2008-05-15,16.20,16.50,16.08,16.48,79200,4.12
2008-05-14,16.70,16.74,16.13,16.37,188000,4.09
2008-05-13,16.56,16.92,16.00,16.88,152000,4.22
2008-05-12,16.47,17.22,15.96,16.84,138400,4.21
2008-05-09,17.00,17.15,16.27,16.30,261200,4.07
2008-05-08,15.28,17.09,14.20,17.09,362400,4.27
2008-05-07,16.90,17.31,16.61,16.98,116800,4.24
2008-05-06,16.41,17.33,16.21,16.74,230800,4.18
2008-05-05,16.57,16.92,16.23,16.62,282000,4.16
2008-05-02,15.90,16.45,15.69,16.22,278800,4.05
2008-05-01,15.75,15.92,15.39,15.92,267600,3.98
2008-04-30,14.60,15.79,14.54,15.54,211600,3.88
2008-04-29,14.69,14.70,13.86,14.53,206000,3.63
2008-04-28,14.25,15.00,14.00,14.52,334000,3.63
2008-04-25,13.10,13.72,13.10,13.67,137600,3.42
2008-04-24,13.22,13.69,13.11,13.11,160400,3.28
2008-04-23,13.71,13.85,13.19,13.32,227200,3.33
2008-04-22,14.37,14.37,13.64,13.89,372400,3.47
2008-04-21,14.36,14.48,14.31,14.41,112800,3.60
2008-04-18,14.85,14.90,14.28,14.54,163600,3.63
2008-04-17,15.00,15.10,14.30,14.85,283600,3.71
2008-04-16,13.60,14.99,13.55,14.94,384000,3.73
2008-04-15,13.47,13.77,13.28,13.60,117200,3.40
2008-04-14,13.39,13.50,13.15,13.47,140800,3.37
2008-04-11,13.10,13.38,12.87,13.35,54800,3.34
2008-04-10,13.15,13.33,13.06,13.33,120000,3.33
2008-04-09,12.49,13.24,12.49,13.20,101200,3.30
2008-04-08,12.06,12.46,11.75,12.39,102800,3.10
2008-04-07,12.25,12.37,12.10,12.18,92800,3.05
2008-04-04,12.42,12.42,12.12,12.25,171600,3.06
2008-04-03,12.24,12.49,12.22,12.35,61200,3.09
2008-04-02,12.37,12.50,12.13,12.37,149200,3.09
2008-04-01,12.02,12.32,12.00,12.30,62800,3.08
2008-03-31,11.60,11.88,11.60,11.88,57600,2.97
2008-03-28,11.88,11.88,11.60,11.69,154400,2.92
2008-03-27,11.46,12.04,11.26,11.88,141600,2.97
2008-03-26,11.49,11.49,11.34,11.49,54000,2.87
2008-03-25,11.13,11.50,11.13,11.35,217600,2.84
2008-03-24,10.28,11.16,9.93,11.15,292800,2.79
2008-03-20,10.32,10.39,9.97,10.22,112000,2.56
2008-03-19,10.30,10.44,10.11,10.21,147200,2.55
2008-03-18,10.03,10.26,10.03,10.25,191200,2.56
2008-03-17,10.47,10.47,9.85,10.04,115200,2.51
2008-03-14,10.44,10.57,10.31,10.45,272400,2.61
2008-03-13,10.24,10.79,10.24,10.51,254800,2.63
2008-03-12,10.60,10.82,10.37,10.55,363600,2.64
2008-03-11,10.86,11.01,10.62,10.75,612000,2.69
2008-03-10,11.27,11.30,10.80,10.81,162000,2.70
2008-03-07,11.74,11.86,11.20,11.35,1099600,2.84
2008-03-06,12.74,12.74,12.04,12.04,1320800,3.01
2008-03-05,13.03,13.28,12.79,13.11,136000,3.28
2008-03-04,13.68,13.70,12.57,12.57,107200,3.14
2008-03-03,13.85,13.97,13.59,13.83,164400,3.46
2008-02-29,13.87,14.06,13.72,13.93,166400,3.48
2008-02-28,13.74,14.08,13.60,13.93,190400,3.48
2008-02-27,14.27,14.40,13.70,13.81,636000,3.45
2008-02-26,15.95,16.00,13.72,14.31,1909600,3.58
2008-02-25,15.53,15.95,15.38,15.95,121600,3.99
2008-02-22,15.51,15.58,15.36,15.46,54400,3.87
2008-02-21,15.35,15.63,15.20,15.51,123200,3.88
2008-02-20,15.39,15.57,15.26,15.39,74000,3.85
2008-02-19,15.65,15.65,15.01,15.48,153200,3.87
2008-02-15,15.44,15.55,15.31,15.54,64400,3.88
2008-02-14,15.41,15.90,15.31,15.44,244000,3.86
2008-02-13,15.23,15.66,15.23,15.47,241200,3.87
2008-02-12,15.35,15.54,15.03,15.48,151600,3.87
2008-02-11,15.36,15.48,15.16,15.40,170000,3.85
2008-02-08,15.04,15.41,15.00,15.41,113200,3.85
2008-02-07,14.91,15.04,14.82,15.01,73200,3.75
2008-02-06,15.14,15.40,15.02,15.02,117600,3.76
2008-02-05,14.82,15.23,14.80,15.05,73200,3.76
2008-02-04,15.14,15.14,14.80,14.99,102000,3.75
2008-02-01,15.13,15.40,14.71,15.07,211600,3.77
2008-01-31,14.94,15.30,14.69,15.17,194800,3.79
2008-01-30,14.72,15.85,14.64,15.33,121600,3.83
2008-01-29,15.09,15.09,14.55,14.67,109200,3.67
2008-01-28,14.25,15.00,14.20,14.79,112400,3.70
2008-01-25,14.30,14.78,14.30,14.39,86800,3.60
2008-01-24,13.39,14.37,13.36,14.18,352000,3.55
2008-01-23,13.37,13.51,12.86,13.30,416800,3.33
2008-01-22,13.51,14.35,13.41,13.41,364800,3.35
2008-01-18,15.09,15.35,14.29,14.51,612800,3.63
2008-01-17,15.96,16.00,15.06,15.06,325600,3.77
2008-01-16,15.85,15.85,15.41,15.80,117200,3.95
2008-01-15,15.57,15.90,15.35,15.84,374000,3.96
2008-01-14,14.81,15.82,14.42,15.67,163600,3.92
2008-01-11,15.10,15.10,14.35,14.70,215200,3.67
2008-01-10,14.12,15.32,14.12,15.10,211200,3.78
2008-01-09,14.11,14.22,14.06,14.08,140400,3.52
2008-01-08,14.22,14.78,14.16,14.16,88400,3.54
2008-01-07,14.18,14.39,14.14,14.27,202400,3.57
2008-01-04,14.22,14.48,14.13,14.17,154000,3.54
2008-01-03,14.49,14.59,14.33,14.33,131200,3.58
2008-01-02,14.50,14.83,14.39,14.44,159600,3.61
2007-12-31,14.74,15.15,14.50,14.50,234000,3.62
2007-12-28,14.78,15.00,14.52,14.82,308800,3.70
2007-12-27,14.51,14.94,14.51,14.75,112800,3.69
2007-12-26,15.03,15.17,14.52,14.58,74800,3.64
2007-12-24,14.61,15.15,14.40,15.15,126800,3.79
2007-12-21,14.37,14.60,14.35,14.60,232800,3.65
2007-12-20,14.13,14.56,14.13,14.30,432800,3.58
2007-12-19,13.67,14.24,13.56,14.05,607600,3.51
2007-12-18,13.71,13.85,13.53,13.67,114400,3.42
2007-12-17,13.72,14.00,13.54,13.70,162000,3.42
2007-12-14,13.46,13.88,13.46,13.79,98000,3.45
2007-12-13,13.86,13.89,13.45,13.46,201200,3.37
2007-12-12,13.93,14.07,13.78,13.85,131200,3.46
2007-12-11,14.03,14.07,13.80,13.80,228400,3.45
2007-12-10,13.94,14.04,13.85,13.96,145200,3.49
2007-12-07,13.87,14.20,13.87,13.94,295200,3.48
2007-12-06,13.67,13.92,13.65,13.87,112800,3.47
2007-12-05,13.65,13.88,13.64,13.67,155200,3.42
2007-12-04,13.92,13.92,13.49,13.57,163600,3.39
2007-12-03,14.03,14.09,13.74,13.98,183200,3.49
2007-11-30,13.80,14.15,13.57,14.01,304400,3.50
2007-11-29,11.39,13.94,11.39,13.73,524400,3.43
2007-11-28,12.04,12.12,11.45,11.45,1708000,2.86
2007-11-27,12.36,12.36,12.00,12.03,141200,3.01
2007-11-26,12.43,12.66,12.22,12.29,194000,3.07
2007-11-23,12.05,12.38,12.05,12.32,80800,3.08
2007-11-21,12.30,12.30,11.35,11.99,444400,3.00
2007-11-20,12.29,12.49,12.27,12.37,256400,3.09
2007-11-19,12.60,12.60,12.33,12.34,159200,3.09
2007-11-16,12.33,12.60,12.33,12.60,152000,3.15
2007-11-15,12.64,12.72,12.28,12.40,190000,3.10
2007-11-14,12.53,12.86,12.40,12.57,240400,3.14
2007-11-13,12.40,12.55,12.26,12.49,357600,3.12
2007-11-12,12.84,12.87,12.36,12.40,219600,3.10
2007-11-09,13.00,13.05,12.66,12.82,384800,3.20
2007-11-08,13.40,13.64,13.00,13.15,372400,3.29
2007-11-07,14.18,14.18,13.56,13.56,326400,3.39
2007-11-06,14.60,14.88,14.11,14.19,273600,3.55
2007-11-05,14.86,14.94,14.28,14.40,264000,3.60
2007-11-02,15.03,15.37,14.75,14.83,374400,3.71
2007-11-01,16.19,16.19,14.91,14.91,681600,3.73
2007-10-31,14.70,16.20,14.70,15.95,1124400,3.99
2007-10-30,14.64,14.79,14.56,14.71,194800,3.68
2007-10-29,13.81,14.62,13.76,14.56,383600,3.64
2007-10-26,13.90,13.97,13.69,13.86,259600,3.46
2007-10-25,13.87,13.95,13.56,13.72,190800,3.43
2007-10-24,13.97,14.00,13.68,13.80,171600,3.45
2007-10-23,13.65,13.90,13.56,13.90,191600,3.47
2007-10-22,13.79,13.94,13.52,13.58,660000,3.39
2007-10-19,13.95,14.10,13.71,13.71,540400,3.43
2007-10-18,13.92,13.96,13.69,13.88,332400,3.47
2007-10-17,13.69,13.98,13.60,13.83,386800,3.46
2007-10-16,13.76,13.76,13.50,13.57,686000,3.39
2007-10-15,13.36,13.89,13.00,13.34,1531600,3.34
2007-10-12,12.96,13.32,12.96,13.32,1056000,3.33
2007-10-11,13.09,13.15,12.90,12.96,610400,3.24
2007-10-10,12.80,13.12,12.80,13.09,656000,3.27
2007-10-09,12.90,12.98,12.52,12.87,1398000,3.22
2007-10-08,12.77,12.97,12.56,12.95,619200,3.24
2007-10-05,12.33,13.08,12.31,12.70,460800,3.17
2007-10-04,12.56,12.65,12.31,12.34,403600,3.09
2007-10-03,12.76,12.77,12.31,12.55,377200,3.14
2007-10-02,13.24,13.26,12.68,12.69,1024400,3.17
2007-10-01,15.29,15.76,12.82,13.15,3347600,3.29
2007-09-28,16.00,16.16,15.66,16.02,213200,4.01
2007-09-27,16.00,16.23,16.00,16.01,190800,4.00
2007-09-26,15.62,16.05,15.62,15.95,202000,3.99
2007-09-25,15.67,16.05,15.26,15.90,591200,3.97
2007-09-24,16.69,16.85,15.50,15.63,188000,3.91
2007-09-21,17.01,17.11,16.55,16.76,220800,4.19
2007-09-20,16.92,17.35,16.90,16.98,119600,4.24
2007-09-19,17.26,17.55,16.80,16.83,556000,4.21
2007-09-18,17.71,17.71,16.55,17.29,835600,4.32
2007-09-17,17.65,17.78,17.45,17.52,122000,4.38
2007-09-14,17.93,17.94,17.61,17.81,70800,4.45
2007-09-13,17.83,18.24,17.74,17.92,125600,4.48
2007-09-12,17.89,18.20,17.68,17.87,116400,4.47
2007-09-11,17.79,18.18,17.32,17.99,728800,4.50
2007-09-10,17.49,17.95,17.30,17.62,350800,4.41
2007-09-07,17.67,17.76,17.18,17.64,987600,4.41
2007-09-06,18.42,18.56,17.73,18.10,702800,4.53
2007-09-05,18.24,18.57,18.11,18.49,349200,4.62
2007-09-04,17.99,18.40,17.88,18.11,501200,4.53
2007-08-31,17.61,18.07,17.61,17.91,357600,4.48
2007-08-30,17.49,17.79,17.49,17.67,230800,4.42
2007-08-29,17.19,17.50,17.19,17.38,84000,4.34
2007-08-28,17.49,17.53,17.12,17.19,206000,4.30
2007-08-27,17.18,17.64,17.16,17.49,825600,4.37
2007-08-24,17.66,18.04,17.66,17.77,519600,4.44
2007-08-23,17.06,17.86,17.06,17.75,614800,4.44
2007-08-22,17.50,18.14,16.63,17.15,2792800,4.29
2007-08-21,18.92,19.50,18.92,19.30,176800,4.82
2007-08-20,18.46,18.98,18.39,18.92,235600,4.73
2007-08-17,19.18,19.36,18.31,18.61,472800,4.65
2007-08-16,20.00,20.14,18.54,18.92,682400,4.73
2007-08-15,21.54,21.54,20.40,20.50,215600,5.12
2007-08-14,21.60,21.78,20.96,21.46,677600,5.36
2007-08-13,21.68,21.85,21.41,21.60,886400,5.40
2007-08-10,21.50,21.50,20.98,21.22,887600,5.30
2007-08-09,21.10,21.14,20.61,21.11,360800,5.28
2007-08-08,21.68,21.76,21.21,21.21,486000,5.30
2007-08-07,21.98,21.98,20.83,21.58,812000,5.39
2007-08-06,22.11,22.15,21.70,22.00,253600,5.50
2007-08-03,20.65,22.07,20.55,21.69,793600,5.42
2007-08-02,25.00,25.28,19.70,20.25,2966000,5.06
2007-08-01,28.22,28.35,26.60,26.87,128400,6.72
2007-07-31,28.48,28.95,27.90,28.17,171600,7.04
2007-07-30,26.93,28.46,26.72,28.39,168800,7.10
2007-07-27,27.34,27.34,26.08,26.93,93200,6.73
2007-07-26,28.30,28.30,26.42,26.98,210000,6.74
2007-07-25,28.59,28.64,27.87,28.42,250400,7.11
2007-07-24,29.05,29.05,28.13,28.32,205200,7.08
2007-07-23,28.71,29.20,28.16,28.70,100800,7.18
2007-07-20,28.94,29.41,28.56,28.71,43600,7.18
2007-07-19,28.50,29.07,28.38,28.84,50000,7.21
2007-07-18,29.18,29.18,28.25,28.51,140000,7.13
2007-07-17,30.07,30.34,28.82,29.18,167600,7.30
2007-07-16,29.86,30.38,29.67,30.22,109200,7.55
2007-07-13,29.95,31.48,29.73,29.90,147200,7.47
2007-07-12,28.96,29.48,28.83,29.48,102400,7.37
2007-07-11,28.70,29.33,28.70,29.01,80400,7.25
2007-07-10,29.16,29.21,28.50,28.74,147600,7.18
2007-07-09,29.40,29.67,29.00,29.03,108400,7.26
2007-07-06,29.20,29.43,28.90,29.24,197200,7.31
2007-07-05,29.02,29.58,28.66,29.04,613200,7.26
2007-07-03,31.25,31.25,29.07,29.80,222800,7.45
2007-07-02,29.00,31.38,28.45,31.38,487200,7.84
2007-06-29,28.81,28.96,28.47,28.77,286000,7.19
2007-06-28,27.71,28.46,27.40,28.36,720800,7.09
2007-06-27,27.51,27.55,27.00,27.08,98800,6.77
2007-06-26,27.30,27.91,27.30,27.55,202400,6.89
2007-06-25,27.40,27.54,26.18,27.39,184400,6.85
2007-06-22,27.54,27.77,27.10,27.13,60400,6.78
2007-06-21,27.86,27.86,25.91,27.58,351200,6.89
2007-06-20,25.30,28.13,25.30,27.94,708800,6.99
2007-06-19,25.00,25.50,25.00,25.31,146400,6.33
2007-06-18,25.65,25.65,25.00,25.08,90400,6.27
2007-06-15,25.75,25.75,25.22,25.40,68400,6.35
2007-06-14,25.48,25.78,25.33,25.40,86800,6.35
2007-06-13,25.05,25.35,25.01,25.20,172000,6.30
2007-06-12,25.26,25.35,25.10,25.25,135600,6.31
2007-06-11,25.50,25.50,25.25,25.41,71200,6.35
2007-06-08,25.71,25.74,25.36,25.46,133200,6.36
2007-06-07,26.00,26.02,25.80,25.89,50400,6.47
2007-06-06,25.82,26.19,25.65,26.01,132000,6.50
2007-06-05,25.83,25.93,25.67,25.86,114000,6.47
2007-06-04,25.54,25.80,25.53,25.60,85600,6.40
2007-06-01,25.65,25.80,25.48,25.62,74400,6.41
2007-05-31,25.72,25.84,25.38,25.39,290400,6.35
2007-05-30,25.92,25.99,25.52,25.57,91600,6.39
2007-05-29,25.32,26.17,25.32,25.96,198400,6.49
2007-05-25,24.74,25.36,24.67,25.11,248000,6.28
2007-05-24,25.41,25.41,24.05,24.46,1570800,6.11
2007-05-23,25.20,26.79,24.65,25.25,442400,6.31
2007-05-22,23.99,25.00,23.99,25.00,273600,6.25
2007-05-21,23.85,24.09,23.69,23.85,25200,5.96
2007-05-18,23.69,23.98,23.57,23.70,86400,5.93
2007-05-17,23.56,23.63,23.45,23.47,129200,5.87
2007-05-16,23.80,23.85,23.54,23.58,23200,5.89
2007-05-15,23.35,23.70,23.35,23.70,83600,5.93
2007-05-14,23.46,23.56,23.35,23.48,111200,5.87
2007-05-11,23.19,23.51,23.19,23.49,63600,5.87
2007-05-10,23.44,23.78,23.25,23.47,241200,5.87
2007-05-09,22.86,23.41,22.72,23.33,63600,5.83
2007-05-08,22.79,23.12,22.50,23.09,117200,5.77
2007-05-07,22.57,22.88,22.57,22.82,89600,5.70
2007-05-04,22.74,22.76,22.68,22.71,56800,5.68
2007-05-03,22.75,22.76,22.61,22.69,60000,5.67
2007-05-02,22.80,22.80,22.55,22.59,90800,5.65
2007-05-01,22.97,22.97,22.51,22.62,115600,5.66
2007-04-30,22.80,22.81,22.56,22.81,118000,5.70
2007-04-27,22.99,23.00,22.49,22.53,80400,5.63
2007-04-26,22.90,22.98,22.76,22.98,105600,5.74
2007-04-25,22.89,22.99,22.73,22.99,76000,5.75
2007-04-24,22.59,22.79,22.37,22.71,477200,5.68
2007-04-23,22.34,22.60,22.28,22.53,135600,5.63
2007-04-20,22.39,22.50,22.15,22.34,175200,5.59
2007-04-19,21.76,22.06,21.65,22.02,143200,5.51
2007-04-18,21.55,22.18,21.28,21.87,438400,5.47
2007-04-17,20.87,21.58,20.76,21.49,288400,5.37
2007-04-16,20.25,20.93,20.11,20.85,238000,5.21
2007-04-13,20.30,20.30,20.11,20.25,146800,5.06
2007-04-12,20.02,20.20,19.91,20.17,340800,5.04
2007-04-11,19.76,20.02,19.46,20.02,52000,5.01
2007-04-10,19.67,19.85,19.54,19.66,101600,4.91
2007-04-09,19.69,19.80,19.48,19.55,100800,4.89
2007-04-05,19.52,19.69,19.34,19.41,75600,4.85
2007-04-04,19.40,19.52,19.40,19.42,74000,4.86
2007-04-03,19.04,19.38,19.04,19.33,111200,4.83
2007-04-02,19.00,19.23,18.85,19.08,156000,4.77
2007-03-30,18.63,18.94,18.51,18.84,140000,4.71
2007-03-29,18.36,18.67,18.10,18.57,52800,4.64
2007-03-28,17.94,18.21,17.35,18.04,225200,4.51
2007-03-27,18.39,18.45,17.89,17.91,138800,4.48
2007-03-26,18.83,19.15,18.32,18.39,257600,4.60
2007-03-23,19.41,19.41,18.95,18.98,87600,4.74
2007-03-22,19.18,19.50,19.18,19.29,88400,4.82
2007-03-21,19.12,19.61,19.02,19.31,94400,4.83
2007-03-20,19.34,19.39,18.71,19.12,260800,4.78
2007-03-19,19.00,19.49,19.00,19.13,154800,4.78
2007-03-16,19.62,19.62,19.32,19.34,46000,4.84
2007-03-15,19.66,19.70,19.51,19.51,104800,4.88
2007-03-14,19.00,19.83,18.81,19.74,417600,4.93
2007-03-13,19.50,19.52,18.76,18.76,674800,4.69
2007-03-12,19.21,19.72,19.21,19.67,276000,4.92
2007-03-09,19.95,20.20,19.04,19.04,161200,4.76
2007-03-08,19.57,20.13,19.06,19.65,388000,4.91
2007-03-07,18.80,18.80,18.20,18.45,279600,4.61
2007-03-06,18.64,18.93,18.51,18.80,180000,4.70
2007-03-05,18.65,18.90,18.27,18.65,463200,4.66
2007-03-02,18.51,19.20,18.51,19.11,116400,4.78
2007-03-01,19.71,19.71,18.39,18.94,329600,4.74
2007-02-28,19.75,19.99,19.41,19.59,337600,4.90
2007-02-27,20.01,20.08,19.52,19.52,252400,4.88
2007-02-26,20.41,20.41,20.06,20.12,62800,5.03
2007-02-23,20.20,20.41,20.08,20.22,131200,5.05
2007-02-22,20.46,20.46,20.14,20.35,56400,5.09
2007-02-21,20.59,20.67,20.31,20.46,26800,5.11
2007-02-20,20.10,20.50,19.92,20.50,114400,5.12
2007-02-16,20.20,20.23,20.03,20.12,70000,5.03
2007-02-15,19.95,20.21,19.90,20.05,162400,5.01
2007-02-14,20.50,20.50,19.94,19.99,464400,5.00
2007-02-13,20.11,20.28,20.00,20.06,52400,5.01
2007-02-12,20.45,20.49,19.95,20.00,246800,5.00
2007-02-09,20.96,20.96,20.38,20.45,190800,5.11
2007-02-08,21.00,21.00,20.72,20.81,52000,5.20
2007-02-07,21.22,21.22,20.80,20.93,129200,5.23
2007-02-06,21.01,21.11,20.84,21.00,236800,5.25
2007-02-05,21.10,21.25,20.91,21.19,429200,5.30
2007-02-02,21.09,21.25,21.00,21.10,547200,5.28
2007-02-01,21.22,21.30,21.09,21.20,147200,5.30
2007-01-31,20.60,21.22,20.60,21.05,306800,5.26
2007-01-30,20.88,20.88,20.39,20.60,57600,5.15
2007-01-29,20.50,20.69,20.21,20.69,376800,5.17
2007-01-26,20.51,20.60,20.32,20.50,90800,5.12
2007-01-25,20.29,20.87,20.22,20.63,304400,5.16
2007-01-24,19.55,20.22,19.24,20.22,222400,5.05
2007-01-23,19.19,19.40,19.19,19.33,32000,4.83
2007-01-22,18.94,19.25,18.86,19.02,236800,4.76
2007-01-19,18.90,19.05,18.90,19.00,78400,4.75
2007-01-18,18.99,19.04,18.72,18.90,211600,4.72
2007-01-17,19.07,19.07,18.85,18.91,77200,4.73
2007-01-16,19.28,19.38,19.10,19.14,152000,4.78
2007-01-12,18.90,19.58,18.90,19.42,275600,4.86
2007-01-11,18.83,18.96,18.60,18.90,62400,4.72
2007-01-10,18.26,18.99,18.26,18.80,153600,4.70
2007-01-09,18.80,18.80,18.30,18.41,146800,4.60
2007-01-08,19.96,19.96,18.60,18.72,202000,4.68
2007-01-05,19.75,19.75,18.52,18.69,111200,4.67
2007-01-04,19.81,19.97,19.47,19.47,85200,4.87
2007-01-03,19.72,20.28,18.35,20.10,159600,5.03
2006-12-29,18.23,20.17,18.16,20.17,52800,5.04
2006-12-28,20.03,20.14,19.96,20.05,30800,5.01
2006-12-27,19.54,20.11,19.50,19.87,105200,4.97
2006-12-26,20.57,20.57,19.83,19.84,1200,4.96
2006-12-22,19.91,20.14,19.32,19.66,61600,4.91
2006-12-21,20.70,20.72,20.09,20.10,37200,5.03
2006-12-20,20.33,20.65,20.20,20.52,39200,5.13
2006-12-19,20.42,20.43,20.06,20.30,87200,5.07
2006-12-18,20.32,20.32,19.93,20.18,103600,5.05
2006-12-15,19.77,20.50,19.62,19.91,237600,4.98
2006-12-14,18.33,19.60,18.33,19.45,148400,4.86
2006-12-13,18.87,18.87,18.45,18.84,272000,4.71
2006-12-12,18.05,18.45,18.05,18.45,76000,4.61
2006-12-11,18.10,18.21,18.09,18.13,36400,4.53
2006-12-08,17.81,18.09,17.81,18.05,53200,4.51
2006-12-07,18.08,18.13,17.77,17.87,271200,4.47
2006-12-06,18.40,18.40,18.07,18.11,18800,4.53
2006-12-05,17.30,18.66,17.30,18.47,26000,4.62
2006-12-04,18.20,18.75,17.95,18.75,191600,4.69
2006-12-01,18.07,18.09,17.87,18.05,376400,4.51
2006-11-30,18.27,18.51,18.11,18.14,62000,4.53
2006-11-29,18.72,18.78,18.14,18.48,144000,4.62
2006-11-28,18.96,18.96,18.75,18.81,104000,4.70
2006-11-27,19.08,19.15,18.88,19.02,66000,4.76
2006-11-24,18.86,19.02,18.86,18.96,7200,4.74
2006-11-22,19.03,19.08,18.97,19.01,18000,4.75
2006-11-21,19.00,19.00,18.86,18.93,40800,4.73
2006-11-20,18.91,19.18,18.78,18.85,514000,4.71
2006-11-17,18.91,19.07,18.72,18.77,127200,4.69
2006-11-16,19.00,19.15,18.98,19.06,114000,4.76
2006-11-15,19.89,19.89,18.65,18.92,155200,4.73
2006-11-14,19.60,19.60,19.13,19.49,232800,4.87
2006-11-13,18.39,20.15,18.28,19.76,685600,4.94
2006-11-10,18.95,19.02,18.25,18.76,333200,4.69
2006-11-09,17.00,18.84,17.00,18.77,474400,4.69
2006-11-08,16.53,16.65,16.51,16.61,56800,4.15
2006-11-07,16.49,16.55,16.21,16.54,196800,4.14
2006-11-06,16.18,16.40,16.09,16.33,16800,4.08
2006-11-03,16.09,16.10,15.96,16.09,54000,4.02
2006-11-02,16.50,16.50,15.53,15.70,275600,3.92
2006-11-01,16.01,16.48,15.96,16.20,78000,4.05
2006-10-31,16.32,16.51,16.24,16.43,48800,4.11
2006-10-30,15.99,16.19,15.82,16.16,50000,4.04
2006-10-27,15.46,15.73,15.03,15.65,67200,3.91
2006-10-26,15.22,15.45,14.68,15.43,170400,3.86
2006-10-25,15.64,15.64,15.30,15.33,20000,3.83
2006-10-24,15.35,15.63,15.32,15.53,64000,3.88
2006-10-23,15.30,15.53,15.21,15.39,212400,3.85
2006-10-20,15.90,16.14,15.30,15.46,120400,3.87
2006-10-19,15.93,16.20,15.93,16.07,12400,4.02
2006-10-18,16.05,16.23,15.92,16.02,59600,4.01
2006-10-17,16.06,16.27,16.00,16.12,60800,4.03
2006-10-16,16.28,16.29,16.17,16.25,34000,4.06
2006-10-13,16.56,16.56,15.92,16.16,100000,4.04
2006-10-12,16.37,16.37,16.08,16.19,98800,4.05
2006-10-11,16.43,16.52,16.16,16.35,46800,4.09
2006-10-10,16.51,16.74,16.28,16.50,101600,4.12
2006-10-09,16.70,16.82,16.56,16.63,51200,4.16
2006-10-06,16.51,16.84,16.51,16.76,64000,4.19
2006-10-05,16.66,16.81,16.63,16.77,76800,4.19
2006-10-04,17.25,17.25,16.34,16.64,142400,4.16
2006-10-03,16.52,16.94,16.36,16.66,113600,4.16
2006-10-02,16.59,16.64,16.40,16.40,71600,4.10
2006-09-29,16.16,16.45,16.16,16.45,18400,4.11
2006-09-28,16.25,16.56,15.79,16.52,76800,4.13
2006-09-27,16.16,16.40,15.80,16.10,177200,4.03
2006-09-26,16.57,16.57,16.10,16.48,170800,4.12
2006-09-25,17.20,17.20,16.50,16.50,144400,4.12
2006-09-22,16.71,16.80,16.51,16.73,70000,4.18
2006-09-21,16.75,16.82,16.55,16.67,456400,4.17
2006-09-20,17.04,17.04,16.46,16.76,242800,4.19
2006-09-19,17.27,17.27,16.53,16.62,616400,4.16
2006-09-18,16.56,17.22,16.43,17.11,425600,4.28
2006-09-15,14.83,16.54,14.83,16.51,334400,4.13
2006-09-14,14.91,15.23,14.75,14.87,85200,3.72
2006-09-13,15.17,15.18,14.51,15.07,67600,3.77
2006-09-12,15.31,15.32,15.00,15.17,139200,3.79
2006-09-11,15.30,15.33,15.01,15.25,131200,3.81
2006-09-08,15.00,15.55,14.90,15.27,160800,3.82
2006-09-07,16.00,16.00,15.00,15.01,49600,3.75
2006-09-06,15.05,15.71,15.05,15.42,137200,3.86
2006-09-05,15.40,15.55,15.08,15.50,67600,3.88
2006-09-01,15.23,15.68,15.01,15.68,84800,3.92
2006-08-31,14.05,15.43,14.05,15.06,94000,3.77
2006-08-30,14.05,14.77,14.05,14.77,79600,3.69
2006-08-29,14.30,14.64,14.06,14.43,54400,3.61
2006-08-28,14.08,14.27,13.99,14.01,48400,3.50
2006-08-25,14.15,14.15,14.05,14.13,22000,3.53
2006-08-24,13.76,14.08,13.76,13.99,32800,3.50
2006-08-23,14.00,14.18,13.76,13.88,168400,3.47
2006-08-22,13.55,14.07,13.54,13.95,253200,3.49
2006-08-21,14.57,14.57,13.97,14.17,66800,3.54
2006-08-18,14.08,14.08,13.82,13.96,85600,3.49
2006-08-17,14.08,14.08,13.46,13.78,200800,3.44
2006-08-16,13.63,13.68,13.35,13.54,84800,3.38
2006-08-15,13.49,13.50,13.23,13.23,74800,3.31
2006-08-14,13.41,13.46,13.03,13.25,69600,3.31
2006-08-11,13.57,13.57,13.22,13.22,29600,3.31
2006-08-10,13.78,13.78,13.42,13.46,91600,3.37
2006-08-09,13.76,13.88,13.36,13.62,172400,3.40
2006-08-08,13.31,13.99,13.31,13.88,242400,3.47
2006-08-07,13.50,14.38,13.29,13.31,102400,3.33
2006-08-04,13.41,14.00,13.41,13.75,137600,3.44
2006-08-03,12.44,13.94,12.44,13.80,368000,3.45
2006-08-02,12.50,13.22,12.16,13.15,611200,3.29
2006-08-01,12.00,12.21,11.99,12.15,220000,3.04
2006-07-31,11.40,12.08,11.40,12.08,82800,3.02
2006-07-28,11.63,11.74,11.46,11.52,113600,2.88
2006-07-27,11.61,11.89,11.51,11.55,66000,2.89
2006-07-26,11.50,11.70,11.46,11.53,92400,2.88
2006-07-25,11.55,11.75,11.30,11.47,90400,2.87
2006-07-24,12.00,12.00,11.55,11.80,104000,2.95
2006-07-21,11.55,11.65,11.50,11.65,50000,2.91
2006-07-20,11.61,11.81,11.61,11.80,144800,2.95
2006-07-19,11.89,11.95,11.65,11.65,45600,2.91
2006-07-18,11.87,12.08,11.03,11.78,142400,2.94
2006-07-17,11.35,11.58,11.35,11.58,41200,2.89
2006-07-14,11.68,11.68,11.30,11.53,62400,2.88
2006-07-13,11.58,12.06,11.58,11.60,61600,2.90
2006-07-12,12.04,12.15,11.58,11.86,310000,2.96
2006-07-11,11.82,12.00,11.82,11.92,71600,2.98
2006-07-10,11.50,11.80,10.50,11.75,100000,2.94
2006-07-07,11.67,11.98,11.64,11.65,118000,2.91
2006-07-06,11.37,11.89,11.37,11.77,53600,2.94
2006-07-05,11.50,11.72,11.40,11.72,94000,2.93
2006-07-03,11.87,11.87,10.61,11.32,102800,2.83
2006-06-30,11.83,11.83,11.41,11.57,166000,2.89
2006-06-29,10.68,11.50,10.68,11.37,263200,2.84
2006-06-28,10.68,11.18,10.50,10.90,288800,2.72
2006-06-27,11.78,12.00,11.19,11.29,142400,2.82
2006-06-26,11.60,12.00,11.60,11.80,115200,2.95
2006-06-23,11.98,12.18,10.17,11.58,2026800,2.89
2006-06-22,12.70,12.70,12.70,12.70,400,3.17
2006-06-21,12.51,12.51,12.51,12.51,000,3.13
2006-06-20,12.51,12.63,12.51,12.51,8400,3.13
2006-06-19,13.13,13.13,13.13,13.13,000,3.28
2006-06-16,13.13,13.13,12.91,13.13,11200,3.28
2006-06-15,14.06,14.06,14.06,14.06,000,3.52
2006-06-14,14.06,14.06,14.06,14.06,000,3.52
2006-06-13,14.06,14.06,14.03,14.06,7600,3.52
