(lp0
I6
aI12
aI23
aI43
aI56
aI67
aI76
aI92
aI103
aI117
aI125
aI148
aI154
aI176
aI194
aI214
aI247
aI276
aI288
aI303
aI313
aI329
aI346
aI353
aI364
aI382
aI406
aI427
aI435
aI443
aI450
aI460
aI471
aI481
aI503
aI534
aI544
aI553
aI564
aI576
aI586
aI617
aI641
aI652
aI674
aI689
aI704
aI712
aI723
aI731
aI743
aI765
aI775
aI783
aI801
aI813
aI819
aI827
aI835
aI843
aI853
aI863
aI874
aI885
aI891
aI908
aI931
aI941
aI947
aI957
aI965
aI976
aI982
aI1001
aI1008
aI1016
aI1027
aI1034
aI1044
aI1051
aI1061
aI1072
aI1085
aI1098
aI1113
aI1124
aI1133
aI1143
aI1153
aI1160
aI1172
aI1188
aI1197
aI1203
aI1215
aI1220
aI1235
aI1241
aI1257
aI1267
aI1275
aI1283
aI1291
aI1300
aI1314
aI1322
aI1331
aI1340
aI1348
aI1359
aI1382
aI1401
aI1410
aI1417
aI1431
aI1439
aI1450
aI1465
aI1472
aI1485
a.