(lp0
I7
aI14
aI21
aI34
aI45
aI54
aI66
aI74
aI86
aI102
aI110
aI118
aI126
aI143
aI154
aI161
aI169
aI178
aI186
aI201
aI210
aI218
aI224
aI234
aI245
aI259
aI275
aI283
aI291
aI298
aI307
aI320
aI331
aI338
aI347
aI355
aI369
aI376
aI390
aI395
aI407
aI415
aI422
aI430
aI439
aI446
aI459
aI468
aI475
aI483
aI490
aI499
aI512
aI520
aI532
aI544
aI550
aI557
aI568
aI577
aI588
aI596
aI605
aI616
aI623
aI634
aI645
aI654
aI659
aI672
aI682
aI700
aI706
aI717
aI721
aI730
aI743
aI752
aI757
aI766
aI774
aI781
aI795
aI803
aI812
aI818
aI832
aI842
aI851
aI863
aI870
aI887
aI897
aI916
aI951
aI964
aI970
aI981
aI993
aI1008
aI1016
aI1026
aI1037
aI1050
aI1064
aI1072
aI1083
aI1093
aI1103
aI1113
aI1124
aI1146
aI1155
aI1167
aI1180
aI1190
aI1208
aI1219
aI1243
aI1257
aI1287
aI1296
aI1317
aI1325
aI1338
aI1349
aI1355
aI1377
aI1384
aI1416
aI1422
aI1442
aI1452
aI1468
aI1476
aI1486
a.