(lp0
I6
aI13
aI29
aI39
aI49
aI67
aI80
aI85
aI97
aI111
aI121
aI127
aI135
aI155
aI171
aI185
aI196
aI202
aI213
aI226
aI231
aI248
aI260
aI271
aI280
aI289
aI305
aI313
aI338
aI347
aI355
aI362
aI380
aI388
aI396
aI420
aI430
aI443
aI450
aI462
aI469
aI478
aI489
aI501
aI513
aI531
aI548
aI556
aI566
aI579
aI591
aI597
aI606
aI613
aI623
aI632
aI640
aI648
aI660
aI668
aI676
aI691
aI709
aI721
aI729
aI758
aI768
aI775
aI785
aI794
aI803
aI812
aI822
aI828
aI836
aI848
aI853
aI863
aI873
aI882
aI890
aI898
aI906
aI913
aI951
aI959
aI966
aI983
aI1013
aI1022
aI1036
aI1043
aI1071
aI1092
aI1108
aI1113
aI1122
aI1129
aI1139
aI1146
aI1158
aI1164
aI1176
aI1187
aI1221
aI1229
aI1237
aI1247
aI1267
aI1285
aI1298
aI1311
aI1321
aI1337
aI1349
aI1364
aI1375
aI1383
aI1395
aI1402
aI1415
aI1431
aI1440
aI1446
aI1461
aI1470
aI1481
a.