(lp0
I6
aI16
aI26
aI34
aI50
aI57
aI65
aI76
aI84
aI97
aI108
aI118
aI124
aI133
aI140
aI152
aI160
aI168
aI178
aI186
aI196
aI203
aI212
aI224
aI231
aI245
aI261
aI276
aI284
aI290
aI300
aI311
aI320
aI341
aI352
aI358
aI371
aI380
aI393
aI408
aI416
aI422
aI431
aI442
aI454
aI462
aI468
aI478
aI485
aI493
aI501
aI508
aI516
aI530
aI536
aI549
aI557
aI564
aI574
aI582
aI590
aI601
aI606
aI618
aI624
aI633
aI645
aI650
aI661
aI672
aI678
aI686
aI694
aI706
aI714
aI721
aI737
aI748
aI761
aI770
aI778
aI785
aI797
aI806
aI813
aI828
aI843
aI851
aI862
aI893
aI903
aI911
aI919
aI933
aI943
aI956
aI965
aI979
aI1002
aI1011
aI1041
aI1064
aI1092
aI1101
aI1118
aI1129
aI1138
aI1145
aI1158
aI1164
aI1180
aI1211
aI1219
aI1229
aI1238
aI1272
aI1281
aI1287
aI1295
aI1303
aI1325
aI1344
aI1367
aI1376
aI1385
aI1398
aI1411
aI1417
aI1437
aI1448
aI1461
aI1477
aI1482
a.