(lp0
I6
aI15
aI24
aI35
aI40
aI48
aI60
aI71
aI82
aI89
aI101
aI119
aI125
aI134
aI143
aI155
aI160
aI168
aI178
aI185
aI202
aI208
aI229
aI243
aI252
aI272
aI278
aI298
aI305
aI313
aI322
aI343
aI351
aI362
aI372
aI390
aI398
aI416
aI426
aI431
aI443
aI455
aI461
aI471
aI482
aI489
aI501
aI513
aI520
aI534
aI544
aI560
aI569
aI580
aI596
aI602
aI613
aI620
aI628
aI643
a.