(lp0
I6
aI18
aI44
aI51
aI62
aI75
aI99
aI104
aI125
aI137
aI149
aI159
aI167
aI181
aI187
aI200
aI210
aI218
aI235
aI245
aI257
aI266
aI286
aI294
aI305
aI316
aI330
aI343
aI356
aI369
aI376
aI393
aI421
aI433
aI441
aI451
aI463
aI474
aI487
aI508
aI515
aI527
aI540
aI549
aI566
aI579
aI593
aI603
aI608
aI621
aI633
aI640
aI668
aI675
aI701
aI707
aI718
aI727
aI743
aI751
aI759
aI768
aI777
aI791
aI806
aI821
aI842
aI850
aI858
aI866
aI876
aI892
aI898
aI907
aI920
aI937
aI955
aI986
aI995
aI1003
aI1013
aI1052
aI1070
aI1082
aI1088
aI1117
aI1141
aI1149
aI1157
aI1168
aI1177
aI1187
aI1197
aI1209
aI1222
aI1274
aI1282
aI1289
aI1311
aI1324
aI1331
aI1356
aI1363
aI1373
aI1398
aI1421
aI1430
aI1441
aI1458
aI1480
aI1491
a.