(lp0
I7
aI27
aI38
aI48
aI102
aI121
aI130
aI139
aI145
aI162
aI178
aI225
aI236
aI257
aI265
aI278
aI291
aI305
aI320
aI334
aI341
aI352
aI361
aI371
aI382
aI393
aI399
aI409
aI416
aI426
aI438
aI463
aI502
aI510
aI534
aI550
aI561
a.