(lp0
I6
aI12
aI42
aI48
aI77
aI100
aI109
aI117
aI126
aI137
aI149
aI163
aI170
aI177
aI186
aI198
aI206
aI217
aI224
aI234
aI243
aI249
aI259
aI267
aI292
aI307
aI320
aI331
aI346
aI354
aI367
aI382
aI389
aI404
aI413
aI423
aI432
aI439
aI453
aI462
aI475
aI493
aI503
aI534
aI542
aI552
aI561
aI569
aI576
aI585
aI609
aI616
aI625
aI632
aI645
aI674
aI688
aI710
aI722
aI737
aI759
aI768
aI784
aI803
aI813
aI821
aI836
aI844
aI855
aI865
aI873
aI884
aI913
aI932
aI963
aI983
aI993
aI1014
aI1033
aI1040
aI1051
aI1057
aI1069
aI1077
aI1101
aI1113
aI1124
aI1130
aI1138
aI1152
aI1159
aI1173
aI1186
aI1200
aI1221
aI1229
aI1239
aI1245
aI1266
aI1279
aI1287
aI1302
aI1315
aI1320
aI1340
aI1357
aI1366
aI1384
aI1414
aI1422
aI1431
aI1440
aI1461
aI1470
aI1488
a.