(lp0
I6
aI13
aI28
aI36
aI51
aI89
aI103
aI115
aI121
aI144
aI154
aI161
aI169
aI185
aI193
aI209
aI220
aI233
aI240
aI248
aI260
aI266
aI275
aI286
aI295
aI319
aI334
aI346
aI380
aI394
aI400
aI416
aI425
aI432
aI443
aI463
aI472
aI480
aI494
aI501
aI510
aI532
aI541
aI548
aI567
aI577
aI585
aI594
aI602
aI617
aI625
aI632
aI642
aI649
aI667
aI673
aI686
aI695
aI706
aI711
aI721
aI732
aI740
aI749
aI758
aI774
aI786
aI794
aI803
aI812
aI819
aI831
aI841
aI851
aI868
aI881
aI890
aI900
aI908
aI916
aI927
aI938
aI945
aI953
aI966
aI973
aI986
aI992
aI1005
aI1013
aI1028
aI1032
aI1062
aI1068
aI1074
aI1091
aI1100
aI1106
aI1113
aI1127
aI1139
aI1147
aI1156
aI1164
aI1177
aI1184
aI1195
aI1207
aI1218
aI1224
aI1235
aI1246
aI1255
aI1269
aI1290
aI1298
aI1308
aI1338
aI1346
aI1351
aI1360
aI1378
aI1387
aI1395
aI1403
aI1417
aI1426
aI1446
aI1461
aI1477
aI1486
a.