(lp0
I6
aI13
aI21
aI52
aI57
aI68
aI78
aI94
aI101
aI110
aI121
aI130
aI154
aI162
aI172
aI180
aI190
aI198
aI209
aI220
aI226
aI245
aI259
aI280
aI288
aI296
aI307
aI318
aI335
aI341
aI349
aI360
aI371
aI380
aI388
aI397
aI404
aI417
aI425
aI433
aI444
aI453
aI467
aI475
aI486
aI495
aI505
aI513
aI536
aI550
aI558
aI569
aI575
aI583
aI592
aI599
aI606
aI616
aI622
aI634
aI642
aI651
aI666
aI675
aI686
aI696
aI706
aI714
aI722
aI730
aI740
aI748
aI758
aI768
aI774
aI783
aI791
aI800
aI812
aI819
aI828
aI835
aI846
aI865
aI873
aI886
aI894
aI900
aI917
aI925
aI931
aI940
aI947
aI956
aI966
aI987
aI992
aI1002
aI1009
aI1016
aI1032
aI1053
aI1059
aI1072
aI1092
aI1100
aI1116
aI1130
aI1140
aI1145
aI1153
aI1164
aI1171
aI1178
aI1188
aI1194
aI1231
aI1241
aI1253
aI1262
aI1271
aI1285
aI1295
aI1301
aI1332
aI1358
aI1378
aI1384
aI1395
aI1415
aI1420
aI1438
aI1461
aI1471
aI1480
aI1490
a.