(lp0
I17
aI25
aI40
aI47
aI55
aI67
aI75
aI86
aI97
aI105
aI116
aI125
aI143
aI157
aI175
aI181
aI189
aI210
aI215
aI225
aI253
aI259
aI275
aI284
aI306
aI313
aI320
aI331
aI346
aI351
aI359
aI367
aI380
aI393
aI402
aI423
aI432
aI438
aI456
aI467
aI481
aI487
aI496
aI507
aI517
aI528
aI537
aI544
aI552
aI567
aI584
aI594
aI608
aI616
aI623
aI632
aI645
aI654
aI663
aI672
aI682
aI692
aI710
aI723
aI730
aI750
aI758
aI768
aI774
aI783
aI791
aI798
aI812
aI819
aI828
aI836
aI844
aI860
aI866
aI876
aI884
aI893
aI905
aI918
aI932
aI936
aI951
aI958
aI965
aI982
aI990
aI999
aI1009
aI1016
aI1033
aI1040
aI1049
aI1055
aI1076
aI1088
aI1096
aI1108
aI1119
aI1130
aI1140
aI1147
aI1154
aI1164
aI1176
aI1185
aI1193
aI1202
aI1213
aI1217
aI1229
aI1237
aI1249
aI1257
aI1275
aI1282
aI1290
aI1305
aI1316
aI1322
aI1337
aI1345
aI1355
aI1361
aI1378
aI1385
aI1394
aI1402
aI1411
aI1428
aI1440
aI1448
aI1461
aI1470
aI1481
aI1488
a.