(lp0
I6
aI13
aI20
aI31
aI50
aI77
aI84
aI91
aI99
aI107
aI119
aI126
aI147
aI155
aI166
aI178
aI185
aI197
aI208
aI216
aI224
aI233
aI243
aI249
aI260
aI265
aI276
aI286
aI302
aI307
aI322
aI329
aI335
aI345
aI356
aI361
aI380
aI388
aI396
aI411
aI426
aI432
aI447
aI455
aI462
aI480
aI490
aI497
aI513
aI522
aI530
aI538
aI551
aI558
aI567
aI578
aI591
aI598
aI605
aI613
aI623
aI642
aI651
aI657
aI668
aI674
aI686
aI708
aI718
aI734
aI743
aI750
aI758
aI768
aI775
aI786
aI797
aI813
aI819
aI828
aI835
aI846
aI861
aI872
aI886
aI893
aI903
aI909
aI917
aI950
aI965
aI974
aI983
aI1021
aI1033
aI1052
aI1061
aI1076
aI1088
aI1094
aI1112
aI1122
aI1130
aI1138
aI1146
aI1157
aI1164
aI1186
aI1219
aI1225
aI1238
aI1247
aI1258
aI1270
aI1277
aI1285
aI1295
aI1312
aI1319
aI1329
aI1338
aI1350
aI1364
aI1369
aI1381
aI1389
aI1399
aI1409
aI1418
aI1429
aI1442
aI1448
aI1456
aI1470
aI1477
aI1486
a.