(lp0
I6
aI15
aI22
aI31
aI39
aI48
aI70
aI93
aI103
aI117
aI129
aI161
aI197
aI211
aI225
aI251
aI262
aI274
aI291
aI306
aI336
aI346
aI375
aI381
aI404
aI427
aI435
aI452
aI469
aI482
aI503
aI534
aI544
aI550
aI579
aI586
aI607
aI615
aI628
aI637
aI654
aI664
aI676
aI682
aI691
aI709
aI722
aI729
aI740
aI751
aI761
aI784
aI790
aI800
aI821
aI828
aI837
aI844
aI853
aI862
aI871
aI881
aI893
aI899
aI911
aI921
aI930
aI939
aI962
aI970
aI984
aI991
aI1009
aI1021
aI1033
aI1053
aI1101
aI1118
aI1126
aI1139
aI1147
aI1154
aI1162
aI1173
aI1181
aI1202
aI1211
aI1225
aI1236
aI1242
aI1262
aI1267
aI1280
aI1295
aI1303
aI1325
aI1346
aI1357
aI1366
aI1384
aI1391
aI1409
aI1419
aI1445
aI1460
aI1465
aI1474
aI1486
a.