(lp0
I6
aI17
aI48
aI71
aI78
aI89
aI109
aI116
aI124
aI134
aI143
aI151
aI158
aI174
aI180
aI198
aI224
aI236
aI243
aI251
aI259
aI273
aI292
aI306
aI320
aI330
aI340
aI349
aI358
aI375
aI383
aI391
aI409
aI415
aI428
aI434
aI444
aI450
aI462
aI499
aI525
aI534
aI560
aI581
aI595
aI607
aI616
aI629
aI638
aI654
aI671
aI685
aI695
aI709
aI728
aI747
aI768
aI780
aI787
aI803
aI816
aI826
aI834
aI844
aI854
aI861
aI872
aI894
aI914
aI924
aI939
aI948
aI961
aI968
aI976
aI993
aI1015
aI1033
aI1041
aI1057
aI1066
aI1099
aI1106
aI1117
aI1123
aI1131
aI1139
aI1147
aI1156
aI1165
aI1173
aI1185
aI1191
aI1225
aI1243
aI1253
aI1278
aI1288
aI1327
aI1336
aI1346
aI1356
aI1370
aI1385
aI1403
aI1429
aI1452
aI1459
aI1470
aI1493
a.