Date,Open Price,High,Low,Close Price,Volume,
13/03/2015 00:00:00,25.9700,26.0800,25.7400,25.9200,182108
12/03/2015 00:00:00,25.8000,26.1150,25.6850,25.7750,401212
11/03/2015 00:00:00,25.6000,25.8400,25.4950,25.7450,337010
10/03/2015 00:00:00,25.6000,26.1400,25.5400,25.6200,298993
09/03/2015 00:00:00,25.9700,25.9700,25.4100,25.6700,254199
06/03/2015 00:00:00,25.9000,26.1400,25.9000,25.9700,285529
05/03/2015 00:00:00,25.2550,26.1000,25.2550,26.0600,312882
04/03/2015 00:00:00,25.1750,25.4350,25.0700,25.3300,273746
03/03/2015 00:00:00,25.7000,25.7000,25.0600,25.0800,276509
02/03/2015 00:00:00,25.2000,25.9000,25.1700,25.6400,285796
27/02/2015 00:00:00,24.7300,25.1600,24.6900,25.1450,348289
26/02/2015 00:00:00,24.4000,24.7800,24.2500,24.5900,229317
25/02/2015 00:00:00,24.3900,24.7050,24.2500,24.4100,141132
24/02/2015 00:00:00,24.4550,24.5000,24.0300,24.3900,236283
23/02/2015 00:00:00,24.4900,24.6950,24.1800,24.3650,189247
20/02/2015 00:00:00,23.9000,24.4800,23.8250,24.2850,254869
19/02/2015 00:00:00,23.9300,24.2300,23.7800,24.0100,165271
18/02/2015 00:00:00,23.8950,23.9650,23.7600,23.9650,210586
17/02/2015 00:00:00,23.6700,23.8150,23.5000,23.7850,132332
16/02/2015 00:00:00,23.7000,23.8600,23.6000,23.8100,143120
13/02/2015 00:00:00,23.8900,23.9250,23.5800,23.7300,230301
12/02/2015 00:00:00,23.3850,23.9200,23.3850,23.8500,235528
11/02/2015 00:00:00,23.4450,23.5850,23.1350,23.5050,210948
10/02/2015 00:00:00,23.0000,23.4700,23.0000,23.4550,316325
09/02/2015 00:00:00,23.0100,23.0800,22.7300,23.0350,228822
06/02/2015 00:00:00,23.0900,23.1800,22.8700,23.1700,216128
05/02/2015 00:00:00,23.1600,23.3700,22.9600,23.1950,181468
04/02/2015 00:00:00,23.0150,23.3400,23.0150,23.2800,173308
03/02/2015 00:00:00,23.0900,23.5350,23.0200,23.0900,271913
02/02/2015 00:00:00,23.3200,23.3450,22.9400,23.0950,209684
30/01/2015 00:00:00,23.4400,23.6500,23.2300,23.3200,264128
29/01/2015 00:00:00,23.1550,23.4500,23.0350,23.4400,236696
28/01/2015 00:00:00,23.2300,23.3400,22.9500,23.3400,304247
27/01/2015 00:00:00,23.3400,23.5550,23.1550,23.3200,184958
26/01/2015 00:00:00,22.7500,23.5200,22.7350,23.3700,354615
23/01/2015 00:00:00,22.3500,23.0000,22.3500,22.9350,422455
22/01/2015 00:00:00,22.0900,22.4000,22.0850,22.2550,639483
21/01/2015 00:00:00,22.4000,22.6950,22.2000,22.4200,262578
20/01/2015 00:00:00,22.7500,22.8900,22.4750,22.5300,285835
19/01/2015 00:00:00,23.0000,23.0250,22.5750,22.8600,231503
16/01/2015 00:00:00,22.4600,23.5000,22.4200,23.0800,783623
15/01/2015 00:00:00,22.2250,22.4800,22.0800,22.4800,205477
14/01/2015 00:00:00,22.4500,22.4500,22.0600,22.2200,307291
13/01/2015 00:00:00,21.8000,22.6500,21.7950,22.4400,560703
12/01/2015 00:00:00,21.8300,21.9000,21.4600,21.6900,263773
09/01/2015 00:00:00,21.4250,21.8300,21.3250,21.6300,252782
08/01/2015 00:00:00,21.0000,21.3400,20.9050,21.3400,427245
07/01/2015 00:00:00,20.8200,20.9850,20.7750,20.9300,294589
06/01/2015 00:00:00,20.6850,20.9750,20.6050,20.7800,234590
05/01/2015 00:00:00,20.8000,21.0000,20.5600,20.6100,171465
02/01/2015 00:00:00,20.8500,20.9250,20.6350,20.8600,113952
01/01/2015 00:00:00,20.8000,20.8000,20.5900,20.7850,31828
31/12/2014 00:00:00,20.8000,20.8000,20.5900,20.7850,31828
30/12/2014 00:00:00,20.6300,20.8000,20.5450,20.6850,145078
29/12/2014 00:00:00,20.8000,20.8000,20.5000,20.5450,101416
24/12/2014 00:00:00,20.7000,20.8000,20.6550,20.8000,33273
23/12/2014 00:00:00,20.4900,20.7000,20.4500,20.6800,127236
22/12/2014 00:00:00,20.0850,20.4800,20.0850,20.4500,157200
19/12/2014 00:00:00,20.4700,20.4700,20.0900,20.1550,226472
18/12/2014 00:00:00,20.2500,20.3700,20.0650,20.1800,264792
17/12/2014 00:00:00,19.6300,19.9500,19.6000,19.8800,268341
16/12/2014 00:00:00,19.6300,19.7750,19.1750,19.7300,673605
15/12/2014 00:00:00,19.6000,19.7950,19.5500,19.7600,317551
12/12/2014 00:00:00,20.0500,20.0500,19.5000,19.5200,248244
11/12/2014 00:00:00,20.0050,20.2400,19.9550,20.1100,256426
10/12/2014 00:00:00,19.5000,20.0400,19.4600,20.0150,360382
09/12/2014 00:00:00,19.8950,19.9100,19.2600,19.3850,266102
08/12/2014 00:00:00,20.1500,20.1500,19.8250,19.8450,313218
05/12/2014 00:00:00,20.8900,21.0000,20.7000,20.7550,246186
04/12/2014 00:00:00,20.9050,20.9900,20.5300,20.6800,312804
03/12/2014 00:00:00,20.8800,21.0500,20.8800,20.9000,235209
02/12/2014 00:00:00,20.9100,21.0950,20.8550,20.8600,227115
01/12/2014 00:00:00,20.9000,21.0450,20.7250,21.0250,245078
28/11/2014 00:00:00,20.9200,20.9250,20.5750,20.8600,328024
27/11/2014 00:00:00,21.0000,21.1750,20.8700,21.1400,143262
26/11/2014 00:00:00,21.1000,21.1050,20.8150,21.0500,289779
25/11/2014 00:00:00,20.7450,21.0200,20.7200,21.0200,222379
24/11/2014 00:00:00,20.7300,20.9200,20.6500,20.8000,187694
21/11/2014 00:00:00,20.6000,20.8650,20.5300,20.7050,377142
20/11/2014 00:00:00,20.9750,21.0100,20.5050,20.6950,179926
19/11/2014 00:00:00,21.0800,21.3800,20.9100,20.9750,162839
18/11/2014 00:00:00,20.4350,21.0950,20.4350,21.0950,319228
17/11/2014 00:00:00,20.3700,20.5900,20.3000,20.4800,313552
14/11/2014 00:00:00,20.7000,20.7400,20.3450,20.4750,345567
13/11/2014 00:00:00,20.7000,21.0950,20.7000,20.8550,308229
12/11/2014 00:00:00,20.9000,21.3000,20.6450,20.6850,343485
11/11/2014 00:00:00,20.5600,20.9600,20.5600,20.9500,257348
10/11/2014 00:00:00,20.3250,20.7300,20.3200,20.7000,149038
07/11/2014 00:00:00,20.5000,20.6800,20.3500,20.4250,258328
06/11/2014 00:00:00,20.4200,20.4600,20.1300,20.4500,509456
05/11/2014 00:00:00,19.9500,20.4000,19.8850,20.3900,568755
04/11/2014 00:00:00,19.8000,20.5450,19.7100,20.0450,1032175
03/11/2014 00:00:00,19.5500,19.8000,19.1700,19.4200,395436
31/10/2014 00:00:00,19.3850,19.7950,19.2400,19.7550,363044
30/10/2014 00:00:00,19.2100,19.2950,18.9400,19.2550,250198
29/10/2014 00:00:00,19.6000,19.6400,19.1550,19.1550,261122
28/10/2014 00:00:00,19.2800,19.5500,19.2200,19.5050,325768
27/10/2014 00:00:00,19.1950,19.2750,19.0000,19.1350,244426
24/10/2014 00:00:00,19.1300,19.2900,18.9900,19.1050,367429
23/10/2014 00:00:00,19.1000,19.1500,18.9250,19.0750,355014
22/10/2014 00:00:00,18.7600,19.1150,18.7000,19.0050,525314
21/10/2014 00:00:00,18.3300,18.7250,18.2650,18.7250,281943
20/10/2014 00:00:00,18.4600,18.4600,18.2100,18.3400,236813
17/10/2014 00:00:00,17.9850,18.4400,17.8200,18.4100,284668
16/10/2014 00:00:00,18.1000,18.2200,17.6650,17.9150,537611
15/10/2014 00:00:00,18.5700,18.7300,18.1300,18.1300,302552
14/10/2014 00:00:00,18.3000,18.5600,18.1600,18.5200,313847
13/10/2014 00:00:00,18.1000,18.3600,18.0250,18.2650,334186
10/10/2014 00:00:00,18.2500,18.4400,17.8300,18.1600,842000
09/10/2014 00:00:00,18.4900,18.6750,18.2600,18.3150,475932
08/10/2014 00:00:00,18.2650,18.5200,18.2600,18.3900,238375
07/10/2014 00:00:00,18.3400,18.6900,18.2700,18.3650,394646
06/10/2014 00:00:00,18.7050,18.7500,18.3050,18.4050,292931
03/10/2014 00:00:00,18.6000,18.8800,18.5400,18.7050,249475
02/10/2014 00:00:00,18.5800,18.7750,18.4500,18.4850,514238
01/10/2014 00:00:00,18.9500,18.9600,18.5000,18.5750,575443
30/09/2014 00:00:00,18.8100,18.9350,18.6550,18.9000,216445
29/09/2014 00:00:00,18.6600,18.9650,18.6600,18.7450,262379
26/09/2014 00:00:00,19.2050,19.2050,18.6100,18.6650,301522
25/09/2014 00:00:00,19.0850,19.3950,19.0000,19.1800,1947754
24/09/2014 00:00:00,19.5750,19.5800,18.9400,19.1500,406134
23/09/2014 00:00:00,19.9200,19.9200,19.4850,19.6150,304382
22/09/2014 00:00:00,19.4150,20.0400,19.2950,19.8850,494983
19/09/2014 00:00:00,19.3500,19.6400,19.1000,19.4000,873109
18/09/2014 00:00:00,19.3400,19.3900,19.1900,19.2400,125710
17/09/2014 00:00:00,19.1150,19.3900,19.0500,19.3300,115436
16/09/2014 00:00:00,18.9900,19.4800,18.9200,19.0750,384988
15/09/2014 00:00:00,18.7700,19.0050,18.6000,18.9100,168956
12/09/2014 00:00:00,18.7000,18.7800,18.5050,18.7500,83424
11/09/2014 00:00:00,18.7050,18.7050,18.5300,18.6750,136273
10/09/2014 00:00:00,18.5350,18.6650,18.5000,18.6250,178936
09/09/2014 00:00:00,18.7300,18.7350,18.5500,18.6650,112883
08/09/2014 00:00:00,18.7350,18.7350,18.5850,18.7200,126573
05/09/2014 00:00:00,18.6850,18.7200,18.5000,18.6750,123302
04/09/2014 00:00:00,18.6900,18.7450,18.5550,18.6200,112672
03/09/2014 00:00:00,18.6000,18.7450,18.5000,18.6500,196307
02/09/2014 00:00:00,18.6100,18.6700,18.5100,18.5700,107823
01/09/2014 00:00:00,18.7400,18.8050,18.5100,18.6100,60469
29/08/2014 00:00:00,18.8650,18.8650,18.3500,18.7450,311994
28/08/2014 00:00:00,18.9750,18.9750,18.6900,18.8000,154635
27/08/2014 00:00:00,18.8000,18.9750,18.8000,18.9400,123992
26/08/2014 00:00:00,18.7500,18.8950,18.6400,18.7600,221144
25/08/2014 00:00:00,18.6700,18.7500,18.6100,18.6750,69648
22/08/2014 00:00:00,18.7950,18.7950,18.5500,18.6000,159626
21/08/2014 00:00:00,18.7500,18.8000,18.5700,18.7250,133218
20/08/2014 00:00:00,18.7550,18.9000,18.5650,18.7200,142644
19/08/2014 00:00:00,18.9500,18.9750,18.7400,18.8000,150413
18/08/2014 00:00:00,18.5700,18.9000,18.5700,18.8100,103712
15/08/2014 00:00:00,18.7400,18.8550,18.4500,18.4900,125761
14/08/2014 00:00:00,18.7350,18.8150,18.6300,18.8050,148916
13/08/2014 00:00:00,18.4650,18.8000,18.3650,18.7800,170719
12/08/2014 00:00:00,18.2000,18.3600,18.0500,18.3450,249127
11/08/2014 00:00:00,18.1200,18.3700,18.0700,18.1400,291853
08/08/2014 00:00:00,17.6050,18.0800,17.4050,18.0050,428396
07/08/2014 00:00:00,18.4900,18.5000,16.7100,17.5800,800262
06/08/2014 00:00:00,18.8350,18.8400,18.1800,18.3300,266152
05/08/2014 00:00:00,18.6850,18.8300,18.5300,18.7900,317590
04/08/2014 00:00:00,18.8000,18.8000,18.4950,18.5750,171969
01/08/2014 00:00:00,18.7700,18.7900,18.3750,18.7000,151234
31/07/2014 00:00:00,18.6500,18.9450,18.1000,18.7700,208230
30/07/2014 00:00:00,18.9600,18.9600,18.4850,18.6200,292613
29/07/2014 00:00:00,19.0000,19.0200,18.8500,18.8750,137897
28/07/2014 00:00:00,19.4700,19.4700,18.9500,19.0000,165776
25/07/2014 00:00:00,19.4600,19.4600,19.0800,19.1150,161844
24/07/2014 00:00:00,19.5900,19.6700,19.3800,19.4550,227007
23/07/2014 00:00:00,19.5000,19.6450,19.4500,19.5900,142204
22/07/2014 00:00:00,19.7000,19.7050,19.3250,19.5450,234583
21/07/2014 00:00:00,19.5300,19.7650,19.3000,19.6900,174836
18/07/2014 00:00:00,19.7500,19.7500,19.2550,19.4250,192649
17/07/2014 00:00:00,19.5150,19.8500,19.5050,19.6950,196173
16/07/2014 00:00:00,19.6000,19.9000,19.2800,19.4900,388945
15/07/2014 00:00:00,19.2350,19.5500,19.1500,19.4500,413164
14/07/2014 00:00:00,18.9500,19.1250,18.8200,19.0900,155487
11/07/2014 00:00:00,18.6550,18.9300,18.6550,18.9200,191661
10/07/2014 00:00:00,18.9000,18.9500,18.4800,18.5800,321796
09/07/2014 00:00:00,18.7000,18.8000,18.6050,18.7900,133911
08/07/2014 00:00:00,18.7700,18.8650,18.6400,18.7250,152222
07/07/2014 00:00:00,18.8000,18.9000,18.7050,18.7500,129621
04/07/2014 00:00:00,18.7000,18.7850,18.6000,18.7600,76431
03/07/2014 00:00:00,18.5700,18.7600,18.4900,18.6800,134999
02/07/2014 00:00:00,18.4700,18.5250,18.3700,18.4800,159638
01/07/2014 00:00:00,18.4300,18.4750,18.3500,18.4500,177290
30/06/2014 00:00:00,18.4200,18.5000,18.3500,18.4500,198501
27/06/2014 00:00:00,18.3500,18.4600,18.2950,18.3700,520139
26/06/2014 00:00:00,18.5000,18.5000,18.3500,18.3500,167854
25/06/2014 00:00:00,18.6200,18.7900,18.3000,18.4450,202682
24/06/2014 00:00:00,18.3200,18.7350,18.3200,18.6400,175242
23/06/2014 00:00:00,18.3100,18.3500,18.2500,18.3150,130220
20/06/2014 00:00:00,18.5500,18.6150,18.2500,18.3900,213185
19/06/2014 00:00:00,18.6500,18.6500,18.4500,18.5500,104428
18/06/2014 00:00:00,18.6500,18.6500,18.4150,18.6000,131499
17/06/2014 00:00:00,18.7250,18.8000,18.4450,18.5100,224268
16/06/2014 00:00:00,18.7200,18.7650,18.6000,18.6100,65173
13/06/2014 00:00:00,18.9500,18.9500,18.6400,18.7500,180433
12/06/2014 00:00:00,18.8500,18.9500,18.7550,18.8400,188643
11/06/2014 00:00:00,18.6200,19.0000,18.5900,18.9500,314129
10/06/2014 00:00:00,18.9000,18.9000,18.6200,18.8000,138084
09/06/2014 00:00:00,18.7400,18.8450,18.6500,18.7700,67063
06/06/2014 00:00:00,18.7600,18.8400,18.6700,18.7400,91691
05/06/2014 00:00:00,18.6200,18.8350,18.4900,18.7750,153970
04/06/2014 00:00:00,18.5700,18.7500,18.4100,18.6450,191821
03/06/2014 00:00:00,18.8500,18.8500,18.3500,18.5400,218268
02/06/2014 00:00:00,18.4900,18.9000,18.3150,18.8500,415638
30/05/2014 00:00:00,18.1600,18.4800,18.1450,18.4800,633371
29/05/2014 00:00:00,18.0000,18.1550,18.0000,18.0200,93070
28/05/2014 00:00:00,18.0900,18.2000,18.0050,18.0350,150577
27/05/2014 00:00:00,18.0000,18.0500,17.8850,18.0400,123748
26/05/2014 00:00:00,18.0200,18.0900,17.9000,17.9700,198234
23/05/2014 00:00:00,18.2500,18.2600,17.9000,18.0150,368133
22/05/2014 00:00:00,18.1700,18.3500,18.1000,18.2900,239317
21/05/2014 00:00:00,18.0900,18.1750,18.0000,18.1300,131054
20/05/2014 00:00:00,18.1000,18.1850,17.9300,18.0450,204115
19/05/2014 00:00:00,18.0000,18.1500,17.8250,18.0150,421348
16/05/2014 00:00:00,17.9900,18.0550,17.7900,17.9550,287651
15/05/2014 00:00:00,17.8000,18.0500,17.7800,17.9150,300353
14/05/2014 00:00:00,17.9450,17.9500,17.7450,17.8100,216991
13/05/2014 00:00:00,17.9500,17.9900,17.6600,17.9000,284842
12/05/2014 00:00:00,17.7400,17.8700,17.4800,17.7650,380351
09/05/2014 00:00:00,17.2500,17.5000,17.1250,17.3850,267226
08/05/2014 00:00:00,17.0000,17.5150,16.8300,17.3200,972940
07/05/2014 00:00:00,16.3600,16.3700,16.2500,16.3000,141586
06/05/2014 00:00:00,16.3000,16.3200,16.1600,16.2400,90265
05/05/2014 00:00:00,16.2500,16.2500,16.0500,16.2000,119807
02/05/2014 00:00:00,16.2500,16.2900,16.1400,16.2000,241172
30/04/2014 00:00:00,16.3400,16.3400,16.1700,16.2350,223566
29/04/2014 00:00:00,16.2550,16.3550,16.2000,16.3400,190944
28/04/2014 00:00:00,16.4200,16.4500,16.1750,16.2550,178858
25/04/2014 00:00:00,16.4700,16.5000,16.4000,16.4500,91558
24/04/2014 00:00:00,16.6200,16.6200,16.4700,16.5000,146332
23/04/2014 00:00:00,16.5000,16.6050,16.4650,16.5000,118653
22/04/2014 00:00:00,16.3750,16.5700,16.3700,16.4850,189964
17/04/2014 00:00:00,16.2600,16.4500,16.2600,16.4400,231739
16/04/2014 00:00:00,16.2950,16.3950,16.1100,16.2000,270303
15/04/2014 00:00:00,16.5000,16.6400,16.3000,16.3950,262026
14/04/2014 00:00:00,16.4450,16.7000,16.3800,16.5500,419087
11/04/2014 00:00:00,16.5650,16.6750,16.4000,16.5600,271197
10/04/2014 00:00:00,16.4900,16.8500,16.3800,16.7000,558767
09/04/2014 00:00:00,16.2600,16.5000,16.2450,16.4500,377315
08/04/2014 00:00:00,16.3000,16.3550,16.1200,16.2600,203705
07/04/2014 00:00:00,16.4800,16.5250,16.2500,16.3100,197555
04/04/2014 00:00:00,16.5250,16.5500,16.4500,16.5000,205272
03/04/2014 00:00:00,16.6250,16.6450,16.4500,16.5500,235049
02/04/2014 00:00:00,16.3300,16.6100,16.3000,16.5500,392991
01/04/2014 00:00:00,16.2500,16.4900,16.0600,16.3300,645705
31/03/2014 00:00:00,16.2500,16.2950,16.1500,16.2500,267957
28/03/2014 00:00:00,16.1000,16.2450,16.0350,16.2400,270258
27/03/2014 00:00:00,15.9800,16.1500,15.9000,16.1000,500201
26/03/2014 00:00:00,15.9900,16.0800,15.8600,15.9700,897111
25/03/2014 00:00:00,15.7000,15.9500,15.6000,15.8500,387190
24/03/2014 00:00:00,15.8400,15.8400,15.3200,15.5600,327631
21/03/2014 00:00:00,15.5200,15.6400,15.4100,15.5300,533766
20/03/2014 00:00:00,15.5000,15.6500,15.5000,15.5700,213734
19/03/2014 00:00:00,15.7900,15.8000,15.5300,15.5400,276792
18/03/2014 00:00:00,15.8000,15.8100,15.7100,15.8000,236804
17/03/2014 00:00:00,15.8300,15.9300,15.6800,15.7000,204716
14/03/2014 00:00:00,15.7700,15.9200,15.5400,15.8500,382824
13/03/2014 00:00:00,15.7200,15.8600,15.7200,15.8000,266134
12/03/2014 00:00:00,16.0000,16.0000,15.7000,15.7200,412813
11/03/2014 00:00:00,15.4300,16.0000,15.4300,16.0000,1617111
10/03/2014 00:00:00,15.4200,15.5400,15.2300,15.3100,822805
07/03/2014 00:00:00,15.4200,15.4200,15.1000,15.1100,223077
06/03/2014 00:00:00,15.2200,15.5200,15.1200,15.3500,197398
05/03/2014 00:00:00,15.2000,15.2300,15.1300,15.1300,215273
04/03/2014 00:00:00,15.2800,15.3100,15.1300,15.1300,230077
03/03/2014 00:00:00,15.3500,15.3500,15.1900,15.2000,178390
28/02/2014 00:00:00,15.3900,15.4700,15.3200,15.3500,429105
27/02/2014 00:00:00,15.2500,15.3400,15.2000,15.2500,467338
26/02/2014 00:00:00,15.2000,15.2900,15.1500,15.2000,446930
25/02/2014 00:00:00,15.0300,15.2900,15.0300,15.1800,613229
24/02/2014 00:00:00,15.2000,15.2000,15.0200,15.0500,461073
21/02/2014 00:00:00,15.2500,15.3800,15.1300,15.2400,181694
20/02/2014 00:00:00,15.1300,15.3000,15.1300,15.3000,357684
19/02/2014 00:00:00,15.3300,15.3800,15.2400,15.2400,399466
18/02/2014 00:00:00,15.3000,15.3900,15.2800,15.3200,493613
17/02/2014 00:00:00,15.3600,15.4500,15.2900,15.3000,258568
14/02/2014 00:00:00,15.3200,15.3600,15.2500,15.3000,543436
13/02/2014 00:00:00,15.3500,15.4300,15.2600,15.3100,610438
12/02/2014 00:00:00,15.1900,15.4400,15.1000,15.2500,1486332
11/02/2014 00:00:00,14.5900,14.7900,14.5900,14.7300,317281
10/02/2014 00:00:00,14.4000,14.6900,14.3700,14.6000,404886
07/02/2014 00:00:00,14.4500,14.4600,14.3500,14.3500,251761
06/02/2014 00:00:00,14.5000,14.5500,14.3500,14.4000,421138
05/02/2014 00:00:00,14.4000,14.5300,14.3200,14.4800,517998
04/02/2014 00:00:00,14.4900,14.5800,14.3400,14.4000,446935
03/02/2014 00:00:00,14.6600,14.6600,14.4500,14.5300,611174
31/01/2014 00:00:00,14.4200,14.4900,14.1900,14.4500,323419
30/01/2014 00:00:00,14.3900,14.5000,14.2700,14.4200,409770
29/01/2014 00:00:00,14.4100,14.4700,14.2700,14.3900,283270
28/01/2014 00:00:00,14.4500,14.5000,14.3300,14.3700,458749
27/01/2014 00:00:00,14.5000,14.5000,14.2600,14.4000,662325
24/01/2014 00:00:00,14.3400,14.5100,14.2200,14.3900,1888708
23/01/2014 00:00:00,14.4200,14.5200,14.1700,14.2500,959400
22/01/2014 00:00:00,14.5000,14.5000,14.4100,14.4500,620856
21/01/2014 00:00:00,14.3500,14.5300,14.3100,14.4800,454133
20/01/2014 00:00:00,14.4900,14.5300,14.4500,14.4600,456996
17/01/2014 00:00:00,14.4200,14.5200,14.3500,14.4100,740437
16/01/2014 00:00:00,14.2600,14.3700,14.2500,14.3100,234660
15/01/2014 00:00:00,14.2600,14.3600,14.2100,14.2700,311671
14/01/2014 00:00:00,14.3000,14.3800,14.2000,14.3000,237612
13/01/2014 00:00:00,14.4800,14.5000,14.1200,14.2700,1160421
10/01/2014 00:00:00,14.4100,14.5600,14.3600,14.5000,524471
09/01/2014 00:00:00,14.4900,14.4900,14.2700,14.3600,415839
08/01/2014 00:00:00,14.2700,14.4700,14.2400,14.4600,320813
07/01/2014 00:00:00,14.2000,14.2900,14.1200,14.2500,291571
06/01/2014 00:00:00,14.3400,14.3400,14.1000,14.2200,288526
03/01/2014 00:00:00,14.2000,14.3200,14.1200,14.2500,292435
02/01/2014 00:00:00,14.2300,14.2500,14.1000,14.1700,228092
31/12/2013 00:00:00,14.1200,14.2100,14.1000,14.2100,81250
30/12/2013 00:00:00,14.3300,14.3300,14.0000,14.0600,300273
27/12/2013 00:00:00,14.2500,14.4000,14.1800,14.2200,274633
24/12/2013 00:00:00,14.2500,14.2900,14.0000,14.0000,307334
23/12/2013 00:00:00,14.6400,14.6400,14.0200,14.0500,1098654
20/12/2013 00:00:00,14.3200,14.5800,14.3100,14.5000,1276703
19/12/2013 00:00:00,14.4900,14.4900,14.2600,14.2900,793086
18/12/2013 00:00:00,14.3200,14.4300,14.2600,14.3900,617776
17/12/2013 00:00:00,14.3900,14.4500,14.2500,14.2500,612725
16/12/2013 00:00:00,14.3400,14.4000,14.2600,14.3500,508064
13/12/2013 00:00:00,14.3600,14.3900,14.2300,14.3000,603526
12/12/2013 00:00:00,14.5000,14.5700,14.2700,14.2800,932227
11/12/2013 00:00:00,14.3200,14.5900,14.1600,14.4300,4294274
10/12/2013 00:00:00,15.4000,15.5000,15.1900,15.2400,255613
09/12/2013 00:00:00,15.1600,15.6800,15.1600,15.4400,416790
06/12/2013 00:00:00,15.9100,16.1700,15.9000,16.1000,320178
05/12/2013 00:00:00,15.8000,16.1800,15.8000,15.8800,620087
04/12/2013 00:00:00,15.7600,15.8800,15.5400,15.7400,236567
03/12/2013 00:00:00,15.8000,15.9300,15.6500,15.7500,313613
02/12/2013 00:00:00,15.6600,15.9900,15.6600,15.8900,218403
29/11/2013 00:00:00,15.4500,15.7900,15.2600,15.6500,347039
28/11/2013 00:00:00,15.7600,15.8800,15.5700,15.6000,259148
27/11/2013 00:00:00,16.0000,16.0000,15.8200,15.8400,243871
26/11/2013 00:00:00,16.0000,16.7700,15.9300,16.0000,1441397
25/11/2013 00:00:00,15.9900,16.2000,15.9400,16.0800,387637
22/11/2013 00:00:00,16.0000,16.2000,15.8700,16.0000,309948
21/11/2013 00:00:00,16.0000,16.0000,15.7400,16.0000,194709
20/11/2013 00:00:00,15.8500,16.1000,15.8200,16.0600,262778
19/11/2013 00:00:00,15.8700,16.0000,15.7700,15.9900,116358
18/11/2013 00:00:00,15.7900,16.0700,15.7000,16.0700,306218
15/11/2013 00:00:00,15.7500,15.8900,15.5700,15.8300,260273
14/11/2013 00:00:00,15.8000,15.9500,15.7600,15.8000,255851
13/11/2013 00:00:00,15.7500,16.1400,15.6600,15.7200,225592
12/11/2013 00:00:00,16.1000,16.1000,15.7600,15.7900,382642
11/11/2013 00:00:00,15.8000,16.4000,15.8000,16.1900,418684
08/11/2013 00:00:00,15.7400,16.1300,15.6500,15.8000,671743
07/11/2013 00:00:00,15.7900,15.8500,15.5600,15.7400,233667
06/11/2013 00:00:00,15.6500,15.8300,15.4400,15.8200,305809
05/11/2013 00:00:00,15.1800,15.5800,15.1800,15.5700,447546
04/11/2013 00:00:00,15.7300,15.8300,15.0200,15.4000,435259
01/11/2013 00:00:00,15.4900,15.7500,15.3100,15.6600,237628
31/10/2013 00:00:00,15.1900,15.4900,14.9500,15.4900,341264
30/10/2013 00:00:00,15.2600,15.4800,15.1600,15.2500,281164
29/10/2013 00:00:00,15.0000,15.3800,14.8700,15.3000,171946
28/10/2013 00:00:00,14.9300,15.6900,14.9100,15.2900,620573
25/10/2013 00:00:00,14.9900,15.1200,14.8200,14.9500,182460
24/10/2013 00:00:00,14.7000,15.2200,14.6900,15.0700,429973
23/10/2013 00:00:00,14.5400,14.8900,14.5400,14.8900,196796
22/10/2013 00:00:00,14.4300,14.9000,14.4300,14.7000,294745
21/10/2013 00:00:00,14.5700,14.6900,14.4600,14.5300,115091
18/10/2013 00:00:00,14.7000,14.8500,14.6700,14.7000,193126
17/10/2013 00:00:00,14.4500,14.8500,14.4500,14.7700,197466
16/10/2013 00:00:00,14.5900,14.8400,14.5200,14.6700,250184
15/10/2013 00:00:00,14.3200,14.8500,14.2700,14.6900,268633
14/10/2013 00:00:00,14.3200,14.3800,14.1500,14.3200,119893
11/10/2013 00:00:00,13.9800,14.4200,13.9500,14.4000,322081
10/10/2013 00:00:00,14.0100,14.0700,13.8100,13.9700,307821
09/10/2013 00:00:00,14.2200,14.2800,13.9800,13.9800,232992
08/10/2013 00:00:00,14.4500,14.4900,14.2200,14.2200,87929
07/10/2013 00:00:00,14.3000,14.5300,14.2500,14.4800,118202
04/10/2013 00:00:00,14.1700,14.4800,14.1400,14.4100,181823
03/10/2013 00:00:00,14.1200,14.3000,14.1200,14.2600,169439
02/10/2013 00:00:00,14.1900,14.2300,14.0700,14.1400,262547
01/10/2013 00:00:00,14.1000,14.2900,14.0800,14.2400,159111
30/09/2013 00:00:00,14.0200,14.1400,14.0100,14.1400,212955
27/09/2013 00:00:00,14.0600,14.1500,14.0200,14.0800,190397
26/09/2013 00:00:00,14.0600,14.1500,14.0600,14.1200,91423
25/09/2013 00:00:00,14.1000,14.1400,14.0600,14.1000,255817
24/09/2013 00:00:00,14.0500,14.1700,14.0500,14.1000,129854
23/09/2013 00:00:00,14.1200,14.1500,13.9700,14.1000,137824
20/09/2013 00:00:00,14.1800,14.1800,13.9600,14.1000,182587
19/09/2013 00:00:00,14.2100,14.2800,13.9100,14.1900,269747
18/09/2013 00:00:00,14.1700,14.2900,14.1100,14.1700,168866
17/09/2013 00:00:00,14.2500,14.2900,14.1300,14.1600,103271
16/09/2013 00:00:00,14.3000,14.3700,14.1700,14.2800,192105
13/09/2013 00:00:00,14.1600,14.2700,14.0300,14.1300,274706
12/09/2013 00:00:00,14.4000,14.4500,14.0600,14.1600,289807
11/09/2013 00:00:00,14.5100,14.6700,14.4500,14.4600,194036
10/09/2013 00:00:00,14.4500,14.6800,14.4200,14.5500,234787
09/09/2013 00:00:00,14.5600,14.6400,14.4100,14.5300,226632
06/09/2013 00:00:00,14.7100,14.7100,14.4500,14.4700,218607
05/09/2013 00:00:00,14.5200,14.7000,14.5200,14.7000,278222
04/09/2013 00:00:00,14.6600,14.7800,14.5200,14.6200,171034
03/09/2013 00:00:00,14.8000,14.8700,14.7100,14.7100,128875
02/09/2013 00:00:00,14.6900,14.8800,14.6600,14.8800,167960
30/08/2013 00:00:00,14.6700,14.7700,14.5800,14.7300,131967
29/08/2013 00:00:00,14.6900,14.7800,14.6800,14.7600,146999
28/08/2013 00:00:00,14.6700,14.8700,14.5800,14.7200,286906
27/08/2013 00:00:00,14.6100,14.8700,14.5600,14.7400,394416
26/08/2013 00:00:00,14.6200,14.7000,14.5000,14.7000,205461
23/08/2013 00:00:00,14.6100,14.7000,14.4800,14.7000,398255
22/08/2013 00:00:00,14.5800,14.7800,14.5600,14.7000,253231
21/08/2013 00:00:00,14.7200,14.8700,14.6700,14.7000,308269
20/08/2013 00:00:00,14.7100,14.9400,14.6200,14.8700,384862
19/08/2013 00:00:00,14.7500,14.8600,14.7300,14.8600,294715
16/08/2013 00:00:00,14.5900,14.8900,14.5100,14.8900,285982
15/08/2013 00:00:00,14.5700,14.7900,14.5300,14.7100,329365
14/08/2013 00:00:00,14.5800,14.9700,14.5300,14.8200,361347
13/08/2013 00:00:00,14.4000,14.6800,14.3000,14.6800,493227
12/08/2013 00:00:00,13.8100,14.4300,13.8100,14.4300,258652
09/08/2013 00:00:00,14.0000,14.0000,13.7200,13.8400,566333
08/08/2013 00:00:00,14.3500,14.4100,13.5600,13.7000,1215157
07/08/2013 00:00:00,14.4000,14.4100,14.2700,14.2900,483222
06/08/2013 00:00:00,14.3800,14.5900,14.3500,14.3900,392260
05/08/2013 00:00:00,14.3800,14.4000,14.3300,14.3800,217757
02/08/2013 00:00:00,14.3500,14.3800,14.2900,14.3700,267482
01/08/2013 00:00:00,14.3200,14.4000,14.3200,14.4000,142844
31/07/2013 00:00:00,14.3300,14.3500,14.2600,14.3400,254525
30/07/2013 00:00:00,14.3200,14.3700,14.3200,14.3400,206529
29/07/2013 00:00:00,14.3200,14.3800,14.3200,14.3800,119903
26/07/2013 00:00:00,14.3700,14.3900,14.3300,14.3900,179759
25/07/2013 00:00:00,14.3400,14.4000,14.3400,14.3900,172480
24/07/2013 00:00:00,14.3300,14.4500,14.3300,14.4000,178727
23/07/2013 00:00:00,14.3500,14.4400,14.3500,14.4000,230864
22/07/2013 00:00:00,14.3000,14.4300,14.2900,14.4200,189577
19/07/2013 00:00:00,14.3000,14.4000,14.3000,14.3900,246390
18/07/2013 00:00:00,14.3000,14.3600,14.3000,14.3100,116345
17/07/2013 00:00:00,14.3400,14.3700,14.3000,14.3300,153107
16/07/2013 00:00:00,14.3500,14.4200,14.3200,14.3700,246573
15/07/2013 00:00:00,14.4700,14.4900,14.4200,14.4300,66426
12/07/2013 00:00:00,14.3100,14.4600,14.3100,14.4300,201525
11/07/2013 00:00:00,14.2600,14.4200,14.2600,14.4000,189234
10/07/2013 00:00:00,14.2300,14.3600,14.2300,14.2900,355715
09/07/2013 00:00:00,14.2300,14.3400,14.2000,14.3400,216016
08/07/2013 00:00:00,14.2600,14.3800,14.2300,14.3200,247690
05/07/2013 00:00:00,14.3600,14.4500,14.3600,14.4200,173057
04/07/2013 00:00:00,14.2500,14.4800,14.2400,14.4700,403030
03/07/2013 00:00:00,14.2500,14.3500,14.1600,14.2500,558348
02/07/2013 00:00:00,14.1800,14.4900,14.1800,14.4600,789063
01/07/2013 00:00:00,14.0800,14.4000,14.0800,14.3000,686641
28/06/2013 00:00:00,14.2700,14.3700,14.2000,14.2800,697399
27/06/2013 00:00:00,14.4000,14.4700,14.2600,14.3900,1026463
26/06/2013 00:00:00,14.4800,14.5000,14.3200,14.5000,1278206
25/06/2013 00:00:00,14.5000,14.5700,14.3500,14.5000,2183242
24/06/2013 00:00:00,14.5000,14.5700,14.4900,14.5000,2587604
21/06/2013 00:00:00,14.5000,15.0800,14.3100,14.5500,14006429
