Date,Open Price,High,Low,Close Price,Volume,
13/03/2015 00:00:00,17.1150,17.1500,16.9050,17.0200,1165552
12/03/2015 00:00:00,16.8850,17.0600,16.8650,17.0600,1227237
11/03/2015 00:00:00,16.7800,16.9450,16.7450,16.8750,1140713
10/03/2015 00:00:00,16.8750,16.8950,16.5800,16.7200,1410803
09/03/2015 00:00:00,16.8000,16.9500,16.6250,16.9200,1166653
06/03/2015 00:00:00,16.7500,16.9650,16.6550,16.8450,1585971
05/03/2015 00:00:00,16.8800,16.9850,16.6750,16.7300,2149558
04/03/2015 00:00:00,16.5400,16.9200,16.2700,16.9200,2293735
03/03/2015 00:00:00,16.6000,17.0750,16.5800,16.9150,2651265
02/03/2015 00:00:00,16.2950,16.5850,16.2550,16.5550,1743197
27/02/2015 00:00:00,16.2750,16.2800,16.0800,16.2200,1919638
26/02/2015 00:00:00,16.5700,16.5800,16.1800,16.2850,2281831
25/02/2015 00:00:00,16.7000,16.8100,16.2900,16.5300,2239284
24/02/2015 00:00:00,17.0000,17.0300,15.9100,16.6700,5928749
23/02/2015 00:00:00,17.3150,17.3700,17.1000,17.3550,1219036
20/02/2015 00:00:00,17.2650,17.4800,17.1500,17.2050,1144364
19/02/2015 00:00:00,17.2400,17.3700,17.1550,17.2750,729706
18/02/2015 00:00:00,17.3200,17.3850,17.0850,17.2400,1043574
17/02/2015 00:00:00,17.3700,17.4700,17.2600,17.3050,795645
16/02/2015 00:00:00,17.3100,17.5600,17.2050,17.5200,844502
13/02/2015 00:00:00,17.5000,17.5500,17.1100,17.2900,1725292
12/02/2015 00:00:00,17.2600,17.8200,17.2600,17.6100,1182443
11/02/2015 00:00:00,17.3250,17.4400,17.2600,17.3050,740804
10/02/2015 00:00:00,17.2400,17.4200,17.1100,17.3800,984005
09/02/2015 00:00:00,17.1450,17.4200,17.0200,17.1700,776815
06/02/2015 00:00:00,17.2200,17.2800,17.0300,17.2150,1024091
05/02/2015 00:00:00,17.0900,17.2750,17.0750,17.2050,968633
04/02/2015 00:00:00,17.3950,17.5450,17.1250,17.1850,1523583
03/02/2015 00:00:00,16.8600,17.4450,16.8500,17.4000,1144195
02/02/2015 00:00:00,16.8000,16.8550,16.5100,16.8250,951759
30/01/2015 00:00:00,17.0950,17.1300,16.7700,16.7800,1535664
29/01/2015 00:00:00,16.9150,17.0350,16.8600,17.0000,787058
28/01/2015 00:00:00,17.0450,17.0700,16.8750,16.9950,1045167
27/01/2015 00:00:00,17.1050,17.1500,16.8650,16.8900,1205038
26/01/2015 00:00:00,17.0000,17.3700,16.8300,17.0850,1712552
23/01/2015 00:00:00,18.0900,18.1000,16.9650,17.0100,3166097
22/01/2015 00:00:00,17.8950,18.2100,17.7100,18.1000,1539128
21/01/2015 00:00:00,17.8900,18.0450,17.6050,17.8750,1168521
20/01/2015 00:00:00,18.1000,18.1950,17.8550,17.8950,772352
19/01/2015 00:00:00,17.6800,18.1300,17.6600,18.0550,909627
16/01/2015 00:00:00,17.3500,17.6300,17.3000,17.5900,1273271
15/01/2015 00:00:00,17.4800,17.6400,16.7550,17.4300,1794546
14/01/2015 00:00:00,17.6650,17.6850,17.3850,17.4750,1095493
13/01/2015 00:00:00,17.3800,17.9500,17.3550,17.8700,1151497
12/01/2015 00:00:00,17.5200,17.6200,17.3600,17.4300,1214582
09/01/2015 00:00:00,17.9100,18.0200,17.6200,17.8050,917092
08/01/2015 00:00:00,17.9650,18.0550,17.8900,17.9450,1326550
07/01/2015 00:00:00,17.9000,17.9700,17.7150,17.7800,1090067
06/01/2015 00:00:00,18.0000,18.0900,17.8000,17.8000,988597
05/01/2015 00:00:00,18.2350,18.4300,17.9500,17.9800,985787
02/01/2015 00:00:00,18.3250,18.4300,18.0300,18.3050,718772
01/01/2015 00:00:00,18.3000,18.3000,18.0950,18.1850,212485
31/12/2014 00:00:00,18.3000,18.3000,18.0950,18.1850,212485
30/12/2014 00:00:00,18.2400,18.4800,18.1850,18.3150,476381
29/12/2014 00:00:00,18.3200,18.4900,18.1700,18.3200,652231
24/12/2014 00:00:00,18.3000,18.4000,18.2650,18.3050,138222
23/12/2014 00:00:00,18.0000,18.3300,17.9300,18.2600,891103
22/12/2014 00:00:00,18.2000,18.2000,17.6600,18.1600,2718580
19/12/2014 00:00:00,18.9700,18.9900,18.6100,18.8150,1337366
18/12/2014 00:00:00,19.1200,19.1200,18.7650,18.8200,1439140
17/12/2014 00:00:00,18.8850,19.4300,18.8400,18.9000,1324927
16/12/2014 00:00:00,18.8400,19.3700,18.6000,19.0850,1814428
15/12/2014 00:00:00,18.8000,19.1150,18.4350,18.4750,997218
12/12/2014 00:00:00,19.2350,19.2350,18.7650,18.8550,950442
11/12/2014 00:00:00,18.9850,19.4400,18.9700,19.3600,1516905
10/12/2014 00:00:00,18.7300,19.0750,18.7000,19.0250,987362
09/12/2014 00:00:00,18.8250,18.9050,18.6050,18.6600,967215
08/12/2014 00:00:00,18.9900,19.1950,18.9500,18.9500,641358
05/12/2014 00:00:00,18.7250,19.0250,18.7250,19.0000,878146
04/12/2014 00:00:00,18.8450,18.9150,18.4800,18.6200,1000727
03/12/2014 00:00:00,18.5350,18.8500,18.5100,18.7700,630312
02/12/2014 00:00:00,18.3750,18.7350,18.3700,18.5500,965965
01/12/2014 00:00:00,18.4000,18.4550,18.2200,18.3000,589535
28/11/2014 00:00:00,18.5000,18.5550,18.3800,18.4850,568798
27/11/2014 00:00:00,18.3750,18.5300,18.3200,18.4600,545684
26/11/2014 00:00:00,18.0950,18.3150,18.0600,18.3150,1330108
25/11/2014 00:00:00,18.5500,18.6100,18.0100,18.0800,2529881
24/11/2014 00:00:00,18.8800,18.9300,18.5700,18.6350,1081099
21/11/2014 00:00:00,18.9750,19.3000,18.8650,18.9000,1860798
20/11/2014 00:00:00,19.0650,19.1000,18.7100,18.9750,747255
19/11/2014 00:00:00,19.2000,19.2700,19.0400,19.0650,666984
18/11/2014 00:00:00,18.7050,19.2450,18.7050,19.1100,973286
17/11/2014 00:00:00,18.4250,18.7650,18.4100,18.6750,449021
14/11/2014 00:00:00,18.6850,18.6850,18.2850,18.5150,736981
13/11/2014 00:00:00,18.6650,18.6750,18.4700,18.5750,693511
12/11/2014 00:00:00,18.6800,18.7300,18.6000,18.6200,926691
11/11/2014 00:00:00,18.9900,19.0750,18.6900,18.7600,778765
10/11/2014 00:00:00,18.6600,18.9100,18.6100,18.9100,1071297
07/11/2014 00:00:00,18.4200,18.9750,18.3850,18.6600,1402791
06/11/2014 00:00:00,18.0000,18.4800,17.5650,18.2800,2438055
05/11/2014 00:00:00,18.0050,18.3800,17.9750,18.3500,1054665
04/11/2014 00:00:00,17.9750,18.1550,17.8550,17.9450,544424
03/11/2014 00:00:00,18.1700,18.2050,17.9350,17.9800,501575
31/10/2014 00:00:00,18.1500,18.2950,17.9350,18.1750,1119089
30/10/2014 00:00:00,17.6700,18.0300,17.6300,17.9900,1285678
29/10/2014 00:00:00,17.8200,17.8350,17.5200,17.5700,543704
28/10/2014 00:00:00,17.5750,17.8700,17.5350,17.7300,785586
27/10/2014 00:00:00,17.7600,17.8800,17.4200,17.5100,518088
24/10/2014 00:00:00,17.6250,17.7400,17.5200,17.6300,596629
23/10/2014 00:00:00,17.7050,17.9050,17.5400,17.7350,641553
22/10/2014 00:00:00,17.6250,17.7550,17.5350,17.7250,635633
21/10/2014 00:00:00,17.1100,17.5750,16.9800,17.5550,841863
20/10/2014 00:00:00,17.2400,17.2400,16.8650,17.1700,1040940
17/10/2014 00:00:00,16.7600,17.2450,16.5300,17.2400,1316050
16/10/2014 00:00:00,17.1600,17.2900,16.4200,16.7100,2058525
15/10/2014 00:00:00,17.7050,17.7050,17.0450,17.0700,1398551
14/10/2014 00:00:00,17.8850,17.9850,17.5150,17.7000,1172030
13/10/2014 00:00:00,18.0800,18.0900,17.8250,18.0050,1238484
10/10/2014 00:00:00,18.3200,18.6300,18.0850,18.2450,1382109
09/10/2014 00:00:00,18.5800,18.6900,18.2100,18.4250,3033061
08/10/2014 00:00:00,18.8450,19.1800,18.8400,19.0800,1204985
07/10/2014 00:00:00,18.8500,19.2200,18.8300,18.9150,1113091
06/10/2014 00:00:00,19.1250,19.1300,18.8150,18.9000,681698
03/10/2014 00:00:00,18.8900,19.1050,18.8800,19.0500,911098
02/10/2014 00:00:00,19.0000,19.0600,18.7550,18.7850,1070328
01/10/2014 00:00:00,19.0900,19.3600,19.0500,19.0550,1190865
30/09/2014 00:00:00,18.8850,19.1750,18.8850,19.0950,1550405
29/09/2014 00:00:00,18.7750,18.8900,18.7300,18.8500,1037959
26/09/2014 00:00:00,18.7000,18.8200,18.6200,18.7600,565881
25/09/2014 00:00:00,18.9200,19.0950,18.6800,18.7200,942367
24/09/2014 00:00:00,18.4200,18.8450,18.3050,18.8400,1023555
23/09/2014 00:00:00,18.6000,18.6350,18.3100,18.3850,555370
22/09/2014 00:00:00,18.6650,18.7350,18.5800,18.6250,505696
19/09/2014 00:00:00,18.6000,18.8500,18.5600,18.6450,1083224
18/09/2014 00:00:00,17.9500,18.5350,17.9250,18.4550,1532835
17/09/2014 00:00:00,18.1500,18.1500,17.8850,17.9450,850776
16/09/2014 00:00:00,18.2500,18.2700,18.1000,18.1150,454618
15/09/2014 00:00:00,18.2600,18.3600,18.2000,18.2400,436684
12/09/2014 00:00:00,18.2200,18.3850,18.1650,18.2850,971338
11/09/2014 00:00:00,18.2500,18.3150,18.1050,18.1750,516822
10/09/2014 00:00:00,18.0050,18.2300,17.9600,18.2100,903835
09/09/2014 00:00:00,18.0650,18.1950,17.9650,18.0350,854846
08/09/2014 00:00:00,18.2000,18.2450,18.0650,18.1000,515876
05/09/2014 00:00:00,18.1500,18.2150,18.0800,18.1950,542264
04/09/2014 00:00:00,18.2000,18.2750,18.1100,18.1800,884485
03/09/2014 00:00:00,18.0000,18.2650,17.9200,18.2000,980048
02/09/2014 00:00:00,18.1150,18.1150,17.8600,17.9450,583511
01/09/2014 00:00:00,18.2300,18.3200,17.9600,18.0250,754113
29/08/2014 00:00:00,18.2200,18.4350,18.2000,18.3350,827239
28/08/2014 00:00:00,18.3000,18.3650,18.1500,18.2000,745662
27/08/2014 00:00:00,18.3200,18.4300,18.2600,18.3200,613968
26/08/2014 00:00:00,18.1800,18.4050,18.0650,18.3550,912727
25/08/2014 00:00:00,18.3000,18.3050,17.9500,18.2100,720946
22/08/2014 00:00:00,18.1950,18.3000,18.1100,18.1700,769683
21/08/2014 00:00:00,17.9000,18.2000,17.8350,18.1350,747656
20/08/2014 00:00:00,17.9100,17.9500,17.7700,17.8600,536943
19/08/2014 00:00:00,17.8000,18.0350,17.7500,17.9450,1038163
18/08/2014 00:00:00,17.5350,17.7400,17.4900,17.6900,888449
15/08/2014 00:00:00,17.3300,17.6250,17.3000,17.3450,854393
14/08/2014 00:00:00,17.3800,17.4150,17.2300,17.2600,839112
13/08/2014 00:00:00,17.2800,17.4650,17.2350,17.3950,764468
12/08/2014 00:00:00,17.0250,17.2450,16.9850,17.1900,858474
11/08/2014 00:00:00,16.9700,17.1900,16.9250,17.0050,736153
08/08/2014 00:00:00,16.9700,17.4600,16.8450,17.2200,1483471
07/08/2014 00:00:00,17.0000,17.2800,16.7800,17.1200,1554183
06/08/2014 00:00:00,16.9250,16.9250,16.5550,16.8400,904192
05/08/2014 00:00:00,17.2100,17.3000,16.9450,16.9600,778580
04/08/2014 00:00:00,17.0800,17.3750,17.0550,17.1250,1011447
01/08/2014 00:00:00,17.2600,17.3150,17.0000,17.0450,1117831
31/07/2014 00:00:00,17.9000,17.9150,17.1700,17.2650,1985261
30/07/2014 00:00:00,18.0000,18.0350,17.7800,17.8900,1001992
29/07/2014 00:00:00,18.0750,18.0950,17.9700,18.0100,997531
28/07/2014 00:00:00,18.1000,18.1400,17.8900,18.0100,792565
25/07/2014 00:00:00,18.1300,18.2450,18.0100,18.0750,767590
24/07/2014 00:00:00,18.0000,18.2200,17.8400,18.2000,830445
23/07/2014 00:00:00,17.8400,18.0350,17.8000,17.9700,723963
22/07/2014 00:00:00,17.9600,17.9600,17.8350,17.8500,673990
21/07/2014 00:00:00,18.0000,18.0000,17.7450,17.8050,745670
18/07/2014 00:00:00,17.9800,18.0600,17.8950,18.0150,706299
17/07/2014 00:00:00,18.2550,18.2600,18.0000,18.0750,805713
16/07/2014 00:00:00,17.9400,18.3300,17.8950,18.2950,1028910
15/07/2014 00:00:00,17.9500,18.0000,17.8100,17.8650,721960
14/07/2014 00:00:00,17.9050,18.0850,17.9050,18.0050,750536
11/07/2014 00:00:00,18.1400,18.1650,17.7450,17.8750,1150758
10/07/2014 00:00:00,18.4750,18.4750,18.0850,18.1650,905763
09/07/2014 00:00:00,18.4900,18.4900,18.3050,18.4450,447105
08/07/2014 00:00:00,18.6700,18.6900,18.3400,18.4600,813862
07/07/2014 00:00:00,18.9300,18.9300,18.5800,18.7000,786176
04/07/2014 00:00:00,19.0350,19.0500,18.8700,18.9500,601992
03/07/2014 00:00:00,18.8900,19.1000,18.8350,19.0350,1756887
02/07/2014 00:00:00,18.6200,18.9400,18.6000,18.8000,1068554
01/07/2014 00:00:00,18.5600,18.6450,18.5450,18.5850,713522
30/06/2014 00:00:00,18.3800,18.6150,18.3250,18.5400,1128872
27/06/2014 00:00:00,18.4200,18.5300,18.3150,18.3650,568179
26/06/2014 00:00:00,18.3750,18.5050,18.2950,18.4000,601631
25/06/2014 00:00:00,18.5000,18.6000,18.3100,18.3900,654346
24/06/2014 00:00:00,18.6000,18.6000,18.3600,18.5000,645056
23/06/2014 00:00:00,18.5950,18.7100,18.5100,18.5400,572314
20/06/2014 00:00:00,18.8200,18.8200,18.5850,18.5900,908625
19/06/2014 00:00:00,18.7750,18.8600,18.7500,18.7700,1198203
18/06/2014 00:00:00,18.6950,18.7800,18.6700,18.7050,839568
17/06/2014 00:00:00,18.6950,18.7800,18.6000,18.6700,1386013
16/06/2014 00:00:00,18.0000,18.5250,17.9700,18.4800,1676516
13/06/2014 00:00:00,18.0350,18.0650,17.8300,18.0000,707458
12/06/2014 00:00:00,18.1750,18.1750,17.9750,18.0200,865191
11/06/2014 00:00:00,18.4650,18.4800,18.1850,18.1900,850911
10/06/2014 00:00:00,18.4950,18.4950,18.3050,18.4450,684890
09/06/2014 00:00:00,18.5500,18.6000,18.4300,18.4850,465991
06/06/2014 00:00:00,18.3750,18.6200,18.3000,18.4850,1154731
05/06/2014 00:00:00,18.4350,18.6400,18.1500,18.2800,1455399
04/06/2014 00:00:00,18.3750,18.4700,18.2300,18.2950,760257
03/06/2014 00:00:00,18.0600,18.5050,18.0300,18.3750,1241954
02/06/2014 00:00:00,17.8950,18.0150,17.8300,18.0000,716987
30/05/2014 00:00:00,17.8050,17.8700,17.7800,17.8150,1030714
29/05/2014 00:00:00,17.7600,17.8950,17.7400,17.7750,618256
28/05/2014 00:00:00,17.8800,17.8800,17.6850,17.7600,877231
27/05/2014 00:00:00,17.8000,17.9000,17.7100,17.8400,951875
26/05/2014 00:00:00,17.7850,17.8400,17.6650,17.8150,1025361
23/05/2014 00:00:00,18.2750,18.3750,18.1900,18.2500,995227
22/05/2014 00:00:00,18.3100,18.4000,18.1900,18.2250,584880
21/05/2014 00:00:00,18.4000,18.4550,18.1950,18.2600,722370
20/05/2014 00:00:00,18.2450,18.4700,18.1700,18.4000,586767
19/05/2014 00:00:00,18.0850,18.3050,18.0000,18.2600,1415131
16/05/2014 00:00:00,18.5000,18.5550,18.0100,18.0700,1183504
15/05/2014 00:00:00,18.9100,19.0800,18.4000,18.4700,924239
14/05/2014 00:00:00,19.0400,19.2650,18.9500,18.9650,576927
13/05/2014 00:00:00,19.0650,19.2300,18.9500,19.0000,578797
12/05/2014 00:00:00,18.8100,19.0450,18.7550,19.0000,620411
09/05/2014 00:00:00,18.9600,19.0200,18.7300,18.7650,741233
08/05/2014 00:00:00,19.1000,19.2550,18.8450,18.9350,848853
07/05/2014 00:00:00,18.8400,19.0600,18.5500,18.9150,773034
06/05/2014 00:00:00,19.1000,19.1250,18.7550,18.8450,669545
05/05/2014 00:00:00,19.0000,19.0800,18.7850,19.0600,560436
02/05/2014 00:00:00,18.9800,19.0650,18.9400,19.0300,604096
30/04/2014 00:00:00,18.9100,18.9950,18.7750,18.9550,697734
29/04/2014 00:00:00,18.5750,18.9700,18.5700,18.9300,604017
28/04/2014 00:00:00,18.5500,18.7800,18.4550,18.5050,538044
25/04/2014 00:00:00,18.6750,18.9200,18.4300,18.5250,444408
24/04/2014 00:00:00,19.0150,19.0700,18.5900,18.8100,803413
23/04/2014 00:00:00,18.9200,19.0100,18.7100,18.9650,581606
22/04/2014 00:00:00,18.7000,18.9800,18.6000,18.9150,701191
17/04/2014 00:00:00,18.3200,18.6600,18.3000,18.5600,925613
16/04/2014 00:00:00,18.2300,18.4450,18.1050,18.3000,879684
15/04/2014 00:00:00,18.2500,18.3650,18.0000,18.0850,875070
14/04/2014 00:00:00,18.2700,18.2950,17.9850,18.2500,1256690
11/04/2014 00:00:00,18.5700,18.6100,18.2650,18.3300,1227509
10/04/2014 00:00:00,19.1000,19.1000,18.6550,18.6700,1148359
09/04/2014 00:00:00,19.0500,19.1100,18.9100,19.0050,1100664
08/04/2014 00:00:00,19.3950,19.4400,18.8850,19.0100,1332885
07/04/2014 00:00:00,19.7250,19.7700,19.3600,19.4150,874772
04/04/2014 00:00:00,19.9800,20.0150,19.7600,19.8300,896678
03/04/2014 00:00:00,20.2900,20.3600,19.9350,19.9500,1273269
02/04/2014 00:00:00,20.9000,20.9000,20.1750,20.2550,1356888
01/04/2014 00:00:00,20.2300,20.9850,20.2000,20.9200,891064
31/03/2014 00:00:00,19.9000,20.2900,19.8850,20.1250,676420
28/03/2014 00:00:00,19.8600,19.9850,19.6850,19.7650,566310
27/03/2014 00:00:00,19.8950,19.9400,19.7250,19.8500,550980
26/03/2014 00:00:00,19.7950,20.0600,19.7550,19.9700,593044
25/03/2014 00:00:00,19.6100,19.9850,19.6100,19.7000,459337
24/03/2014 00:00:00,19.6000,20.0650,19.4800,19.6400,1495933
21/03/2014 00:00:00,20.1200,20.3000,19.5950,19.5950,3616430
20/03/2014 00:00:00,20.0500,20.2500,19.8450,20.0050,758452
19/03/2014 00:00:00,20.2300,20.3050,20.0000,20.0950,570251
18/03/2014 00:00:00,20.0350,20.3950,19.9900,20.3050,637548
17/03/2014 00:00:00,20.2700,20.4450,19.9900,20.1150,751429
14/03/2014 00:00:00,20.1900,20.3100,19.8350,20.2900,734650
13/03/2014 00:00:00,20.6100,20.6750,20.2900,20.3700,553856
12/03/2014 00:00:00,20.5000,20.7400,20.4700,20.5650,397126
11/03/2014 00:00:00,20.5100,20.7300,20.3800,20.5650,472784
10/03/2014 00:00:00,20.6400,20.9500,20.3450,20.4000,506498
07/03/2014 00:00:00,21.0700,21.2000,20.5450,20.6500,492639
06/03/2014 00:00:00,21.0900,21.1900,21.0000,21.1000,481018
05/03/2014 00:00:00,21.0000,21.1450,20.8900,21.0100,516224
04/03/2014 00:00:00,20.3950,21.0600,20.3500,20.9950,712332
03/03/2014 00:00:00,20.3050,20.4050,20.0700,20.2750,645112
28/02/2014 00:00:00,20.4800,20.8200,20.4300,20.6850,915074
27/02/2014 00:00:00,20.7050,20.7050,20.1500,20.4150,649494
26/02/2014 00:00:00,20.6100,20.9150,20.5200,20.7000,1110883
25/02/2014 00:00:00,20.1600,20.5000,20.1000,20.5000,768676
24/02/2014 00:00:00,20.0550,20.1900,19.9450,20.1200,561513
21/02/2014 00:00:00,19.8550,20.2850,19.7100,20.1450,729202
20/02/2014 00:00:00,18.8100,19.8500,18.7900,19.8050,1888569
19/02/2014 00:00:00,18.4300,18.8700,18.3650,18.7450,557494
18/02/2014 00:00:00,18.6300,18.7100,18.4550,18.4700,296510
17/02/2014 00:00:00,18.8300,18.9000,18.6100,18.6300,356298
14/02/2014 00:00:00,18.5500,18.8050,18.5500,18.8050,466016
13/02/2014 00:00:00,18.3050,18.5850,18.2750,18.5850,734406
12/02/2014 00:00:00,18.2250,18.3850,18.1700,18.3800,932438
11/02/2014 00:00:00,18.6900,18.7500,18.1000,18.2250,1158864
10/02/2014 00:00:00,18.8750,18.9450,18.6550,18.7100,524577
07/02/2014 00:00:00,19.1300,19.1750,18.7650,18.8350,777214
06/02/2014 00:00:00,18.6700,19.1200,18.5550,19.0950,897862
05/02/2014 00:00:00,18.7700,18.8450,18.5100,18.6350,469754
04/02/2014 00:00:00,18.4850,18.9050,18.4200,18.7700,605305
03/02/2014 00:00:00,18.9350,19.0600,18.5700,18.6400,633455
31/01/2014 00:00:00,19.0700,19.1900,18.7800,19.0850,619535
30/01/2014 00:00:00,19.0000,19.1500,18.7200,19.0800,687816
29/01/2014 00:00:00,18.9800,19.1000,18.5700,18.8200,477120
28/01/2014 00:00:00,18.5350,18.9200,18.5350,18.8600,383153
27/01/2014 00:00:00,18.3850,18.6150,18.2250,18.4600,458846
24/01/2014 00:00:00,19.1250,19.1550,18.3300,18.4150,878803
23/01/2014 00:00:00,19.0850,19.3550,19.0500,19.1600,634627
22/01/2014 00:00:00,19.3800,19.4000,19.0850,19.1850,408019
21/01/2014 00:00:00,19.2600,19.4000,19.1500,19.3050,502773
20/01/2014 00:00:00,19.3000,19.3550,19.1600,19.2400,361756
17/01/2014 00:00:00,19.3050,19.4000,19.1050,19.3050,721834
16/01/2014 00:00:00,19.2950,19.3600,19.1350,19.2500,586567
15/01/2014 00:00:00,19.1800,19.2700,19.0800,19.2150,757508
14/01/2014 00:00:00,18.8800,19.1050,18.8450,19.1050,665042
13/01/2014 00:00:00,18.7500,19.0250,18.7000,18.9400,1174685
10/01/2014 00:00:00,18.6550,18.7150,18.4600,18.6500,330053
09/01/2014 00:00:00,18.4750,18.6400,18.3900,18.5350,821835
08/01/2014 00:00:00,18.4850,18.6950,18.4250,18.5200,562769
07/01/2014 00:00:00,18.5800,18.7400,18.3600,18.4600,882797
06/01/2014 00:00:00,18.1000,18.2550,17.9650,18.0750,516748
03/01/2014 00:00:00,17.9450,18.1600,17.7750,18.0700,357702
02/01/2014 00:00:00,18.1100,18.1450,17.7900,17.8900,392143
31/12/2013 00:00:00,18.1800,18.1800,17.8000,18.0400,159389
30/12/2013 00:00:00,18.0100,18.2400,17.9100,18.2000,352267
27/12/2013 00:00:00,18.0000,18.0400,17.8100,18.0050,229088
24/12/2013 00:00:00,17.9350,18.0000,17.8200,17.9800,83597
23/12/2013 00:00:00,17.8800,17.9400,17.7950,17.8900,275099
20/12/2013 00:00:00,17.5200,17.9200,17.5200,17.8650,905183
19/12/2013 00:00:00,17.3250,17.6000,17.2800,17.5450,562302
18/12/2013 00:00:00,17.1150,17.3850,17.0100,17.3600,676612
17/12/2013 00:00:00,17.2500,17.4750,17.0700,17.0700,591536
16/12/2013 00:00:00,17.1650,17.3250,17.0900,17.2800,715875
13/12/2013 00:00:00,17.3850,17.4250,17.0800,17.1350,920504
12/12/2013 00:00:00,17.5000,17.9500,17.4500,17.6650,943873
11/12/2013 00:00:00,17.7350,17.8150,17.5500,17.5900,442298
10/12/2013 00:00:00,17.6350,17.8750,17.5300,17.7500,580378
09/12/2013 00:00:00,17.9100,17.9650,17.5200,17.6200,675230
06/12/2013 00:00:00,17.6350,17.9800,17.6000,17.8050,514404
05/12/2013 00:00:00,17.5050,17.8050,17.4600,17.6150,519273
04/12/2013 00:00:00,17.5500,17.6950,17.4300,17.6200,555530
03/12/2013 00:00:00,17.8100,17.9400,17.5150,17.5800,714172
02/12/2013 00:00:00,17.9000,18.1850,17.7550,17.8150,780421
29/11/2013 00:00:00,17.8250,17.9400,17.7550,17.8900,914032
28/11/2013 00:00:00,17.8000,17.8500,17.6500,17.8300,507742
27/11/2013 00:00:00,17.6500,17.7900,17.6300,17.7450,621487
26/11/2013 00:00:00,17.4050,17.7600,17.4050,17.5800,864292
25/11/2013 00:00:00,17.3150,17.5500,17.3150,17.3800,715455
22/11/2013 00:00:00,17.0850,17.4000,17.0300,17.2400,635535
21/11/2013 00:00:00,16.8850,17.3100,16.8700,17.0400,1028014
20/11/2013 00:00:00,16.6000,17.1200,16.5600,16.9200,1220504
19/11/2013 00:00:00,16.4100,16.5900,16.3650,16.5900,654534
18/11/2013 00:00:00,16.6400,16.6400,16.3500,16.4700,746968
15/11/2013 00:00:00,16.4100,16.7250,16.3750,16.6650,815050
14/11/2013 00:00:00,16.4900,16.5400,16.2700,16.3750,656518
13/11/2013 00:00:00,16.3000,16.3800,16.1950,16.3550,581935
12/11/2013 00:00:00,16.2100,16.3400,16.2100,16.2650,303272
11/11/2013 00:00:00,16.2900,16.3950,16.1900,16.2350,385345
08/11/2013 00:00:00,16.1300,16.3350,16.0050,16.2550,569416
07/11/2013 00:00:00,16.2750,16.4900,16.1350,16.1900,939442
06/11/2013 00:00:00,15.9000,16.2800,15.9000,16.2300,1402583
05/11/2013 00:00:00,15.7600,15.8000,15.5350,15.6400,519464
04/11/2013 00:00:00,15.7000,15.8300,15.6950,15.7500,320338
01/11/2013 00:00:00,15.7450,15.8500,15.6650,15.6900,394325
31/10/2013 00:00:00,15.3700,15.7500,15.3700,15.6600,849841
30/10/2013 00:00:00,15.5100,15.5850,15.2850,15.4550,498373
29/10/2013 00:00:00,15.3250,15.5200,15.2850,15.5150,326562
28/10/2013 00:00:00,15.5300,15.5300,15.3000,15.3900,472983
25/10/2013 00:00:00,15.6600,15.6700,15.4300,15.5000,455731
24/10/2013 00:00:00,15.7800,15.8450,15.6850,15.7500,336806
23/10/2013 00:00:00,15.6900,15.8450,15.6850,15.7300,475289
22/10/2013 00:00:00,15.6800,15.8450,15.6800,15.8050,588878
21/10/2013 00:00:00,15.6300,15.7500,15.5700,15.6700,422938
18/10/2013 00:00:00,15.6400,15.6400,15.4500,15.6200,802273
17/10/2013 00:00:00,15.3850,15.6450,15.3350,15.5250,637846
16/10/2013 00:00:00,15.1300,15.4500,15.1000,15.3800,426178
15/10/2013 00:00:00,15.1050,15.1950,15.0250,15.1600,521236
14/10/2013 00:00:00,15.0000,15.1000,14.9800,15.0700,257175
11/10/2013 00:00:00,15.2250,15.2250,14.7250,15.0450,1216440
10/10/2013 00:00:00,15.2000,15.2550,15.1200,15.2000,663204
09/10/2013 00:00:00,15.3600,15.4000,14.9900,15.1100,896679
08/10/2013 00:00:00,15.5800,15.6300,15.4600,15.4600,400486
07/10/2013 00:00:00,15.6650,15.6650,15.4400,15.5900,396328
04/10/2013 00:00:00,15.4750,15.7350,15.4500,15.6600,627483
03/10/2013 00:00:00,15.7000,15.7500,15.4100,15.5150,395576
02/10/2013 00:00:00,15.5500,15.7650,15.4650,15.6700,432768
01/10/2013 00:00:00,15.7900,15.7900,15.5150,15.5550,731260
30/09/2013 00:00:00,15.5600,15.7300,15.4800,15.7300,651265
27/09/2013 00:00:00,15.7200,15.8050,15.5550,15.7550,335597
26/09/2013 00:00:00,15.7450,15.7700,15.5400,15.6750,476123
25/09/2013 00:00:00,15.7400,15.9000,15.6600,15.7500,4799670
24/09/2013 00:00:00,15.6500,15.8150,15.6350,15.7400,269965
23/09/2013 00:00:00,15.7800,15.8450,15.5100,15.6500,549175
20/09/2013 00:00:00,15.8000,15.9100,15.6800,15.7450,672781
19/09/2013 00:00:00,16.0000,16.0000,15.7500,15.8100,836120
18/09/2013 00:00:00,15.8550,16.0350,15.7600,15.9300,653626
17/09/2013 00:00:00,15.8200,15.8800,15.7750,15.8000,267480
16/09/2013 00:00:00,15.8800,15.9750,15.8050,15.8200,461334
13/09/2013 00:00:00,15.5900,15.7950,15.5500,15.7650,376685
12/09/2013 00:00:00,15.5200,15.7150,15.4850,15.6200,627874
11/09/2013 00:00:00,15.3850,15.5350,15.3750,15.5200,591537
10/09/2013 00:00:00,15.2600,15.3950,15.1850,15.3600,889481
09/09/2013 00:00:00,15.1000,15.3200,15.0450,15.1850,623083
06/09/2013 00:00:00,14.8500,15.2000,14.8250,15.0800,847941
05/09/2013 00:00:00,14.5450,14.8550,14.5300,14.8550,587241
04/09/2013 00:00:00,14.6900,14.6900,14.2650,14.5200,1004428
03/09/2013 00:00:00,14.7900,14.8800,14.6000,14.6250,490659
02/09/2013 00:00:00,14.6000,14.9000,14.6000,14.7650,511165
30/08/2013 00:00:00,14.8500,14.8500,14.3900,14.4500,1521840
29/08/2013 00:00:00,14.7250,14.9700,14.5850,14.9200,653290
28/08/2013 00:00:00,14.3500,14.6750,14.3300,14.6250,904222
27/08/2013 00:00:00,15.0050,15.0700,14.5000,14.5000,1163885
26/08/2013 00:00:00,15.4200,15.4200,15.0350,15.0800,509667
23/08/2013 00:00:00,15.5000,15.5200,15.3150,15.3700,496506
22/08/2013 00:00:00,15.0000,15.4900,14.9550,15.4000,917903
21/08/2013 00:00:00,15.2150,15.3800,14.9600,15.0000,516150
20/08/2013 00:00:00,15.2700,15.2700,14.8650,15.1400,850616
19/08/2013 00:00:00,15.4650,15.5000,15.2750,15.3500,374187
16/08/2013 00:00:00,15.2300,15.4700,15.1500,15.4350,776751
15/08/2013 00:00:00,15.4700,15.4750,15.1700,15.2950,658701
14/08/2013 00:00:00,15.7500,15.7500,15.4100,15.4700,1089327
13/08/2013 00:00:00,15.8000,15.8000,15.4800,15.7450,914862
12/08/2013 00:00:00,15.7000,15.8900,15.6550,15.7200,1185288
09/08/2013 00:00:00,15.0150,15.4800,14.9950,15.4000,884313
08/08/2013 00:00:00,15.2700,15.5000,14.9050,15.3500,1500131
07/08/2013 00:00:00,15.4750,15.5600,14.4500,15.2700,4214801
06/08/2013 00:00:00,16.4800,16.5050,16.0100,16.1200,843499
05/08/2013 00:00:00,16.5200,16.7500,16.5000,16.5100,646018
02/08/2013 00:00:00,16.2450,16.5000,16.2300,16.4800,932454
01/08/2013 00:00:00,16.2150,16.2700,16.0700,16.1350,677257
31/07/2013 00:00:00,16.2300,16.3500,16.0850,16.2700,501914
30/07/2013 00:00:00,16.1900,16.3600,16.1550,16.2600,622720
29/07/2013 00:00:00,16.2300,16.3200,16.0150,16.1400,559886
26/07/2013 00:00:00,16.4400,16.5500,16.1650,16.2250,721457
25/07/2013 00:00:00,16.2950,16.5000,16.2300,16.3900,517364
24/07/2013 00:00:00,16.1500,16.3500,16.0800,16.3200,722958
23/07/2013 00:00:00,16.1800,16.3200,16.0800,16.1100,287512
22/07/2013 00:00:00,16.1200,16.2300,16.0200,16.1250,353003
19/07/2013 00:00:00,15.9050,16.2400,15.8850,16.1200,431086
18/07/2013 00:00:00,15.6800,16.0600,15.6600,15.9800,652127
17/07/2013 00:00:00,15.6050,15.7750,15.4550,15.6950,496134
16/07/2013 00:00:00,15.8850,15.8850,15.5050,15.5050,720399
15/07/2013 00:00:00,15.9500,16.0250,15.7150,15.8900,516589
12/07/2013 00:00:00,16.2800,16.2800,15.7900,15.8850,681664
11/07/2013 00:00:00,16.3050,16.4300,16.1650,16.2250,789868
10/07/2013 00:00:00,16.2000,16.2900,16.0700,16.2150,732926
09/07/2013 00:00:00,16.0500,16.5000,16.0450,16.2500,957806
08/07/2013 00:00:00,15.6650,16.0650,15.6350,16.0000,691627
05/07/2013 00:00:00,15.7850,15.9500,15.5550,15.5550,543667
04/07/2013 00:00:00,15.5600,15.9400,15.5100,15.8100,547703
03/07/2013 00:00:00,15.2300,15.5700,15.0000,15.5300,634686
02/07/2013 00:00:00,15.4600,15.5700,15.3300,15.3750,327876
01/07/2013 00:00:00,15.4150,15.6500,15.3150,15.4800,519639
28/06/2013 00:00:00,15.4750,15.7300,15.2700,15.3950,671855
27/06/2013 00:00:00,15.1800,15.6050,14.9850,15.3950,3917056
26/06/2013 00:00:00,14.8600,15.2100,14.7750,15.1700,861370
25/06/2013 00:00:00,15.0000,15.0000,14.5850,14.7500,1056031
24/06/2013 00:00:00,15.1900,15.2400,14.7600,14.9400,651478
21/06/2013 00:00:00,15.2600,15.5000,15.2050,15.2050,1114757
20/06/2013 00:00:00,15.0000,15.4450,14.9500,15.3100,946487
19/06/2013 00:00:00,15.4000,15.4550,15.1750,15.2100,510053
18/06/2013 00:00:00,15.2450,15.4750,15.1500,15.4000,506532
17/06/2013 00:00:00,14.8600,15.3600,14.8600,15.2650,763471
14/06/2013 00:00:00,14.9450,15.0000,14.7800,14.8100,448256
13/06/2013 00:00:00,14.6050,14.8800,14.4400,14.8200,519588
12/06/2013 00:00:00,14.9200,15.0100,14.7100,14.7300,571357
11/06/2013 00:00:00,15.0950,15.0950,14.7650,14.9450,674111
10/06/2013 00:00:00,15.3100,15.3200,15.0700,15.1400,535235
07/06/2013 00:00:00,15.0500,15.4350,14.9600,15.2950,993122
06/06/2013 00:00:00,15.2000,15.2900,14.8900,14.9150,752604
05/06/2013 00:00:00,15.2200,15.4200,15.2000,15.3000,818833
04/06/2013 00:00:00,15.1550,15.3050,15.1200,15.2850,561661
03/06/2013 00:00:00,15.0100,15.2650,14.9350,15.0700,739465
31/05/2013 00:00:00,15.2300,15.2550,15.0150,15.1700,894500
30/05/2013 00:00:00,14.8100,15.3450,14.7200,15.2100,1175125
29/05/2013 00:00:00,14.8050,14.9200,14.7200,14.8400,486949
28/05/2013 00:00:00,14.6500,14.9450,14.6500,14.8850,1015604
27/05/2013 00:00:00,14.6300,14.6900,14.4350,14.5950,660486
24/05/2013 00:00:00,15.3850,15.3950,14.9900,15.1050,884028
23/05/2013 00:00:00,15.2600,15.3150,15.0400,15.2950,1050760
22/05/2013 00:00:00,15.8000,15.8400,15.5600,15.6450,590459
21/05/2013 00:00:00,15.8000,15.9000,15.6100,15.8100,845730
20/05/2013 00:00:00,15.7500,15.9000,15.7500,15.8450,446562
17/05/2013 00:00:00,15.6550,15.7400,15.5800,15.7000,482517
16/05/2013 00:00:00,15.6950,15.7300,15.5700,15.6600,472940
15/05/2013 00:00:00,15.4000,15.6850,15.3150,15.6400,587989
14/05/2013 00:00:00,15.3450,15.4200,15.1600,15.4000,431415
13/05/2013 00:00:00,15.4500,15.5000,15.1100,15.2800,502604
10/05/2013 00:00:00,15.4500,15.6850,15.3400,15.4500,545337
09/05/2013 00:00:00,15.4850,15.6400,15.4150,15.5100,365746
08/05/2013 00:00:00,15.3000,15.5000,15.2650,15.4700,685173
07/05/2013 00:00:00,15.4000,15.4500,15.2550,15.2550,439670
06/05/2013 00:00:00,15.2150,15.4350,15.1950,15.3350,431433
03/05/2013 00:00:00,15.3400,15.3850,15.0600,15.1250,1118465
02/05/2013 00:00:00,14.7250,15.3500,14.7100,15.3400,1210406
30/04/2013 00:00:00,14.6500,14.7600,14.5300,14.5500,762175
29/04/2013 00:00:00,14.3450,14.6400,14.2500,14.6200,838708
26/04/2013 00:00:00,14.3750,14.4100,14.1750,14.2500,600058
25/04/2013 00:00:00,14.3150,14.5200,14.2900,14.4300,681087
24/04/2013 00:00:00,13.9900,14.3400,13.9250,14.3050,774795
23/04/2013 00:00:00,13.4000,14.0000,13.4000,13.9900,924329
22/04/2013 00:00:00,13.4500,13.5950,13.3350,13.4200,371154
19/04/2013 00:00:00,13.1000,13.3400,13.0850,13.3150,577850
18/04/2013 00:00:00,13.3200,13.3200,12.9800,13.0550,481538
17/04/2013 00:00:00,13.4900,13.4900,13.1300,13.2650,563471
16/04/2013 00:00:00,13.4250,13.4800,13.2800,13.4000,547330
15/04/2013 00:00:00,13.6050,13.6800,13.3850,13.5450,391531
12/04/2013 00:00:00,13.7350,13.7350,13.4600,13.6450,451898
11/04/2013 00:00:00,13.7250,13.7900,13.5800,13.7350,580814
10/04/2013 00:00:00,13.3500,13.7600,13.3200,13.7500,804627
09/04/2013 00:00:00,13.2000,13.3400,13.1400,13.3400,537173
08/04/2013 00:00:00,13.3050,13.3850,13.0450,13.1000,490842
05/04/2013 00:00:00,13.4550,13.5550,13.0100,13.2350,550602
04/04/2013 00:00:00,13.5350,13.5600,13.3100,13.3950,506097
03/04/2013 00:00:00,13.5000,13.5900,13.3700,13.4250,595612
02/04/2013 00:00:00,13.4450,13.6200,13.4400,13.6000,530337
28/03/2013 00:00:00,13.5200,13.5250,13.2950,13.3800,734960
27/03/2013 00:00:00,13.8450,13.8800,13.3750,13.4950,710773
26/03/2013 00:00:00,13.9500,14.0300,13.6800,13.7750,720646
25/03/2013 00:00:00,14.2000,14.2550,13.6950,13.8300,696365
22/03/2013 00:00:00,13.9750,14.1150,13.7500,13.9700,521116
21/03/2013 00:00:00,14.2400,14.2950,13.9700,14.0000,647055
20/03/2013 00:00:00,14.0100,14.2400,13.9700,14.2400,521288
19/03/2013 00:00:00,14.1450,14.1900,13.8800,13.9450,446183
18/03/2013 00:00:00,14.0100,14.1800,13.9550,14.1400,881029
15/03/2013 00:00:00,14.5500,14.5700,14.3000,14.4100,1319731
14/03/2013 00:00:00,14.2500,14.5500,14.2300,14.5050,874001
13/03/2013 00:00:00,14.2200,14.2400,14.1050,14.2350,655944
12/03/2013 00:00:00,14.2650,14.4400,14.2200,14.2950,609642
11/03/2013 00:00:00,14.2900,14.3350,14.1550,14.3350,765156
08/03/2013 00:00:00,13.9500,14.3350,13.9450,14.3250,939164
07/03/2013 00:00:00,13.7100,13.8950,13.6850,13.8700,560277
06/03/2013 00:00:00,13.7800,13.8300,13.6650,13.6800,580814
05/03/2013 00:00:00,13.4400,13.6850,13.4400,13.6500,669283
04/03/2013 00:00:00,13.1950,13.4100,13.1300,13.3700,761365
01/03/2013 00:00:00,13.7450,13.7450,13.0500,13.3250,1305649
28/02/2013 00:00:00,13.3750,13.6900,13.3250,13.5600,3127673
27/02/2013 00:00:00,13.2900,13.3100,12.9650,13.1400,1180823
26/02/2013 00:00:00,13.5200,13.6050,13.1750,13.2100,1646126
25/02/2013 00:00:00,14.0500,14.2100,13.8200,13.9650,854781
22/02/2013 00:00:00,13.7950,13.9800,13.7350,13.9550,772126
21/02/2013 00:00:00,14.2000,14.2000,13.6200,13.7000,1326910
20/02/2013 00:00:00,14.1500,14.3550,14.1450,14.3450,1386453
19/02/2013 00:00:00,14.0800,14.1750,14.0800,14.1550,1209565
18/02/2013 00:00:00,14.0100,14.1300,13.9100,14.0850,259771
15/02/2013 00:00:00,14.2250,14.2500,14.0000,14.0350,751557
14/02/2013 00:00:00,14.2250,14.3000,14.1500,14.2350,862648
13/02/2013 00:00:00,14.1950,14.3350,14.0100,14.2600,560987
12/02/2013 00:00:00,14.0000,14.1600,13.8550,14.1600,523883
11/02/2013 00:00:00,13.9300,14.1050,13.8200,13.9750,395760
08/02/2013 00:00:00,13.7900,13.9900,13.6900,13.9150,948492
07/02/2013 00:00:00,13.7900,14.0200,13.6450,13.6900,736417
06/02/2013 00:00:00,14.1300,14.2000,13.6750,13.7750,1174508
05/02/2013 00:00:00,13.9500,14.1350,13.9100,14.1250,705376
04/02/2013 00:00:00,14.5000,14.5000,13.9550,14.0200,1565433
01/02/2013 00:00:00,14.4700,14.6050,14.3500,14.4500,788689
31/01/2013 00:00:00,14.7100,14.7350,14.3500,14.4900,811612
30/01/2013 00:00:00,14.7950,14.8150,14.6150,14.6750,673986
29/01/2013 00:00:00,14.7050,14.8100,14.6000,14.7350,645577
28/01/2013 00:00:00,14.7900,14.8100,14.6000,14.7050,922671
25/01/2013 00:00:00,14.6350,14.8000,14.5750,14.7150,828685
24/01/2013 00:00:00,14.3900,14.6550,14.2450,14.6500,777933
23/01/2013 00:00:00,14.6900,14.7050,14.1600,14.2900,906380
22/01/2013 00:00:00,14.4350,14.7100,14.2750,14.6300,748383
21/01/2013 00:00:00,14.3450,14.4700,14.2500,14.4100,467369
18/01/2013 00:00:00,14.5650,14.5650,14.2300,14.2900,1146803
17/01/2013 00:00:00,14.3400,14.5200,14.3100,14.5000,708086
16/01/2013 00:00:00,14.4200,14.6250,14.3100,14.4000,1144182
15/01/2013 00:00:00,14.2400,14.5200,14.2400,14.4800,1735845
14/01/2013 00:00:00,14.4900,14.5600,14.1700,14.2150,1251973
11/01/2013 00:00:00,14.1100,14.4500,14.1100,14.4450,1958005
10/01/2013 00:00:00,13.8050,14.2100,13.8000,14.0600,2738636
09/01/2013 00:00:00,13.6300,14.0850,13.6000,13.7100,41988370
08/01/2013 00:00:00,12.6600,13.2900,12.6500,12.8600,1504236
07/01/2013 00:00:00,12.4500,12.9850,12.4300,12.7000,1240248
04/01/2013 00:00:00,12.5900,12.5950,12.3650,12.4250,1233164
03/01/2013 00:00:00,12.6250,12.7000,12.5100,12.5800,695549
02/01/2013 00:00:00,12.6900,12.7450,12.5650,12.6000,960043
01/01/2013 00:00:00,12.52,12.3350,12.3350,12.3350,0
31/12/2012 00:00:00,12.3500,12.4600,12.2500,12.3350,106982
28/12/2012 00:00:00,12.4850,12.5950,12.2900,12.4200,345073
27/12/2012 00:00:00,12.4800,12.6050,12.4550,12.4850,424479
26/12/2012 00:00:00,12.3800,12.4850,12.3500,12.4750,82641
25/12/2012 00:00:00,12.3800,12.4850,12.3500,12.4750,82641
24/12/2012 00:00:00,12.3800,12.4850,12.3500,12.4750,82641
21/12/2012 00:00:00,12.5300,12.5600,12.2800,12.3900,994532
20/12/2012 00:00:00,12.4100,12.6300,12.3650,12.5600,837809
19/12/2012 00:00:00,12.3600,12.5000,12.3250,12.4500,632548
18/12/2012 00:00:00,12.2800,12.3250,12.1600,12.3200,476130
17/12/2012 00:00:00,12.3200,12.3200,12.1200,12.2400,529688
14/12/2012 00:00:00,12.2800,12.4800,12.2550,12.3000,743390
13/12/2012 00:00:00,12.1200,12.2900,12.1200,12.2700,628176
12/12/2012 00:00:00,12.0350,12.2000,12.0000,12.1400,649340
11/12/2012 00:00:00,11.9400,12.0350,11.8600,11.9550,435833
10/12/2012 00:00:00,11.9600,11.9800,11.7500,11.9300,428277
07/12/2012 00:00:00,11.9900,12.0300,11.9100,12.0050,497585
06/12/2012 00:00:00,11.9300,12.1950,11.9000,12.0000,790572
05/12/2012 00:00:00,11.7500,11.8850,11.7500,11.8800,714605
04/12/2012 00:00:00,11.5200,11.7500,11.5050,11.6800,542649
03/12/2012 00:00:00,11.5000,11.6700,11.4750,11.5400,633745
30/11/2012 00:00:00,11.3850,11.4950,11.2900,11.4750,909474
29/11/2012 00:00:00,11.1700,11.3500,11.0650,11.3450,740935
28/11/2012 00:00:00,10.9900,11.0950,10.9300,11.0850,617109
27/11/2012 00:00:00,11.1300,11.2050,10.9400,11.0000,914273
26/11/2012 00:00:00,11.0550,11.1000,10.9700,11.0350,625957
23/11/2012 00:00:00,11.2700,11.2750,10.9900,11.0800,922495
22/11/2012 00:00:00,11.0800,11.2950,11.0400,11.1800,433900
21/11/2012 00:00:00,11.1000,11.1450,11.0300,11.0550,608726
20/11/2012 00:00:00,11.3000,11.3500,11.1050,11.1850,768562
19/11/2012 00:00:00,11.1300,11.3900,11.1300,11.3750,604333
16/11/2012 00:00:00,11.3000,11.3250,10.9850,11.0000,762165
15/11/2012 00:00:00,11.3800,11.4700,11.3200,11.3450,447452
14/11/2012 00:00:00,11.5300,11.6500,11.4500,11.4900,493840
13/11/2012 00:00:00,11.5700,11.6100,11.4400,11.5750,477469
12/11/2012 00:00:00,11.5100,11.7000,11.4800,11.6000,426667
09/11/2012 00:00:00,11.7500,11.8600,11.3800,11.6500,1204618
08/11/2012 00:00:00,11.8900,12.0500,11.4250,11.8650,2598733
07/11/2012 00:00:00,12.7100,12.7300,12.3150,12.3750,1069213
06/11/2012 00:00:00,12.7450,12.7700,12.6300,12.6600,563291
05/11/2012 00:00:00,12.8100,12.8500,12.6850,12.7300,442580
02/11/2012 00:00:00,12.9000,12.9700,12.8200,12.8700,343634
01/11/2012 00:00:00,12.8000,12.9100,12.7000,12.8700,424248
31/10/2012 00:00:00,12.6500,12.8650,12.6100,12.8300,624152
30/10/2012 00:00:00,12.4800,12.6900,12.4550,12.6300,291120
29/10/2012 00:00:00,12.6500,12.6650,12.3450,12.4200,451267
26/10/2012 00:00:00,12.6900,12.7150,12.4550,12.6450,488616
25/10/2012 00:00:00,12.7000,12.9300,12.6600,12.7850,487002
24/10/2012 00:00:00,12.5800,12.8950,12.4600,12.6800,947821
23/10/2012 00:00:00,12.7500,12.7850,12.4650,12.5500,962160
22/10/2012 00:00:00,12.7300,12.9400,12.6300,12.7500,550659
19/10/2012 00:00:00,12.8750,12.8750,12.6750,12.7350,470369
18/10/2012 00:00:00,12.7750,12.9000,12.6500,12.8700,630363
17/10/2012 00:00:00,12.7400,12.8250,12.6250,12.7600,615163
16/10/2012 00:00:00,12.4950,12.7250,12.4500,12.6500,597052
15/10/2012 00:00:00,12.3200,12.4550,12.2700,12.4100,470006
12/10/2012 00:00:00,12.3150,12.4250,12.2100,12.3200,522866
11/10/2012 00:00:00,11.9750,12.3000,11.9200,12.2600,1069958
10/10/2012 00:00:00,11.9700,12.0850,11.9650,12.0400,515520
09/10/2012 00:00:00,12.1400,12.1400,11.9700,12.0350,949983
08/10/2012 00:00:00,12.1850,12.1850,12.0600,12.1350,463674
05/10/2012 00:00:00,12.3800,12.4000,12.2100,12.2400,1055550
04/10/2012 00:00:00,12.2700,12.4000,12.2550,12.3500,514794
03/10/2012 00:00:00,12.1250,12.2950,12.0350,12.2200,812245
02/10/2012 00:00:00,12.0700,12.2300,12.0000,12.1500,894362
01/10/2012 00:00:00,11.8250,12.2650,11.7950,12.1900,555544
28/09/2012 00:00:00,12.2900,12.3000,11.8650,11.8650,908124
27/09/2012 00:00:00,12.3000,12.3200,12.1050,12.2100,618807
26/09/2012 00:00:00,12.5000,12.5400,12.0550,12.1150,1066514
25/09/2012 00:00:00,12.5300,12.6850,12.4900,12.6500,766045
24/09/2012 00:00:00,12.5000,12.6300,12.4750,12.5650,770893
21/09/2012 00:00:00,12.4900,12.6000,12.3800,12.5900,1205049
20/09/2012 00:00:00,12.5100,12.5350,12.1700,12.3450,1076551
19/09/2012 00:00:00,12.6650,12.7650,12.4600,12.6100,940290
18/09/2012 00:00:00,12.7350,12.7950,12.4500,12.6100,807425
17/09/2012 00:00:00,12.7350,12.9750,12.7150,12.8300,1044673
14/09/2012 00:00:00,12.7100,12.9000,12.6350,12.7400,1317578
13/09/2012 00:00:00,12.3550,12.4150,12.2300,12.3950,583247
12/09/2012 00:00:00,12.1600,12.5400,12.1600,12.3500,901737
11/09/2012 00:00:00,11.8750,12.1200,11.6600,12.1000,605630
10/09/2012 00:00:00,11.9300,12.0200,11.7900,11.9700,582569
07/09/2012 00:00:00,11.7600,12.0350,11.7550,11.9700,1317730
06/09/2012 00:00:00,11.2500,11.7250,11.2250,11.6950,1027358
05/09/2012 00:00:00,11.0500,11.3400,11.0400,11.2000,600667
04/09/2012 00:00:00,11.0350,11.1500,11.0000,11.0800,538714
03/09/2012 00:00:00,11.0000,11.1200,10.9650,11.0100,403303
31/08/2012 00:00:00,10.8700,11.1800,10.8300,10.9550,2475515
30/08/2012 00:00:00,11.1000,11.1400,10.7950,10.7950,786170
29/08/2012 00:00:00,11.0800,11.1200,10.9600,11.0950,340039
28/08/2012 00:00:00,11.0150,11.1350,10.9900,11.0500,579022
27/08/2012 00:00:00,11.0000,11.2050,10.9950,11.1200,339618
24/08/2012 00:00:00,11.0750,11.1000,10.9000,10.9800,595166
23/08/2012 00:00:00,11.2900,11.3350,10.9800,11.0700,531727
22/08/2012 00:00:00,11.3150,11.3250,11.1650,11.2000,715486
21/08/2012 00:00:00,11.2900,11.4300,11.2350,11.3450,734491
20/08/2012 00:00:00,11.2050,11.4000,11.1700,11.2250,1329766
17/08/2012 00:00:00,10.9600,11.1900,10.8700,11.1750,1203595
16/08/2012 00:00:00,10.8050,11.0100,10.7100,10.9650,821041
15/08/2012 00:00:00,10.7400,10.8100,10.6850,10.7800,319155
14/08/2012 00:00:00,10.7450,10.8200,10.6650,10.7800,579682
13/08/2012 00:00:00,10.7300,10.7800,10.6200,10.6850,490919
10/08/2012 00:00:00,10.7200,10.7700,10.6750,10.7200,855619
09/08/2012 00:00:00,10.7150,10.8250,10.6200,10.7500,808510
08/08/2012 00:00:00,10.6000,10.9450,10.5850,10.6700,1099112
07/08/2012 00:00:00,10.1350,10.5800,10.1350,10.5700,1013310
06/08/2012 00:00:00,10.2400,10.2400,9.9710,10.1500,1282722
03/08/2012 00:00:00,10.0700,10.5050,9.9110,10.4100,1376631
02/08/2012 00:00:00,10.5750,10.7000,9.8500,9.9300,3391557
01/08/2012 00:00:00,10.6100,10.8000,10.6050,10.7300,476410
31/07/2012 00:00:00,10.9000,10.9000,10.5150,10.6150,902634
30/07/2012 00:00:00,10.6500,10.9450,10.6500,10.8700,567980
27/07/2012 00:00:00,10.4900,10.6200,10.3100,10.6150,936540
26/07/2012 00:00:00,9.9550,10.3800,9.7290,10.3250,1149403
25/07/2012 00:00:00,9.6900,10.0100,9.6400,9.7880,1470986
24/07/2012 00:00:00,10.3400,10.3400,9.6100,9.6880,1657714
23/07/2012 00:00:00,10.8250,10.8250,9.9180,10.1250,1602699
20/07/2012 00:00:00,11.3100,11.3750,10.8500,10.9350,855629
19/07/2012 00:00:00,11.3900,11.4200,11.2900,11.3200,898519
18/07/2012 00:00:00,11.3500,11.3950,11.2250,11.3400,962166
17/07/2012 00:00:00,11.4250,11.4500,11.2000,11.2600,661001
16/07/2012 00:00:00,11.3600,11.4400,11.3000,11.3300,1429198
13/07/2012 00:00:00,11.1700,11.2300,11.0050,11.1500,610213
12/07/2012 00:00:00,11.0000,11.2800,10.9400,11.1000,1286966
11/07/2012 00:00:00,11.0200,11.1400,10.9900,11.0100,782756
10/07/2012 00:00:00,11.2800,11.2800,10.9800,11.0850,1113850
09/07/2012 00:00:00,11.2150,11.2200,10.9550,11.1500,1746830
06/07/2012 00:00:00,11.0700,11.3650,10.9100,11.0900,5265672
05/07/2012 00:00:00,11.7500,11.8900,11.5700,11.6000,1139436
04/07/2012 00:00:00,11.4300,11.7550,11.3100,11.6900,610642
03/07/2012 00:00:00,11.2750,12.0000,11.2750,11.5700,1509888
02/07/2012 00:00:00,10.9950,11.1500,10.8300,11.0750,413110
29/06/2012 00:00:00,10.6750,10.9450,10.4850,10.9400,798722
28/06/2012 00:00:00,10.3900,10.4650,10.0550,10.1600,640766
27/06/2012 00:00:00,10.3050,10.4800,10.2650,10.3450,417963
26/06/2012 00:00:00,10.4800,10.4950,10.2400,10.2700,372862
25/06/2012 00:00:00,10.8400,10.9100,10.2900,10.3700,453036
22/06/2012 00:00:00,10.6800,11.0450,10.5700,10.8400,393932
21/06/2012 00:00:00,10.7700,11.0200,10.6350,10.7900,542858
20/06/2012 00:00:00,10.8500,10.9700,10.7000,10.9300,403840
19/06/2012 00:00:00,10.3150,10.8100,10.1250,10.7250,873228
18/06/2012 00:00:00,10.3800,10.6950,10.0200,10.1800,745941
15/06/2012 00:00:00,9.4900,10.2600,9.4900,10.2600,1075701
14/06/2012 00:00:00,9.3200,9.5600,9.2030,9.4500,704404
13/06/2012 00:00:00,9.6000,9.6410,9.2200,9.3200,890801
12/06/2012 00:00:00,9.9490,9.9490,9.3800,9.5700,966162
11/06/2012 00:00:00,10.2900,10.3500,9.8500,9.8700,517511
08/06/2012 00:00:00,10.1250,10.1350,9.7700,9.9520,710042
07/06/2012 00:00:00,10.3650,10.3950,10.1750,10.2400,306766
06/06/2012 00:00:00,9.9700,10.3100,9.8940,10.2250,505843
05/06/2012 00:00:00,9.9100,9.9150,9.7000,9.8200,246556
04/06/2012 00:00:00,9.6450,9.8900,9.5280,9.8100,381765
01/06/2012 00:00:00,10.0000,10.0800,9.5810,9.7080,741643
31/05/2012 00:00:00,10.1150,10.2250,9.9050,10.0150,935792
30/05/2012 00:00:00,10.2250,10.4000,10.1000,10.1400,368147
29/05/2012 00:00:00,10.3150,10.3400,10.1100,10.2300,639782
28/05/2012 00:00:00,10.3550,10.5300,10.1600,10.1800,313657
25/05/2012 00:00:00,10.4650,10.6450,10.1700,10.3000,623554
24/05/2012 00:00:00,11.0450,11.1850,10.6500,10.9150,894348
23/05/2012 00:00:00,11.2100,11.3600,10.9300,10.9300,447572
22/05/2012 00:00:00,11.0000,11.4750,10.9300,11.3900,620691
21/05/2012 00:00:00,10.8500,11.0000,10.7000,10.8500,411144
18/05/2012 00:00:00,10.5700,10.9600,10.5000,10.8000,403790
17/05/2012 00:00:00,11.0050,11.0450,10.5800,10.7500,479146
16/05/2012 00:00:00,10.9850,11.1700,10.6700,11.0000,843287
15/05/2012 00:00:00,11.6150,11.7350,11.0000,11.0750,1075624
14/05/2012 00:00:00,11.9750,11.9750,11.5900,11.5900,587932
11/05/2012 00:00:00,12.1000,12.1400,11.7650,12.0900,618405
10/05/2012 00:00:00,11.9500,12.1400,11.7900,12.1000,846156
09/05/2012 00:00:00,12.0800,12.1300,11.5500,11.7500,720717
08/05/2012 00:00:00,12.3450,12.3950,12.0250,12.0300,940926
07/05/2012 00:00:00,11.9350,12.3800,11.8500,12.3050,391134
04/05/2012 00:00:00,12.3150,12.3850,12.0150,12.1050,779028
03/05/2012 00:00:00,12.4200,12.5350,12.1900,12.2900,830939
02/05/2012 00:00:00,12.8700,12.8800,12.1950,12.3000,1082962
30/04/2012 00:00:00,12.8000,12.9100,12.6600,12.7350,302352
27/04/2012 00:00:00,12.3950,12.8000,12.2650,12.7450,451899
26/04/2012 00:00:00,12.6500,12.7550,12.3350,12.5500,532143
25/04/2012 00:00:00,12.5100,12.8350,12.4150,12.6550,602363
24/04/2012 00:00:00,12.2900,12.4650,11.9800,12.3450,754115
23/04/2012 00:00:00,12.5000,12.5300,11.8950,12.1150,1504308
20/04/2012 00:00:00,12.4100,12.7900,12.2050,12.6250,923386
19/04/2012 00:00:00,12.1950,12.2500,11.9050,12.0000,641663
18/04/2012 00:00:00,12.3750,12.4500,12.0100,12.0550,399026
17/04/2012 00:00:00,11.7400,12.3800,11.7000,12.2750,706820
16/04/2012 00:00:00,11.9800,11.9800,11.5750,11.7100,694708
13/04/2012 00:00:00,12.2000,12.2600,11.7800,11.9300,689154
12/04/2012 00:00:00,12.2200,12.3200,11.8600,12.1650,985929
11/04/2012 00:00:00,11.9000,12.3600,11.8700,12.2000,799397
10/04/2012 00:00:00,12.3550,12.3650,11.9350,11.9350,712711
05/04/2012 00:00:00,12.4250,12.6500,12.1000,12.4400,657947
04/04/2012 00:00:00,12.9550,12.9700,12.3700,12.3750,1057077
03/04/2012 00:00:00,13.2350,13.3000,12.9800,13.0050,551877
02/04/2012 00:00:00,13.2600,13.2600,12.8850,13.1800,686228
30/03/2012 00:00:00,13.2650,13.2700,13.0100,13.1800,426444
29/03/2012 00:00:00,13.3500,13.3900,13.0100,13.1000,801184
28/03/2012 00:00:00,13.2500,13.4550,13.2000,13.3300,827194
27/03/2012 00:00:00,13.4500,13.5500,13.0800,13.1400,815594
26/03/2012 00:00:00,13.2750,13.4400,13.0400,13.3500,573379
23/03/2012 00:00:00,13.2650,13.4400,13.0250,13.1250,682099
22/03/2012 00:00:00,13.3500,13.4050,13.1200,13.2900,669882
21/03/2012 00:00:00,13.6750,13.8000,13.2300,13.3900,627630
20/03/2012 00:00:00,13.8000,13.8300,13.5850,13.6400,695328
19/03/2012 00:00:00,13.7000,13.8300,13.5600,13.8000,980258
16/03/2012 00:00:00,13.4400,13.7400,13.3000,13.6550,1424669
15/03/2012 00:00:00,13.6900,13.6900,13.2500,13.3250,1179026
14/03/2012 00:00:00,13.7650,13.7950,13.5650,13.6850,632834
13/03/2012 00:00:00,13.2000,13.7800,13.1700,13.6350,1687119
12/03/2012 00:00:00,13.3500,13.5000,12.8400,13.0750,933330
09/03/2012 00:00:00,13.4950,13.5700,13.0800,13.2600,958422
08/03/2012 00:00:00,14.0450,14.1700,13.3300,13.3850,1185726
07/03/2012 00:00:00,13.6350,13.8450,13.5750,13.7700,556177
06/03/2012 00:00:00,14.3000,14.3700,13.6600,13.6700,636547
05/03/2012 00:00:00,14.1500,14.5500,13.8900,14.4000,759701
02/03/2012 00:00:00,14.1100,14.2200,13.9950,14.1750,346703
01/03/2012 00:00:00,13.9000,14.0950,13.8600,14.0500,355794
29/02/2012 00:00:00,14.3100,14.4600,13.9100,13.9250,627292
28/02/2012 00:00:00,14.1500,14.3900,14.0500,14.3200,671432
27/02/2012 00:00:00,14.2200,14.3250,14.0300,14.1500,434741
24/02/2012 00:00:00,14.3700,14.5200,14.2900,14.3100,261750
23/02/2012 00:00:00,14.4550,14.6400,14.2700,14.4000,415462
22/02/2012 00:00:00,14.6500,14.7450,14.4200,14.5300,278622
21/02/2012 00:00:00,14.8750,14.9550,14.4900,14.6450,306501
20/02/2012 00:00:00,14.6000,15.0300,14.5000,14.8700,592701
17/02/2012 00:00:00,14.2950,14.5350,14.1750,14.3550,317633
16/02/2012 00:00:00,14.1100,14.1550,13.8400,14.1500,418247
15/02/2012 00:00:00,14.4250,14.5350,14.1300,14.2800,369019
14/02/2012 00:00:00,14.5000,14.6100,14.1800,14.3200,353694
13/02/2012 00:00:00,14.5450,14.6900,14.4400,14.4750,198594
10/02/2012 00:00:00,14.7700,14.7700,14.3550,14.4000,440092
09/02/2012 00:00:00,14.9100,14.9650,14.7150,14.7850,441261
08/02/2012 00:00:00,14.5000,14.9700,14.5000,14.9100,692950
07/02/2012 00:00:00,14.7550,14.7600,14.3050,14.4400,418007
06/02/2012 00:00:00,14.9450,14.9450,14.5500,14.6450,335763
03/02/2012 00:00:00,14.5200,14.9800,14.4100,14.9000,559809
02/02/2012 00:00:00,14.6500,14.6950,14.2500,14.5600,461456
01/02/2012 00:00:00,14.0550,14.6200,14.0550,14.6200,568264
31/01/2012 00:00:00,13.7950,14.2600,13.7100,13.9900,619473
30/01/2012 00:00:00,13.7800,13.8450,13.6300,13.7100,404101
27/01/2012 00:00:00,13.9600,14.0300,13.7450,13.9350,626634
26/01/2012 00:00:00,13.9000,14.1700,13.7750,14.0000,318031
25/01/2012 00:00:00,13.9100,14.1400,13.7050,13.8100,397627
24/01/2012 00:00:00,14.2500,14.3000,13.8500,13.8850,519867
23/01/2012 00:00:00,13.9750,14.3800,13.8800,14.3100,628574
20/01/2012 00:00:00,13.9700,13.9900,13.7200,13.8950,433842
19/01/2012 00:00:00,13.4500,13.9200,13.3600,13.9100,698917
18/01/2012 00:00:00,13.3300,13.5200,13.1600,13.3850,365870
17/01/2012 00:00:00,13.1800,13.4650,13.0050,13.3750,476963
16/01/2012 00:00:00,12.8000,13.1200,12.6800,13.0850,365833
13/01/2012 00:00:00,13.1400,13.1900,12.5550,12.8000,456117
12/01/2012 00:00:00,12.6550,13.1100,12.6550,13.0600,454366
11/01/2012 00:00:00,12.6350,12.7550,12.4800,12.6750,461966
10/01/2012 00:00:00,12.3650,12.6400,12.2750,12.5700,413185
09/01/2012 00:00:00,12.5250,12.5700,12.0150,12.1650,504887
06/01/2012 00:00:00,12.6150,12.7550,12.2300,12.4000,379537
05/01/2012 00:00:00,13.3500,13.3850,12.5200,12.6100,447297
04/01/2012 00:00:00,13.3500,13.4600,13.2000,13.2500,236675
03/01/2012 00:00:00,13.4150,13.4350,13.1500,13.4350,208720
02/01/2012 00:00:00,13.1100,13.3500,13.1100,13.2400,123508
30/12/2011 00:00:00,12.9900,13.1600,12.8850,13.0000,136795
29/12/2011 00:00:00,12.8450,12.9500,12.7100,12.9500,123625
28/12/2011 00:00:00,13.0800,13.1250,12.7500,12.8050,197127
27/12/2011 00:00:00,13.1500,13.1500,13.0000,13.0000,148406
23/12/2011 00:00:00,12.9000,13.0200,12.7800,12.9400,150760
22/12/2011 00:00:00,12.7500,12.9650,12.6700,12.8000,344172
21/12/2011 00:00:00,12.6800,12.9100,12.6300,12.7250,503296
20/12/2011 00:00:00,12.4500,12.7000,12.4500,12.6300,559705
19/12/2011 00:00:00,12.6000,12.7850,12.3400,12.4500,308867
16/12/2011 00:00:00,12.5650,12.8050,12.5500,12.6800,374895
15/12/2011 00:00:00,12.5950,12.8250,12.4500,12.5650,390663
14/12/2011 00:00:00,12.7000,12.8900,12.4300,12.5300,284305
13/12/2011 00:00:00,12.9300,13.0500,12.6700,12.8250,387050
12/12/2011 00:00:00,13.4000,13.4600,12.8700,12.9650,312975
09/12/2011 00:00:00,13.1000,13.7550,13.1000,13.4900,609716
08/12/2011 00:00:00,13.7500,13.7500,13.0200,13.1000,375997
07/12/2011 00:00:00,13.9800,14.0200,13.3950,13.6750,309225
06/12/2011 00:00:00,13.6000,13.9000,13.4000,13.8800,398157
05/12/2011 00:00:00,13.9000,14.0900,13.7300,13.8050,482117
02/12/2011 00:00:00,13.2550,13.7500,13.2150,13.6500,478073
01/12/2011 00:00:00,13.0400,13.2500,12.9900,13.1750,535698
30/11/2011 00:00:00,12.3550,13.3000,12.3250,13.0050,771664
29/11/2011 00:00:00,12.5900,12.7750,12.2450,12.7300,326072
28/11/2011 00:00:00,11.6600,12.5850,11.6600,12.5600,499144
25/11/2011 00:00:00,11.6150,11.7250,11.4100,11.4950,276181
24/11/2011 00:00:00,11.6750,11.9850,11.5200,11.5400,251404
23/11/2011 00:00:00,11.9900,12.2750,11.5850,11.5950,302377
22/11/2011 00:00:00,11.9900,12.5100,11.8950,12.0800,468332
21/11/2011 00:00:00,12.2500,12.2750,11.8000,11.9350,326980
18/11/2011 00:00:00,12.4800,12.6600,12.3100,12.3150,278985
17/11/2011 00:00:00,12.6050,12.7700,12.4600,12.5850,240041
16/11/2011 00:00:00,12.5650,12.9200,12.5000,12.7600,546972
15/11/2011 00:00:00,12.5000,12.7050,12.3100,12.6050,558629
14/11/2011 00:00:00,12.9100,12.9700,12.4450,12.5600,356101
11/11/2011 00:00:00,12.0900,12.8900,11.9400,12.8550,401374
10/11/2011 00:00:00,11.7100,12.3650,11.6950,12.0100,309339
09/11/2011 00:00:00,12.9500,12.9500,11.9200,12.0300,384579
08/11/2011 00:00:00,12.5000,12.9450,12.5000,12.7200,240654
07/11/2011 00:00:00,12.3400,12.7400,12.1100,12.4700,230743
04/11/2011 00:00:00,13.0800,13.1400,12.4000,12.5200,392348
03/11/2011 00:00:00,11.9900,13.0000,11.8100,12.9500,502709
02/11/2011 00:00:00,11.9500,12.4100,11.8700,12.2300,456832
01/11/2011 00:00:00,12.4550,12.4750,11.6350,11.7300,551755
31/10/2011 00:00:00,13.3000,13.5100,12.7850,12.7850,383976
28/10/2011 00:00:00,14.0350,14.0900,13.2550,13.4750,386485
27/10/2011 00:00:00,13.4400,13.9800,13.3500,13.8500,656132
26/10/2011 00:00:00,12.6600,13.2000,12.5750,12.9750,535372
25/10/2011 00:00:00,12.9650,13.1000,12.5500,12.6700,308499
24/10/2011 00:00:00,12.7000,13.1700,12.5000,13.1350,512151
21/10/2011 00:00:00,12.3000,12.4900,12.1500,12.4900,396966
20/10/2011 00:00:00,12.6000,12.7050,12.0950,12.1700,420736
19/10/2011 00:00:00,12.5900,13.0600,12.5800,12.8050,302098
18/10/2011 00:00:00,12.3000,12.6500,12.1700,12.3700,312515
17/10/2011 00:00:00,12.9450,12.9800,12.3200,12.4600,394428
14/10/2011 00:00:00,12.4250,12.9400,12.0950,12.7600,531510
13/10/2011 00:00:00,13.1000,13.2000,12.3600,12.4400,670751
12/10/2011 00:00:00,12.2150,13.1800,12.2150,13.1600,938271
11/10/2011 00:00:00,12.5750,12.6350,12.1850,12.3700,278084
10/10/2011 00:00:00,12.3000,12.6600,12.0550,12.5800,516719
07/10/2011 00:00:00,12.1150,12.4500,11.9150,12.2700,1497898
06/10/2011 00:00:00,11.4700,12.1550,11.3250,11.9750,985698
05/10/2011 00:00:00,10.9750,11.2650,10.6700,11.2300,526064
04/10/2011 00:00:00,11.2200,11.2200,10.3950,10.6750,656568
03/10/2011 00:00:00,11.5250,11.6650,11.3750,11.4600,291489
30/09/2011 00:00:00,11.8300,12.2000,11.6950,11.9500,659506
29/09/2011 00:00:00,11.2300,11.8500,11.2250,11.8300,375841
28/09/2011 00:00:00,11.4000,11.5000,11.1000,11.3500,566885
27/09/2011 00:00:00,10.5500,11.4500,10.4900,11.4000,634921
26/09/2011 00:00:00,9.8250,10.3050,9.7700,10.2250,689811
22/09/2011 00:00:00,10.5800,10.7550,10.3000,10.3400,662486
21/09/2011 00:00:00,11.1100,11.1400,10.5000,10.9500,562232
20/09/2011 00:00:00,11.2650,11.4150,10.8800,11.0650,616182
19/09/2011 00:00:00,11.5000,11.5800,11.2800,11.3750,744545
16/09/2011 00:00:00,11.0000,11.8500,10.9950,11.8400,1196665
15/09/2011 00:00:00,10.7000,11.0700,10.6250,11.0100,741535
14/09/2011 00:00:00,10.3900,10.7300,10.1050,10.6400,796282
13/09/2011 00:00:00,10.8100,10.9700,10.3500,10.4900,773473
12/09/2011 00:00:00,11.2650,11.2800,10.5900,10.6300,799488
09/09/2011 00:00:00,12.1200,12.1200,11.4400,11.4750,530591
08/09/2011 00:00:00,12.1300,12.4500,12.0150,12.1450,360653
07/09/2011 00:00:00,12.1200,12.3000,12.0100,12.2300,348117
06/09/2011 00:00:00,12.3050,12.6500,11.7000,11.8850,598862
05/09/2011 00:00:00,12.7500,12.7950,12.1750,12.4550,504500
02/09/2011 00:00:00,12.7500,12.8900,12.6400,12.7000,386889
01/09/2011 00:00:00,12.7850,13.0200,12.5750,13.0200,411714
31/08/2011 00:00:00,12.4400,12.8550,12.3550,12.7200,562002
30/08/2011 00:00:00,12.3250,12.4300,12.2000,12.3500,386466
29/08/2011 00:00:00,12.0000,12.2050,11.7400,12.0800,153981
26/08/2011 00:00:00,12.0600,12.0600,11.5300,11.8500,423884
25/08/2011 00:00:00,12.1600,12.4000,12.0500,12.1550,485230
24/08/2011 00:00:00,12.1000,12.1100,11.8050,12.0400,561721
23/08/2011 00:00:00,12.3000,12.3450,11.9000,11.9050,567418
22/08/2011 00:00:00,12.0800,12.4650,12.0500,12.1300,339288
19/08/2011 00:00:00,12.3500,12.3500,11.9100,12.1050,705016
18/08/2011 00:00:00,13.1000,13.1000,12.3050,12.4650,428253
17/08/2011 00:00:00,13.1400,13.4500,12.8300,13.2100,501932
16/08/2011 00:00:00,13.3600,13.3600,12.8250,13.2200,369159
15/08/2011 00:00:00,13.2550,13.5750,13.1500,13.3200,483096
12/08/2011 00:00:00,12.5000,13.1550,12.2900,12.9550,490866
11/08/2011 00:00:00,12.2900,12.5000,11.6050,12.3300,711558
10/08/2011 00:00:00,12.9950,13.0250,11.7000,11.9150,748437
09/08/2011 00:00:00,11.9000,12.6500,11.5500,12.5850,1091793
08/08/2011 00:00:00,12.5850,13.0850,11.9550,12.0150,984874
05/08/2011 00:00:00,13.0000,13.4300,12.8000,13.1600,1003516
04/08/2011 00:00:00,14.6000,14.7200,13.4850,13.5500,813852
03/08/2011 00:00:00,14.2050,14.4800,13.9200,14.0900,581715
02/08/2011 00:00:00,15.1000,15.1800,14.4700,14.5550,562362
01/08/2011 00:00:00,15.5500,15.7450,15.1050,15.1650,399827
29/07/2011 00:00:00,15.4500,15.5850,15.1200,15.2800,332985
28/07/2011 00:00:00,15.5250,15.6800,15.3700,15.6350,283198
27/07/2011 00:00:00,15.8950,15.8950,15.4400,15.6400,231781
26/07/2011 00:00:00,15.8650,16.0400,15.7750,15.8750,405166
25/07/2011 00:00:00,16.1350,16.1350,15.7850,15.8900,196671
22/07/2011 00:00:00,16.4500,16.5250,16.0000,16.1450,379619
21/07/2011 00:00:00,15.6150,16.3300,15.4600,16.2700,457003
20/07/2011 00:00:00,15.4000,15.6000,15.1250,15.4750,325705
19/07/2011 00:00:00,15.1050,15.4150,15.0250,15.2300,414584
18/07/2011 00:00:00,15.6950,15.7450,15.0200,15.0850,428593
15/07/2011 00:00:00,15.7350,15.9100,15.5300,15.7450,349867
14/07/2011 00:00:00,15.8450,15.9450,15.6950,15.7600,375234
13/07/2011 00:00:00,15.8800,16.2300,15.8150,15.8600,514655
12/07/2011 00:00:00,15.9600,16.1000,15.3650,16.0450,995002
11/07/2011 00:00:00,16.6000,16.6000,16.0100,16.1400,393428
08/07/2011 00:00:00,16.9750,16.9900,16.6500,16.7750,268013
07/07/2011 00:00:00,16.9500,16.9850,16.7700,16.8950,265823
06/07/2011 00:00:00,16.8350,16.9700,16.5550,16.9700,465619
05/07/2011 00:00:00,16.7150,16.9800,16.7150,16.8200,468852
04/07/2011 00:00:00,16.6550,16.7500,16.5800,16.7100,235211
01/07/2011 00:00:00,16.4000,16.7000,16.3800,16.6450,477418
30/06/2011 00:00:00,15.9500,16.3900,15.9400,16.3900,416704
29/06/2011 00:00:00,15.4900,16.1200,15.4900,16.0250,639945
28/06/2011 00:00:00,15.6750,15.6750,15.4000,15.4450,439593
27/06/2011 00:00:00,15.5000,15.6850,15.4000,15.5700,254921
24/06/2011 00:00:00,15.9000,15.9900,15.4900,15.5000,381196
23/06/2011 00:00:00,16.0200,16.0350,15.7200,15.7800,354479
22/06/2011 00:00:00,15.9500,16.1950,15.9500,16.0800,514721
21/06/2011 00:00:00,15.9800,16.1000,15.8550,16.0100,417979
20/06/2011 00:00:00,15.9300,16.1000,15.8000,15.9350,370062
17/06/2011 00:00:00,15.9300,16.2500,15.9000,16.1000,588217
16/06/2011 00:00:00,16.0050,16.0250,15.8550,16.0000,529322
15/06/2011 00:00:00,15.9550,16.1500,15.8250,16.0500,693368
14/06/2011 00:00:00,15.7500,16.0000,15.7200,15.9600,534206
13/06/2011 00:00:00,15.7100,15.7100,15.4300,15.4950,239417
10/06/2011 00:00:00,15.7750,15.8000,15.6100,15.6700,449787
09/06/2011 00:00:00,15.5000,15.7750,15.4900,15.7100,311694
08/06/2011 00:00:00,15.8200,15.8200,15.4800,15.5550,490463
07/06/2011 00:00:00,15.7600,15.9550,15.6750,15.7400,386464
06/06/2011 00:00:00,16.0000,16.0750,15.7500,15.7850,442655
03/06/2011 00:00:00,15.9000,15.9900,15.7000,15.9200,541628
02/06/2011 00:00:00,15.7500,16.0000,15.7150,15.8150,396357
01/06/2011 00:00:00,16.1200,16.1400,15.7150,15.7900,998609
31/05/2011 00:00:00,16.1700,16.1700,15.8850,15.9900,1873338
30/05/2011 00:00:00,15.9600,16.0250,15.8550,15.9400,214234
27/05/2011 00:00:00,15.9750,16.0750,15.7550,15.8000,731761
26/05/2011 00:00:00,15.7650,16.1550,15.7100,15.8250,1183698
25/05/2011 00:00:00,15.3700,15.6500,15.3500,15.6100,880727
24/05/2011 00:00:00,15.6250,15.6400,15.4350,15.4800,771092
23/05/2011 00:00:00,16.4000,16.4000,16.0300,16.0700,726024
20/05/2011 00:00:00,16.5000,16.6950,16.4550,16.5000,655019
19/05/2011 00:00:00,16.4500,16.6150,16.3050,16.4300,773654
18/05/2011 00:00:00,16.5900,16.5900,16.2100,16.3550,797164
17/05/2011 00:00:00,17.0000,17.0000,16.3750,16.4500,1605187
16/05/2011 00:00:00,17.2500,17.3650,17.0200,17.1200,561492
13/05/2011 00:00:00,17.6200,17.6850,17.3050,17.3700,303690
12/05/2011 00:00:00,17.5450,17.6050,17.2750,17.5400,362671
11/05/2011 00:00:00,17.7800,17.8000,17.5250,17.5950,340798
10/05/2011 00:00:00,17.5500,17.7200,17.4000,17.7000,541009
09/05/2011 00:00:00,17.6200,17.6450,17.3700,17.5300,382652
06/05/2011 00:00:00,17.5100,17.7050,17.4100,17.6800,460030
05/05/2011 00:00:00,17.5750,17.5750,17.3550,17.5000,630882
04/05/2011 00:00:00,17.7400,17.7800,17.3800,17.4200,613386
03/05/2011 00:00:00,17.7500,17.8500,17.5600,17.8000,726538
02/05/2011 00:00:00,17.8400,17.9000,17.6950,17.7550,247638
29/04/2011 00:00:00,17.8750,17.8750,17.6600,17.7700,198448
28/04/2011 00:00:00,17.6450,17.8600,17.5600,17.7600,647976
27/04/2011 00:00:00,17.4500,17.5900,17.3750,17.5050,498286
26/04/2011 00:00:00,17.6250,17.6550,17.4900,17.4900,319089
21/04/2011 00:00:00,17.4000,17.7000,17.4000,17.5600,1116096
20/04/2011 00:00:00,17.2400,17.5000,17.1500,17.3000,639531
19/04/2011 00:00:00,17.0000,17.2350,16.9500,17.1350,520273
18/04/2011 00:00:00,17.6750,17.6750,16.7700,16.9650,951817
15/04/2011 00:00:00,17.7400,17.8100,17.5300,17.6750,711593
14/04/2011 00:00:00,17.8000,17.8150,17.5000,17.6000,757678
13/04/2011 00:00:00,17.7500,17.9600,17.6250,17.8000,1618501
12/04/2011 00:00:00,17.5700,17.7950,17.3300,17.5350,7886083
11/04/2011 00:00:00,18.8450,19.1950,18.6000,18.9850,583060
08/04/2011 00:00:00,19.4450,19.7200,19.3200,19.3500,609450
07/04/2011 00:00:00,19.2100,19.5400,19.1500,19.3750,436830
06/04/2011 00:00:00,18.7400,19.2450,18.6950,19.0850,341908
05/04/2011 00:00:00,18.9000,18.9000,18.6650,18.7350,356818
01/04/2011 00:00:00,18.7800,19.4800,18.7800,19.1950,859224
31/03/2011 00:00:00,18.9200,19.0000,18.5100,18.7800,475382
30/03/2011 00:00:00,18.9900,19.1200,18.8200,19.0400,426421
29/03/2011 00:00:00,18.9300,19.0750,18.5000,18.9200,416008
28/03/2011 00:00:00,18.8050,19.0450,18.7650,19.0150,325374
25/03/2011 00:00:00,18.9300,18.9950,18.7250,18.8100,236896
24/03/2011 00:00:00,18.5000,19.0950,18.5000,18.8800,411768
23/03/2011 00:00:00,18.4200,18.6200,18.3850,18.4850,240885
22/03/2011 00:00:00,18.3300,18.6450,18.2800,18.5700,374127
21/03/2011 00:00:00,18.2000,18.3900,18.0500,18.3100,600675
18/03/2011 00:00:00,17.5150,18.1050,17.3200,18.1050,887256
17/03/2011 00:00:00,17.1450,17.4900,17.0500,17.3350,620556
16/03/2011 00:00:00,17.4500,17.6200,17.0000,17.0950,522010
15/03/2011 00:00:00,17.4600,17.5100,17.0700,17.2800,601580
14/03/2011 00:00:00,17.9200,17.9700,17.6000,17.6700,435679
11/03/2011 00:00:00,17.9650,18.1200,17.8000,17.8900,364951
10/03/2011 00:00:00,18.2500,18.2800,17.9700,18.0850,538398
09/03/2011 00:00:00,18.2300,18.5000,18.1800,18.4650,282400
08/03/2011 00:00:00,18.1400,18.3900,18.1400,18.1750,348053
07/03/2011 00:00:00,18.3350,18.4000,18.1150,18.1150,390175
04/03/2011 00:00:00,18.2500,18.4800,18.0700,18.2300,374513
03/03/2011 00:00:00,17.9000,18.1450,17.6400,18.0600,1226167
02/03/2011 00:00:00,17.3600,17.4600,17.2000,17.4250,270869
01/03/2011 00:00:00,17.6000,17.7600,17.3850,17.5150,685744
28/02/2011 00:00:00,17.5100,17.6000,17.3500,17.5200,468233
25/02/2011 00:00:00,17.4950,17.5650,17.1700,17.5000,903999
24/02/2011 00:00:00,17.4350,17.5900,17.3300,17.4000,368954
23/02/2011 00:00:00,18.1000,18.2200,17.5700,17.5750,784389
22/02/2011 00:00:00,18.2500,18.5550,17.6000,18.2250,438605
21/02/2011 00:00:00,18.7400,18.9000,18.3250,18.3250,268576
18/02/2011 00:00:00,18.7500,18.9800,18.6200,18.8150,248145
17/02/2011 00:00:00,18.8000,18.8600,18.6500,18.7500,446153
16/02/2011 00:00:00,18.7800,18.8800,18.6300,18.7000,389232
15/02/2011 00:00:00,18.7000,19.0000,18.6000,18.8300,265870
14/02/2011 00:00:00,19.0900,19.1000,18.5800,18.6700,419712
11/02/2011 00:00:00,18.8600,19.0200,18.7300,18.9400,290330
10/02/2011 00:00:00,19.1950,19.2100,18.8000,18.9150,733719
09/02/2011 00:00:00,19.8700,19.8800,19.1000,19.2900,729770
08/02/2011 00:00:00,18.9950,19.9050,18.9700,19.8800,810061
07/02/2011 00:00:00,19.0000,19.2550,18.9700,19.0600,336151
04/02/2011 00:00:00,18.8500,19.1900,18.8500,18.9950,496472
03/02/2011 00:00:00,19.1250,19.1400,18.6600,18.7600,375914
02/02/2011 00:00:00,19.3000,19.4000,18.8300,18.9200,552028
01/02/2011 00:00:00,18.7500,19.4200,18.4750,19.2700,1188813
31/01/2011 00:00:00,18.4000,18.6500,18.1500,18.4250,408232
28/01/2011 00:00:00,18.3400,18.8500,18.3050,18.5500,810652
27/01/2011 00:00:00,18.3550,18.4900,18.1500,18.2950,401966
26/01/2011 00:00:00,18.3600,18.5400,18.2500,18.3750,442379
25/01/2011 00:00:00,18.5000,18.5000,18.1250,18.3350,310166
24/01/2011 00:00:00,18.5000,18.5500,18.0050,18.3800,346210
21/01/2011 00:00:00,17.9800,18.5900,17.9500,18.5000,703512
20/01/2011 00:00:00,18.0400,18.3100,17.8650,17.9400,531738
19/01/2011 00:00:00,18.3700,18.4300,17.8000,18.0100,575705
18/01/2011 00:00:00,18.0800,18.5350,18.0100,18.3000,812338
17/01/2011 00:00:00,17.4000,18.0850,17.3300,17.9950,956485
14/01/2011 00:00:00,17.3200,17.3400,17.2000,17.3400,396037
13/01/2011 00:00:00,17.5000,17.5000,17.2900,17.3250,579525
12/01/2011 00:00:00,16.8800,17.3900,16.6600,17.3900,766633
11/01/2011 00:00:00,16.7450,16.8400,16.5650,16.8250,758411
10/01/2011 00:00:00,16.9300,17.0850,16.6100,16.6500,731285
07/01/2011 00:00:00,17.1300,17.2500,16.5000,16.8650,647669
06/01/2011 00:00:00,16.8000,17.2400,16.7500,17.0650,1069375
05/01/2011 00:00:00,16.1050,16.7700,15.8550,16.6500,1526621
04/01/2011 00:00:00,15.4900,15.9500,15.3600,15.8750,936028
03/01/2011 00:00:00,15.1200,15.4450,15.1200,15.3600,247486
31/12/2010 00:00:00,15.0600,15.1400,15.0000,15.0850,43013
30/12/2010 00:00:00,15.1000,15.1500,14.9200,14.9900,109292
29/12/2010 00:00:00,15.0900,15.1150,15.0400,15.0700,141046
28/12/2010 00:00:00,15.1300,15.1800,15.0200,15.0750,146114
27/12/2010 00:00:00,15.1800,15.1800,14.9700,15.0400,148384
24/12/2010 00:00:00,15.1450,15.1800,14.9850,15.1750,25790
23/12/2010 00:00:00,15.1000,15.1650,14.9850,15.0000,162203
22/12/2010 00:00:00,15.1500,15.1800,15.0400,15.0500,316468
21/12/2010 00:00:00,15.1500,15.1900,15.0100,15.0100,269669
20/12/2010 00:00:00,15.1850,15.2500,15.0300,15.0900,249632
17/12/2010 00:00:00,15.1300,15.1300,14.9000,15.0400,462888
16/12/2010 00:00:00,15.2500,15.3600,15.0650,15.0750,242164
15/12/2010 00:00:00,15.3500,15.4450,15.2500,15.2500,306065
14/12/2010 00:00:00,15.3350,15.4100,15.2500,15.3900,200032
13/12/2010 00:00:00,15.2050,15.4300,15.2050,15.4000,300047
10/12/2010 00:00:00,15.1500,15.2400,15.0200,15.1600,296509
09/12/2010 00:00:00,14.8000,15.1100,14.7850,15.1100,1053654
08/12/2010 00:00:00,14.5850,14.8350,14.5750,14.7400,639884
07/12/2010 00:00:00,14.5650,14.7400,14.4700,14.6150,288302
06/12/2010 00:00:00,14.4050,14.6650,14.2300,14.6150,599298
03/12/2010 00:00:00,14.1800,14.4250,14.0900,14.3550,250105
02/12/2010 00:00:00,14.1000,14.1850,13.9150,14.1100,468278
01/12/2010 00:00:00,13.8850,14.1000,13.8800,13.9650,459908
30/11/2010 00:00:00,14.2950,14.3500,13.8000,13.8000,712720
29/11/2010 00:00:00,14.3000,14.4400,14.2750,14.3100,449864
26/11/2010 00:00:00,14.5000,14.6100,14.2800,14.3300,822096
25/11/2010 00:00:00,14.4500,14.6700,14.3450,14.6100,200024
24/11/2010 00:00:00,14.4600,14.5000,14.3000,14.3900,269005
23/11/2010 00:00:00,14.6000,14.6300,14.2750,14.3300,550698
22/11/2010 00:00:00,15.1000,15.1300,14.5800,14.6250,465207
19/11/2010 00:00:00,15.0800,15.1000,14.9250,15.0800,214702
18/11/2010 00:00:00,14.9350,15.1250,14.9000,15.0550,355061
17/11/2010 00:00:00,14.7350,14.9000,14.5500,14.8600,556345
16/11/2010 00:00:00,14.8700,14.8950,14.6800,14.6900,246717
15/11/2010 00:00:00,14.5300,14.9250,14.5300,14.8700,306693
12/11/2010 00:00:00,14.5950,14.7150,14.4500,14.5750,448151
11/11/2010 00:00:00,14.6500,14.7650,14.5550,14.6550,455471
10/11/2010 00:00:00,14.4200,14.6300,14.4000,14.4400,265559
09/11/2010 00:00:00,14.3250,14.5000,14.3050,14.4450,191365
08/11/2010 00:00:00,14.6050,14.6050,14.3250,14.3250,244836
05/11/2010 00:00:00,14.5150,14.8500,14.4300,14.5050,581818
04/11/2010 00:00:00,14.7750,14.8650,14.4650,14.4800,563795
03/11/2010 00:00:00,15.0300,15.1000,14.5500,14.6350,480261
02/11/2010 00:00:00,14.7350,15.1500,14.6000,14.9200,837775
01/11/2010 00:00:00,14.9000,14.9300,14.5300,14.5700,348514
29/10/2010 00:00:00,14.7750,14.8850,14.7400,14.8350,221702
28/10/2010 00:00:00,14.6500,14.9200,14.5950,14.7450,224902
27/10/2010 00:00:00,14.4950,14.6200,14.4350,14.5800,232167
26/10/2010 00:00:00,14.5650,14.6600,14.4650,14.4950,243336
25/10/2010 00:00:00,14.7000,14.7600,14.6100,14.6100,197326
22/10/2010 00:00:00,14.6550,14.7200,14.5350,14.6400,207455
21/10/2010 00:00:00,14.7000,14.7450,14.5400,14.6000,325259
20/10/2010 00:00:00,14.4850,14.6700,14.3750,14.6700,211763
19/10/2010 00:00:00,14.6250,14.6900,14.4800,14.5950,296094
18/10/2010 00:00:00,14.5000,14.6450,14.5000,14.5800,193596
15/10/2010 00:00:00,14.4000,14.5400,14.2950,14.5100,352613
14/10/2010 00:00:00,14.1800,14.5200,14.1500,14.3700,450924
13/10/2010 00:00:00,14.0000,14.1900,13.9750,14.1400,401426
12/10/2010 00:00:00,13.8500,13.9800,13.7650,13.9800,253571
11/10/2010 00:00:00,13.9000,13.9500,13.8250,13.8800,210927
08/10/2010 00:00:00,13.8950,13.9450,13.8100,13.8750,216050
07/10/2010 00:00:00,13.7400,13.9000,13.6800,13.8700,244858
06/10/2010 00:00:00,13.9400,13.9550,13.7250,13.7700,361762
04/10/2010 00:00:00,13.9200,13.9200,13.6500,13.7400,442974
01/10/2010 00:00:00,13.6700,13.9400,13.6150,13.7400,274472
30/09/2010 00:00:00,13.6850,13.8000,13.5650,13.7100,333655
29/09/2010 00:00:00,13.7300,13.7950,13.6200,13.6700,121791
28/09/2010 00:00:00,13.7000,13.8250,13.6000,13.6700,356410
27/09/2010 00:00:00,13.8500,13.9100,13.6650,13.7000,280775
24/09/2010 00:00:00,13.6000,13.8000,13.5200,13.7600,273900
23/09/2010 00:00:00,14.0500,14.1000,13.5800,13.6300,428155
22/09/2010 00:00:00,13.9600,14.1500,13.8000,14.0550,518478
21/09/2010 00:00:00,13.5600,13.9800,13.5050,13.9050,899337
20/09/2010 00:00:00,13.4900,13.6000,13.4050,13.5350,242288
17/09/2010 00:00:00,13.4550,13.5300,13.3800,13.4800,936504
16/09/2010 00:00:00,13.4900,13.5600,13.3800,13.4000,267992
15/09/2010 00:00:00,13.5650,13.6700,13.1300,13.5200,573476
14/09/2010 00:00:00,13.4600,13.6400,13.4000,13.5050,525329
13/09/2010 00:00:00,13.3400,13.4900,13.2800,13.3900,534379
10/09/2010 00:00:00,13.2000,13.2700,13.1500,13.2550,200902
09/09/2010 00:00:00,13.4000,13.4500,13.1400,13.1950,710775
08/09/2010 00:00:00,13.4650,13.5950,13.3450,13.4100,458924
07/09/2010 00:00:00,13.7000,13.7200,13.4200,13.5750,253731
06/09/2010 00:00:00,13.7800,13.7900,13.6600,13.7300,184626
03/09/2010 00:00:00,13.7400,13.8400,13.2050,13.7000,244167
02/09/2010 00:00:00,13.6000,13.7600,13.6000,13.7300,252936
01/09/2010 00:00:00,13.4900,13.5800,13.2950,13.5700,240330
31/08/2010 00:00:00,13.2000,13.4550,13.1300,13.4550,388478
30/08/2010 00:00:00,13.5000,13.5000,13.3050,13.3200,200385
27/08/2010 00:00:00,13.4050,13.4800,13.2500,13.4000,360512
26/08/2010 00:00:00,13.4600,13.5700,13.4050,13.4400,364122
25/08/2010 00:00:00,13.6400,13.7500,13.3800,13.4050,704189
24/08/2010 00:00:00,13.8600,13.8900,13.6500,13.7700,322663
23/08/2010 00:00:00,14.0200,14.0200,13.8550,13.8850,298278
20/08/2010 00:00:00,14.2350,14.3400,13.9500,13.9850,318756
19/08/2010 00:00:00,14.3800,14.4000,14.2600,14.3250,383546
18/08/2010 00:00:00,14.3500,14.4200,14.2700,14.3800,134914
17/08/2010 00:00:00,14.3500,14.4250,14.2350,14.4000,215468
16/08/2010 00:00:00,14.1700,14.3000,14.1000,14.2250,306443
13/08/2010 00:00:00,14.4850,14.5850,14.2000,14.3200,245316
12/08/2010 00:00:00,14.4250,14.5650,14.3650,14.4250,242573
11/08/2010 00:00:00,14.6850,14.6900,14.4750,14.5150,158102
10/08/2010 00:00:00,14.7500,14.8500,14.6900,14.6950,206535
09/08/2010 00:00:00,14.7900,14.7900,14.6300,14.7300,625226
06/08/2010 00:00:00,14.7950,15.0000,14.7400,14.8500,558117
05/08/2010 00:00:00,15.4900,15.5500,14.4700,14.6600,1862941
04/08/2010 00:00:00,15.3800,15.5400,15.3050,15.4750,668433
03/08/2010 00:00:00,15.0000,15.4000,14.9700,15.3600,303948
02/08/2010 00:00:00,14.9600,15.0000,14.8700,15.0000,707505
30/07/2010 00:00:00,14.7200,14.9100,14.5300,14.7800,390587
29/07/2010 00:00:00,14.7100,14.9950,14.7100,14.7400,180933
28/07/2010 00:00:00,15.0700,15.2300,14.6400,14.7000,441093
27/07/2010 00:00:00,14.5000,15.0150,14.4400,14.9750,725426
26/07/2010 00:00:00,14.6000,14.6300,14.1700,14.3200,361748
23/07/2010 00:00:00,14.2500,14.5500,14.2200,14.3500,285693
22/07/2010 00:00:00,14.2400,14.3050,14.0600,14.3000,337250
21/07/2010 00:00:00,13.9650,14.0650,13.8900,13.9450,144959
20/07/2010 00:00:00,14.0500,14.0850,13.8100,13.8800,182741
19/07/2010 00:00:00,14.0350,14.1000,13.8400,13.9950,150196
16/07/2010 00:00:00,14.2400,14.4700,14.1250,14.1700,218313
15/07/2010 00:00:00,14.4000,14.4800,14.2600,14.2900,173373
14/07/2010 00:00:00,14.5500,14.6000,14.4750,14.5000,230336
13/07/2010 00:00:00,14.3850,14.6200,14.3000,14.5250,383096
12/07/2010 00:00:00,14.1950,14.3600,14.0500,14.2700,196111
09/07/2010 00:00:00,14.0400,14.1500,13.9900,14.1400,182313
08/07/2010 00:00:00,14.1900,14.1900,13.9500,14.0700,264762
07/07/2010 00:00:00,13.9650,14.0000,13.7500,14.0000,183648
06/07/2010 00:00:00,13.9000,14.1000,13.9000,14.0000,341741
05/07/2010 00:00:00,13.8650,13.9600,13.7700,13.8050,301683
02/07/2010 00:00:00,13.8200,14.0000,13.7550,13.9250,261945
01/07/2010 00:00:00,13.8600,13.8900,13.6050,13.8000,719804
30/06/2010 00:00:00,13.9150,13.9550,13.6600,13.9150,326779
29/06/2010 00:00:00,14.2200,14.2200,13.7000,13.9000,294334
28/06/2010 00:00:00,14.4000,14.4000,14.1700,14.2950,129766
25/06/2010 00:00:00,14.3250,14.3800,14.1400,14.2550,229354
24/06/2010 00:00:00,14.5600,14.5800,14.2000,14.3700,282879
23/06/2010 00:00:00,14.6350,14.6400,14.4000,14.5200,212151
22/06/2010 00:00:00,14.7200,14.7600,14.5850,14.6500,501806
21/06/2010 00:00:00,15.0000,15.0000,14.8150,14.8700,357246
18/06/2010 00:00:00,14.7900,14.8450,14.6300,14.8200,425085
17/06/2010 00:00:00,14.5900,14.7000,14.5400,14.6950,423659
16/06/2010 00:00:00,14.5050,14.7900,14.4250,14.5000,597537
15/06/2010 00:00:00,14.4000,14.5750,14.3550,14.4800,355160
14/06/2010 00:00:00,14.5500,14.5500,14.4050,14.5200,491316
11/06/2010 00:00:00,14.4050,14.5000,14.2150,14.4000,537329
10/06/2010 00:00:00,14.3500,14.3800,14.1800,14.3800,683654
09/06/2010 00:00:00,14.3050,14.4500,14.1300,14.4000,460633
08/06/2010 00:00:00,14.3450,14.4000,13.9000,14.1200,353107
07/06/2010 00:00:00,14.3900,14.6750,14.2200,14.2500,416555
04/06/2010 00:00:00,15.0100,15.0450,14.3450,14.4800,385967
03/06/2010 00:00:00,14.7000,15.0500,14.6100,15.0500,595661
02/06/2010 00:00:00,14.4400,14.5550,14.3950,14.4600,319496
01/06/2010 00:00:00,14.4250,14.6150,14.1350,14.5000,617574
31/05/2010 00:00:00,14.4850,14.6200,14.3500,14.6200,344260
28/05/2010 00:00:00,15.1950,15.2200,14.7600,14.8500,593344
27/05/2010 00:00:00,14.6850,15.0200,14.6700,15.0200,895569
26/05/2010 00:00:00,15.1850,15.3900,14.3600,14.6000,7805907
25/05/2010 00:00:00,14.9500,15.2650,14.5100,14.6950,1389959
24/05/2010 00:00:00,15.0900,15.6650,15.0900,15.3500,577023
21/05/2010 00:00:00,14.8000,15.3100,14.6300,14.9800,639373
20/05/2010 00:00:00,15.0100,15.3400,14.6000,14.9000,871403
19/05/2010 00:00:00,15.1100,15.3500,14.8650,15.0100,706248
18/05/2010 00:00:00,15.6300,15.7450,15.3400,15.3500,648282
17/05/2010 00:00:00,15.4600,15.8000,15.3200,15.4800,451531
14/05/2010 00:00:00,16.1600,16.2850,15.3550,15.4800,780294
13/05/2010 00:00:00,16.3500,16.3700,16.2100,16.2500,1057243
12/05/2010 00:00:00,15.8400,16.4300,15.8400,16.2700,1561338
11/05/2010 00:00:00,15.5000,15.7000,15.3700,15.5800,945665
10/05/2010 00:00:00,14.9000,15.4900,14.6700,15.3650,783709
07/05/2010 00:00:00,14.4000,14.5900,13.9000,14.2000,1979131
06/05/2010 00:00:00,15.3350,15.5000,14.7000,14.7550,912698
05/05/2010 00:00:00,15.8250,15.9750,15.2850,15.3650,849592
04/05/2010 00:00:00,16.4200,16.4200,15.8000,15.8000,565129
03/05/2010 00:00:00,16.2000,16.4250,16.1700,16.3500,214895
30/04/2010 00:00:00,16.2850,16.5300,16.1500,16.1500,409559
29/04/2010 00:00:00,16.5100,16.6050,16.0500,16.2050,773764
28/04/2010 00:00:00,17.2000,17.2200,16.5000,16.5000,529729
27/04/2010 00:00:00,17.5750,17.6000,17.2600,17.2600,222627
26/04/2010 00:00:00,17.5450,17.5850,17.4450,17.5450,119416
23/04/2010 00:00:00,17.5850,17.5850,17.2850,17.4100,286580
22/04/2010 00:00:00,17.8050,17.8800,17.4800,17.5000,217641
21/04/2010 00:00:00,17.9600,18.0500,17.7750,17.7750,223200
20/04/2010 00:00:00,17.9550,18.0400,17.8450,17.9850,173369
19/04/2010 00:00:00,17.8450,18.0900,17.6500,17.8000,448424
16/04/2010 00:00:00,17.5900,17.9050,17.4550,17.8400,827990
15/04/2010 00:00:00,17.6500,17.6950,17.4100,17.6000,270923
14/04/2010 00:00:00,17.7500,17.7500,17.5500,17.6000,235562
13/04/2010 00:00:00,17.8850,17.8850,17.6750,17.7000,303498
12/04/2010 00:00:00,17.9000,17.9000,17.8000,17.8800,194329
09/04/2010 00:00:00,17.8350,17.8700,17.7900,17.8300,238143
08/04/2010 00:00:00,17.7550,17.8700,17.6700,17.7100,320773
07/04/2010 00:00:00,17.8950,17.8950,17.7200,17.8100,523314
06/04/2010 00:00:00,17.8500,17.9000,17.7700,17.9000,230472
05/04/2010 00:00:00,17.6200,17.7400,17.5950,17.7300,103601
02/04/2010 00:00:00,17.6200,17.7400,17.5950,17.7300,103601
01/04/2010 00:00:00,17.6200,17.7400,17.5950,17.7300,103601
31/03/2010 00:00:00,17.5800,17.7050,17.5150,17.5900,181964
30/03/2010 00:00:00,17.5500,17.6950,17.5300,17.5900,230748
29/03/2010 00:00:00,17.3550,17.5500,17.2750,17.4800,244131
26/03/2010 00:00:00,17.4800,17.5350,17.4400,17.4800,96951
25/03/2010 00:00:00,17.4900,17.5900,17.4250,17.5000,405370
24/03/2010 00:00:00,17.4500,17.5700,17.4100,17.4900,495565
23/03/2010 00:00:00,17.2300,17.4500,17.1950,17.4000,236683
22/03/2010 00:00:00,17.2200,17.3000,17.1450,17.1700,210437
19/03/2010 00:00:00,17.3500,17.3500,17.1500,17.2550,662445
18/03/2010 00:00:00,17.3700,17.4000,17.3050,17.3300,188126
17/03/2010 00:00:00,17.3800,17.4000,17.3100,17.3100,126687
16/03/2010 00:00:00,17.3200,17.3900,17.2500,17.2900,295719
15/03/2010 00:00:00,17.3000,17.3000,16.8150,17.2800,307295
12/03/2010 00:00:00,17.1000,17.2800,17.0000,17.2550,185487
11/03/2010 00:00:00,16.7200,17.0500,16.7200,17.0250,137860
10/03/2010 00:00:00,16.9000,16.9000,16.6600,16.7300,388498
09/03/2010 00:00:00,16.9950,16.9950,16.8500,16.8900,258963
08/03/2010 00:00:00,17.1000,17.1800,16.8600,16.9200,263351
05/03/2010 00:00:00,16.9500,17.1500,16.9100,17.0450,346137
04/03/2010 00:00:00,17.4800,17.6000,16.8250,16.9150,786484
03/03/2010 00:00:00,17.0900,17.4500,16.9300,17.2350,314829
02/03/2010 00:00:00,17.0500,17.0750,16.8250,17.0600,271338
01/03/2010 00:00:00,16.9250,17.0850,16.5700,17.0000,355677
26/02/2010 00:00:00,16.6000,16.8200,16.4500,16.8200,379016
25/02/2010 00:00:00,16.3950,16.5500,16.2750,16.5000,186916
24/02/2010 00:00:00,16.3900,16.4700,16.2900,16.4000,117886
23/02/2010 00:00:00,16.5450,16.6000,16.2600,16.3500,259321
22/02/2010 00:00:00,16.4000,16.5450,16.3600,16.5000,303640
19/02/2010 00:00:00,16.0700,16.3850,16.0700,16.3850,430810
18/02/2010 00:00:00,16.2000,16.2000,16.0400,16.0700,1230648
17/02/2010 00:00:00,16.2500,16.2500,16.1400,16.2050,613610
16/02/2010 00:00:00,16.2500,16.3500,16.1500,16.1500,291368
15/02/2010 00:00:00,16.2100,16.2950,16.1000,16.2500,260697
12/02/2010 00:00:00,16.3500,16.4650,16.0900,16.1950,491877
11/02/2010 00:00:00,16.3600,16.3600,16.1700,16.2500,578074
10/02/2010 00:00:00,16.2600,16.4900,16.2500,16.2750,269592
09/02/2010 00:00:00,16.4500,16.4500,16.0750,16.2000,699152
08/02/2010 00:00:00,16.9800,17.0500,16.4300,16.4550,365862
05/02/2010 00:00:00,16.9550,17.0150,16.8000,16.9000,197436
04/02/2010 00:00:00,17.4150,17.5000,16.8600,17.0050,219445
03/02/2010 00:00:00,17.7350,17.7350,17.4100,17.4250,96930
02/02/2010 00:00:00,17.6600,17.8000,17.5800,17.6900,428703
01/02/2010 00:00:00,17.4100,17.7300,17.3600,17.7000,354867
29/01/2010 00:00:00,17.5100,17.6600,17.3550,17.4600,273539
28/01/2010 00:00:00,17.7400,17.7400,17.4600,17.5700,484843
27/01/2010 00:00:00,17.5600,17.7700,17.5100,17.6800,327361
26/01/2010 00:00:00,17.5800,17.7000,17.4800,17.6900,197410
25/01/2010 00:00:00,17.2600,17.7700,17.2600,17.6100,383431
22/01/2010 00:00:00,17.1700,17.3900,17.1300,17.3900,613023
21/01/2010 00:00:00,17.0000,17.2400,17.0000,17.2100,283617
20/01/2010 00:00:00,16.9000,16.9800,16.8300,16.9500,101570
19/01/2010 00:00:00,16.8000,16.9900,16.7600,16.9200,96134
18/01/2010 00:00:00,16.9000,16.9000,16.8000,16.8000,78210
15/01/2010 00:00:00,17.0000,17.0500,16.8200,16.8900,158296
14/01/2010 00:00:00,17.0050,17.1250,17.0000,17.0100,159845
13/01/2010 00:00:00,16.9600,17.1000,16.9150,16.9700,188186
12/01/2010 00:00:00,17.2500,17.2500,17.0650,17.1600,348905
11/01/2010 00:00:00,17.2500,17.3450,17.2000,17.2000,270770
08/01/2010 00:00:00,17.0950,17.2200,17.0500,17.1600,299832
07/01/2010 00:00:00,17.1900,17.2250,16.9550,17.0200,770235
06/01/2010 00:00:00,17.3600,17.4900,17.1700,17.2000,630434
05/01/2010 00:00:00,17.0600,17.0900,16.7350,16.9900,616623
04/01/2010 00:00:00,16.9400,17.0950,16.9050,17.0950,996451
01/01/2010 00:00:00,16.8500,16.9400,16.8500,16.9300,123645
30/12/2009 00:00:00,16.8650,16.8650,16.7550,16.7600,38590
29/12/2009 00:00:00,16.7500,16.9500,16.7300,16.9500,48460
28/12/2009 00:00:00,16.7800,16.9000,16.7250,16.8500,30523
24/12/2009 00:00:00,16.7700,16.8500,16.7000,16.7800,46600
23/12/2009 00:00:00,16.6800,16.7400,16.4800,16.7300,101966
22/12/2009 00:00:00,16.7300,16.8300,16.6650,16.6950,66671
21/12/2009 00:00:00,16.8600,16.8600,16.6000,16.8100,249372
18/12/2009 00:00:00,16.6050,16.9700,16.5000,16.9700,269744
17/12/2009 00:00:00,16.6000,16.6250,16.4700,16.5100,233117
16/12/2009 00:00:00,16.9750,17.0600,16.4000,16.6400,505658
15/12/2009 00:00:00,17.2000,17.2000,16.8100,16.8900,397439
14/12/2009 00:00:00,17.2500,17.5400,16.7100,17.0700,370851
11/12/2009 00:00:00,16.9450,17.1400,16.8500,17.1000,606025
10/12/2009 00:00:00,16.6000,17.1500,16.5600,16.8400,623073
09/12/2009 00:00:00,16.9500,16.9500,16.5400,16.6500,321770
08/12/2009 00:00:00,17.1200,17.2500,16.8200,16.9400,306929
07/12/2009 00:00:00,17.3000,17.3000,17.0500,17.1000,391613
04/12/2009 00:00:00,17.4000,17.4000,17.0300,17.3500,283685
03/12/2009 00:00:00,17.1200,17.4150,17.1200,17.4000,478155
02/12/2009 00:00:00,17.1300,17.1300,16.8500,17.0500,634622
01/12/2009 00:00:00,16.9400,17.1000,16.7800,17.1000,497473
30/11/2009 00:00:00,17.0000,17.0000,16.4000,16.7850,418902
27/11/2009 00:00:00,16.3000,16.9300,16.2200,16.8900,678626
26/11/2009 00:00:00,17.0050,17.0050,16.2500,16.5000,431167
25/11/2009 00:00:00,17.3000,17.3900,16.9000,16.9500,486169
24/11/2009 00:00:00,17.3750,17.3750,17.1500,17.2700,504726
23/11/2009 00:00:00,16.8650,17.3900,16.8000,17.3400,1790698
20/11/2009 00:00:00,16.4500,16.9000,16.3750,16.8500,1315143
19/11/2009 00:00:00,16.4000,16.5300,16.3750,16.4300,1395407
18/11/2009 00:00:00,16.2000,16.4450,16.1600,16.3950,1000131
17/11/2009 00:00:00,16.1950,16.2000,16.1000,16.1650,858912
16/11/2009 00:00:00,16.1350,16.2000,16.0550,16.1900,578802
13/11/2009 00:00:00,16.0800,16.0900,15.9600,16.0500,325559
12/11/2009 00:00:00,16.2000,16.2000,16.0350,16.0500,975044
11/11/2009 00:00:00,16.1700,16.2100,16.0000,16.1500,2014793
10/11/2009 00:00:00,16.1850,16.1850,15.8100,16.0900,816786
09/11/2009 00:00:00,16.1400,16.1700,15.9700,16.1000,1464057
06/11/2009 00:00:00,15.9000,16.1100,15.8000,16.1000,2176037
05/11/2009 00:00:00,15.7000,15.9200,15.6500,15.9000,1741176
04/11/2009 00:00:00,15.8000,15.9100,15.6300,15.7800,3238713
03/11/2009 00:00:00,15.7500,15.7500,15.2300,15.4900,13176272
