Date,Open,High,Low,Close,Volume,Adj Close
2014-09-19,7.99,8.00,7.85,7.99,89300,7.99
2014-09-18,8.00,8.22,7.94,8.00,61400,8.00
2014-09-17,8.06,8.06,7.90,7.99,57500,7.99
2014-09-16,8.09,8.15,8.00,8.06,42500,8.06
2014-09-15,8.10,8.22,8.02,8.13,39100,8.13
2014-09-12,8.26,8.30,8.05,8.16,69300,8.16
2014-09-11,8.31,8.34,8.14,8.26,51200,8.26
2014-09-10,8.45,8.45,8.25,8.33,118700,8.33
2014-09-09,8.42,8.53,8.31,8.42,59900,8.42
2014-09-08,8.41,8.47,8.30,8.40,37500,8.40
2014-09-05,8.60,8.61,8.37,8.39,50000,8.39
2014-09-04,8.60,8.66,8.55,8.60,174300,8.60
2014-09-03,8.46,8.71,8.43,8.56,88300,8.56
2014-09-02,8.33,8.74,8.32,8.37,99800,8.37
2014-09-01,8.30,8.75,8.25,8.25,147700,8.25
2014-08-29,8.59,8.78,7.85,8.32,594000,8.32
2014-08-28,9.14,9.20,9.00,9.17,67800,9.17
2014-08-27,8.99,9.15,8.96,9.08,83300,9.08
2014-08-26,8.97,9.22,8.95,8.98,103700,8.98
2014-08-25,9.00,9.05,8.95,8.97,49300,8.97
2014-08-22,8.99,9.29,8.90,8.93,88200,8.93
2014-08-21,9.00,9.09,8.93,9.01,21700,9.01
2014-08-20,9.10,9.12,8.94,8.94,79800,8.94
2014-08-19,9.05,9.23,9.05,9.05,91600,9.05
2014-08-18,9.06,9.08,8.97,9.03,33400,9.03
2014-08-15,9.01,9.05,8.95,8.99,43100,8.99
2014-08-14,9.07,9.13,8.90,9.00,115000,9.00
2014-08-13,9.05,9.11,9.05,9.06,55000,9.06
2014-08-12,9.00,9.25,9.00,9.09,66500,9.09
2014-08-11,9.15,9.15,8.82,9.00,98900,9.00
2014-08-08,9.12,9.15,8.81,9.03,105300,9.03
2014-08-07,9.15,9.36,9.10,9.17,59800,9.17
2014-08-06,9.19,9.30,9.10,9.16,72000,9.16
2014-08-05,9.00,9.20,8.95,9.17,45400,9.17
2014-08-04,9.10,9.21,8.82,8.94,48500,8.94
2014-08-01,9.27,9.27,8.77,9.07,101000,9.07
2014-07-31,9.15,9.45,9.07,9.16,116700,9.16
2014-07-30,9.20,9.29,9.00,9.16,68000,9.16
2014-07-29,9.64,9.64,9.08,9.14,99300,9.14
2014-07-28,9.67,9.80,9.20,9.45,98700,9.45
2014-07-25,10.18,10.18,9.45,9.54,136700,9.54
2014-07-24,9.89,10.33,9.74,10.05,326500,10.05
2014-07-23,8.95,9.78,8.91,9.69,278100,9.69
2014-07-22,8.60,8.92,8.53,8.87,119000,8.87
2014-07-21,8.40,8.64,8.32,8.55,75300,8.55
2014-07-18,8.35,8.46,8.20,8.38,40500,8.38
2014-07-17,8.35,8.51,8.10,8.36,115800,8.36
2014-07-16,8.44,8.44,8.12,8.35,43600,8.35
2014-07-15,8.25,8.38,8.01,8.38,107100,8.38
2014-07-14,8.51,8.59,7.90,8.24,220600,8.24
2014-07-11,8.70,8.70,8.31,8.51,63700,8.51
2014-07-10,8.95,9.00,8.66,8.67,68000,8.67
2014-07-09,8.85,9.00,8.75,8.92,44000,8.92
2014-07-08,8.90,8.93,8.70,8.78,67700,8.78
2014-07-07,9.13,9.17,8.85,8.86,54000,8.86
2014-07-04,9.31,9.31,8.93,9.11,84400,9.11
2014-07-03,9.26,9.45,9.00,9.10,198900,9.10
2014-07-02,8.75,9.33,8.73,9.14,192200,9.14
2014-07-01,9.45,9.50,8.50,8.73,627500,8.73
2014-06-30,9.95,10.10,9.38,9.43,298000,9.43
2014-06-27,9.72,9.83,9.52,9.83,326100,9.83
2014-06-26,9.49,9.75,9.41,9.59,632900,9.59
2014-06-25,9.74,10.19,9.28,9.45,953200,9.45
2014-06-24,10.75,11.20,9.76,9.80,2797100,9.80
2014-06-23,16.06,16.20,14.36,14.38,623500,14.38
2014-06-20,17.00,17.05,16.10,16.22,269400,16.22
2014-06-19,17.37,17.40,16.81,16.86,113800,16.86
2014-06-18,17.55,17.55,17.20,17.34,39400,17.34
2014-06-17,17.45,17.55,17.27,17.55,27100,17.55
2014-06-16,17.64,17.67,16.62,17.40,174500,17.40
2014-06-13,17.95,17.95,17.42,17.55,97200,17.55
2014-06-12,18.00,18.00,17.80,17.80,43200,17.80
2014-06-11,18.00,18.24,18.00,18.00,150200,18.00
2014-06-10,18.00,18.15,17.77,17.99,50800,17.99
2014-06-09,18.22,18.23,17.98,17.98,15400,17.98
2014-06-06,17.94,18.24,17.77,18.08,59800,18.08
2014-06-05,17.80,18.08,17.55,17.77,55900,17.77
2014-06-04,17.90,17.97,17.70,17.73,51800,17.73
2014-06-03,17.86,18.15,17.71,17.75,100900,17.75
2014-06-02,18.05,18.23,17.82,17.84,85100,17.84
2014-05-30,18.08,18.19,17.96,18.00,44600,18.00
2014-05-29,18.30,18.30,18.02,18.17,16600,18.17
2014-05-28,18.32,18.33,17.91,18.11,54800,18.11
2014-05-27,18.32,18.32,17.82,18.05,97500,18.05
2014-05-26,18.00,18.25,17.79,18.09,98100,18.09
2014-05-23,18.58,18.60,17.74,17.89,197700,17.89
2014-05-22,18.29,18.71,18.00,18.50,113200,18.50
2014-05-21,19.63,19.65,18.08,18.28,319500,18.28
2014-05-20,19.72,19.78,19.50,19.52,59000,19.52
2014-05-19,20.25,20.25,19.67,19.87,54900,19.87
2014-05-16,20.25,20.31,19.89,20.00,55700,20.00
2014-05-15,20.30,20.40,19.90,20.22,95900,20.22
2014-05-14,20.21,20.47,20.07,20.26,64600,20.26
2014-05-13,20.10,20.52,19.92,20.11,70400,20.11
2014-05-12,20.73,20.96,20.00,20.01,188700,20.01
2014-05-09,21.67,21.67,20.60,20.75,192800,20.75
2014-05-08,21.35,22.10,21.35,21.50,139100,21.50
2014-05-07,22.83,22.83,21.21,21.30,453400,21.30
2014-05-06,23.30,23.95,23.30,23.83,166000,23.83
2014-05-05,23.27,23.60,23.05,23.19,32400,23.19
2014-05-02,23.25,23.69,22.92,23.05,120700,23.05
2014-05-01,22.93,22.93,22.93,22.93,000,22.93
2014-04-30,22.68,23.52,22.56,22.93,74800,22.93
2014-04-29,23.59,23.62,22.50,22.51,149100,22.51
2014-04-28,23.79,23.79,22.78,23.33,159400,23.33
2014-04-25,23.50,24.00,23.32,23.52,227600,23.52
2014-04-24,22.85,23.76,22.75,23.27,229800,23.27
2014-04-23,22.78,23.00,22.52,22.60,97900,22.60
2014-04-22,22.27,22.90,22.21,22.80,159100,22.80
2014-04-21,22.45,22.45,22.45,22.45,000,22.45
2014-04-18,22.45,22.45,22.45,22.45,000,22.45
2014-04-17,22.64,22.75,22.00,22.45,139300,22.45
2014-04-16,22.30,22.75,22.07,22.70,217900,22.70
2014-04-15,22.50,22.99,21.67,22.00,610400,22.00
2014-04-14,18.85,22.40,18.00,22.00,448400,22.00
2014-04-11,19.05,19.19,18.51,18.88,104500,18.88
2014-04-10,19.94,20.00,19.00,19.10,67300,19.10
2014-04-09,19.99,20.10,19.46,19.70,64500,19.70
2014-04-08,19.75,19.88,19.50,19.88,34200,19.88
2014-04-07,19.80,19.84,19.50,19.67,322700,19.67
2014-04-04,19.81,20.01,19.76,19.95,289200,19.95
2014-04-03,19.87,20.01,19.61,19.74,557800,19.74
2014-04-02,20.22,20.29,19.73,19.84,76800,19.84
2014-04-01,20.54,20.64,20.15,20.26,49100,20.26
2014-03-31,20.26,20.64,20.24,20.52,64000,20.52
2014-03-28,20.10,20.20,20.00,20.20,44600,20.20
2014-03-27,20.50,20.61,20.00,20.07,73100,20.07
2014-03-26,20.40,20.71,20.12,20.47,62900,20.47
2014-03-25,21.00,21.03,20.20,20.35,63200,20.35
2014-03-24,20.36,21.14,20.30,20.60,127800,20.60
2014-03-21,19.92,20.20,19.74,20.18,182300,20.18
2014-03-20,19.98,20.14,19.60,19.88,62200,19.88
2014-03-19,19.76,21.35,19.75,19.98,299800,19.98
2014-03-18,19.25,19.65,18.62,19.50,209400,19.50
2014-03-17,19.65,20.17,19.31,19.70,83700,19.70
2014-03-14,20.10,20.10,19.31,19.60,149500,19.60
2014-03-13,20.83,20.85,20.27,20.31,59000,20.31
2014-03-12,21.35,21.37,20.61,20.64,88800,20.64
2014-03-11,20.94,21.35,20.94,21.32,80200,21.32
2014-03-10,21.00,21.38,20.77,20.91,84000,20.91
2014-03-07,20.78,20.92,20.50,20.77,69700,20.77
2014-03-06,20.76,20.98,20.55,20.70,65200,20.70
2014-03-05,20.70,20.95,20.67,20.73,74300,20.73
2014-03-04,20.52,21.25,20.52,20.66,140700,20.66
2014-03-03,20.90,20.93,19.76,20.00,265600,20.00
2014-02-28,21.12,21.46,20.78,21.40,329700,21.40
2014-02-27,21.89,21.92,21.30,21.40,165900,21.40
2014-02-26,21.20,22.16,21.12,21.50,286800,21.50
2014-02-25,22.25,22.25,21.06,21.25,530600,21.25
2014-02-24,20.24,22.65,20.23,22.40,1469900,22.40
2014-02-21,19.29,19.29,18.41,18.76,145500,18.76
2014-02-20,19.30,19.30,18.60,18.85,160200,18.85
2014-02-19,19.50,19.95,19.22,19.30,115800,19.30
2014-02-18,18.82,20.10,18.69,19.30,385400,19.30
2014-02-17,17.47,18.69,17.40,18.65,424600,18.65
2014-02-14,17.00,17.30,16.96,17.26,110100,17.26
2014-02-13,17.04,17.05,16.92,17.03,85100,17.03
2014-02-12,17.15,17.15,16.90,17.02,75800,17.02
2014-02-11,17.15,17.40,16.95,17.00,139300,17.00
2014-02-10,17.00,17.20,16.92,17.00,68200,17.00
2014-02-07,16.92,17.30,16.91,16.92,102100,16.92
2014-02-06,17.17,17.20,16.85,16.89,195400,16.89
2014-02-05,17.80,17.80,17.10,17.12,135500,17.12
2014-02-04,17.83,17.84,17.42,17.57,101500,17.57
2014-02-03,18.77,18.84,17.79,17.92,121900,17.92
2014-01-31,18.79,19.00,18.50,18.72,61700,18.72
2014-01-30,18.97,18.97,18.45,18.71,95100,18.71
2014-01-29,19.30,19.31,18.40,18.83,153500,18.83
2014-01-28,19.36,19.69,19.00,19.04,141200,19.04
2014-01-27,19.40,19.50,19.21,19.32,71400,19.32
2014-01-24,20.16,20.16,19.50,19.50,87200,19.50
2014-01-23,19.57,20.18,19.57,20.12,147400,20.12
2014-01-22,19.64,19.82,19.48,19.54,54400,19.54
2014-01-21,19.83,19.84,19.34,19.58,137400,19.58
2014-01-20,19.90,19.90,19.39,19.69,96900,19.69
2014-01-17,20.08,20.60,19.41,19.55,352800,19.55
2014-01-16,19.89,19.89,19.26,19.32,94500,19.32
2014-01-15,19.86,20.01,19.40,19.60,81000,19.60
2014-01-14,19.95,19.95,19.65,19.83,55800,19.83
2014-01-13,19.79,20.10,19.75,20.00,92300,20.00
2014-01-10,19.23,19.85,19.05,19.73,112300,19.73
2014-01-09,19.68,19.80,19.11,19.13,120200,19.13
2014-01-08,20.00,20.05,19.25,19.68,150300,19.68
2014-01-07,19.90,20.19,19.73,20.00,94400,20.00
2014-01-06,19.17,19.98,19.00,19.79,130100,19.79
2014-01-03,19.67,19.67,18.75,19.28,140300,19.28
2014-01-02,20.32,20.50,19.62,19.67,163000,19.67
2014-01-01,20.15,20.15,20.15,20.15,000,20.15
2013-12-31,19.98,20.51,19.98,20.15,91400,20.15
2013-12-30,18.50,20.14,18.50,19.95,416800,19.95
2013-12-27,18.03,18.81,18.00,18.40,207800,18.40
2013-12-26,17.80,17.80,17.80,17.80,000,17.80
2013-12-25,17.80,17.80,17.80,17.80,000,17.80
2013-12-24,17.90,18.15,17.73,17.80,100800,17.80
2013-12-23,17.45,17.90,17.45,17.80,125500,17.80
2013-12-20,17.46,17.55,17.15,17.38,116100,17.38
2013-12-19,17.25,17.58,17.10,17.26,157100,17.26
2013-12-18,17.58,17.80,17.12,17.25,501300,17.25
2013-12-17,17.10,17.59,16.96,17.41,71900,17.41
2013-12-16,16.95,17.13,16.89,17.08,77800,17.08
2013-12-13,16.99,17.15,16.88,17.06,37500,17.06
2013-12-12,17.45,17.45,16.92,17.09,50900,17.09
2013-12-11,17.35,17.60,17.26,17.26,75700,17.26
2013-12-10,17.50,17.50,17.25,17.32,68500,17.32
2013-12-09,17.44,17.50,17.22,17.35,81800,17.35
2013-12-06,17.11,17.50,16.91,17.44,86400,17.44
2013-12-05,16.90,17.30,16.65,16.89,85500,16.89
2013-12-04,16.57,17.00,16.20,16.83,151200,16.83
2013-12-03,17.58,17.75,16.31,16.63,408100,16.63
2013-12-02,17.90,17.90,17.11,17.11,162200,17.11
2013-11-29,17.95,17.99,17.52,17.69,134700,17.69
2013-11-28,18.05,18.10,17.85,17.88,68400,17.88
2013-11-27,18.40,18.75,18.00,18.10,70000,18.10
2013-11-26,18.10,18.88,17.95,18.29,129100,18.29
2013-11-25,18.18,18.23,17.95,18.06,95300,18.06
2013-11-22,18.09,18.25,17.91,18.18,134000,18.18
2013-11-21,18.15,18.20,17.92,17.92,71500,17.92
2013-11-20,18.20,18.25,17.99,18.15,116900,18.15
2013-11-19,17.95,18.16,17.92,18.16,149200,18.16
2013-11-18,18.40,18.40,17.95,17.95,127500,17.95
2013-11-15,17.90,18.40,17.73,18.15,122800,18.15
2013-11-14,17.91,17.99,17.31,17.70,288600,17.70
2013-11-13,18.77,18.77,17.91,17.93,333600,17.93
2013-11-12,19.30,19.30,18.55,18.69,208400,18.69
2013-11-11,19.50,19.65,18.85,19.02,221800,19.02
2013-11-08,20.63,20.70,19.10,19.24,700100,19.24
2013-11-07,22.40,22.50,21.07,21.09,215000,21.09
2013-11-06,20.85,22.19,20.85,22.16,288300,22.16
2013-11-05,20.75,20.84,20.60,20.84,98400,20.84
2013-11-04,20.80,20.84,20.60,20.72,85000,20.72
2013-11-01,20.22,20.85,20.15,20.70,85500,20.70
2013-10-31,20.34,20.48,20.00,20.34,81100,20.34
2013-10-30,20.30,20.46,20.08,20.34,64200,20.34
2013-10-29,20.46,20.46,19.83,20.26,118500,20.26
2013-10-28,20.89,20.99,20.00,20.11,236400,20.11
2013-10-25,21.19,21.29,20.30,20.42,212700,20.42
2013-10-24,20.78,21.28,20.47,21.24,272100,21.24
2013-10-23,19.89,20.42,19.42,20.42,230500,20.42
2013-10-22,19.57,19.90,19.30,19.36,154800,19.36
2013-10-21,19.18,19.65,19.00,19.42,224000,19.42
2013-10-18,19.00,19.65,18.67,18.67,446400,18.67
2013-10-17,18.88,18.88,18.25,18.39,91200,18.39
2013-10-16,18.70,18.76,18.22,18.67,86600,18.67
2013-10-15,18.55,18.95,18.51,18.58,77700,18.58
2013-10-14,19.07,19.13,18.24,18.50,254600,18.50
2013-10-11,19.35,19.49,19.00,19.07,158600,19.07
2013-10-10,19.17,20.21,19.17,19.34,148100,19.34
2013-10-09,20.02,20.09,19.17,19.17,293200,19.17
2013-10-08,20.10,20.24,20.00,20.09,69600,20.09
2013-10-07,20.29,20.40,19.92,20.04,97100,20.04
2013-10-04,20.01,20.33,19.78,20.29,85800,20.29
2013-10-03,20.69,21.39,19.98,19.98,243800,19.98
2013-10-02,19.78,21.23,19.75,20.53,371600,20.53
2013-10-01,19.14,19.86,19.08,19.58,160300,19.58
2013-09-30,19.02,19.47,19.01,19.18,296700,19.18
2013-09-27,19.48,19.79,19.00,19.28,221200,19.28
2013-09-26,20.39,20.50,18.66,19.56,691200,19.56
2013-09-25,22.00,22.01,20.01,20.69,804000,20.69
2013-09-24,22.35,22.58,22.10,22.55,89700,22.55
2013-09-23,22.51,22.55,22.30,22.33,107500,22.33
2013-09-20,22.01,22.53,22.01,22.28,448000,22.28
2013-09-19,22.00,22.49,21.92,22.00,160200,22.00
2013-09-18,22.51,22.67,21.31,21.80,320100,21.80
2013-09-17,22.85,23.00,22.51,22.52,186900,22.52
2013-09-16,23.05,23.11,22.85,22.85,166400,22.85
2013-09-13,23.03,23.10,22.76,23.00,152800,23.00
2013-09-12,23.02,23.17,22.82,23.03,293100,23.03
2013-09-11,22.60,23.00,22.50,23.00,170900,23.00
2013-09-10,22.84,22.90,22.22,22.50,264700,22.50
2013-09-09,23.00,23.00,22.35,22.58,175400,22.58
2013-09-06,23.00,23.20,22.70,22.94,306000,22.94
2013-09-05,21.96,22.84,21.76,22.75,330700,22.75
2013-09-04,21.42,22.10,21.05,21.55,635900,21.55
2013-09-03,21.83,21.83,20.61,20.92,575700,20.92
2013-09-02,23.00,23.45,20.72,21.19,745900,21.19
2013-08-30,21.22,24.74,19.71,22.92,2034900,22.92
2013-08-29,28.85,28.85,27.82,28.04,278400,28.04
2013-08-28,28.51,29.35,28.25,28.33,231500,28.33
2013-08-27,29.61,29.70,28.75,28.75,224000,28.75
2013-08-26,30.11,30.17,29.52,29.77,228500,29.77
2013-08-23,30.40,30.74,30.21,30.70,114500,30.70
2013-08-22,30.00,30.58,29.92,30.49,126300,30.49
2013-08-21,31.32,31.45,29.90,30.22,324600,30.22
2013-08-20,32.05,32.05,31.20,31.29,119900,31.29
2013-08-19,32.44,32.75,31.81,31.90,153200,31.90
2013-08-16,31.25,32.00,30.85,31.81,204700,31.81
2013-08-15,32.05,32.14,31.00,31.25,110000,31.25
2013-08-14,32.53,32.77,31.81,31.99,249900,31.99
2013-08-13,32.50,32.83,32.04,32.13,149800,32.13
2013-08-12,32.00,32.52,31.94,32.31,100700,32.31
2013-08-09,32.35,32.47,31.83,31.90,111700,31.90
2013-08-08,32.00,32.39,31.45,32.28,183100,32.28
2013-08-07,32.50,32.70,31.41,31.60,260500,31.60
2013-08-06,32.33,32.55,32.02,32.38,132400,32.38
2013-08-05,31.91,32.67,31.75,32.08,272000,32.08
2013-08-02,30.99,31.85,30.65,31.56,287200,31.56
2013-08-01,31.00,31.09,30.60,30.85,162600,30.85
2013-07-31,31.03,31.60,30.78,30.91,176100,30.91
2013-07-30,31.30,31.43,30.87,31.06,80000,31.06
2013-07-29,31.79,31.79,31.01,31.19,116500,31.19
2013-07-26,31.25,31.49,30.80,31.33,74700,31.33
2013-07-25,31.70,31.70,30.76,31.14,87100,31.14
2013-07-24,30.60,31.75,30.60,31.42,84100,31.42
2013-07-23,31.24,31.43,30.39,30.64,163400,30.64
2013-07-22,32.20,32.20,30.85,31.07,158900,31.07
2013-07-19,32.49,32.49,31.84,32.12,112800,32.12
2013-07-18,32.50,32.58,32.14,32.52,108700,32.52
2013-07-17,32.42,32.67,32.21,32.60,91600,32.60
2013-07-16,32.62,32.62,32.06,32.31,76600,32.31
2013-07-15,32.35,32.56,32.01,32.47,118800,32.47
2013-07-12,32.03,32.40,31.00,32.28,261800,32.28
2013-07-11,32.86,32.99,31.67,32.10,199600,32.10
2013-07-10,31.64,32.95,31.55,32.28,386900,32.28
2013-07-09,30.50,32.32,30.42,31.47,383900,31.47
2013-07-08,28.60,30.06,28.60,29.92,208100,29.92
2013-07-05,29.15,29.15,27.92,28.33,252300,28.33
2013-07-04,29.12,29.12,28.15,28.88,103000,28.88
2013-07-03,28.65,28.91,27.55,28.69,311500,28.69
2013-07-02,29.93,29.95,28.80,28.82,209300,28.82
2013-07-01,30.00,30.32,29.45,29.72,196400,29.72
2013-06-28,31.05,31.30,28.97,29.45,693500,29.45
2013-06-27,31.83,31.83,31.02,31.16,96800,31.16
2013-06-26,31.12,31.73,31.08,31.60,87100,31.60
2013-06-25,30.58,31.20,30.56,30.86,111900,30.86
2013-06-24,31.67,32.00,30.45,30.55,162000,30.55
2013-06-21,31.22,31.88,31.11,31.27,140900,31.27
2013-06-20,31.75,31.81,31.12,31.27,142100,31.27
2013-06-19,32.94,33.00,31.75,31.97,147100,31.97
2013-06-18,33.17,33.31,32.67,32.74,86400,32.74
2013-06-17,33.83,34.00,32.94,33.15,134900,33.15
2013-06-14,33.62,33.73,33.10,33.31,292000,33.31
2013-06-13,32.18,33.30,31.28,32.85,478700,32.85
2013-06-12,30.97,32.19,30.85,31.93,522600,31.93
2013-06-11,31.77,31.77,30.29,30.60,261100,30.60
2013-06-10,32.17,32.40,31.40,31.56,174200,31.56
2013-06-07,31.78,32.31,31.30,31.48,418700,31.48
2013-06-06,32.07,32.40,31.16,31.39,541200,31.39
2013-06-05,31.99,31.99,30.39,30.39,239200,30.39
2013-06-04,30.60,32.00,30.25,31.77,308600,31.77
2013-06-03,32.10,32.10,30.76,30.76,249200,30.76
2013-05-31,32.90,32.90,31.99,32.12,211000,32.12
2013-05-30,33.20,33.20,32.55,32.86,121200,32.86
2013-05-29,34.29,34.29,33.15,33.16,159900,33.16
2013-05-28,33.70,34.14,33.65,33.99,210500,33.99
2013-05-27,34.12,34.13,33.32,33.65,85100,33.65
2013-05-24,34.10,34.30,33.68,33.85,262400,33.85
2013-05-23,34.40,34.49,33.63,34.00,196900,34.00
2013-05-22,34.81,34.85,34.45,34.60,152300,34.60
2013-05-21,35.00,35.10,34.70,34.81,307000,34.81
2013-05-20,34.78,35.14,34.45,34.67,184100,34.67
2013-05-17,36.00,36.80,34.31,34.35,718100,34.35
2013-05-16,37.70,37.99,36.92,37.16,264900,37.16
2013-05-15,38.53,38.65,37.41,37.70,162800,37.70
2013-05-14,37.10,38.49,37.10,38.37,163000,38.37
2013-05-13,37.69,37.90,36.63,37.08,197700,37.08
2013-05-10,39.08,39.15,37.90,38.17,168000,38.17
2013-05-09,39.43,39.43,38.91,39.05,117900,39.05
2013-05-08,39.53,39.80,39.12,39.26,171100,39.26
2013-05-07,39.50,39.72,39.00,39.26,104400,39.26
2013-05-06,38.90,39.46,38.70,39.20,101800,39.20
2013-05-03,37.81,38.64,37.44,38.64,168400,38.64
2013-05-02,37.44,37.62,37.00,37.49,147300,37.49
2013-05-01,37.09,37.09,37.09,37.09,000,37.09
2013-04-30,36.88,37.10,36.35,37.09,141700,37.09
2013-04-29,36.35,36.60,36.01,36.56,123900,36.56
2013-04-26,36.09,36.35,35.89,36.22,80300,36.22
2013-04-25,36.38,36.45,35.74,36.19,100000,36.19
2013-04-24,36.56,36.56,35.55,36.28,152000,36.28
2013-04-23,35.35,35.99,34.75,35.90,112600,35.90
2013-04-22,36.13,36.59,34.92,35.19,137500,35.19
2013-04-19,35.85,36.27,35.42,35.78,196600,35.78
2013-04-18,34.13,35.44,33.52,35.26,249400,35.26
2013-04-17,35.29,35.45,34.13,34.20,189000,34.20
2013-04-16,36.30,36.31,34.83,35.08,229500,35.08
2013-04-15,37.65,38.00,36.32,36.40,169600,36.40
2013-04-12,37.57,37.65,37.00,37.15,208700,37.15
2013-04-11,36.53,37.01,36.15,36.85,197500,36.85
2013-04-10,35.45,36.08,35.34,36.01,206900,36.01
2013-04-09,34.86,35.45,34.60,35.17,242100,35.17
2013-04-08,33.40,35.27,33.40,34.24,282700,34.24
2013-04-05,35.16,35.20,33.35,33.68,374800,33.68
2013-04-04,36.20,36.35,35.25,35.35,209100,35.35
2013-04-03,36.50,37.17,36.25,36.29,168100,36.29
2013-04-02,37.44,37.85,36.30,36.76,230900,36.76
2013-04-01,37.59,37.59,37.59,37.59,000,37.59
2013-03-29,37.59,37.59,37.59,37.59,000,37.59
2013-03-28,37.60,37.87,37.21,37.59,202000,37.59
2013-03-27,38.85,38.94,37.62,37.78,189200,37.78
2013-03-26,39.54,39.66,38.67,38.79,181300,38.79
2013-03-25,40.47,40.76,39.65,39.67,195100,39.67
2013-03-22,40.50,40.80,39.21,40.47,244800,40.47
2013-03-21,42.00,42.00,40.33,40.77,113800,40.77
2013-03-20,42.25,42.51,41.41,41.95,138000,41.95
2013-03-19,42.99,43.08,42.33,42.44,122400,42.44
2013-03-18,43.15,43.39,42.25,42.92,250900,42.92
2013-03-15,41.74,43.34,41.40,42.97,613900,42.97
2013-03-14,40.99,41.25,40.83,41.17,172900,41.17
2013-03-13,41.00,41.00,40.36,41.00,105700,41.00
2013-03-12,39.68,41.03,39.50,40.99,273300,40.99
2013-03-11,39.95,39.98,39.58,39.81,118400,39.81
2013-03-08,39.42,39.91,39.16,39.79,106400,39.79
2013-03-07,39.26,39.59,38.94,39.46,65800,39.46
2013-03-06,39.58,39.88,39.19,39.31,69500,39.31
2013-03-05,39.27,40.06,39.26,39.60,135900,39.60
2013-03-04,39.52,39.53,38.75,39.27,125600,39.27
2013-03-01,40.36,40.59,39.28,39.50,168300,39.50
2013-02-28,40.07,40.80,40.05,40.39,190700,40.39
2013-02-27,39.74,40.29,39.24,40.20,102500,40.20
2013-02-26,38.95,40.38,38.71,39.51,202400,39.51
2013-02-25,40.50,40.76,39.30,39.47,118400,39.47
2013-02-22,40.23,41.00,40.02,40.40,131200,40.40
2013-02-21,40.73,40.75,39.72,39.99,194100,39.99
2013-02-20,39.92,41.25,39.74,40.74,319900,40.74
2013-02-19,38.10,40.34,38.10,39.45,375100,39.45
2013-02-18,37.61,37.94,37.24,37.59,102800,37.59
2013-02-15,37.56,37.76,37.39,37.63,75200,37.63
2013-02-14,37.54,37.84,37.35,37.56,100100,37.56
2013-02-13,37.50,38.17,37.15,37.47,189600,37.47
2013-02-12,37.56,37.67,36.25,37.49,246600,37.49
2013-02-11,38.26,38.30,37.37,37.59,229300,37.59
2013-02-08,38.77,38.88,38.10,38.38,95400,38.38
2013-02-07,38.73,39.08,38.11,38.57,140100,38.57
2013-02-06,39.20,39.22,38.14,38.56,165200,38.56
2013-02-05,38.18,39.45,38.10,38.71,203200,38.71
2013-02-04,39.05,39.50,37.93,38.01,185200,38.01
2013-02-01,37.61,39.25,37.48,38.83,497200,38.83
2013-01-31,38.50,38.76,37.32,38.19,384300,38.19
2013-01-30,39.50,39.64,38.65,38.77,167600,38.77
2013-01-29,39.50,40.22,39.29,39.46,265200,39.46
2013-01-28,40.85,40.90,39.51,39.61,291800,39.61
2013-01-25,41.00,41.65,40.51,40.84,162600,40.84
2013-01-24,41.20,41.30,40.10,41.00,303500,41.00
2013-01-23,42.21,42.31,41.19,41.29,209700,41.29
2013-01-22,41.76,43.24,41.75,42.21,274300,42.21
2013-01-21,43.50,44.10,39.50,41.76,514000,41.76
2013-01-18,47.30,47.50,42.57,43.84,552400,43.84
2013-01-17,45.29,45.50,44.80,45.32,184000,45.32
2013-01-16,45.40,45.88,45.31,45.40,204300,45.40
2013-01-15,45.25,45.75,44.68,45.20,191000,45.20
2013-01-14,45.20,45.81,44.79,44.93,135400,44.93
2013-01-11,46.42,46.60,44.68,45.00,229000,45.00
2013-01-10,47.44,47.45,46.24,46.40,139700,46.40
2013-01-09,47.43,47.82,47.02,47.17,259900,47.17
2013-01-08,46.24,47.25,45.85,47.10,277100,47.10
2013-01-07,45.85,46.00,45.00,45.76,302200,45.76
2013-01-04,44.00,46.20,43.57,44.32,404200,44.32
2013-01-03,43.88,43.88,42.71,42.90,148200,42.90
2013-01-02,42.50,43.94,42.50,43.86,200900,43.86
2013-01-01,42.05,42.05,42.05,42.05,000,42.05
2012-12-31,41.46,42.05,41.25,42.05,40600,42.05
2012-12-28,41.15,41.54,41.11,41.46,49300,41.46
2012-12-27,41.26,41.35,41.10,41.30,74400,41.30
2012-12-26,41.37,41.37,41.37,41.37,000,41.37
2012-12-25,41.37,41.37,41.37,41.37,000,41.37
2012-12-24,41.44,41.44,41.33,41.37,25600,41.37
2012-12-21,41.20,41.55,41.02,41.45,307700,41.45
2012-12-20,40.95,41.48,40.95,41.25,311300,41.25
2012-12-19,41.00,41.50,40.94,41.00,261200,41.00
2012-12-18,40.81,41.07,40.60,41.00,125100,41.00
2012-12-17,40.61,41.08,40.55,40.75,49100,40.75
2012-12-14,40.50,41.25,40.45,40.56,157700,40.56
2012-12-13,40.72,40.86,40.39,40.54,78600,40.54
2012-12-12,40.45,40.86,39.77,40.86,129500,40.86
2012-12-11,39.87,41.50,39.58,40.44,360400,40.44
2012-12-10,39.70,39.98,39.40,39.80,64500,39.80
2012-12-07,39.41,39.89,39.00,39.83,114100,39.83
2012-12-06,37.49,39.60,37.15,39.50,294400,39.50
2012-12-05,37.05,37.67,37.02,37.36,29800,37.36
2012-12-04,36.91,37.19,36.91,37.00,47900,37.00
2012-12-03,37.10,37.28,36.85,37.00,63800,37.00
2012-11-30,37.46,37.76,36.93,37.01,82600,37.01
2012-11-29,36.91,37.45,36.84,37.40,51100,37.40
2012-11-28,36.42,37.04,36.42,36.96,47500,36.96
2012-11-27,36.33,36.60,36.33,36.47,45100,36.47
2012-11-26,36.90,36.90,36.31,36.40,46800,36.40
2012-11-23,36.40,36.99,36.31,36.99,35100,36.99
2012-11-22,36.50,36.88,36.31,36.40,37700,36.40
2012-11-21,37.00,37.00,36.35,36.68,72800,36.68
2012-11-20,36.72,37.18,36.40,37.00,43100,37.00
2012-11-19,35.76,36.73,35.76,36.60,27800,36.60
2012-11-16,36.45,36.66,35.75,35.75,154700,35.75
2012-11-15,36.93,37.05,36.13,36.45,296500,36.45
2012-11-14,36.51,37.00,36.51,37.00,50300,37.00
2012-11-13,36.59,36.80,36.45,36.68,104700,36.68
2012-11-12,36.49,36.79,36.00,36.79,100000,36.79
2012-11-09,36.18,36.60,35.90,36.35,97000,36.35
2012-11-08,35.77,36.50,35.65,36.08,106000,36.08
2012-11-07,36.83,36.83,35.75,36.15,134800,36.15
2012-11-06,37.00,37.08,36.60,36.81,76600,36.81
2012-11-05,37.07,37.40,36.72,37.09,51400,37.09
2012-11-02,37.32,37.49,36.99,37.49,56600,37.49
2012-11-01,36.91,37.60,36.15,37.39,85400,37.39
2012-10-31,37.29,37.69,36.84,36.91,78500,36.91
2012-10-30,37.50,37.67,37.20,37.38,41400,37.38
2012-10-29,37.99,38.00,37.47,37.87,69200,37.87
2012-10-26,37.56,38.18,37.10,38.04,87500,38.04
2012-10-25,38.00,38.40,37.70,37.94,61600,37.94
2012-10-24,37.46,38.20,37.42,37.90,84800,37.90
2012-10-23,38.70,38.85,37.01,37.50,340400,37.50
2012-10-22,38.91,39.29,38.40,38.75,213500,38.75
2012-10-19,38.74,39.29,38.40,38.81,330100,38.81
2012-10-18,39.00,39.20,37.62,38.40,653800,38.40
2012-10-17,37.00,37.92,36.72,37.00,329600,37.00
2012-10-16,36.39,37.05,36.35,37.00,255200,37.00
2012-10-15,35.17,36.40,34.90,36.11,200600,36.11
2012-10-12,34.50,36.60,34.50,35.17,251100,35.17
2012-10-11,36.20,36.49,32.70,34.45,558300,34.45
2012-10-10,37.81,38.00,36.26,36.63,256200,36.63
2012-10-09,36.00,38.23,35.90,37.70,534600,37.70
2012-10-08,34.22,35.40,34.22,35.30,277400,35.30
2012-10-05,33.70,34.90,33.50,34.11,240300,34.11
2012-10-04,31.76,33.91,31.55,33.73,342600,33.73
2012-10-03,31.23,31.75,31.22,31.64,75300,31.64
2012-10-02,31.51,31.67,31.11,31.34,98700,31.34
2012-10-01,31.28,31.62,31.24,31.51,86700,31.51
2012-09-28,30.97,31.52,30.60,31.18,111400,31.18
2012-09-27,30.22,30.90,30.18,30.55,131300,30.55
2012-09-26,31.00,31.52,30.21,30.38,256100,30.38
2012-09-25,30.25,30.90,30.20,30.80,155500,30.80
2012-09-24,30.23,30.90,30.20,30.44,109500,30.44
2012-09-21,29.55,30.20,29.55,30.11,134400,30.11
2012-09-20,29.00,29.55,28.90,29.53,111200,29.53
2012-09-19,28.85,28.92,28.46,28.78,39900,28.78
2012-09-18,29.01,29.13,28.58,28.68,66300,28.68
2012-09-17,29.28,29.38,28.98,29.18,42400,29.18
2012-09-14,29.30,29.48,28.96,29.28,74100,29.28
2012-09-13,29.45,29.47,28.82,29.11,135800,29.11
2012-09-12,29.55,29.60,29.25,29.43,65400,29.43
2012-09-11,29.43,29.63,29.10,29.54,163100,29.54
2012-09-10,28.78,29.60,28.62,29.40,138800,29.40
2012-09-07,28.32,28.84,28.15,28.57,94400,28.57
2012-09-06,28.29,28.34,28.14,28.30,144000,28.30
2012-09-05,27.95,28.26,27.93,28.24,196000,28.24
2012-09-04,28.20,28.25,27.90,28.02,50200,28.02
2012-09-03,27.92,28.55,27.80,28.20,267400,28.20
2012-08-31,27.82,27.96,27.55,27.92,89900,27.92
2012-08-30,27.64,27.93,27.42,27.86,120500,27.86
2012-08-29,26.80,28.13,26.75,27.44,434600,27.44
2012-08-28,26.25,26.78,26.25,26.75,54100,26.75
2012-08-27,26.21,26.57,26.05,26.42,30300,26.42
2012-08-24,25.95,26.42,25.95,26.21,60900,26.21
2012-08-23,26.56,26.89,25.94,26.04,66800,26.04
2012-08-22,26.46,26.88,26.20,26.88,37700,26.88
2012-08-21,26.98,27.00,26.22,26.27,74300,26.27
2012-08-20,26.85,27.09,26.75,26.86,126800,26.86
2012-08-17,26.49,26.78,26.35,26.49,102900,26.49
2012-08-16,25.80,26.49,25.66,26.05,92400,26.05
2012-08-15,25.51,25.90,25.51,25.80,24800,25.80
2012-08-14,25.50,25.75,25.26,25.71,36100,25.71
2012-08-13,25.68,25.68,25.43,25.59,16700,25.59
2012-08-10,25.55,25.70,25.40,25.70,46500,25.70
2012-08-09,25.70,25.75,25.51,25.55,30500,25.55
2012-08-08,25.75,25.88,25.51,25.63,36800,25.63
2012-08-07,25.80,25.94,25.50,25.70,42400,25.70
2012-08-06,25.87,26.17,25.76,25.84,54200,25.84
2012-08-03,25.65,26.24,25.65,25.78,71400,25.78
2012-08-02,26.25,26.60,25.67,25.68,90000,25.68
2012-08-01,26.03,26.50,25.65,26.30,75800,26.30
2012-07-31,26.10,26.33,25.83,26.23,76300,26.23
2012-07-30,26.55,26.85,25.40,26.24,218300,26.24
2012-07-27,28.00,28.22,25.31,26.37,1080100,26.37
2012-07-26,24.40,25.00,23.18,23.30,225400,23.30
2012-07-25,23.20,24.48,22.13,24.48,423100,24.48
2012-07-24,25.00,25.80,20.25,23.41,1025500,23.41
2012-07-23,25.86,25.90,24.82,25.02,152000,25.02
2012-07-20,25.98,26.09,25.64,25.82,128400,25.82
2012-07-19,26.00,26.36,25.53,25.88,275400,25.88
2012-07-18,24.54,26.05,24.33,25.87,352400,25.87
2012-07-17,23.10,24.84,23.00,24.22,331300,24.22
2012-07-16,23.30,23.30,22.98,23.00,56800,23.00
2012-07-13,23.13,23.25,22.90,23.11,58600,23.11
2012-07-12,23.32,23.45,22.97,23.02,43500,23.02
2012-07-11,23.15,23.49,23.15,23.25,26300,23.25
2012-07-10,23.25,23.54,23.02,23.25,48700,23.25
2012-07-09,23.80,23.85,23.22,23.24,73900,23.24
2012-07-06,23.39,23.87,23.17,23.87,78100,23.87
2012-07-05,23.41,23.45,23.10,23.40,50300,23.40
2012-07-04,23.42,23.45,23.10,23.22,71100,23.22
2012-07-03,22.02,23.35,22.02,23.26,304800,23.26
2012-07-02,21.50,22.00,21.40,21.90,169800,21.90
2012-06-29,21.14,21.46,20.83,21.30,78900,21.30
2012-06-28,21.03,21.10,20.72,20.89,44700,20.89
2012-06-27,20.81,21.15,20.80,21.03,39600,21.03
2012-06-26,20.78,20.96,20.43,20.69,35900,20.69
2012-06-25,21.20,21.75,20.52,20.68,96900,20.68
2012-06-22,20.84,21.00,20.74,21.00,53500,21.00
2012-06-21,20.40,20.73,20.28,20.73,34900,20.73
2012-06-20,20.57,20.57,20.23,20.39,117200,20.39
2012-06-19,20.30,20.62,20.22,20.45,39100,20.45
2012-06-18,20.65,20.70,20.30,20.30,41700,20.30
2012-06-15,20.20,20.46,20.05,20.46,48800,20.46
2012-06-14,20.50,20.80,19.85,20.17,53700,20.17
2012-06-13,20.75,20.83,20.50,20.60,50700,20.60
2012-06-12,20.47,20.88,20.45,20.59,79200,20.59
2012-06-11,21.00,21.33,20.54,20.58,37300,20.58
2012-06-08,20.98,21.37,20.50,20.55,64000,20.55
2012-06-07,19.80,21.37,19.61,20.81,170000,20.81
2012-06-06,19.43,19.86,19.25,19.50,141900,19.50
2012-06-05,18.92,19.89,17.10,19.50,819100,19.50
2012-06-04,22.33,22.44,21.55,21.70,65300,21.70
2012-06-01,23.13,23.13,22.33,22.59,54600,22.59
2012-05-31,22.92,23.39,22.66,23.13,63600,23.13
2012-05-30,22.78,22.94,22.50,22.72,37000,22.72
2012-05-29,22.87,23.30,22.59,22.81,37000,22.81
2012-05-28,22.80,23.23,22.50,22.84,11600,22.84
2012-05-25,22.63,23.77,22.27,22.52,63600,22.52
2012-05-24,22.31,22.63,22.04,22.63,45700,22.63
2012-05-23,22.74,22.85,22.03,22.26,34500,22.26
2012-05-22,22.33,22.94,22.11,22.94,61200,22.94
2012-05-21,22.32,22.80,22.15,22.15,121800,22.15
2012-05-18,22.98,22.98,22.00,22.10,110300,22.10
2012-05-17,23.45,23.65,23.00,23.14,20200,23.14
2012-05-16,23.68,23.81,23.19,23.32,55000,23.32
2012-05-15,24.00,24.01,23.51,23.75,39800,23.75
2012-05-14,24.51,24.84,23.76,24.00,50800,24.00
2012-05-11,23.90,24.89,23.70,24.87,90700,24.87
2012-05-10,23.72,23.91,23.20,23.90,42000,23.90
2012-05-09,23.80,24.20,23.30,23.44,73800,23.44
2012-05-08,23.60,23.93,23.40,23.70,43200,23.70
2012-05-07,23.10,23.92,22.89,23.82,44000,23.82
2012-05-04,23.70,24.10,23.10,23.30,62200,23.30
2012-05-03,23.93,24.24,23.69,23.72,57200,23.72
2012-05-02,23.84,23.95,23.57,23.87,67200,23.87
2012-05-01,23.79,23.79,23.79,23.79,000,23.79
2012-04-30,23.70,23.83,23.52,23.79,18400,23.79
2012-04-27,23.64,23.83,23.41,23.67,21600,23.67
2012-04-26,23.74,23.95,23.45,23.70,53800,23.70
2012-04-25,23.42,23.84,23.30,23.58,29300,23.58
2012-04-24,22.70,23.39,22.70,23.39,58100,23.39
2012-04-23,23.60,23.60,22.50,22.64,118300,22.64
2012-04-20,23.50,23.87,23.38,23.59,53000,23.59
2012-04-19,23.94,24.00,23.51,23.51,44400,23.51
2012-04-18,24.17,24.33,23.63,23.71,63300,23.71
2012-04-17,23.73,24.22,23.67,24.10,44900,24.10
2012-04-16,23.57,24.09,23.50,23.59,46900,23.59
2012-04-13,24.05,24.09,23.33,23.61,62800,23.61
2012-04-12,23.29,24.02,23.10,23.84,77200,23.84
2012-04-11,22.55,23.55,22.55,23.02,137800,23.02
2012-04-10,23.57,23.57,22.09,22.75,170900,22.75
2012-04-09,23.61,23.61,23.61,23.61,000,23.61
2012-04-06,23.61,23.61,23.61,23.61,000,23.61
2012-04-05,24.38,24.44,23.51,23.61,136600,23.61
2012-04-04,25.30,25.30,24.17,24.39,82300,24.39
2012-04-03,25.15,25.46,24.92,25.29,102500,25.29
2012-04-02,25.05,25.24,24.79,25.11,102300,25.11
2012-03-30,24.67,25.09,24.65,24.93,79100,24.93
2012-03-29,24.95,25.34,24.60,24.60,293500,24.60
2012-03-28,25.20,25.32,24.85,24.87,65300,24.87
2012-03-27,25.40,25.40,25.17,25.34,54700,25.34
2012-03-26,25.02,25.41,25.01,25.41,98900,25.41
2012-03-23,24.31,25.34,24.31,24.96,143400,24.96
2012-03-22,25.59,25.59,24.28,24.28,125500,24.28
2012-03-21,24.90,25.77,24.80,25.59,177100,25.59
2012-03-20,25.75,25.79,24.85,24.85,113200,24.85
2012-03-19,25.25,25.81,25.06,25.62,165900,25.62
2012-03-16,24.60,25.38,24.60,25.20,560000,25.20
2012-03-15,23.87,23.97,23.30,23.35,93800,23.35
2012-03-14,24.45,24.50,23.61,23.75,106700,23.75
2012-03-13,24.34,24.79,24.20,24.25,119100,24.25
2012-03-12,23.42,24.37,22.98,24.34,177400,24.34
2012-03-09,22.94,23.39,22.58,23.38,152500,23.38
2012-03-08,21.30,23.00,21.10,23.00,148200,23.00
2012-03-07,21.50,21.85,21.00,21.44,61100,21.44
2012-03-06,22.12,22.23,21.54,21.64,62600,21.64
2012-03-05,22.25,22.45,22.16,22.23,49000,22.23
2012-03-02,22.65,22.67,22.00,22.32,86300,22.32
2012-03-01,21.70,22.79,21.62,22.50,169400,22.50
2012-02-29,21.50,21.70,21.49,21.70,80500,21.70
2012-02-28,21.30,21.55,21.00,21.49,61800,21.49
2012-02-27,20.85,21.25,20.77,21.25,64000,21.25
2012-02-24,20.75,20.75,20.55,20.75,13400,20.75
2012-02-23,20.75,20.75,20.20,20.70,30600,20.70
2012-02-22,20.82,20.82,20.21,20.70,53800,20.70
2012-02-21,20.85,20.87,20.61,20.74,20300,20.74
2012-02-20,20.80,20.98,20.66,20.78,21000,20.78
2012-02-17,20.72,20.95,20.66,20.76,25300,20.76
2012-02-16,20.55,20.75,20.52,20.72,45700,20.72
2012-02-15,20.91,20.99,20.54,20.76,51600,20.76
2012-02-14,20.75,21.10,20.72,20.88,91700,20.88
2012-02-13,20.32,20.86,20.32,20.70,39100,20.70
2012-02-10,20.43,20.45,20.07,20.27,35400,20.27
2012-02-09,20.39,20.50,19.76,20.49,114900,20.49
2012-02-08,20.56,20.70,20.39,20.39,46800,20.39
2012-02-07,20.32,20.63,20.30,20.39,51900,20.39
2012-02-06,21.20,21.91,20.25,20.26,131700,20.26
2012-02-03,19.53,21.25,19.42,21.00,254300,21.00
2012-02-02,19.33,19.95,19.33,19.47,224700,19.47
2012-02-01,17.74,18.24,17.61,18.24,32000,18.24
2012-01-31,17.70,17.80,17.55,17.75,44800,17.75
2012-01-30,17.99,17.99,17.55,17.55,21200,17.55
2012-01-27,17.91,18.26,17.90,17.99,24600,17.99
2012-01-26,17.98,18.29,17.85,18.00,29600,18.00
2012-01-25,18.00,18.10,17.80,17.82,26100,17.82
2012-01-24,17.89,18.08,17.60,17.95,40600,17.95
2012-01-23,18.30,18.30,17.61,17.88,99700,17.88
2012-01-20,18.73,18.73,18.26,18.26,57400,18.26
2012-01-19,18.53,18.60,18.26,18.59,43500,18.59
2012-01-18,18.60,18.60,18.20,18.50,45900,18.50
2012-01-17,18.43,18.60,18.20,18.60,23100,18.60
2012-01-16,18.19,18.37,17.99,18.22,18200,18.22
2012-01-13,18.31,18.46,17.75,18.14,35600,18.14
2012-01-12,18.58,18.58,18.15,18.25,36400,18.25
2012-01-11,18.52,18.60,18.40,18.47,24200,18.47
2012-01-10,18.58,18.58,18.45,18.50,29200,18.50
2012-01-09,18.75,18.75,18.25,18.40,18200,18.40
2012-01-06,18.75,19.00,18.40,18.50,30800,18.50
2012-01-05,18.92,19.00,18.44,18.65,25000,18.65
2012-01-04,19.20,19.29,18.79,18.96,31800,18.96
2012-01-03,19.00,19.20,18.79,19.20,27400,19.20
2012-01-02,18.94,19.07,18.71,18.99,13600,18.99
2011-12-30,18.67,18.90,18.50,18.90,9500,18.90
2011-12-29,18.21,18.65,18.15,18.54,27300,18.54
2011-12-28,18.33,18.70,18.23,18.23,18700,18.23
2011-12-27,18.90,19.09,18.30,18.33,24700,18.33
2011-12-26,18.80,18.80,18.80,18.80,000,18.80
2011-12-23,18.24,18.80,18.24,18.80,46100,18.80
2011-12-22,18.00,18.23,17.83,18.23,93200,18.23
2011-12-21,17.56,18.03,17.21,18.03,55200,18.03
2011-12-20,17.25,17.55,17.20,17.45,27600,17.45
2011-12-19,17.25,17.34,17.05,17.06,30800,17.06
2011-12-16,17.20,17.44,17.05,17.06,42800,17.06
2011-12-15,17.00,17.50,16.92,16.95,32800,16.95
2011-12-14,17.24,17.32,16.92,16.95,31700,16.95
2011-12-13,17.23,17.77,17.23,17.40,21400,17.40
2011-12-12,17.95,17.95,17.24,17.24,24200,17.24
2011-12-09,17.79,18.30,17.79,17.79,41500,17.79
2011-12-08,18.50,18.62,17.79,17.79,36400,17.79
2011-12-07,18.65,18.75,18.14,18.56,26200,18.56
2011-12-06,18.47,18.47,18.20,18.35,24500,18.35
2011-12-05,18.49,18.57,18.25,18.44,36200,18.44
2011-12-02,18.12,18.40,18.05,18.20,25300,18.20
2011-12-01,18.54,18.56,17.85,17.85,60000,17.85
2011-11-30,17.45,18.23,17.32,18.20,65200,18.20
2011-11-29,17.30,17.44,17.15,17.42,44800,17.42
2011-11-28,16.97,17.44,16.90,17.17,48800,17.17
2011-11-25,16.90,17.11,16.67,16.80,22900,16.80
2011-11-24,16.31,17.20,16.31,17.01,44800,17.01
2011-11-23,16.75,16.91,16.33,16.37,55900,16.37
2011-11-22,16.24,17.39,16.24,16.82,65200,16.82
2011-11-21,16.93,16.93,16.12,16.23,55200,16.23
2011-11-18,17.10,17.30,16.91,16.95,43000,16.95
2011-11-17,17.79,17.94,17.13,17.28,37600,17.28
2011-11-16,17.71,17.93,17.39,17.72,33200,17.72
2011-11-15,18.06,18.18,17.70,17.71,40600,17.71
2011-11-14,18.49,18.68,18.12,18.14,12400,18.14
2011-11-11,17.94,18.36,17.83,18.29,11100,18.29
2011-11-10,17.80,18.43,17.35,17.85,52200,17.85
2011-11-09,18.82,18.99,18.05,18.05,34600,18.05
2011-11-08,18.42,18.97,18.42,18.81,30800,18.81
2011-11-07,18.61,18.81,18.41,18.48,30800,18.48
2011-11-04,18.99,19.14,18.56,18.67,39700,18.67
2011-11-03,18.10,18.95,17.92,18.85,49900,18.85
2011-11-02,18.35,18.50,18.06,18.41,57000,18.41
2011-11-01,18.70,18.70,17.82,18.19,63600,18.19
2011-10-31,19.30,19.39,19.00,19.00,28300,19.00
2011-10-28,19.59,19.73,19.26,19.39,33600,19.39
2011-10-27,19.55,19.75,19.45,19.60,53900,19.60
2011-10-26,19.11,19.45,19.00,19.37,23300,19.37
2011-10-25,19.31,19.41,19.02,19.15,34000,19.15
2011-10-24,19.20,19.45,19.08,19.45,36100,19.45
2011-10-21,18.90,19.15,18.71,19.12,70400,19.12
2011-10-20,19.89,19.89,18.80,19.15,99500,19.15
2011-10-19,19.56,19.90,19.52,19.90,92800,19.90
2011-10-18,19.20,19.64,19.20,19.58,91000,19.58
2011-10-17,19.10,19.37,19.05,19.34,80500,19.34
2011-10-14,19.03,19.24,18.92,19.20,110900,19.20
2011-10-13,19.05,19.23,18.88,19.04,61600,19.04
2011-10-12,19.18,19.23,18.85,19.05,56500,19.05
2011-10-11,18.10,19.35,18.08,19.12,111700,19.12
2011-10-10,17.73,18.08,17.61,18.05,53600,18.05
2011-10-07,17.85,17.95,17.41,17.85,40400,17.85
2011-10-06,17.50,17.85,17.40,17.85,53900,17.85
2011-10-05,17.05,17.49,17.05,17.49,50600,17.49
2011-10-04,17.00,17.10,16.79,17.01,62200,17.01
2011-10-03,16.78,17.17,16.70,17.10,46700,17.10
2011-09-30,17.01,17.21,16.90,17.18,48700,17.18
2011-09-29,16.90,17.28,16.90,17.13,54600,17.13
2011-09-28,16.55,17.10,16.38,17.00,60900,17.00
2011-09-27,16.35,16.71,16.16,16.60,31300,16.60
2011-09-26,15.49,16.05,15.39,15.90,67500,15.90
2011-09-23,15.95,16.01,15.37,15.65,110700,15.65
2011-09-22,16.50,16.50,15.73,15.99,59100,15.99
2011-09-21,16.71,16.94,16.50,16.77,31200,16.77
2011-09-20,16.52,16.94,16.49,16.72,29600,16.72
2011-09-19,16.68,17.00,16.46,16.67,40300,16.67
2011-09-16,16.77,17.01,16.48,16.87,43600,16.87
2011-09-15,16.45,16.94,16.36,16.59,71500,16.59
2011-09-14,15.72,16.26,15.72,16.23,35900,16.23
2011-09-13,16.00,16.16,15.60,15.68,49500,15.68
2011-09-12,16.00,16.10,15.40,15.94,87200,15.94
2011-09-09,16.96,16.96,16.31,16.39,142800,16.39
2011-09-08,17.20,17.40,16.63,17.03,103300,17.03
2011-09-07,16.90,17.20,16.53,17.20,58900,17.20
2011-09-06,16.00,16.57,15.80,16.25,220900,16.25
2011-09-05,16.80,16.85,16.10,16.19,166500,16.19
2011-09-02,17.65,17.65,16.93,17.32,74300,17.32
2011-09-01,17.70,17.85,17.40,17.85,64200,17.85
2011-08-31,16.98,17.70,16.90,17.70,83600,17.70
2011-08-30,17.00,17.00,16.77,16.86,40400,16.86
2011-08-29,16.54,16.99,16.54,16.91,47900,16.91
2011-08-26,16.07,16.49,15.75,16.49,60800,16.49
2011-08-25,16.43,16.49,16.00,16.16,58000,16.16
2011-08-24,16.10,16.33,15.82,15.95,57200,15.95
2011-08-23,15.80,16.07,15.61,15.74,78500,15.74
2011-08-22,15.53,15.92,15.45,15.50,120100,15.50
2011-08-19,14.92,15.50,14.42,15.13,84300,15.13
2011-08-18,16.14,16.25,14.81,14.97,137900,14.97
2011-08-17,15.84,16.38,15.80,16.06,44900,16.06
2011-08-16,16.31,16.40,15.80,16.09,54200,16.09
2011-08-15,16.00,16.40,16.00,16.22,42200,16.22
2011-08-12,15.46,16.00,15.10,15.96,96800,15.96
2011-08-11,15.49,15.90,14.77,15.10,207700,15.10
2011-08-10,16.55,16.90,14.90,14.95,296000,14.95
2011-08-09,13.00,14.60,12.10,14.53,264200,14.53
2011-08-08,13.50,14.35,13.20,13.25,197800,13.25
2011-08-05,14.95,15.15,13.46,14.46,226000,14.46
2011-08-04,16.09,16.55,15.30,15.31,100800,15.31
2011-08-03,16.50,16.55,16.01,16.09,73700,16.09
2011-08-02,16.90,17.00,16.55,16.55,73600,16.55
2011-08-01,17.17,17.79,16.90,16.90,43100,16.90
2011-07-29,17.08,17.20,16.71,16.80,64400,16.80
2011-07-28,17.30,17.39,17.05,17.05,160300,17.05
2011-07-27,17.70,17.82,17.36,17.42,24300,17.42
2011-07-26,18.20,18.20,17.65,17.80,55600,17.80
2011-07-25,18.40,18.60,17.92,17.97,127300,17.97
2011-07-22,18.20,18.68,18.10,18.65,40200,18.65
2011-07-21,18.02,18.20,17.62,18.06,43600,18.06
2011-07-20,17.95,18.10,17.62,17.96,80800,17.96
2011-07-19,16.52,17.92,16.52,17.77,71500,17.77
2011-07-18,17.00,17.00,16.00,16.50,129600,16.50
2011-07-15,18.11,18.16,17.23,17.33,82400,17.33
2011-07-14,18.30,18.30,18.00,18.16,48800,18.16
2011-07-13,18.06,18.27,18.05,18.21,35500,18.21
2011-07-12,18.50,18.50,18.05,18.10,118300,18.10
2011-07-11,18.94,19.04,18.50,18.75,30400,18.75
2011-07-08,19.08,19.20,18.80,18.94,22800,18.94
2011-07-07,18.80,19.21,18.62,19.17,24400,19.17
2011-07-06,18.65,18.89,18.52,18.89,29000,18.89
2011-07-05,18.84,18.94,18.75,18.75,14400,18.75
2011-07-04,18.77,19.15,18.70,18.87,24700,18.87
2011-07-01,18.55,18.80,18.52,18.55,39200,18.55
2011-06-30,19.25,19.39,18.51,18.51,77900,18.51
2011-06-29,18.50,18.97,18.50,18.97,28100,18.97
2011-06-28,18.32,18.39,18.22,18.37,17000,18.37
2011-06-27,18.55,18.95,18.31,18.31,24500,18.31
2011-06-24,18.20,18.80,18.18,18.37,42400,18.37
2011-06-23,18.39,18.49,18.12,18.15,53600,18.15
2011-06-22,18.98,18.98,18.30,18.39,36000,18.39
2011-06-21,18.80,19.02,18.68,18.69,37600,18.69
2011-06-20,18.57,18.80,18.30,18.30,37300,18.30
2011-06-17,18.53,18.78,18.25,18.65,53000,18.65
2011-06-16,18.69,18.73,18.30,18.35,29400,18.35
2011-06-15,19.26,19.30,18.67,18.67,48900,18.67
2011-06-14,18.25,19.26,17.55,18.97,132000,18.97
2011-06-13,19.30,19.40,18.20,18.44,75600,18.44
2011-06-10,19.75,19.76,19.26,19.29,50900,19.29
2011-06-09,19.80,19.95,19.70,19.78,30300,19.78
2011-06-08,20.06,20.18,19.80,19.82,30100,19.82
2011-06-07,20.17,20.20,20.00,20.10,16000,20.10
2011-06-06,20.00,20.36,20.00,20.34,29200,20.34
2011-06-03,20.04,20.14,20.00,20.00,10600,20.00
2011-06-02,20.14,20.26,20.01,20.02,8100,20.02
2011-06-01,20.35,20.43,20.10,20.14,20900,20.14
2011-05-31,20.04,20.30,19.96,20.30,19800,20.30
2011-05-30,20.00,20.09,19.90,19.96,11100,19.96
2011-05-27,19.96,20.10,19.85,19.92,11200,19.92
2011-05-26,20.05,20.05,19.80,19.90,19000,19.90
2011-05-25,20.10,20.16,19.85,19.90,20700,19.90
2011-05-24,20.00,20.39,20.00,20.10,23000,20.10
2011-05-23,20.25,20.33,19.95,19.96,38300,19.96
2011-05-20,20.38,20.41,20.22,20.33,11000,20.33
2011-05-19,20.50,20.60,20.27,20.35,40300,20.35
2011-05-18,20.40,20.65,20.40,20.40,22400,20.40
2011-05-17,21.00,21.00,20.29,20.34,35800,20.34
2011-05-16,20.89,20.92,20.70,20.92,30900,20.92
2011-05-13,20.42,20.89,20.40,20.73,32500,20.73
2011-05-12,20.41,20.50,20.26,20.42,24900,20.42
2011-05-11,20.40,20.66,20.10,20.39,48900,20.39
2011-05-10,20.45,20.59,20.37,20.45,31700,20.45
2011-05-09,20.54,20.70,20.45,20.46,36300,20.46
2011-05-06,20.52,20.74,20.52,20.72,12900,20.72
2011-05-05,20.70,20.97,20.51,20.51,20100,20.51
2011-05-04,20.85,21.08,20.67,20.67,26500,20.67
2011-05-03,21.11,21.20,20.68,20.85,43700,20.85
2011-05-02,21.00,21.24,21.00,21.09,25200,21.09
2011-04-29,20.74,21.01,20.60,21.01,31600,21.01
2011-04-28,20.68,20.83,20.55,20.64,39300,20.64
2011-04-27,21.00,21.09,20.76,20.77,22400,20.77
2011-04-26,20.80,20.95,20.76,20.83,51900,20.83
2011-04-21,21.10,21.20,20.82,20.90,18000,20.90
2011-04-20,20.90,21.15,20.90,21.10,40600,21.10
2011-04-19,20.82,21.08,20.80,20.90,25500,20.90
2011-04-18,21.50,21.50,20.90,20.90,26100,20.90
2011-04-15,21.75,21.75,21.35,21.37,23600,21.37
2011-04-14,21.62,21.95,21.50,21.75,30500,21.75
2011-04-13,21.32,21.71,21.10,21.53,35200,21.53
2011-04-12,21.84,21.85,21.35,21.43,29100,21.43
2011-04-11,21.74,21.89,21.55,21.82,17500,21.82
2011-04-08,21.61,21.70,21.51,21.59,28600,21.59
2011-04-07,21.87,21.87,21.63,21.70,42000,21.70
2011-04-06,21.96,22.00,21.51,21.74,34600,21.74
2011-04-05,22.15,22.15,21.63,21.75,35200,21.75
2011-04-04,21.85,22.15,21.85,22.12,32100,22.12
2011-04-01,21.58,21.89,21.52,21.83,56300,21.83
2011-03-31,21.75,21.75,21.51,21.60,15500,21.60
2011-03-30,21.60,21.76,21.50,21.66,26500,21.66
2011-03-29,21.70,21.70,21.35,21.35,20900,21.35
2011-03-28,21.21,21.67,21.21,21.63,41500,21.63
2011-03-25,20.90,21.40,20.85,21.35,64300,21.35
2011-03-24,20.80,20.98,20.79,20.90,28000,20.90
2011-03-23,20.66,20.96,20.65,20.96,41900,20.96
2011-03-22,20.98,21.00,20.67,20.67,33000,20.67
2011-03-21,20.15,20.80,20.12,20.65,44400,20.65
2011-03-18,20.02,20.49,20.00,20.00,45300,20.00
2011-03-17,19.70,20.15,19.69,19.94,81200,19.94
2011-03-16,20.00,20.59,19.65,19.65,109700,19.65
2011-03-15,20.55,20.62,19.53,19.95,203300,19.95
2011-03-14,20.50,20.74,20.46,20.55,58200,20.55
2011-03-11,20.60,20.83,20.55,20.67,56800,20.67
2011-03-10,20.80,20.80,20.52,20.69,28000,20.69
2011-03-09,20.99,21.00,20.76,20.85,25600,20.85
2011-03-08,20.60,20.95,20.60,20.75,51400,20.75
2011-03-07,20.66,20.99,20.60,20.64,13600,20.64
2011-03-04,20.75,20.90,20.65,20.69,29400,20.69
2011-03-03,20.55,20.78,20.55,20.66,45700,20.66
2011-03-02,20.80,20.80,20.30,20.39,68000,20.39
2011-03-01,20.97,21.00,20.73,20.80,49800,20.80
2011-02-28,20.99,20.99,20.70,20.78,36200,20.78
2011-02-25,20.35,21.01,20.35,20.82,51100,20.82
2011-02-24,21.50,21.50,19.37,20.32,237900,20.32
2011-02-23,21.50,21.60,21.50,21.50,65000,21.50
2011-02-22,21.50,21.68,21.50,21.50,70500,21.50
2011-02-21,21.95,22.00,21.68,21.80,31800,21.80
2011-02-18,22.20,22.22,22.00,22.11,18300,22.11
2011-02-17,22.33,22.33,22.01,22.10,18200,22.10
2011-02-16,22.37,22.37,22.16,22.34,29000,22.34
2011-02-15,22.27,22.44,22.11,22.34,32700,22.34
2011-02-14,22.10,22.28,22.05,22.28,65800,22.28
2011-02-11,22.30,22.40,21.89,21.93,52100,21.93
2011-02-10,22.23,22.30,21.83,21.92,50400,21.92
2011-02-09,22.41,22.45,22.22,22.22,41700,22.22
2011-02-08,22.60,22.60,22.30,22.30,38500,22.30
2011-02-07,22.71,22.73,22.40,22.54,36000,22.54
2011-02-04,22.70,22.90,22.60,22.73,71600,22.73
2011-02-03,22.55,22.69,22.35,22.45,42300,22.45
2011-02-02,22.65,22.65,22.40,22.64,22500,22.64
2011-02-01,22.00,22.56,22.00,22.56,65200,22.56
2011-01-31,22.47,22.47,22.00,22.00,60000,22.00
2011-01-28,22.53,22.80,22.40,22.80,30200,22.80
2011-01-27,22.53,22.90,22.51,22.70,23400,22.70
2011-01-26,22.51,22.81,22.50,22.81,36500,22.81
2011-01-25,22.58,22.78,22.39,22.50,54100,22.50
2011-01-24,22.51,22.52,22.30,22.47,34400,22.47
2011-01-21,22.31,22.70,22.31,22.43,26900,22.43
2011-01-20,22.80,22.80,22.25,22.42,42600,22.42
2011-01-19,23.00,23.00,22.81,22.85,42400,22.85
2011-01-18,22.98,23.00,22.77,22.99,95500,22.99
2011-01-17,21.79,22.95,21.79,22.90,106800,22.90
2011-01-14,21.80,21.83,21.45,21.60,39500,21.60
2011-01-13,22.05,22.09,21.82,21.97,37000,21.97
2011-01-12,21.50,22.04,21.46,22.04,52200,22.04
2011-01-11,21.64,21.75,21.26,21.75,67200,21.75
2011-01-10,22.29,22.37,21.68,21.75,49700,21.75
2011-01-07,22.31,22.40,22.00,22.17,63800,22.17
2011-01-06,22.00,22.50,21.82,22.30,89200,22.30
2011-01-05,22.50,22.50,21.58,22.13,83800,22.13
2011-01-04,22.95,22.95,22.51,22.51,60300,22.51
2011-01-03,22.99,23.00,22.85,22.95,40900,22.95
2010-12-31,23.00,23.07,22.98,22.99,18700,22.99
2010-12-30,22.85,23.00,22.80,22.98,27900,22.98
2010-12-29,22.97,23.00,22.80,22.87,43400,22.87
2010-12-28,22.90,22.97,22.64,22.93,53900,22.93
2010-12-27,22.91,22.91,22.61,22.78,36500,22.78
2010-12-24,22.97,23.00,22.72,23.00,14200,23.00
2010-12-23,23.00,23.10,22.60,22.90,76200,22.90
2010-12-22,23.55,23.55,22.55,23.00,114200,23.00
2010-12-21,23.25,23.94,23.00,23.54,207000,23.54
2010-12-20,21.92,22.93,21.85,22.91,259700,22.91
2010-12-17,21.68,21.73,21.50,21.60,63100,21.60
2010-12-16,21.52,21.68,21.46,21.58,66700,21.58
2010-12-15,21.50,21.69,21.45,21.69,70000,21.69
2010-12-14,21.82,21.92,21.30,21.69,123900,21.69
2010-12-13,21.08,21.95,21.00,21.85,192700,21.85
2010-12-10,20.08,21.00,20.08,21.00,185600,21.00
2010-12-09,19.60,20.19,19.55,20.07,61700,20.07
2010-12-08,19.35,19.55,19.35,19.55,103000,19.55
2010-12-07,19.54,19.55,19.37,19.45,109700,19.45
2010-12-06,19.54,19.54,19.20,19.48,150700,19.48
2010-12-03,19.10,19.34,19.00,19.25,219900,19.25
2010-12-02,19.65,19.71,19.45,19.61,58200,19.61
2010-12-01,19.50,19.75,19.43,19.55,40800,19.55
2010-11-30,19.62,19.66,19.39,19.50,86500,19.50
2010-11-29,19.85,20.00,19.61,19.62,33000,19.62
2010-11-26,19.85,19.85,19.50,19.76,34700,19.76
2010-11-25,20.10,20.20,19.82,19.96,18800,19.96
2010-11-24,19.74,20.14,19.59,20.00,39800,20.00
2010-11-23,20.19,20.19,19.79,19.79,40800,19.79
2010-11-22,20.40,20.40,20.02,20.28,25700,20.28
2010-11-19,20.30,20.57,20.22,20.40,37400,20.40
2010-11-18,20.01,20.30,20.00,20.22,48600,20.22
2010-11-17,20.00,20.34,19.61,20.01,90500,20.01
2010-11-16,20.48,20.49,20.00,20.07,42200,20.07
2010-11-15,20.00,20.49,19.84,20.49,48600,20.49
2010-11-12,20.30,20.30,19.61,20.03,98200,20.03
2010-11-11,20.60,20.65,20.32,20.45,20600,20.45
2010-11-10,20.65,20.65,20.25,20.56,68100,20.56
2010-11-09,21.00,21.52,20.24,20.34,168500,20.34
2010-11-08,20.30,20.91,20.19,20.86,128000,20.86
2010-11-05,19.84,20.14,19.75,20.14,191900,20.14
2010-11-04,19.21,19.84,19.03,19.79,145400,19.79
2010-11-03,19.10,19.23,19.02,19.21,61800,19.21
2010-11-02,18.80,19.09,18.75,19.06,82800,19.06
2010-11-01,18.60,18.78,18.55,18.75,26800,18.75
2010-10-29,18.48,18.60,18.41,18.59,77100,18.59
2010-10-28,18.50,18.65,18.33,18.50,33000,18.50
2010-10-27,18.20,18.50,18.16,18.48,84800,18.48
2010-10-26,18.21,18.29,18.13,18.15,15000,18.15
2010-10-25,18.00,18.20,18.00,18.15,9900,18.15
2010-10-22,18.24,18.24,17.99,18.00,26300,18.00
2010-10-21,18.05,18.24,17.92,18.24,29300,18.24
2010-10-20,18.40,18.40,17.84,18.10,86100,18.10
2010-10-19,18.59,18.64,18.30,18.35,17300,18.35
2010-10-18,18.77,18.77,18.44,18.50,69700,18.50
2010-10-15,18.93,18.93,18.69,18.77,17700,18.77
2010-10-14,18.95,19.00,18.80,18.90,54400,18.90
2010-10-13,18.82,19.10,18.75,18.95,97100,18.95
2010-10-12,18.39,18.97,18.20,18.95,69200,18.95
2010-10-11,18.25,18.40,18.12,18.40,36400,18.40
2010-10-08,18.30,18.35,18.10,18.25,62200,18.25
2010-10-07,18.25,18.39,18.21,18.25,49200,18.25
2010-10-06,18.38,18.40,18.10,18.25,57000,18.25
2010-10-05,18.10,18.26,18.05,18.25,41900,18.25
2010-10-04,18.10,18.28,18.01,18.10,52800,18.10
2010-10-01,18.30,18.34,18.00,18.06,73700,18.06
2010-09-30,18.50,18.50,18.01,18.25,75100,18.25
2010-09-29,18.45,18.49,18.25,18.33,79600,18.33
2010-09-28,18.20,18.50,18.10,18.37,73800,18.37
2010-09-27,17.95,18.35,17.95,18.21,97100,18.21
2010-09-24,18.00,18.14,17.87,17.90,71100,17.90
2010-09-23,18.74,18.74,17.70,18.00,153300,18.00
2010-09-22,18.51,18.74,18.17,18.74,84500,18.74
2010-09-21,17.80,18.78,17.72,18.50,175900,18.50
2010-09-20,17.57,17.74,17.53,17.72,19400,17.72
2010-09-17,17.55,17.75,17.50,17.55,68600,17.55
2010-09-16,17.55,17.59,17.44,17.47,47000,17.47
2010-09-15,17.63,17.78,17.52,17.56,69300,17.56
2010-09-14,17.83,17.87,17.50,17.70,76700,17.70
2010-09-13,17.60,17.85,17.50,17.82,73300,17.82
2010-09-10,17.60,17.69,17.29,17.67,30500,17.67
2010-09-09,17.60,17.70,17.25,17.57,66500,17.57
2010-09-08,17.07,17.78,17.03,17.65,252900,17.65
2010-09-07,17.09,17.09,16.87,17.00,30400,17.00
2010-09-06,17.05,17.08,16.86,17.06,37800,17.06
2010-09-03,17.00,17.07,16.66,16.98,43100,16.98
2010-09-02,17.20,17.20,16.86,16.88,63300,16.88
2010-09-01,16.85,17.32,16.80,17.08,183200,17.08
2010-08-31,16.48,16.50,16.20,16.46,41900,16.46
2010-08-30,16.19,16.48,16.15,16.48,76500,16.48
2010-08-27,16.06,16.20,15.91,16.18,60100,16.18
2010-08-26,15.94,16.06,15.76,16.01,29200,16.01
2010-08-25,15.80,15.85,15.61,15.80,44400,15.80
2010-08-24,16.09,16.15,15.75,15.84,35500,15.84
2010-08-23,16.10,16.10,15.93,16.09,18000,16.09
2010-08-20,16.14,16.14,15.74,15.74,17400,15.74
2010-08-19,16.10,16.14,15.90,15.99,15100,15.99
2010-08-18,15.99,16.15,15.78,16.10,51300,16.10
2010-08-17,15.55,16.00,15.55,15.99,17400,15.99
2010-08-16,15.60,15.92,15.53,15.79,8100,15.79
2010-08-13,15.60,15.70,15.51,15.51,8200,15.51
2010-08-12,15.75,15.76,15.52,15.65,27000,15.65
2010-08-11,16.07,16.07,15.80,15.80,25600,15.80
2010-08-10,16.18,16.18,16.01,16.07,27400,16.07
2010-08-09,16.10,16.18,16.08,16.17,16600,16.17
2010-08-06,16.01,16.19,16.00,16.10,49800,16.10
2010-08-05,16.20,16.20,16.01,16.10,31300,16.10
2010-08-04,15.80,16.20,15.75,16.19,32800,16.19
2010-08-03,15.88,15.89,15.63,15.87,32500,15.87
2010-08-02,15.42,15.87,15.39,15.87,116600,15.87
2010-07-30,15.33,15.49,15.00,15.13,68200,15.13
2010-07-29,15.34,15.45,15.20,15.26,30800,15.26
2010-07-28,15.42,15.50,15.33,15.33,35000,15.33
2010-07-27,15.41,15.50,15.30,15.46,64000,15.46
2010-07-26,15.45,15.45,15.35,15.40,25700,15.40
2010-07-23,15.42,15.57,15.33,15.33,13100,15.33
2010-07-22,15.61,15.61,15.40,15.48,15600,15.48
2010-07-21,15.60,15.64,15.51,15.51,12600,15.51
2010-07-20,15.67,15.67,15.50,15.56,21900,15.56
2010-07-19,15.52,15.68,15.52,15.53,12300,15.53
2010-07-16,15.69,15.69,15.51,15.68,33400,15.68
2010-07-15,15.69,15.70,15.53,15.69,35500,15.69
2010-07-14,15.70,15.70,15.58,15.69,14600,15.69
2010-07-13,15.50,15.70,15.50,15.70,26600,15.70
2010-07-12,15.66,15.66,15.50,15.66,7700,15.66
2010-07-09,15.73,15.95,15.49,15.60,30400,15.60
2010-07-08,15.50,15.70,15.42,15.70,16300,15.70
2010-07-07,15.15,15.44,15.15,15.37,95800,15.37
2010-07-06,14.95,15.12,14.95,15.12,83400,15.12
2010-07-05,15.20,15.22,14.95,15.07,36100,15.07
2010-07-02,15.01,15.18,15.01,15.10,33800,15.10
2010-07-01,15.50,15.50,14.87,14.95,74300,14.95
2010-06-30,15.53,15.65,15.41,15.49,26400,15.49
2010-06-29,16.20,16.20,15.50,15.65,44500,15.65
2010-06-28,16.24,16.24,16.01,16.24,188200,16.24
2010-06-25,15.90,16.25,15.82,16.06,50600,16.06
2010-06-24,16.10,16.25,16.00,16.01,22300,16.01
2010-06-23,16.21,16.35,16.06,16.12,29400,16.12
2010-06-22,16.20,16.43,16.09,16.43,48100,16.43
2010-06-21,16.48,16.50,16.26,16.35,23800,16.35
2010-06-18,16.44,16.50,16.25,16.40,22500,16.40
2010-06-17,16.38,16.50,16.26,16.47,9700,16.47
2010-06-16,16.69,16.69,16.40,16.40,16300,16.40
2010-06-15,16.27,16.65,16.27,16.65,23900,16.65
2010-06-14,16.31,16.63,16.25,16.63,38200,16.63
2010-06-11,16.75,16.78,16.28,16.48,38900,16.48
2010-06-10,16.10,16.71,16.02,16.70,36100,16.70
2010-06-09,16.20,16.25,16.00,16.22,25500,16.22
2010-06-08,16.50,16.50,15.90,15.91,49300,15.91
2010-06-07,15.98,17.29,15.84,16.11,206400,16.11
2010-06-04,15.92,16.20,15.75,16.10,60600,16.10
2010-06-03,15.95,16.10,15.75,15.84,21700,15.84
2010-06-02,15.83,15.95,15.57,15.70,14400,15.70
2010-06-01,15.90,15.98,15.50,15.98,19600,15.98
2010-05-31,16.06,16.06,15.57,15.85,13400,15.85
2010-05-28,16.16,16.25,15.40,15.74,73900,15.74
2010-05-27,15.50,15.94,15.33,15.94,84600,15.94
2010-05-26,15.21,15.66,15.20,15.46,131300,15.46
2010-05-25,15.35,15.40,15.00,15.05,67200,15.05
2010-05-24,15.75,15.75,15.41,15.55,32200,15.55
2010-05-21,15.10,15.50,15.00,15.40,135000,15.40
2010-05-20,16.40,16.60,15.50,15.50,113500,15.50
2010-05-19,16.44,16.65,16.20,16.45,51900,16.45
2010-05-18,16.49,16.75,16.45,16.72,29600,16.72
2010-05-17,16.50,16.78,16.21,16.29,110300,16.29
2010-05-14,17.39,17.39,16.85,16.98,74700,16.98
2010-05-13,17.46,17.50,17.18,17.18,41700,17.18
2010-05-12,16.79,17.50,16.70,17.25,199500,17.25
2010-05-11,17.01,17.20,16.69,16.70,154000,16.70
2010-05-10,16.25,17.15,16.20,16.73,183600,16.73
2010-05-07,15.90,16.40,15.31,15.80,292700,15.80
2010-05-06,16.03,16.95,16.01,16.45,226800,16.45
2010-05-05,16.67,16.67,15.89,16.15,182700,16.15
2010-05-04,17.02,17.05,16.67,16.79,105700,16.79
2010-05-03,16.80,16.98,16.75,16.95,27000,16.95
2010-04-30,16.90,17.07,16.75,16.79,68000,16.79
2010-04-29,16.40,16.89,16.11,16.89,91400,16.89
2010-04-28,16.70,16.70,15.85,16.41,240800,16.41
2010-04-27,17.80,17.80,16.90,16.90,127100,16.90
2010-04-26,17.97,17.97,17.52,17.65,68200,17.65
2010-04-23,17.75,18.05,17.69,17.80,102000,17.80
2010-04-22,17.90,17.94,17.65,17.76,89900,17.76
2010-04-21,18.28,18.28,17.67,17.75,135100,17.75
2010-04-20,17.99,18.80,17.92,18.10,622900,18.10
2010-04-19,17.40,17.50,17.25,17.37,60800,17.37
2010-04-16,17.44,17.50,17.26,17.45,99200,17.45
2010-04-15,16.95,17.38,16.90,17.26,121000,17.26
2010-04-14,16.80,16.95,16.72,16.88,45100,16.88
2010-04-13,16.75,16.86,16.73,16.73,44100,16.73
2010-04-12,16.65,16.83,16.65,16.75,57200,16.75
2010-04-09,16.25,16.60,16.21,16.60,53800,16.60
2010-04-08,16.29,16.33,16.12,16.20,37600,16.20
2010-04-07,16.37,16.40,16.08,16.28,31300,16.28
2010-04-06,16.50,16.50,16.10,16.33,62300,16.33
2010-04-01,16.46,16.50,16.24,16.50,42600,16.50
2010-03-31,16.50,16.60,16.30,16.46,50600,16.46
2010-03-30,16.63,16.63,16.45,16.55,27000,16.55
2010-03-29,16.69,16.70,16.55,16.63,16900,16.63
2010-03-26,16.62,16.70,16.51,16.61,29800,16.61
2010-03-25,16.54,16.60,16.25,16.56,43300,16.56
2010-03-24,16.70,16.79,16.34,16.54,38100,16.54
2010-03-23,16.64,16.69,16.48,16.69,37800,16.69
2010-03-22,16.55,16.65,16.40,16.60,29500,16.60
2010-03-19,16.67,16.80,16.57,16.63,49500,16.63
2010-03-18,16.75,16.79,16.60,16.70,41900,16.70
2010-03-17,16.80,16.80,16.62,16.70,44200,16.70
2010-03-16,16.50,16.77,16.33,16.61,62200,16.61
2010-03-15,16.40,16.60,16.20,16.50,104400,16.50
2010-03-12,16.41,16.41,16.20,16.25,29800,16.25
2010-03-11,16.55,16.55,16.20,16.20,41300,16.20
2010-03-10,16.44,16.60,16.32,16.45,48500,16.45
2010-03-09,16.10,16.39,15.82,16.39,85700,16.39
2010-03-08,16.12,16.39,15.81,15.86,57300,15.86
2010-03-05,16.40,16.60,16.05,16.15,100500,16.15
2010-03-04,16.10,16.34,15.90,16.20,53500,16.20
2010-03-03,16.00,16.10,15.79,16.10,37100,16.10
2010-03-02,16.00,16.10,15.80,15.95,44700,15.95
2010-03-01,15.35,15.98,15.35,15.76,57300,15.76
2010-02-26,15.11,15.35,15.07,15.35,59000,15.35
2010-02-25,15.26,15.34,15.08,15.15,54600,15.15
2010-02-24,15.25,15.29,15.15,15.20,61700,15.20
2010-02-23,15.05,15.35,15.05,15.15,52100,15.15
2010-02-22,15.25,15.25,14.99,15.00,103600,15.00
2010-02-19,15.35,15.35,15.09,15.18,41200,15.18
2010-02-18,15.25,15.38,15.18,15.26,34600,15.26
2010-02-17,15.40,15.47,15.23,15.32,64200,15.32
2010-02-16,15.62,15.70,15.25,15.38,49800,15.38
2010-02-15,15.75,15.75,15.50,15.51,16800,15.51
2010-02-12,15.45,15.61,15.45,15.61,33700,15.61
2010-02-11,15.54,15.62,15.30,15.31,29800,15.31
2010-02-10,15.50,15.50,15.30,15.34,38200,15.34
2010-02-09,14.85,15.49,14.85,15.18,89500,15.18
2010-02-08,14.75,15.40,14.75,14.86,93400,14.86
2010-02-05,15.00,15.13,14.54,14.75,214100,14.75
2010-02-04,16.51,16.54,15.50,15.57,63200,15.57
2010-02-03,16.50,16.60,16.30,16.47,42500,16.47
2010-02-02,16.03,16.41,16.02,16.41,38600,16.41
2010-02-01,16.00,16.20,15.88,16.02,37400,16.02
2010-01-29,15.78,15.99,15.61,15.97,38200,15.97
2010-01-28,15.44,15.89,15.44,15.65,56800,15.65
2010-01-27,15.17,15.35,15.10,15.33,30400,15.33
2010-01-26,15.24,15.60,15.09,15.15,89800,15.15
2010-01-25,15.30,15.60,15.20,15.21,77500,15.21
2010-01-22,15.50,15.75,15.34,15.48,53200,15.48
2010-01-21,15.88,16.05,15.60,15.61,40900,15.61
2010-01-20,16.30,16.31,15.86,16.31,81000,16.31
2010-01-19,16.75,16.89,16.27,16.29,68800,16.29
2010-01-18,16.74,16.90,16.70,16.90,34900,16.90
2010-01-15,16.65,16.74,16.55,16.72,42000,16.72
2010-01-14,16.75,16.75,16.40,16.55,34400,16.55
2010-01-13,16.79,16.79,16.25,16.64,43900,16.64
2010-01-12,16.65,16.84,16.75,16.84,81800,16.84
2010-01-11,16.50,16.78,16.44,16.54,61200,16.54
2010-01-08,15.99,16.25,15.90,16.16,51600,16.16
2010-01-07,15.98,15.99,15.84,15.84,112700,15.84
2010-01-06,15.88,16.05,15.75,15.81,138400,15.81
2010-01-05,15.71,16.00,15.68,15.68,146000,15.68
2010-01-04,15.20,15.70,15.20,15.60,137200,15.60
2009-12-31,15.15,15.15,14.92,15.07,53700,15.07
2009-12-30,15.16,15.16,14.70,14.84,224900,14.84
2009-12-29,15.25,15.26,15.07,15.10,172900,15.10
2009-12-28,15.34,15.49,15.20,15.40,102100,15.40
2009-12-24,15.21,15.21,14.91,15.19,58000,15.19
2009-12-23,15.23,15.27,14.91,14.92,56300,14.92
2009-12-22,15.00,15.12,14.81,15.09,113100,15.09
2009-12-21,15.00,15.09,14.92,14.97,102100,14.97
2009-12-18,14.75,15.20,14.75,15.00,181600,15.00
2009-12-17,15.66,15.75,15.00,15.00,215700,15.00
2009-12-16,15.90,15.95,15.60,15.61,93200,15.61
2009-12-15,15.95,15.97,15.70,15.70,88200,15.70
2009-12-14,15.90,16.10,15.80,15.93,92800,15.93
2009-12-11,15.70,15.94,15.60,15.73,104200,15.73
2009-12-10,15.64,15.75,15.50,15.61,80900,15.61
2009-12-09,15.75,15.96,15.50,15.55,66900,15.55
2009-12-08,16.30,16.30,15.50,15.69,142100,15.69
2009-12-07,16.25,16.34,16.10,16.21,62900,16.21
2009-12-04,16.01,16.25,15.89,16.14,104300,16.14
2009-12-03,16.23,16.30,16.01,16.01,166700,16.01
2009-12-02,16.30,16.30,16.05,16.28,32400,16.28
2009-12-01,16.10,16.25,16.00,16.25,196600,16.25
2009-11-30,16.40,16.40,16.00,16.10,118700,16.10
2009-11-27,15.91,16.30,15.44,16.30,206300,16.30
2009-11-26,16.60,16.60,15.90,16.00,352500,16.00
2009-11-25,16.71,16.75,16.60,16.60,82800,16.60
2009-11-24,16.70,16.75,16.60,16.75,71700,16.75
2009-11-23,16.85,16.88,16.65,16.70,69300,16.70
2009-11-20,16.71,16.85,16.50,16.60,47600,16.60
2009-11-19,17.10,17.15,16.44,16.53,140200,16.53
2009-11-18,16.45,17.05,16.45,17.05,260100,17.05
2009-11-17,16.50,16.67,15.90,16.24,308800,16.24
2009-11-16,16.97,17.00,16.78,16.90,145100,16.90
2009-11-13,16.75,16.95,16.63,16.68,306800,16.68
2009-11-12,17.10,17.10,16.27,16.75,237500,16.75
2009-11-11,17.20,17.20,17.00,17.10,39100,17.10
2009-11-10,17.00,17.39,16.80,17.00,272800,17.00
2009-11-09,16.40,16.42,16.25,16.40,126900,16.40
2009-11-06,16.14,16.45,16.10,16.21,48500,16.21
2009-11-05,15.73,16.00,15.51,16.00,36800,16.00
2009-11-04,15.30,15.79,15.25,15.48,65900,15.48
2009-11-03,15.48,15.48,14.61,15.25,137800,15.25
2009-11-02,15.80,15.98,15.23,15.38,60300,15.38
2009-10-30,17.00,17.15,15.52,15.76,175500,15.76
2009-10-29,14.26,16.59,14.25,16.40,239300,16.40
2009-10-28,16.10,16.13,14.44,14.59,292800,14.59
2009-10-27,16.53,16.63,15.90,16.16,178700,16.16
2009-10-26,17.50,17.50,16.35,16.80,149000,16.80
2009-10-22,17.49,17.50,17.35,17.50,74700,17.50
2009-10-21,17.50,17.50,17.36,17.44,81900,17.44
2009-10-20,17.50,17.50,17.35,17.35,101300,17.35
2009-10-19,17.49,17.60,17.35,17.43,119800,17.43
2009-10-16,17.60,17.74,17.06,17.29,244400,17.29
2009-10-15,16.95,18.14,16.95,17.39,407800,17.39
2009-10-14,16.30,16.35,16.25,16.30,64700,16.30
2009-10-13,16.25,16.30,16.11,16.15,35300,16.15
2009-10-12,16.00,16.22,16.00,16.13,70900,16.13
2009-10-09,16.13,16.14,15.90,15.97,87500,15.97
2009-10-08,16.05,16.15,15.91,16.03,75700,16.03
2009-10-07,16.15,16.45,15.90,16.00,199800,16.00
2009-10-06,15.60,16.10,15.50,16.05,211700,16.05
2009-10-05,14.84,15.60,14.74,15.50,129300,15.50
2009-10-02,14.55,14.73,14.30,14.73,98400,14.73
2009-10-01,15.19,15.35,14.75,14.82,101000,14.82
2009-09-30,15.18,15.25,15.06,15.19,59100,15.19
2009-09-29,14.75,15.10,14.71,15.06,70900,15.06
2009-09-28,14.68,14.75,14.46,14.55,22900,14.55
2009-09-25,14.64,15.00,14.49,14.62,42200,14.62
2009-09-24,15.07,15.07,14.71,14.71,51900,14.71
2009-09-23,14.91,15.09,14.75,15.09,66800,15.09
2009-09-22,14.46,14.85,14.44,14.85,60000,14.85
2009-09-21,14.70,14.70,14.20,14.29,57200,14.29
2009-09-18,14.55,14.74,14.35,14.70,116400,14.70
2009-09-17,15.17,15.19,14.55,14.60,159900,14.60
2009-09-16,14.80,15.34,14.80,14.95,171200,14.95
2009-09-15,14.48,14.80,14.39,14.75,89100,14.75
2009-09-14,14.30,14.59,14.07,14.32,155900,14.32
2009-09-11,13.65,14.25,13.65,14.20,170000,14.20
2009-09-10,13.50,13.85,13.40,13.60,71900,13.60
2009-09-09,13.44,13.56,13.30,13.40,54100,13.40
2009-09-08,12.90,13.65,12.80,13.50,173900,13.50
2009-09-07,12.40,12.90,12.31,12.90,128300,12.90
2009-09-04,12.40,12.49,12.25,12.40,24400,12.40
2009-09-03,12.10,12.39,12.10,12.25,28700,12.25
2009-09-02,12.38,12.38,11.95,11.99,39500,11.99
2009-09-01,12.50,12.57,12.27,12.33,42800,12.33
2009-08-31,12.46,12.50,12.26,12.50,35200,12.50
2009-08-28,12.19,12.52,11.66,12.45,99400,12.45
2009-08-27,12.40,12.50,12.35,12.35,22300,12.35
2009-08-26,12.55,12.67,12.07,12.54,62100,12.54
2009-08-25,12.95,13.00,12.52,12.77,41600,12.77
2009-08-24,12.93,12.96,12.85,12.96,39600,12.96
2009-08-21,12.10,12.87,12.08,12.76,106500,12.76
2009-08-20,11.95,12.15,11.90,12.10,46500,12.10
2009-08-19,11.85,11.93,11.75,11.87,18800,11.87
2009-08-18,11.65,11.84,11.60,11.81,12900,11.81
2009-08-17,11.93,11.97,11.51,11.52,27200,11.52
2009-08-14,11.75,11.97,11.72,11.85,49400,11.85
2009-08-13,11.44,11.72,11.38,11.72,45300,11.72
2009-08-12,11.45,11.45,11.18,11.40,51800,11.40
2009-08-11,11.40,11.44,11.20,11.30,154400,11.30
2009-08-10,11.39,11.41,11.21,11.40,22700,11.40
2009-08-07,11.20,11.38,11.15,11.38,41700,11.38
2009-08-06,11.20,11.22,11.10,11.20,12700,11.20
2009-08-05,11.10,11.25,11.00,11.17,27000,11.17
2009-08-04,11.15,11.24,11.10,11.10,29300,11.10
2009-08-03,11.00,11.20,10.99,11.14,18800,11.14
2009-07-31,10.99,10.99,10.75,10.96,69500,10.96
2009-07-30,10.73,10.99,10.73,10.99,9800,10.99
2009-07-29,10.95,10.95,10.66,10.75,48900,10.75
2009-07-28,11.18,11.18,10.83,10.85,73400,10.85
2009-07-27,11.00,11.20,11.00,11.18,31500,11.18
2009-07-24,10.99,11.00,10.86,10.88,47500,10.88
2009-07-23,11.08,11.22,10.90,10.90,51400,10.90
2009-07-22,11.10,11.34,11.07,11.07,50800,11.07
2009-07-21,11.30,11.44,11.10,11.10,20000,11.10
2009-07-20,11.30,11.44,11.20,11.44,11900,11.44
2009-07-17,11.25,11.34,11.12,11.20,8500,11.20
2009-07-16,11.34,11.34,11.12,11.27,9400,11.27
2009-07-15,11.44,11.44,11.07,11.22,25600,11.22
2009-07-14,11.06,11.25,11.06,11.21,21100,11.21
2009-07-13,11.26,11.26,11.02,11.05,9400,11.05
2009-07-10,11.25,11.28,11.10,11.25,9900,11.25
2009-07-09,11.23,11.25,11.00,11.15,11700,11.15
2009-07-08,11.30,11.30,10.71,11.10,107000,11.10
2009-07-07,11.76,11.76,11.22,11.22,31500,11.22
2009-07-06,11.90,11.91,11.50,11.50,42300,11.50
2009-07-03,11.70,11.94,11.70,11.85,17800,11.85
2009-07-02,11.95,11.96,11.67,11.80,35600,11.80
2009-07-01,11.82,11.95,11.64,11.90,52100,11.90
2009-06-30,11.43,11.93,11.40,11.66,88800,11.66
2009-06-29,11.32,11.41,11.21,11.34,27400,11.34
2009-06-26,11.20,11.40,11.16,11.25,85900,11.25
2009-06-25,11.08,11.20,10.96,11.10,154600,11.10
2009-06-24,10.70,10.86,10.56,10.60,23100,10.60
2009-06-23,10.81,10.81,10.60,10.62,28800,10.62
2009-06-22,11.20,11.20,10.75,10.84,37300,10.84
2009-06-19,11.05,11.09,10.95,11.05,26200,11.05
2009-06-18,11.00,11.08,11.00,11.00,14000,11.00
2009-06-17,11.20,11.25,11.00,11.00,28800,11.00
2009-06-16,11.15,11.29,11.12,11.15,25100,11.15
2009-06-15,11.38,11.39,11.11,11.13,19100,11.13
2009-06-12,11.18,11.40,11.10,11.11,33800,11.11
2009-06-11,11.20,11.20,11.07,11.11,20000,11.11
2009-06-10,11.15,11.25,11.03,11.15,33800,11.15
2009-06-09,11.15,11.15,11.01,11.13,19200,11.13
2009-06-08,11.30,11.30,11.05,11.05,25600,11.05
2009-06-05,11.25,11.30,11.01,11.01,108700,11.01
2009-06-04,11.11,11.20,11.00,11.10,25500,11.10
2009-06-03,11.10,11.19,10.97,11.15,49400,11.15
2009-06-02,11.12,11.18,11.00,11.18,30300,11.18
2009-06-01,11.25,11.25,11.10,11.12,20200,11.12
2009-05-29,11.25,11.40,11.12,11.26,82500,11.26
2009-05-28,11.30,11.37,11.11,11.20,38400,11.20
2009-05-27,11.38,11.40,11.24,11.24,33400,11.24
2009-05-26,11.37,11.40,11.27,11.27,83300,11.27
2009-05-25,11.30,11.39,11.25,11.37,41300,11.37
2009-05-22,11.30,11.40,11.26,11.34,26200,11.34
2009-05-21,11.30,11.37,11.24,11.31,17600,11.31
2009-05-20,11.25,11.35,11.16,11.20,143100,11.20
2009-05-19,11.26,11.40,11.23,11.24,72200,11.24
2009-05-18,11.25,11.32,11.00,11.18,28500,11.18
2009-05-15,11.25,11.29,10.97,11.10,44800,11.10
2009-05-14,11.15,11.50,10.86,10.95,70100,10.95
2009-05-13,11.58,11.68,10.90,10.90,81200,10.90
2009-05-12,10.91,11.79,10.83,11.50,124400,11.50
2009-05-11,10.81,10.92,10.65,10.85,93900,10.85
2009-05-08,10.36,10.80,10.36,10.69,127700,10.69
2009-05-07,9.90,10.20,9.90,10.18,63700,10.18
2009-05-06,10.20,10.20,9.85,9.88,49600,9.88
2009-05-05,10.35,10.36,10.10,10.22,26200,10.22
2009-05-04,10.10,10.36,10.00,10.36,37600,10.36
2009-05-01,9.90,9.90,9.90,9.90,000,9.90
2009-04-30,10.10,10.38,9.90,9.90,52900,9.90
2009-04-29,9.35,10.20,9.35,10.02,78100,10.02
2009-04-28,9.35,9.39,9.20,9.35,17400,9.35
2009-04-27,9.39,9.40,9.29,9.32,15900,9.32
2009-04-24,9.40,9.40,9.30,9.30,10300,9.30
2009-04-23,9.40,9.40,9.21,9.26,8300,9.26
2009-04-22,9.30,9.40,9.20,9.40,6800,9.40
2009-04-21,9.14,9.35,9.05,9.08,26100,9.08
2009-04-20,9.40,9.42,9.05,9.15,32800,9.15
2009-04-17,9.10,9.20,9.05,9.20,60600,9.20
2009-04-16,9.00,9.15,9.00,9.03,24500,9.03
2009-04-15,8.90,8.99,8.90,8.99,19000,8.99
2009-04-14,8.80,8.96,8.80,8.82,26800,8.82
2009-04-13,8.76,8.76,8.76,8.76,000,8.76
2009-04-10,8.76,8.76,8.76,8.76,000,8.76
2009-04-09,8.80,8.82,8.75,8.76,5400,8.76
2009-04-08,8.76,8.83,8.75,8.75,7900,8.75
2009-04-07,8.84,8.95,8.75,8.87,11700,8.87
2009-04-06,8.80,8.85,8.80,8.81,11600,8.81
2009-04-03,8.79,9.01,8.68,8.70,44800,8.70
2009-04-02,8.60,8.80,8.57,8.68,20800,8.68
2009-04-01,8.69,8.69,8.56,8.60,20700,8.60
2009-03-31,8.70,8.70,8.60,8.61,37700,8.61
2009-03-30,8.80,8.80,8.61,8.61,11200,8.61
2009-03-27,8.75,8.80,8.68,8.70,18700,8.70
2009-03-26,8.94,8.94,8.74,8.75,36500,8.75
2009-03-25,8.90,8.95,8.80,8.80,22100,8.80
2009-03-24,8.90,8.90,8.75,8.80,19900,8.80
2009-03-23,9.00,9.00,8.85,8.90,14900,8.90
2009-03-20,8.90,9.00,8.85,8.85,10800,8.85
2009-03-19,8.85,8.91,8.80,8.85,19000,8.85
2009-03-18,8.90,8.93,8.80,8.85,24400,8.85
2009-03-17,9.08,9.08,8.80,8.83,23300,8.83
2009-03-16,9.15,9.19,9.05,9.08,22100,9.08
2009-03-13,9.00,9.16,9.00,9.00,61900,9.00
2009-03-12,8.95,8.99,8.80,8.80,8700,8.80
2009-03-11,8.80,8.95,8.62,8.91,33600,8.91
2009-03-10,8.50,8.80,8.25,8.80,42100,8.80
2009-03-09,8.89,8.90,8.52,8.55,17100,8.55
2009-03-06,9.00,9.00,8.76,8.85,35500,8.85
2009-03-05,9.15,9.20,9.00,9.00,17700,9.00
2009-03-04,9.29,9.30,9.15,9.15,43500,9.15
2009-03-03,9.21,9.33,9.21,9.22,20200,9.22
2009-03-02,9.29,9.30,9.12,9.24,21200,9.24
2009-02-27,9.15,9.25,9.06,9.25,31400,9.25
2009-02-26,8.95,9.12,8.95,9.10,8600,9.10
2009-02-25,9.11,9.14,8.96,8.96,76800,8.96
2009-02-24,9.15,9.15,9.00,9.10,16800,9.10
2009-02-23,9.25,9.36,9.13,9.16,5600,9.16
2009-02-20,9.28,9.35,9.01,9.02,10800,9.02
2009-02-19,9.15,9.25,9.15,9.15,13800,9.15
2009-02-18,9.00,9.19,9.00,9.14,4500,9.14
2009-02-17,9.44,9.44,9.10,9.10,18700,9.10
2009-02-16,9.39,9.43,9.13,9.42,17000,9.42
2009-02-13,9.30,9.38,9.20,9.25,16800,9.25
2009-02-12,9.31,9.42,9.00,9.20,26800,9.20
2009-02-11,9.59,9.59,9.40,9.48,14100,9.48
2009-02-10,9.68,9.70,9.50,9.57,60300,9.57
2009-02-09,9.58,9.64,9.43,9.64,103200,9.64
2009-02-06,9.35,9.60,9.35,9.41,146400,9.41
2009-02-05,9.38,9.51,9.15,9.34,56800,9.34
2009-02-04,8.95,9.42,8.90,9.37,46200,9.37
2009-02-03,8.74,8.95,8.70,8.85,34400,8.85
2009-02-02,8.69,8.85,8.60,8.64,47800,8.64
2009-01-30,8.24,8.49,8.21,8.40,36600,8.40
2009-01-29,8.22,8.22,8.20,8.22,5800,8.22
2009-01-28,8.01,8.27,8.01,8.21,14700,8.21
2009-01-27,8.19,8.25,8.03,8.03,4400,8.03
2009-01-26,7.93,8.15,7.60,8.12,21200,8.12
2009-01-23,7.80,7.85,7.58,7.84,9800,7.84
2009-01-22,7.80,7.90,7.61,7.80,12500,7.80
2009-01-21,7.88,7.89,7.60,7.80,16800,7.80
2009-01-20,8.00,8.10,7.88,7.95,17400,7.95
2009-01-19,8.13,8.13,8.01,8.10,3100,8.10
2009-01-16,8.12,8.15,8.00,8.14,8000,8.14
2009-01-15,8.16,8.24,8.01,8.12,19000,8.12
2009-01-14,8.27,8.38,8.00,8.02,24800,8.02
2009-01-13,8.36,8.44,8.10,8.27,18300,8.27
2009-01-12,8.29,8.70,8.29,8.35,65800,8.35
2009-01-09,8.04,8.31,8.01,8.13,35200,8.13
2009-01-08,7.76,7.97,7.65,7.95,39700,7.95
2009-01-07,7.55,7.80,7.51,7.78,15800,7.78
2009-01-06,7.45,7.50,7.45,7.50,20300,7.50
2009-01-05,7.50,7.50,7.31,7.45,20500,7.45
2009-01-02,7.13,7.50,7.13,7.41,8400,7.41
2009-01-01,7.00,7.00,7.00,7.00,000,7.00
2008-12-31,7.02,7.18,7.00,7.00,11500,7.00
2008-12-30,6.93,7.25,6.93,7.03,8400,7.03
2008-12-29,6.97,6.97,6.82,6.93,11300,6.93
2008-12-26,6.90,6.90,6.90,6.90,000,6.90
2008-12-25,6.90,6.90,6.90,6.90,000,6.90
2008-12-24,6.90,6.90,6.90,6.90,400,6.90
2008-12-23,6.80,6.85,6.80,6.82,10600,6.82
2008-12-22,7.00,7.00,6.78,6.80,6800,6.80
2008-12-19,7.00,7.00,6.73,6.73,21300,6.73
2008-12-18,7.30,7.30,6.81,6.81,35200,6.81
2008-12-17,7.31,7.35,7.25,7.28,9500,7.28
2008-12-16,7.25,7.36,7.25,7.27,2000,7.27
2008-12-15,7.50,7.50,7.12,7.29,25000,7.29
2008-12-12,7.37,7.45,7.10,7.15,26800,7.15
2008-12-11,7.50,7.50,7.37,7.48,13700,7.48
2008-12-10,7.53,7.66,7.37,7.50,16100,7.50
2008-12-09,7.36,7.59,7.36,7.53,5200,7.53
2008-12-08,7.60,7.70,7.35,7.35,20500,7.35
2008-12-05,7.50,7.70,7.35,7.58,13800,7.58
2008-12-04,7.69,7.69,7.51,7.59,4100,7.59
2008-12-03,7.62,7.79,7.51,7.69,6700,7.69
2008-12-02,7.60,7.80,7.60,7.61,18600,7.61
2008-12-01,8.00,8.00,7.75,7.90,11000,7.90
2008-11-28,7.93,8.00,7.79,8.00,11200,8.00
2008-11-27,7.99,8.00,7.80,7.87,24900,7.87
2008-11-26,7.80,8.28,7.80,7.96,67700,7.96
2008-11-25,7.31,7.80,7.29,7.80,52100,7.80
2008-11-24,7.28,7.47,7.25,7.28,12100,7.28
2008-11-21,7.48,7.48,7.20,7.36,12300,7.36
2008-11-20,7.40,7.45,7.30,7.38,672900,7.38
2008-11-19,7.70,7.70,7.50,7.52,12800,7.52
2008-11-18,7.66,7.69,7.50,7.60,5500,7.60
2008-11-17,7.74,7.76,7.52,7.72,9400,7.72
2008-11-14,7.60,7.69,7.31,7.67,8000,7.67
2008-11-13,7.45,7.60,7.17,7.50,9600,7.50
2008-11-12,7.50,7.60,7.45,7.59,5700,7.59
2008-11-11,7.57,7.61,7.50,7.61,11200,7.61
2008-11-10,7.76,7.76,7.56,7.57,10100,7.57
2008-11-07,7.80,7.80,7.55,7.77,9500,7.77
2008-11-06,7.88,7.88,7.55,7.75,10900,7.75
2008-11-05,8.20,8.25,7.75,7.89,17200,7.89
2008-11-04,7.90,8.20,7.90,8.16,29900,8.16
2008-11-03,7.80,7.98,7.64,7.96,14400,7.96
2008-10-31,7.74,7.89,7.53,7.70,7900,7.70
2008-10-30,7.77,7.79,7.52,7.74,12900,7.74
2008-10-29,7.60,7.79,7.55,7.75,11700,7.75
2008-10-28,7.30,7.65,7.30,7.65,7500,7.65
2008-10-27,7.40,7.50,7.01,7.40,30600,7.40
2008-10-24,7.80,7.80,7.30,7.50,29000,7.50
2008-10-23,7.90,7.90,7.50,7.73,18100,7.73
2008-10-22,7.99,7.99,7.70,7.90,6800,7.90
2008-10-21,7.92,8.10,7.50,7.95,14400,7.95
2008-10-20,7.95,8.20,7.75,7.92,8800,7.92
2008-10-17,7.56,7.88,7.48,7.74,23000,7.74
2008-10-16,7.60,7.60,7.31,7.50,15100,7.50
2008-10-15,8.15,8.20,7.66,7.66,27100,7.66
2008-10-14,8.20,8.35,8.00,8.00,27500,8.00
2008-10-13,7.50,8.00,7.50,7.91,24300,7.91
2008-10-10,7.45,7.48,6.70,7.20,60600,7.20
2008-10-09,7.00,7.89,6.76,7.71,39200,7.71
2008-10-08,7.55,7.55,6.51,7.35,87600,7.35
2008-10-07,7.95,8.00,7.71,7.85,24300,7.85
2008-10-06,8.25,8.25,7.95,8.00,36000,8.00
2008-10-03,8.20,8.23,8.09,8.22,5600,8.22
2008-10-02,8.30,8.34,8.05,8.22,15200,8.22
2008-10-01,8.25,8.29,8.08,8.25,15100,8.25
2008-09-30,8.02,8.25,7.99,8.20,39500,8.20
2008-09-29,8.50,8.60,8.12,8.30,36700,8.30
2008-09-26,8.35,8.65,8.35,8.50,29400,8.50
2008-09-25,8.35,8.50,8.25,8.40,22400,8.40
2008-09-24,8.20,8.35,8.20,8.25,34500,8.25
2008-09-23,8.40,8.40,8.16,8.26,11500,8.26
2008-09-22,8.37,8.48,8.20,8.25,801500,8.25
2008-09-19,8.15,8.35,7.85,8.35,23600,8.35
2008-09-18,8.04,8.17,7.82,8.09,17100,8.09
2008-09-17,8.21,8.37,8.05,8.27,13100,8.27
2008-09-16,8.20,8.38,8.10,8.22,24300,8.22
2008-09-15,8.50,8.57,8.16,8.38,37400,8.38
2008-09-12,8.40,8.65,8.40,8.65,11600,8.65
2008-09-11,8.49,8.70,8.31,8.40,6900,8.40
2008-09-10,8.50,8.60,8.45,8.50,11700,8.50
2008-09-09,8.94,8.94,8.50,8.65,20200,8.65
2008-09-08,8.80,8.85,8.56,8.71,15600,8.71
2008-09-05,8.85,8.95,8.80,8.80,18000,8.80
2008-09-04,8.95,8.95,8.83,8.87,12700,8.87
2008-09-03,8.98,8.98,8.85,8.95,5700,8.95
2008-09-02,8.95,9.00,8.87,9.00,2100,9.00
2008-09-01,9.00,9.05,8.85,9.03,7700,9.03
2008-08-29,9.06,9.06,8.91,9.00,22800,9.00
2008-08-28,9.00,9.07,8.83,9.06,14300,9.06
2008-08-27,8.92,8.97,8.86,8.92,42800,8.92
2008-08-26,8.83,8.99,8.83,8.95,3300,8.95
2008-08-25,9.09,9.09,8.75,9.07,17100,9.07
2008-08-22,8.71,9.04,8.55,9.04,37900,9.04
2008-08-21,8.67,9.10,8.64,8.65,33900,8.65
2008-08-20,8.60,8.70,8.60,8.63,2300,8.63
2008-08-19,8.55,8.70,8.55,8.70,2700,8.70
2008-08-18,8.55,8.70,8.55,8.70,2400,8.70
2008-08-15,8.70,8.70,8.51,8.65,5000,8.65
2008-08-14,8.60,8.70,8.51,8.70,14400,8.70
2008-08-13,8.63,8.63,8.51,8.60,6200,8.60
2008-08-12,8.81,8.81,8.63,8.63,13700,8.63
2008-08-11,8.85,8.85,8.72,8.80,4600,8.80
2008-08-08,8.60,8.82,8.60,8.81,24400,8.81
2008-08-07,8.68,8.70,8.55,8.65,14500,8.65
2008-08-06,8.30,8.69,8.26,8.69,70200,8.69
2008-08-05,8.70,8.70,8.20,8.45,50900,8.45
2008-08-04,8.75,8.82,8.65,8.65,9800,8.65
2008-08-01,8.70,8.80,8.65,8.70,19900,8.70
2008-07-31,8.65,8.75,8.63,8.70,21100,8.70
2008-07-30,8.76,8.80,8.68,8.70,12600,8.70
2008-07-29,8.72,8.80,8.66,8.72,11000,8.72
2008-07-28,8.73,8.84,8.73,8.84,6300,8.84
2008-07-25,8.65,8.87,8.65,8.72,11800,8.72
2008-07-24,8.69,8.90,8.68,8.68,12900,8.68
2008-07-23,8.73,8.93,8.68,8.74,14300,8.74
2008-07-22,8.93,8.93,8.75,8.85,20600,8.85
2008-07-21,8.70,8.89,8.70,8.89,9000,8.89
2008-07-18,8.90,8.90,8.64,8.72,35500,8.72
2008-07-17,8.90,9.00,8.81,8.90,22600,8.90
2008-07-16,8.87,9.08,8.85,8.90,11200,8.90
2008-07-15,9.20,9.30,8.83,9.05,38800,9.05
2008-07-14,9.25,9.32,9.05,9.27,11800,9.27
2008-07-11,9.25,9.38,9.25,9.29,9600,9.29
2008-07-10,9.25,9.35,9.20,9.34,31600,9.34
2008-07-09,9.27,9.43,9.10,9.20,16800,9.20
2008-07-08,9.28,9.28,9.00,9.10,26100,9.10
2008-07-07,9.32,9.54,9.30,9.30,54100,9.30
2008-07-04,9.00,9.49,9.00,9.30,67600,9.30
2008-07-03,8.75,9.08,8.55,8.98,91500,8.98
2008-07-02,8.71,8.71,8.51,8.65,22000,8.65
2008-07-01,8.68,8.88,8.46,8.69,27500,8.69
2008-06-30,8.85,8.95,8.50,8.68,27500,8.68
2008-06-27,8.71,8.99,8.63,8.84,28900,8.84
2008-06-26,9.19,9.25,8.65,8.80,42100,8.80
2008-06-25,9.10,9.18,9.00,9.12,25400,9.12
2008-06-24,8.91,9.05,8.58,9.05,64200,9.05
2008-06-23,9.39,9.39,8.77,8.80,73200,8.80
2008-06-20,9.40,9.98,9.28,9.30,254600,9.30
2008-06-19,8.78,9.28,8.75,9.26,130700,9.26
2008-06-18,8.92,9.03,8.58,8.58,145400,8.58
2008-06-17,8.00,8.00,7.90,7.90,16800,7.90
2008-06-16,8.10,8.17,7.98,7.98,30700,7.98
2008-06-13,8.22,8.33,7.98,8.00,41200,8.00
2008-06-12,8.35,8.47,8.19,8.19,32100,8.19
2008-06-11,8.60,8.71,8.31,8.31,38800,8.31
2008-06-10,8.85,8.85,8.52,8.52,16800,8.52
2008-06-09,8.90,8.90,8.67,8.85,25200,8.85
2008-06-06,8.90,9.00,8.86,8.90,14200,8.90
2008-06-05,8.90,9.00,8.85,8.85,18300,8.85
2008-06-04,8.90,8.99,8.88,8.90,8900,8.90
2008-06-03,9.00,9.15,8.89,8.90,78200,8.90
2008-06-02,8.90,8.99,8.90,8.93,12400,8.93
2008-05-30,8.90,8.98,8.80,8.90,8000,8.90
2008-05-29,8.95,8.97,8.85,8.95,7700,8.95
2008-05-28,9.00,9.00,8.90,8.90,10600,8.90
2008-05-27,9.09,9.12,8.90,8.99,28300,8.99
2008-05-26,8.87,9.09,8.80,9.09,33200,9.09
2008-05-23,8.75,8.88,8.55,8.65,12100,8.65
2008-05-22,8.57,8.75,8.54,8.69,16600,8.69
2008-05-21,8.80,8.88,8.60,8.60,13200,8.60
2008-05-20,8.90,8.90,8.75,8.82,13800,8.82
2008-05-19,9.00,9.00,8.82,8.82,11700,8.82
2008-05-16,8.99,9.00,8.81,8.90,11500,8.90
2008-05-15,8.88,8.98,8.80,8.88,22400,8.88
2008-05-14,9.00,9.16,8.98,9.14,38900,9.14
2008-05-13,9.15,9.20,8.97,8.97,7400,8.97
2008-05-12,9.00,9.20,9.00,9.10,2600,9.10
2008-05-09,9.15,9.19,9.00,9.16,23600,9.16
2008-05-08,9.40,9.40,9.00,9.05,30500,9.05
2008-05-07,9.31,9.60,9.30,9.30,41000,9.30
2008-05-06,8.88,9.20,8.85,9.20,62500,9.20
2008-05-05,8.70,8.81,8.64,8.79,17800,8.79
2008-05-02,8.62,8.64,8.60,8.64,10500,8.64
2008-04-30,8.60,8.70,8.50,8.60,19000,8.60
2008-04-29,8.50,8.85,8.45,8.60,50700,8.60
2008-04-28,8.33,8.45,8.26,8.37,43100,8.37
2008-04-25,7.67,8.18,7.66,8.00,55400,8.00
2008-04-24,7.79,7.79,7.39,7.66,32900,7.66
2008-04-23,7.88,7.88,7.60,7.79,17800,7.79
2008-04-22,7.95,7.95,7.56,7.82,13400,7.82
2008-04-21,7.80,7.93,7.64,7.64,7800,7.64
2008-04-18,7.75,7.80,7.75,7.80,2500,7.80
2008-04-17,7.80,7.80,7.70,7.80,2500,7.80
2008-04-16,7.80,7.80,7.75,7.80,2600,7.80
2008-04-15,7.70,7.80,7.55,7.72,5500,7.72
2008-04-14,7.79,7.80,7.70,7.78,4400,7.78
2008-04-11,7.76,8.00,7.70,7.70,5200,7.70
2008-04-10,7.95,7.95,7.75,7.75,10600,7.75
2008-04-09,7.70,7.95,7.70,7.87,6400,7.87
2008-04-08,7.74,7.75,7.65,7.74,4400,7.74
2008-04-07,7.65,7.75,7.51,7.73,7700,7.73
2008-04-04,7.41,7.52,7.41,7.52,5200,7.52
2008-04-03,7.45,7.65,7.37,7.37,11000,7.37
2008-04-02,7.65,7.65,7.26,7.38,119700,7.38
2008-04-01,7.60,7.65,7.45,7.60,11400,7.60
2008-03-31,7.45,7.64,7.30,7.64,5200,7.64
2008-03-28,7.50,7.50,7.40,7.44,4900,7.44
2008-03-27,7.20,7.50,7.20,7.50,10800,7.50
2008-03-26,7.15,7.44,7.15,7.18,7000,7.18
2008-03-25,7.10,7.25,7.08,7.14,16900,7.14
2008-03-20,7.07,7.09,7.00,7.05,15100,7.05
2008-03-19,7.29,7.29,7.02,7.02,24000,7.02
2008-03-18,7.45,7.50,7.26,7.29,20200,7.29
2008-03-17,7.60,7.75,7.45,7.46,41400,7.46
2008-03-14,7.85,7.95,7.69,7.69,29500,7.69
2008-03-13,8.00,8.00,7.85,7.95,11200,7.95
2008-03-12,8.00,8.00,7.98,7.98,4400,7.98
2008-03-11,8.00,8.00,7.90,7.99,6500,7.99
2008-03-10,8.00,8.00,7.85,8.00,20300,8.00
2008-03-07,7.91,8.00,7.85,7.85,9100,7.85
2008-03-06,8.05,8.05,7.92,7.92,4500,7.92
2008-03-05,7.99,8.05,7.92,7.94,7400,7.94
2008-03-04,7.97,8.00,7.95,7.98,2200,7.98
2008-03-03,8.08,8.08,7.90,7.98,8400,7.98
2008-02-29,8.01,8.20,7.87,8.20,20700,8.20
2008-02-28,7.99,8.19,7.95,8.19,9100,8.19
2008-02-27,8.10,8.10,7.99,8.05,23600,8.05
2008-02-26,8.05,8.15,7.99,8.12,27500,8.12
2008-02-25,8.00,8.10,7.99,8.10,13200,8.10
2008-02-22,8.00,8.00,7.90,7.95,10600,7.95
2008-02-21,8.00,8.00,7.85,7.95,8300,7.95
2008-02-20,7.92,8.00,7.91,8.00,14100,8.00
2008-02-19,7.90,7.98,7.85,7.88,10400,7.88
2008-02-18,7.81,7.89,7.80,7.84,2900,7.84
2008-02-15,7.90,7.90,7.75,7.88,13300,7.88
2008-02-14,7.74,7.86,7.71,7.85,11400,7.85
2008-02-13,7.78,7.78,7.67,7.67,11300,7.67
2008-02-12,7.80,7.80,7.65,7.67,21800,7.67
2008-02-11,7.76,7.90,7.76,7.77,9500,7.77
2008-02-08,7.80,7.96,7.70,7.75,16400,7.75
2008-02-07,7.72,7.78,7.70,7.78,7900,7.78
2008-02-06,7.80,7.80,7.71,7.77,14000,7.77
2008-02-05,8.00,8.01,7.84,7.84,9600,7.84
2008-02-04,8.35,8.35,7.99,8.00,17600,8.00
2008-02-01,7.81,8.00,7.81,8.00,5700,8.00
2008-01-31,7.97,7.99,7.65,7.65,31500,7.65
2008-01-30,8.12,8.16,7.98,7.98,13400,7.98
2008-01-29,8.01,8.11,7.96,8.00,19000,8.00
2008-01-28,8.21,8.21,7.80,7.80,13000,7.80
2008-01-25,8.48,8.55,8.00,8.00,40500,8.00
2008-01-24,8.05,8.50,8.05,8.45,21300,8.45
2008-01-23,8.10,8.46,7.70,7.99,57500,7.99
2008-01-22,7.60,8.18,7.50,7.91,66000,7.91
2008-01-21,8.06,8.06,7.53,7.60,76000,7.60
2008-01-18,8.50,8.50,8.01,8.06,33600,8.06
2008-01-17,8.50,8.61,8.47,8.50,20700,8.50
2008-01-16,8.68,8.75,8.50,8.50,35000,8.50
2008-01-15,9.05,9.05,8.85,8.85,38600,8.85
2008-01-14,9.08,9.11,9.00,9.10,18500,9.10
2008-01-11,9.05,9.19,9.03,9.19,16600,9.19
2008-01-10,9.15,9.19,9.05,9.06,18700,9.06
2008-01-09,9.15,9.15,9.05,9.14,26500,9.14
2008-01-08,9.18,9.27,9.10,9.10,32200,9.10
2008-01-07,9.20,9.25,9.10,9.15,14400,9.15
2008-01-04,9.30,9.40,9.19,9.20,21200,9.20
2008-01-03,9.50,9.50,9.36,9.39,17300,9.39
2008-01-02,9.74,9.80,9.52,9.55,27500,9.55
2007-12-31,9.64,9.74,9.51,9.74,13500,9.74
2007-12-28,9.75,9.75,9.46,9.59,38200,9.59
2007-12-27,9.69,9.78,9.62,9.73,57400,9.73
2007-12-24,9.43,9.60,9.39,9.49,29700,9.49
2007-12-21,9.20,9.29,9.12,9.20,22800,9.20
2007-12-20,9.20,9.25,9.07,9.20,22700,9.20
2007-12-19,9.30,9.30,9.04,9.04,17300,9.04
2007-12-18,9.15,9.50,9.15,9.28,14300,9.28
2007-12-17,9.65,9.65,9.20,9.49,36400,9.49
2007-12-14,9.64,9.79,9.52,9.55,27900,9.55
2007-12-13,9.36,9.65,9.30,9.55,34300,9.55
2007-12-12,9.24,9.38,9.15,9.30,46200,9.30
2007-12-11,9.43,9.46,9.26,9.26,67100,9.26
2007-12-10,9.24,9.31,9.23,9.25,33500,9.25
2007-12-07,9.10,9.20,9.10,9.19,18200,9.19
2007-12-06,8.95,9.05,8.95,9.05,33200,9.05
2007-12-05,8.82,8.94,8.79,8.90,40000,8.90
2007-12-04,9.13,9.28,8.79,8.79,52800,8.79
2007-12-03,9.00,9.09,8.84,8.95,38300,8.95
2007-11-30,8.81,8.99,8.81,8.95,31100,8.95
2007-11-29,8.80,8.85,8.75,8.80,26400,8.80
2007-11-28,8.70,8.85,8.63,8.79,25400,8.79
2007-11-27,8.52,8.70,8.50,8.60,26400,8.60
2007-11-26,8.65,8.65,8.50,8.50,35200,8.50
2007-11-23,8.65,8.65,8.52,8.60,33400,8.60
2007-11-22,8.53,8.69,8.48,8.50,31300,8.50
2007-11-21,8.80,8.80,8.55,8.65,16200,8.65
2007-11-20,8.90,8.90,8.75,8.75,25400,8.75
2007-11-19,9.05,9.05,8.80,8.81,37000,8.81
2007-11-16,9.03,9.04,8.88,8.95,23900,8.95
2007-11-15,9.25,9.25,8.89,8.93,56700,8.93
2007-11-14,9.25,9.40,9.13,9.13,31200,9.13
2007-11-13,9.17,9.17,9.00,9.01,6400,9.01
2007-11-12,9.00,9.15,8.99,9.00,14800,9.00
2007-11-09,9.28,9.34,8.95,8.95,30900,8.95
2007-11-08,9.31,9.31,8.80,9.19,120300,9.19
2007-11-07,9.59,9.59,9.30,9.30,81200,9.30
2007-11-06,9.55,9.65,9.16,9.30,298500,9.30
2007-11-05,9.24,9.24,8.97,9.05,108600,9.05
2007-11-02,9.01,9.22,8.80,8.85,196800,8.85
2007-11-01,8.50,8.64,8.50,8.55,5200,8.55
2007-10-31,8.75,8.75,8.45,8.68,99000,8.68
2007-10-30,8.56,8.80,8.45,8.60,32200,8.60
2007-10-29,8.50,8.70,8.50,8.56,46000,8.56
2007-10-26,8.80,8.85,8.51,8.55,36300,8.55
2007-10-25,8.97,8.97,8.62,8.80,40900,8.80
2007-10-24,9.10,9.27,9.00,9.00,28200,9.00
2007-10-23,9.02,9.28,9.02,9.05,21400,9.05
2007-10-22,9.30,9.35,8.62,9.10,57800,9.10
2007-10-19,9.53,9.60,9.12,9.23,40600,9.23
2007-10-18,9.70,9.70,9.57,9.60,18900,9.60
2007-10-17,9.60,9.75,9.55,9.60,29600,9.60
2007-10-16,9.70,9.70,9.65,9.70,11300,9.70
2007-10-15,9.68,9.80,9.67,9.70,20500,9.70
2007-10-12,9.83,9.83,9.65,9.70,10100,9.70
2007-10-11,9.75,9.85,9.70,9.85,28000,9.85
2007-10-10,9.75,9.90,9.71,9.80,62500,9.80
2007-10-09,9.75,9.78,9.67,9.70,19100,9.70
2007-10-08,9.90,9.90,9.75,9.75,54200,9.75
2007-10-05,9.93,9.93,9.75,9.75,17300,9.75
2007-10-04,9.97,9.99,9.70,9.85,25500,9.85
2007-10-03,9.90,9.98,9.70,9.95,10100,9.95
2007-10-02,10.00,10.00,9.71,9.80,10200,9.80
2007-10-01,9.98,10.00,9.75,9.90,15600,9.90
2007-09-28,9.65,10.00,9.51,10.00,34100,10.00
2007-09-27,9.62,9.65,9.60,9.65,17200,9.65
2007-09-26,9.50,9.64,9.34,9.64,70600,9.64
2007-09-25,9.45,9.50,9.25,9.50,9100,9.50
2007-09-24,9.60,9.60,9.45,9.47,11600,9.47
2007-09-21,9.70,9.70,9.50,9.50,54300,9.50
2007-09-20,9.80,9.80,9.56,9.58,26000,9.58
2007-09-19,9.76,9.85,9.71,9.85,14200,9.85
2007-09-18,9.67,9.71,9.55,9.69,24500,9.69
2007-09-17,9.52,9.67,9.50,9.55,14900,9.55
2007-09-14,9.63,9.69,9.40,9.69,9600,9.69
2007-09-13,9.70,9.70,9.50,9.69,7900,9.69
2007-09-12,9.70,9.75,9.55,9.75,9200,9.75
2007-09-11,9.50,9.70,9.50,9.70,7400,9.70
2007-09-10,9.51,9.64,9.25,9.55,17500,9.55
2007-09-07,10.04,10.07,9.69,9.69,98900,9.69
2007-09-06,9.93,10.04,9.92,9.95,6800,9.95
2007-09-05,10.10,10.10,9.91,10.03,11900,10.03
2007-09-04,10.13,10.18,10.07,10.07,18300,10.07
2007-09-03,10.12,10.12,10.00,10.07,8300,10.07
2007-08-31,9.75,9.97,9.75,9.96,63300,9.96
2007-08-30,9.84,9.98,9.71,9.72,5700,9.72
2007-08-29,9.76,9.84,9.60,9.84,16500,9.84
2007-08-28,10.11,10.11,9.51,9.80,18500,9.80
2007-08-27,10.35,10.35,10.00,10.10,65000,10.10
2007-08-24,10.18,10.30,10.00,10.25,86700,10.25
2007-08-23,9.44,9.88,9.40,9.88,20700,9.88
2007-08-22,9.38,9.44,9.25,9.34,15400,9.34
2007-08-21,9.20,9.40,9.12,9.29,8500,9.29
2007-08-20,9.45,9.45,9.00,9.10,39400,9.10
2007-08-17,8.60,8.97,8.48,8.87,57100,8.87
2007-08-16,9.18,9.18,8.71,8.76,41800,8.76
2007-08-15,9.40,9.40,9.15,9.15,8300,9.15
2007-08-14,9.36,9.59,9.36,9.47,8800,9.47
2007-08-13,9.23,9.40,9.11,9.40,20600,9.40
2007-08-10,9.36,9.36,9.15,9.15,47000,9.15
2007-08-09,9.75,9.75,9.14,9.45,82300,9.45
2007-08-08,9.70,9.84,9.61,9.65,32000,9.65
2007-08-07,9.60,9.80,9.60,9.60,10100,9.60
2007-08-06,9.80,9.80,9.52,9.53,25500,9.53
2007-08-03,9.95,10.00,9.81,9.85,21400,9.85
2007-08-02,9.95,9.99,9.80,9.88,22600,9.88
2007-08-01,9.65,9.95,9.52,9.78,36900,9.78
2007-07-31,9.50,9.73,9.50,9.72,29800,9.72
2007-07-30,9.20,9.23,9.10,9.20,19200,9.20
2007-07-27,9.50,9.74,9.19,9.19,36500,9.19
2007-07-26,9.78,9.84,9.50,9.50,35500,9.50
2007-07-25,9.87,9.88,9.82,9.82,4600,9.82
2007-07-24,10.00,10.02,9.91,9.92,21400,9.92
2007-07-23,9.85,9.99,9.85,9.91,5800,9.91
2007-07-20,9.95,10.00,9.75,9.86,12900,9.86
2007-07-19,9.67,10.00,9.66,9.94,15100,9.94
2007-07-18,9.80,9.80,9.66,9.71,32300,9.71
2007-07-17,10.00,10.00,9.85,9.90,38400,9.90
2007-07-16,9.93,10.09,9.93,10.00,18700,10.00
2007-07-13,10.15,10.15,9.93,9.93,33400,9.93
2007-07-12,10.05,10.14,9.95,10.08,40700,10.08
2007-07-11,10.20,10.20,10.05,10.05,48000,10.05
2007-07-10,10.36,10.40,10.20,10.20,11800,10.20
2007-07-09,10.71,10.71,10.18,10.35,34200,10.35
2007-07-06,10.60,10.79,10.60,10.71,15900,10.71
2007-07-05,10.80,10.80,10.60,10.68,7900,10.68
2007-07-04,10.80,10.80,10.73,10.79,16900,10.79
2007-07-03,10.68,10.79,10.60,10.70,9900,10.70
2007-07-02,10.69,10.69,10.60,10.63,5000,10.63
2007-06-29,10.49,10.59,10.37,10.57,18700,10.57
2007-06-28,10.44,10.45,10.30,10.35,14500,10.35
2007-06-27,10.28,10.45,10.28,10.44,33700,10.44
2007-06-26,10.20,10.39,10.03,10.20,95600,10.20
2007-06-25,9.91,9.91,9.71,9.85,35300,9.85
2007-06-22,10.22,10.23,9.91,9.93,75000,9.93
2007-06-21,10.55,10.55,10.20,10.29,10400,10.29
2007-06-20,10.44,10.55,10.42,10.42,8900,10.42
2007-06-19,10.45,10.47,10.35,10.46,10200,10.46
2007-06-18,10.50,10.52,10.34,10.49,12500,10.49
2007-06-15,10.50,10.54,10.38,10.54,18700,10.54
2007-06-14,10.60,10.60,10.21,10.55,31800,10.55
2007-06-13,10.55,10.64,10.30,10.52,16600,10.52
2007-06-12,10.59,10.60,10.45,10.60,75400,10.60
2007-06-11,10.59,10.59,10.30,10.45,9800,10.45
2007-06-08,10.25,10.50,10.20,10.46,35100,10.46
2007-06-07,10.50,10.51,9.98,10.40,134900,10.40
2007-06-06,10.75,10.75,10.54,10.54,10400,10.54
2007-06-05,10.79,10.79,10.61,10.77,27700,10.77
2007-06-04,10.84,10.84,10.69,10.80,55800,10.80
2007-06-01,10.82,10.90,10.75,10.85,30700,10.85
2007-05-31,10.54,10.88,10.54,10.84,62700,10.84
2007-05-30,10.60,10.70,10.41,10.50,74600,10.50
2007-05-29,10.83,10.85,10.65,10.76,79900,10.76
2007-05-28,10.92,10.95,10.85,10.92,10900,10.92
2007-05-25,10.91,10.94,10.85,10.90,35200,10.90
2007-05-24,11.00,11.00,10.91,10.91,14000,10.91
2007-05-23,10.99,11.00,10.93,11.00,17300,11.00
2007-05-22,10.95,11.00,10.95,10.97,21600,10.97
2007-05-21,11.00,11.03,10.95,10.95,48700,10.95
2007-05-18,11.08,11.08,10.96,11.00,14500,11.00
2007-05-17,11.10,11.10,11.04,11.10,13900,11.10
2007-05-16,11.09,11.09,11.00,11.08,57200,11.08
2007-05-15,11.10,11.10,11.00,11.00,58100,11.00
2007-05-14,11.23,11.23,11.10,11.10,100100,11.10
2007-05-11,11.12,11.20,11.00,11.19,115200,11.19
2007-05-10,11.19,11.24,10.99,11.07,292200,11.07
2007-05-09,11.27,11.27,11.02,11.11,297700,11.11
2007-05-08,12.00,12.00,11.69,11.69,101000,11.69
2007-05-07,11.94,12.12,11.85,12.00,91200,12.00
2007-05-04,11.55,11.75,11.51,11.67,44200,11.67
2007-05-03,11.20,11.50,11.06,11.38,71800,11.38
2007-05-02,11.20,11.25,11.00,11.16,24300,11.16
2007-04-30,11.02,11.08,11.00,11.08,12900,11.08
2007-04-27,11.00,11.15,10.60,11.08,50300,11.08
2007-04-26,11.02,11.19,10.91,10.99,29000,10.99
2007-04-25,11.07,11.07,10.95,11.07,13000,11.07
2007-04-24,11.00,11.25,10.95,11.07,41500,11.07
2007-04-23,11.03,11.06,10.91,11.00,20800,11.00
2007-04-20,11.00,11.10,10.98,11.02,13500,11.02
2007-04-19,10.99,11.14,10.88,11.00,12900,11.00
2007-04-18,11.30,11.38,11.00,11.10,33100,11.10
2007-04-17,11.34,11.39,11.22,11.34,16600,11.34
2007-04-16,11.01,11.34,11.01,11.20,44800,11.20
2007-04-13,11.01,11.19,10.85,11.00,14600,11.00
2007-04-12,11.12,11.15,10.83,11.00,23600,11.00
2007-04-11,11.16,11.20,11.13,11.17,7400,11.17
2007-04-10,11.25,11.25,11.08,11.14,11200,11.14
2007-04-05,11.27,11.30,11.18,11.25,5100,11.25
2007-04-04,11.27,11.27,11.21,11.24,7100,11.24
2007-04-03,11.26,11.27,11.11,11.24,4400,11.24
2007-04-02,11.28,11.34,11.11,11.25,4900,11.25
2007-03-30,11.30,11.35,11.15,11.27,22700,11.27
2007-03-29,11.11,11.30,11.11,11.21,13000,11.21
2007-03-28,11.49,11.65,11.10,11.11,35100,11.11
2007-03-27,11.00,11.45,11.00,11.38,110300,11.38
2007-03-26,10.80,11.15,10.80,10.98,125800,10.98
2007-03-23,10.70,10.78,10.66,10.66,20900,10.66
2007-03-22,10.77,10.82,10.67,10.80,16400,10.80
2007-03-21,10.78,10.83,10.67,10.67,4000,10.67
2007-03-20,10.94,10.94,10.67,10.78,10900,10.78
2007-03-19,10.80,10.94,10.61,10.85,11800,10.85
2007-03-16,10.59,10.74,10.55,10.71,5600,10.71
2007-03-15,10.56,11.00,10.56,10.74,11900,10.74
2007-03-14,10.50,10.65,10.40,10.48,44800,10.48
2007-03-13,11.10,11.10,10.96,10.96,16600,10.96
2007-03-12,11.10,11.10,10.98,10.98,8300,10.98
2007-03-09,11.09,11.10,10.98,11.10,15300,11.10
2007-03-08,10.95,11.05,10.90,10.96,36500,10.96
2007-03-07,10.70,10.85,10.62,10.84,37900,10.84
2007-03-06,10.40,10.60,10.34,10.34,20500,10.34
2007-03-05,10.41,10.41,10.01,10.30,68100,10.30
2007-03-02,10.47,10.90,10.45,10.56,15100,10.56
2007-03-01,10.35,10.97,10.30,10.45,80600,10.45
2007-02-28,10.45,10.45,9.99,10.43,126900,10.43
2007-02-27,11.05,11.05,10.60,10.61,38500,10.61
2007-02-26,10.93,11.08,10.73,11.02,41900,11.02
2007-02-23,11.05,11.10,10.90,11.00,25200,11.00
2007-02-22,11.00,11.05,10.90,11.05,23800,11.05
2007-02-21,11.01,11.10,10.90,11.00,44200,11.00
2007-02-20,11.39,11.39,10.96,11.00,95400,11.00
2007-02-19,11.49,11.50,11.31,11.39,12300,11.39
2007-02-16,11.32,11.49,11.32,11.40,192300,11.40
2007-02-15,11.51,11.51,11.31,11.31,51800,11.31
2007-02-14,11.75,11.75,11.40,11.52,42500,11.52
2007-02-13,11.85,11.99,11.56,11.75,35700,11.75
2007-02-12,12.05,12.08,11.88,11.97,18900,11.97
2007-02-09,12.10,12.13,11.90,11.97,44600,11.97
2007-02-08,12.08,12.15,12.00,12.09,54600,12.09
2007-02-07,12.02,12.04,11.90,12.00,116900,12.00
2007-02-06,11.85,12.09,11.80,11.92,176500,11.92
2007-02-05,11.80,11.88,11.60,11.68,117800,11.68
2007-02-02,11.60,11.75,11.12,11.53,50500,11.53
2007-02-01,11.46,11.55,11.46,11.53,29500,11.53
2007-01-31,11.45,11.45,11.30,11.45,20200,11.45
2007-01-30,11.35,11.45,11.33,11.45,30700,11.45
2007-01-29,11.35,11.35,11.13,11.33,34500,11.33
2007-01-26,11.37,11.37,11.12,11.25,35900,11.25
2007-01-25,11.30,11.44,11.30,11.39,43500,11.39
2007-01-24,11.00,11.45,10.95,11.29,78700,11.29
2007-01-23,10.65,10.95,10.65,10.92,34600,10.92
2007-01-22,10.85,10.90,10.60,10.85,76600,10.85
2007-01-19,11.25,11.26,10.40,10.93,207900,10.93
2007-01-18,11.85,11.85,11.01,11.30,147100,11.30
2007-01-17,12.06,12.15,11.75,11.80,87200,11.80
2007-01-16,12.36,12.40,12.06,12.17,61400,12.17
2007-01-15,12.32,12.54,12.10,12.33,97900,12.33
2007-01-12,12.50,12.52,11.60,12.00,128100,12.00
2007-01-11,12.72,12.72,12.50,12.55,23700,12.55
2007-01-10,12.80,12.80,12.40,12.60,43300,12.60
2007-01-09,12.50,12.79,12.50,12.78,61300,12.78
2007-01-08,12.44,12.80,12.25,12.47,120500,12.47
2007-01-05,12.59,12.63,12.20,12.20,93800,12.20
2007-01-04,11.88,12.84,11.88,12.40,376600,12.40
2007-01-03,14.70,15.30,11.13,11.57,874800,11.57
2007-01-02,12.70,13.75,12.61,13.70,366700,13.70
2006-12-29,11.53,12.50,11.40,12.05,238200,12.05
2006-12-28,10.90,11.69,10.70,11.50,177800,11.50
2006-12-27,9.80,10.50,9.78,10.50,110000,10.50
2006-12-22,9.78,9.80,9.73,9.76,17300,9.76
2006-12-21,9.75,9.80,9.50,9.66,44600,9.66
2006-12-20,9.34,9.78,9.34,9.75,81900,9.75
2006-12-19,9.91,9.95,9.00,9.30,158900,9.30
2006-12-18,9.83,9.95,9.75,9.85,95300,9.85
2006-12-15,9.69,9.85,9.66,9.66,157800,9.66
2006-12-14,9.03,9.80,8.98,9.55,117200,9.55
2006-12-13,8.89,9.05,8.80,8.94,97800,8.94
2006-12-12,8.50,8.82,8.48,8.79,101300,8.79
2006-12-11,8.40,8.49,8.35,8.49,60800,8.49
2006-12-08,8.48,8.48,8.30,8.30,67500,8.30
2006-12-07,8.09,8.34,8.01,8.33,98000,8.33
2006-12-06,8.00,8.08,7.92,8.01,145500,8.01
2006-12-05,7.89,7.89,7.70,7.71,13900,7.71
2006-12-04,7.90,7.90,7.66,7.80,16200,7.80
2006-12-01,7.80,7.90,7.70,7.85,21700,7.85
2006-11-30,7.74,7.80,7.72,7.80,17200,7.80
2006-11-29,7.70,7.75,7.58,7.70,65100,7.70
2006-11-28,7.74,7.80,7.60,7.66,42300,7.66
2006-11-27,7.84,7.84,7.65,7.75,37100,7.75
2006-11-24,7.80,7.89,7.65,7.65,68600,7.65
2006-11-23,7.80,7.80,7.69,7.75,23500,7.75
2006-11-22,7.90,7.90,7.62,7.63,44900,7.63
2006-11-21,7.85,7.92,7.75,7.80,51900,7.80
2006-11-20,7.62,7.85,7.61,7.80,39900,7.80
2006-11-17,7.98,7.99,7.51,7.52,123300,7.52
2006-11-16,7.68,8.08,7.68,7.88,193100,7.88
2006-11-15,7.60,7.65,7.45,7.62,124500,7.62
2006-11-14,7.14,7.50,7.10,7.36,124900,7.36
2006-11-13,7.00,7.15,6.98,7.08,74200,7.08
2006-11-10,6.80,6.84,6.72,6.82,13200,6.82
2006-11-09,6.89,6.93,6.70,6.85,16100,6.85
2006-11-08,6.83,6.85,6.83,6.85,9700,6.85
2006-11-07,6.79,6.85,6.79,6.80,8100,6.80
2006-11-06,6.66,6.78,6.65,6.78,14400,6.78
2006-11-03,6.60,6.75,6.60,6.75,10100,6.75
2006-11-02,6.53,6.67,6.53,6.67,49300,6.67
2006-11-01,6.63,6.65,6.45,6.55,13400,6.55
2006-10-31,6.59,6.65,6.51,6.65,20600,6.65
2006-10-30,6.70,6.70,6.40,6.54,57400,6.54
2006-10-27,6.75,6.85,6.63,6.63,41200,6.63
2006-10-26,6.75,6.75,6.66,6.75,19900,6.75
2006-10-25,6.83,6.83,6.66,6.75,64500,6.75
2006-10-24,6.90,6.90,6.80,6.84,44100,6.84
2006-10-23,6.70,6.90,6.65,6.89,115600,6.89
2006-10-20,6.68,6.69,6.60,6.68,83400,6.68
2006-10-19,6.50,6.72,6.50,6.60,90400,6.60
2006-10-18,6.40,6.49,6.31,6.49,91600,6.49
2006-10-17,6.50,6.50,6.32,6.32,17900,6.32
2006-10-16,6.43,6.52,6.37,6.50,28100,6.50
2006-10-13,6.48,6.48,6.31,6.43,16400,6.43
2006-10-12,6.53,6.55,6.40,6.48,31200,6.48
2006-10-11,6.35,6.55,6.32,6.55,65300,6.55
2006-10-10,6.30,6.35,6.30,6.34,6400,6.34
2006-10-09,6.40,6.40,6.30,6.30,16000,6.30
2006-10-06,6.35,6.38,6.30,6.30,22800,6.30
2006-10-05,6.35,6.39,6.30,6.30,48200,6.30
2006-10-04,6.50,6.50,6.25,6.30,103000,6.30
2006-10-03,6.06,6.40,6.06,6.38,167900,6.38
2006-10-02,6.06,6.06,6.03,6.03,34900,6.03
2006-09-29,5.97,6.06,5.97,6.06,42700,6.06
2006-09-28,5.90,6.02,5.90,6.02,124200,6.02
2006-09-27,6.00,6.00,5.91,5.99,4600,5.99
2006-09-26,5.94,6.00,5.86,6.00,21100,6.00
2006-09-25,6.00,6.00,5.95,5.95,1500,5.95
2006-09-22,5.98,6.00,5.94,5.95,14300,5.95
2006-09-21,5.92,5.99,5.92,5.98,8500,5.98
2006-09-20,5.83,5.95,5.83,5.95,2200,5.95
2006-09-19,5.86,5.86,5.81,5.82,2000,5.82
2006-09-18,5.96,5.96,5.80,5.86,9200,5.86
2006-09-15,5.96,5.99,5.93,5.94,7500,5.94
2006-09-14,5.91,5.98,5.91,5.96,13300,5.96
2006-09-13,5.84,5.99,5.84,5.95,34000,5.95
2006-09-12,5.83,5.90,5.70,5.90,12200,5.90
2006-09-11,5.74,5.75,5.55,5.75,4300,5.75
2006-09-08,5.76,5.85,5.55,5.65,54300,5.65
2006-09-07,5.80,5.85,5.76,5.76,17200,5.76
2006-09-06,5.95,5.95,5.80,5.80,26000,5.80
2006-09-05,5.95,6.00,5.86,5.95,21900,5.95
2006-09-04,5.95,6.01,5.82,6.00,35500,6.00
2006-09-01,6.06,6.06,5.94,6.00,31400,6.00
2006-08-31,6.00,6.07,5.95,6.00,40700,6.00
2006-08-30,6.00,6.02,5.90,6.00,25500,6.00
2006-08-29,6.00,6.00,5.90,6.00,43200,6.00
2006-08-28,5.95,6.00,5.90,5.99,32900,5.99
2006-08-25,6.14,6.15,5.90,5.92,51600,5.92
2006-08-24,5.98,6.20,5.98,6.08,26700,6.08
2006-08-23,6.00,6.10,5.95,5.98,55200,5.98
2006-08-22,6.40,6.40,6.02,6.10,194400,6.10
2006-08-21,6.00,6.50,6.00,6.26,255500,6.26
2006-08-18,5.30,6.00,5.30,5.78,283500,5.78
2006-08-17,4.94,5.25,4.94,5.24,140800,5.24
2006-08-16,4.90,4.94,4.90,4.94,9900,4.94
2006-08-15,4.91,4.91,4.91,4.91,000,4.91
2006-08-14,4.80,4.94,4.69,4.90,14300,4.90
2006-08-11,4.89,4.89,4.80,4.80,1100,4.80
2006-08-10,4.93,4.93,4.75,4.91,13800,4.91
2006-08-09,4.87,4.89,4.81,4.89,10200,4.89
2006-08-08,4.95,4.98,4.94,4.94,5800,4.94
2006-08-07,4.95,4.98,4.94,4.98,13500,4.98
2006-08-04,4.98,4.98,4.80,4.97,19200,4.97
2006-08-03,4.99,5.00,4.91,4.91,17200,4.91
2006-08-02,4.97,5.00,4.85,5.00,3100,5.00
2006-08-01,4.93,5.00,4.93,5.00,18000,5.00
2006-07-31,4.95,4.99,4.95,4.96,14200,4.96
2006-07-28,4.97,4.97,4.92,4.95,1900,4.95
2006-07-27,4.97,4.97,4.90,4.95,19400,4.95
2006-07-26,4.95,4.95,4.86,4.95,14400,4.95
2006-07-25,4.95,5.00,4.86,4.94,62100,4.94
2006-07-24,5.00,5.00,4.90,4.95,7100,4.95
2006-07-21,5.00,5.07,4.90,4.90,13400,4.90
2006-07-20,5.00,5.00,4.95,5.00,11400,5.00
2006-07-19,5.10,5.10,4.93,4.93,11200,4.93
2006-07-18,4.90,5.09,4.85,5.05,8800,5.05
2006-07-17,5.20,5.30,4.92,4.92,57200,4.92
2006-07-14,5.38,5.40,5.08,5.21,56400,5.21
2006-07-13,5.40,5.44,5.25,5.34,85600,5.34
2006-07-12,4.95,5.43,4.95,5.25,242100,5.25
2006-07-11,4.70,4.95,4.60,4.90,113300,4.90
2006-07-10,4.72,4.72,4.55,4.66,41000,4.66
2006-07-07,4.80,4.99,4.50,4.64,77300,4.64
