(lp0
I6
aI13
aI47
aI76
aI100
aI117
aI135
aI150
aI160
aI168
aI178
aI193
aI203
aI216
aI226
aI240
aI248
aI260
aI272
aI282
aI297
aI309
aI329
aI337
aI350
aI373
aI387
aI393
aI407
aI418
aI431
aI438
aI447
aI457
aI473
aI479
aI493
aI501
aI514
aI522
aI531
aI540
aI550
aI561
aI571
aI582
aI589
aI597
aI608
aI625
aI631
aI639
aI647
aI654
aI663
aI672
aI682
aI696
aI717
aI725
aI743
aI752
aI760
aI767
aI790
aI805
aI811
aI819
aI828
aI835
aI843
aI851
aI861
aI874
aI881
aI889
aI898
aI905
aI913
aI921
aI932
aI940
aI949
aI959
aI967
aI1009
aI1021
aI1029
aI1038
aI1048
aI1054
aI1067
aI1079
aI1085
aI1095
aI1103
aI1110
aI1128
aI1135
aI1148
aI1158
aI1163
aI1172
aI1181
aI1191
aI1225
aI1235
aI1246
aI1253
aI1259
aI1274
aI1282
aI1293
aI1298
aI1308
aI1317
aI1323
aI1332
aI1342
aI1363
aI1379
aI1387
aI1395
aI1413
aI1425
aI1437
aI1446
aI1461
aI1466
aI1482
a.