(lp0
I6
aI13
aI31
aI36
aI48
aI54
aI63
aI71
aI80
aI87
aI96
aI109
aI119
aI154
aI169
aI178
aI198
aI217
aI224
aI238
aI248
aI259
aI267
aI274
aI286
aI291
aI306
aI319
aI332
aI342
aI355
aI361
aI370
aI380
aI394
aI410
aI429
aI435
aI445
aI455
aI463
aI474
aI484
aI492
aI501
aI521
aI526
aI540
aI547
aI553
aI565
aI574
aI582
aI596
aI609
aI617
aI623
aI632
aI644
aI651
aI666
aI673
aI682
aI707
aI714
aI735
aI743
aI753
aI766
aI775
aI781
aI790
aI812
aI823
aI831
aI842
aI849
aI862
aI868
aI881
aI907
aI914
aI930
aI938
aI951
aI960
aI968
aI985
aI994
aI1007
aI1016
aI1031
aI1054
aI1064
aI1082
aI1088
aI1096
aI1115
aI1128
aI1139
aI1145
aI1156
aI1164
aI1183
aI1199
aI1213
aI1222
aI1231
aI1245
aI1263
aI1272
aI1281
aI1294
aI1308
aI1317
aI1333
aI1340
aI1355
aI1366
aI1377
aI1388
aI1396
aI1403
aI1411
aI1422
aI1432
aI1442
aI1465
aI1471
aI1480
aI1488
a.