(lp0
I6
aI19
aI26
aI49
aI56
aI66
aI72
aI94
aI103
aI112
aI121
aI128
aI136
aI145
aI154
aI160
aI168
aI178
aI185
aI196
aI204
aI211
aI220
aI229
aI241
aI252
aI276
aI284
aI293
aI299
aI308
aI335
aI341
aI350
aI358
aI364
aI374
aI381
aI391
aI398
aI407
aI417
aI426
aI435
aI448
aI457
aI463
aI471
aI479
aI493
aI499
aI519
aI537
aI546
aI558
aI581
aI594
aI606
aI623
aI632
aI640
aI655
aI678
aI702
aI711
aI722
aI738
aI745
aI754
aI770
aI776
aI786
aI797
aI801
aI813
aI820
aI832
aI842
aI851
aI862
aI873
aI880
aI899
aI909
aI915
aI927
aI937
aI944
aI956
aI962
aI969
aI977
aI985
aI998
aI1010
aI1018
aI1031
aI1038
aI1048
aI1055
aI1087
aI1096
aI1103
aI1122
aI1130
aI1141
aI1146
aI1158
aI1164
aI1183
aI1192
aI1199
aI1208
aI1217
aI1227
aI1235
aI1245
aI1252
aI1276
aI1293
aI1302
aI1310
aI1318
aI1327
aI1338
aI1343
aI1360
aI1367
aI1377
aI1383
aI1397
aI1402
aI1415
aI1426
aI1434
aI1446
aI1465
aI1471
aI1480
aI1490
a.