(lp0
I6
aI13
aI28
aI49
aI68
aI75
aI86
aI97
aI106
aI114
aI125
aI142
aI155
aI162
aI171
aI186
aI191
aI203
aI225
aI234
aI245
aI260
aI284
aI295
aI302
aI320
aI335
aI345
aI353
aI380
aI388
aI397
aI410
aI425
aI431
aI440
aI465
aI490
aI501
aI510
aI529
aI537
aI544
aI552
aI564
aI572
aI606
aI617
aI623
aI632
aI642
aI669
aI677
aI683
aI697
aI707
aI715
aI727
aI738
aI744
aI754
aI761
aI770
aI783
aI788
aI799
aI812
aI819
aI831
aI842
aI851
aI862
aI868
aI876
aI886
aI899
aI911
aI922
aI931
aI941
aI951
aI960
aI968
aI988
aI995
aI1033
aI1041
aI1053
aI1059
aI1070
aI1076
aI1084
aI1096
aI1103
aI1113
aI1122
aI1130
aI1139
aI1146
aI1158
aI1164
aI1183
aI1197
aI1221
aI1231
aI1281
aI1296
aI1310
aI1316
aI1327
aI1332
aI1340
aI1349
aI1357
aI1366
aI1377
aI1388
aI1397
aI1403
aI1413
aI1420
aI1430
aI1437
aI1448
aI1461
aI1469
aI1481
aI1488
a.