(lp0
I6
aI15
aI24
aI36
aI48
aI56
aI68
aI74
aI101
aI119
aI137
aI148
aI162
aI168
aI178
aI193
aI199
aI209
aI214
aI225
aI234
aI242
aI254
aI259
aI268
aI277
aI294
aI298
aI309
aI322
aI331
aI341
aI363
aI373
aI384
aI393
aI407
aI413
aI421
aI432
aI447
aI455
aI465
aI477
aI501
aI513
aI526
aI537
aI546
aI555
aI573
aI591
aI609
aI617
aI626
aI634
aI645
aI654
aI668
aI677
aI683
aI706
aI758
aI768
aI775
aI786
aI797
aI812
aI819
aI828
aI834
aI842
aI851
aI868
aI876
aI890
aI896
aI904
aI916
aI922
aI940
aI951
aI956
aI969
aI983
aI991
aI998
aI1007
aI1019
aI1030
aI1037
aI1055
aI1067
aI1099
aI1107
aI1122
aI1129
aI1138
aI1147
aI1164
aI1177
aI1186
aI1206
aI1218
aI1243
aI1270
aI1287
aI1297
aI1309
aI1322
aI1332
aI1345
aI1361
aI1366
aI1377
aI1384
aI1397
aI1408
aI1418
aI1423
aI1436
aI1446
aI1461
aI1481
a.