(lp0
I6
aI16
aI25
aI32
aI41
aI49
aI57
aI67
aI78
aI99
aI106
aI118
aI125
aI135
aI145
aI154
aI164
aI173
aI178
aI187
aI194
aI206
aI215
aI232
aI244
aI252
aI261
aI272
aI288
aI306
aI312
aI321
aI340
aI347
aI355
aI362
aI386
aI403
aI415
aI426
aI438
aI476
aI485
aI497
aI506
aI515
aI547
aI562
aI571
aI578
aI596
aI612
aI621
aI630
aI637
aI650
aI656
aI667
aI674
aI687
aI696
aI707
aI722
aI729
aI740
aI753
aI762
aI771
aI784
aI794
aI808
aI818
aI828
aI835
aI847
aI859
aI870
aI891
aI913
aI925
aI932
aI939
aI953
aI964
aI971
aI987
aI998
aI1009
aI1033
aI1047
aI1060
aI1100
aI1114
aI1121
aI1139
aI1149
aI1161
aI1168
aI1176
aI1186
aI1220
aI1255
aI1262
aI1269
aI1280
aI1295
aI1301
aI1312
aI1321
aI1335
aI1346
aI1358
aI1367
aI1377
aI1385
aI1395
aI1407
aI1421
aI1426
aI1456
aI1463
aI1470
aI1479
a.