(lp0
I5
aI18
aI31
aI51
aI68
aI77
aI98
aI107
aI119
aI140
aI154
aI177
aI184
aI195
aI210
aI217
aI234
aI245
aI250
aI261
aI284
aI291
aI306
aI320
aI325
aI333
aI343
aI358
aI380
aI388
aI401
aI412
aI426
aI433
aI457
aI476
aI483
aI501
aI516
aI529
aI537
aI554
aI565
aI573
aI582
aI589
aI602
aI612
aI622
aI633
aI640
aI648
aI656
aI666
aI680
aI695
aI705
aI712
aI724
aI733
aI753
aI771
aI775
aI786
aI793
aI802
aI812
aI819
aI827
aI835
aI842
aI851
aI861
aI873
aI890
aI899
aI908
aI917
aI933
aI951
aI962
aI970
aI979
aI991
aI1012
aI1032
aI1040
aI1049
aI1056
aI1064
aI1087
aI1097
aI1105
aI1128
aI1141
aI1147
aI1155
aI1164
aI1171
aI1178
aI1189
aI1201
aI1219
aI1225
aI1268
aI1276
aI1284
aI1293
aI1299
aI1307
aI1326
aI1337
aI1345
aI1352
aI1359
aI1374
aI1381
aI1388
aI1396
aI1408
aI1415
aI1422
aI1434
aI1446
aI1454
aI1461
aI1479
aI1485
a.